Name;ID;Country;Rank 3 Year;Rank 2 Year;Rank 1 Year;Rank 0 Year;Ideal Rank;Max Skill;Traits;Skill;Experience;Loyalty;Type;Picture;Start Year;End Year;;x
Veeder;28552;FRA;1003;1003;1003;1003;0;9;385;2;0;5;0;L28552;1003;2030;2123;x
fichier Oh Que Jarre;28553;FRA;1003;1003;1003;1003;0;9;130;3;0;5;0;L28553;1003;2030;2123;x
Michel;28554;FRA;1003;1003;1003;1003;0;9;160;3;0;5;0;L28554;1003;2030;2123;x
Kertch;28500;FRA;1003;1003;1003;1003;0;3;3;3;0;5;0;L28500;1003;2030;2123;x
Benteja;28501;FRA;1003;1003;1003;1003;0;2;132;2;0;5;0;L28501;1003;2030;2123;x
pois;28502;FRA;1003;1003;1003;1003;0;2;0;2;0;5;0;L28502;1003;2030;2123;x
No;28503;FRA;1003;1003;1003;1003;0;3;2;3;0;5;0;L28503;1003;2030;2123;x
Tohaitsu;28504;FRA;1003;1003;1003;1003;0;3;128;3;0;5;0;L28504;1003;2030;2123;x
Kerumebon;28555;FRA;1003;1003;1003;2100;1;5;128;3;0;5;0;L28555;1003;2030;2123;x
Zukowitsu;28556;FRA;1003;1003;1003;2100;1;9;144;5;0;5;0;L28556;1003;2030;2123;x
souteneur;28557;FRA;1003;1003;1003;2100;1;5;0;2;0;5;0;L28557;1003;2030;2123;x
de Moshi;28558;FRA;1003;1003;1003;2100;1;5;16;3;0;5;0;L28558;1003;2030;2123;x
Eli;28559;FRA;1003;1003;1003;2100;1;5;128;4;0;5;0;L28559;1003;2030;2123;x
Zeller;28505;FRA;1003;1003;1003;2100;1;4;5;4;0;5;0;L28505;1003;2030;2123;x
Valentin;28506;FRA;1003;1003;1003;2100;1;3;0;3;0;5;0;L28506;1003;2030;2123;x
Honson;28507;FRA;1003;1003;1003;2100;1;2;64;2;0;5;0;L28507;1003;2030;2123;x
Jire;28508;FRA;1003;1003;1003;2100;1;2;256;2;0;5;0;L28508;1003;2030;2123;x
Barry;28509;FRA;1003;1003;1003;2100;1;2;0;2;0;5;0;L28509;1003;2030;2123;x
Radeva;28510;FRA;1003;1003;1003;2100;1;1;2;1;0;5;0;L28510;1003;2030;2123;x
Marubeki;28511;FRA;1003;1003;1003;2100;1;3;21;3;0;5;0;L28511;1003;2030;2123;x
Tomana;28512;FRA;1003;1003;1003;2100;1;1;0;1;0;5;0;L28512;1003;2030;2123;x
pr;28513;FRA;1003;1003;1003;2100;1;1;128;1;0;5;0;L28513;1003;2030;2123;x
Nurutchi;28514;FRA;1003;1003;1003;2100;1;2;130;2;0;5;0;L28514;1003;2030;2123;x
de Marunyakku;28560;FRA;1003;1003;2100;2100;2;5;128;1;0;5;0;L28560;1003;2030;2123;x
Dubourg;28561;FRA;1003;1003;2100;2100;2;5;64;2;0;5;0;L28561;1003;2030;2123;x
Meillet;28562;FRA;1003;1003;2100;2100;2;5;0;1;0;5;0;L28562;1003;2030;2123;x
certains;28563;FRA;1003;1003;2100;2100;2;5;64;2;0;5;0;L28563;1003;2030;2123;x
Marengo;28564;FRA;1003;1003;2100;2100;2;5;256;3;0;5;0;L28564;1003;2030;2123;x
Amar;28565;FRA;1003;1003;2100;2100;2;5;4;4;0;5;0;L28565;1003;2030;2123;x
Mayer;28566;FRA;1003;1003;2100;2100;2;5;65;3;0;5;0;L28566;1003;2030;2123;x
Lang;28567;FRA;1003;1003;2100;2100;2;5;320;3;0;5;0;L28567;1003;2030;2123;x
Gozuburiando;28568;FRA;1003;1003;2100;2100;2;5;4;4;0;5;0;L28568;1003;2030;2123;x
Courchevel Val dHastings;28569;FRA;1003;1003;2100;2100;2;5;128;2;0;5;0;L28569;1003;2030;2123;x
Risha;28515;FRA;1003;1003;2100;2100;2;2;0;2;0;5;0;L28515;1003;2030;2123;x
Kyushu;28516;FRA;1003;1003;2100;2100;2;2;5;2;0;5;0;L28516;1003;2030;2123;x
Mak;28517;FRA;1003;1003;2100;2100;2;2;0;2;0;5;0;L28517;1003;2030;2123;x
Keifuran;28518;FRA;1003;1003;2100;2100;2;1;19;1;0;5;0;L28518;1003;2030;2123;x
du flou;28519;FRA;1003;1003;2100;2100;2;2;0;2;0;5;0;L28519;1003;2030;2123;x
Marusennu;28570;FRA;1003;2100;2100;2100;3;5;264;2;0;5;0;L28570;1003;2030;2123;x
du San;28571;FRA;1003;2100;2100;2100;3;5;132;3;0;5;0;L28571;1003;2030;2123;x
Taiki;28572;FRA;1003;2100;2100;2100;3;5;272;2;0;5;0;L28572;1003;2030;2123;x
Sutoruza;28573;FRA;1003;2100;2100;2100;3;5;256;2;0;5;0;L28573;1003;2030;2123;x
Uborun;28574;FRA;1003;2100;2100;2100;3;5;0;2;0;5;0;L28574;1003;2030;2123;x
Kufutsu;28575;FRA;1003;2100;2100;2100;3;5;256;2;0;5;0;L28575;1003;2030;2123;x
Berutuchi;28576;FRA;1003;2100;2100;2100;3;5;256;2;0;5;0;L28576;1003;2030;2123;x
Mie;28577;FRA;1003;2100;2100;2100;3;5;144;2;0;5;0;L28577;1003;2030;2123;x
Shubure;28578;FRA;1003;2100;2100;2100;3;5;0;2;0;5;0;L28578;1003;2030;2123;x
Maguehon;28579;FRA;1003;2100;2100;2100;3;5;0;2;0;5;0;L28579;1003;2030;2123;x
Sheiho;28580;FRA;1003;2100;2100;2100;3;5;256;2;0;5;0;L28580;1003;2030;2123;x
Rusha Valie;28581;FRA;1003;2100;2100;2100;3;5;256;3;0;5;0;L28581;1003;2030;2123;x
Rafunten;28582;FRA;1003;2100;2100;2100;3;5;260;4;0;5;0;Unknown;1003;2030;2123;x
Faruzo;28583;FRA;1003;2100;2100;2100;3;5;4;3;0;5;0;L28583;1003;2030;2123;x
Damei;28584;FRA;1003;2100;2100;2100;3;5;256;2;0;5;0;L28584;1003;2030;2123;x
Paje;28585;FRA;1003;2100;2100;2100;3;5;128;3;0;5;0;L28585;1003;2030;2123;x
Rateru;28586;FRA;1003;2100;2100;2100;3;5;264;3;0;5;0;L28586;1003;2030;2123;x
Daly;28587;FRA;1003;2100;2100;2100;3;5;257;3;0;5;0;L28587;1003;2030;2123;x
Tarutanbiyu;28588;FRA;1003;2100;2100;2100;3;5;128;2;0;5;0;L28588;1003;2030;2123;x
Co Stan Tini;28589;FRA;1003;2100;2100;2100;3;5;128;2;0;5;0;L28589;1003;2030;2123;x
batterie;28520;FRA;1003;1003;1003;1003;0;2;4096;2;0;5;1;L28520;1003;2030;2123;x
Geruburan;28521;FRA;1003;1003;1003;1003;0;3;1024;3;0;5;1;L28521;1003;2030;2123;x
Pino;28522;FRA;1003;1003;1003;1003;0;3;2048;3;0;5;1;L28522;1003;2030;2123;x
de Danivire;28523;FRA;1003;1003;1003;1003;0;2;8192;2;0;5;1;L28523;1003;2030;2123;x
Le Duc;28524;FRA;1003;1003;1003;1003;0;2;0;2;0;5;1;L28524;1003;2030;2123;x
Van Fuferu;28525;FRA;1003;1003;1003;1003;0;2;5120;2;0;5;1;L28525;1003;2030;2123;x
Oneiru;28526;FRA;1003;1003;1003;1003;0;3;0;3;0;5;1;L28526;1003;2030;2123;x
Dew Monte;28527;FRA;1003;1003;1003;1003;0;2;0;2;0;5;1;L28527;1003;2030;2123;x
de Kontonson;28528;FRA;1003;1003;1003;1003;0;4;0;4;0;5;1;L28528;1003;2030;2123;x
San Rosas;28590;FRA;1003;1003;1003;2100;1;;0;2;0;5;1;L28590;1003;2030;2123;x
Keriniaru;28591;FRA;1003;1003;1003;2100;1;;5120;2;0;5;1;L28591;1003;2030;2123;x
mre;28592;FRA;1003;1003;1003;2100;1;;4096;3;0;5;1;L28592;1003;2030;2123;x
Soteru;28529;FRA;1003;1003;1003;2100;1;3;2048;3;0;5;1;L28529;1003;2030;2123;x
Duvo;28530;FRA;1003;1003;1003;2100;1;2;4096;2;0;5;1;L28530;1003;2030;2123;x
Lom;28531;FRA;1003;1003;1003;2100;1;2;9216;2;0;5;1;L28531;1003;2030;2123;x
Beroshi;28532;FRA;1003;1003;1003;2100;1;1;0;1;0;5;1;L28532;1003;2030;2123;x
Fabre;28533;FRA;1003;1003;1003;2100;1;3;2048;3;0;5;1;L28533;1003;2030;2123;x
Will Mott Ruseru;28534;FRA;1003;1003;1003;2100;1;2;0;2;0;5;1;L28534;1003;2030;2123;x
Patsuku;28536;FRA;1003;1003;2100;2100;2;1;5120;1;0;5;1;L28536;1003;2030;2123;x
Lorrain;28537;FRA;1003;1003;2100;2100;2;2;0;2;0;5;1;L28537;1003;2030;2123;x
Lupu;28538;FRA;1003;1003;2100;2100;2;2;4096;2;0;5;1;L28538;1003;2030;2123;x
Robert;28539;FRA;1003;1003;2100;2100;2;2;0;2;0;5;1;L28539;1003;2030;2123;x
Deborudo;28540;FRA;1003;1003;2100;2100;2;3;0;3;0;5;1;L28540;1003;2030;2123;x
Magne;28593;FRA;1003;2100;2100;2100;2;;8192;2;0;5;1;L28593;1003;2030;2123;x
Rehyato;28594;FRA;1003;2100;2100;2100;2;;1024;2;0;5;1;L28594;1003;2030;2123;x
Guillou;28595;FRA;1003;2100;2100;2100;2;;0;3;0;5;1;L28595;1003;2030;2123;x
Dorujashe;28596;FRA;1003;2100;2100;2100;2;;4096;2;0;5;1;L28596;1003;2030;2123;x
Marudagu;28541;FRA;1003;1003;2100;2100;2;3;0;3;0;5;1;L28541;1003;2030;2123;x
Andre;28597;FRA;1003;1003;1003;1003;0;4;8192;3;0;5;2;L28597;1003;2030;2123;x
Vorusutsunsuki;28542;FRA;1003;1003;1003;1003;0;2;135168;2;0;5;2;L28542;1003;2030;2123;x
Deyutata;28543;FRA;1003;1003;1003;1003;0;3;16384;3;0;5;2;L28543;1003;2030;2123;x
Tohove;28544;FRA;1003;1003;1003;1003;0;2;12288;2;0;5;2;L28544;1003;2030;2123;x
Pom;28545;FRA;1003;1003;1003;1003;0;2;0;2;0;5;2;L28545;1003;2030;2123;x
Gaviado;28598;FRA;1003;1003;1003;2100;1;4;4096;2;0;5;2;L28598;1003;2030;2123;x
Vron;28599;FRA;1003;1003;1003;2100;1;4;4096;4;0;5;2;L28599;1003;2030;2123;x
Matty;28600;FRA;1003;1003;1003;2100;1;3;4096;2;0;5;2;L28600;1003;2030;2123;x
Van tion;28546;FRA;1003;1003;1003;2100;1;4;0;4;0;5;2;L28546;1003;2030;2123;x
de Ronnu;28547;FRA;1003;1003;1003;2100;1;3;147456;3;0;5;2;L28547;1003;2030;2123;x
Motte;28548;FRA;1003;1003;1003;2100;1;2;4096;2;0;5;2;L28548;1003;2030;2123;x
Bernard;28549;FRA;1003;1003;1003;2100;1;2;0;2;0;5;2;L28549;1003;2030;2123;x
Jarry;28601;FRA;1003;1003;2100;2100;2;4;49152;3;0;5;2;L28601;1003;2030;2123;x
Haji;28550;FRA;1003;1003;2100;2100;2;1;16384;1;0;5;2;L28550;1003;2030;2123;x
Reisaku;28551;FRA;1003;1003;2100;2100;2;2;0;2;0;5;2;L28551;1003;2030;2123;x
Rokuferu;28602;FRA;1003;2100;2100;2100;3;3;20480;2;0;5;2;L28602;1003;2030;2123;x
Lefort;28603;FRA;1003;2100;2100;2100;3;4;4096;3;0;5;2;L28603;1003;2030;2123;x
Ruepu;28604;FRA;1003;2100;2100;2100;3;4;4096;2;0;5;2;L28604;1003;2030;2123;x
