Name;ID;Country;Rank 3 Year;Rank 2 Year;Rank 1 Year;Rank 0 Year;Ideal Rank;Max Skill;Traits;Skill;Experience;Loyalty;Type;Picture;Start Year;End Year;;x
Virtue (Choi Pyondoku);578000;KOR;1973;1998;2004;2012;1;3;2;2;0;5;0;M578007;1973;2110;2123;x
Pond Qing Ting (Chi cheon);578001;KOR;1973;1998;2004;2012;1;5;0;2;0;5;0;M578017;1973;2110;2123;x
Choi Honhi;578002;KOR;1973;1998;2004;2012;2;4;256;1;0;5;0;L578002;1973;2110;2123;x
Gu Intaku;578003;KOR;1973;1998;2004;2012;3;4;64;0;0;5;0;L578003;1973;2110;2123;x
Kim Shijen;578004;KOR;1973;1998;2004;2012;3;3;4;0;0;5;0;L578004;1973;2110;2123;x
Kim Won-bong (Kim Wonbon);578005;KOR;1973;1998;2004;2012;0;6;17;2;0;5;0;M578018;1973;2110;2123;x
Co-Hanyon;578006;KOR;1973;1998;2004;2012;3;4;32;0;0;5;0;L578006;1973;2110;2123;x
Li Qing Ting (Lee cheon);578007;KOR;1973;1998;2004;2012;1;5;3;3;0;5;0;M578008;1973;2110;2123;x
Lee Funkun;578008;KOR;1973;1998;2004;2012;2;4;16;1;0;5;0;L578008;1973;2110;2123;x
Mo-Chanhe;578009;KOR;1973;1998;2004;2012;3;3;0;0;0;5;0;L578009;1973;2110;2123;x
Peck - Sunyupu;578010;KOR;1973;1998;2004;2012;3;4;9;0;0;5;0;L578010;1973;2110;2123;x
Park Chunhe;578011;KOR;1973;1998;2004;2012;2;5;4;1;0;5;0;L578011;1973;2110;2123;x
One Tanwe;578012;KOR;1973;1998;2004;2012;3;3;256;0;0;5;0;L578012;1973;2110;2123;x
Yoo Honchuru;578013;KOR;1973;1998;2004;2012;3;4;128;0;0;5;0;L578013;1973;2110;2123;x
Han Gills;578014;KOR;1973;1998;2004;2012;3;3;1024;0;0;5;1;L578014;1973;2110;2123;x
Chung Dong-ju;578015;KOR;1973;1998;2004;2012;2;4;2048;1;0;5;1;M578019;1973;2110;2123;x
Kang Jong-pil;578016;KOR;1973;1998;2004;2012;3;3;0;0;0;5;1;L578016;1973;2110;2123;x
Seo Chego;578017;KOR;1973;1998;2004;2012;3;3;0;0;0;5;1;L578017;1973;2110;2123;x
MagoGenichi (Son Woniru);578018;KOR;1973;1998;2004;2012;1;4;4096;3;0;5;1;M578009;1973;2110;2123;x
Choi Honhi;578019;KOR;1973;1998;2004;2012;2;3;0;1;0;5;2;L578002;1973;2110;2123;x
Kang Hesupu;578020;KOR;1973;1998;2004;2012;3;3;131072;0;0;5;2;L578020;1973;2110;2123;x
Kim Tesun;578021;KOR;1973;1998;2004;2012;3;3;4096;0;0;5;2;L578021;1973;2110;2123;x
Rihansuzu (Lee Bonsoku);578022;KOR;1973;1998;2004;2012;1;4;16384;2;0;5;2;M578010;1973;2110;2123;x
Lee Jesun;578023;KOR;1973;1998;2004;2012;2;4;131072;1;0;5;2;M578020;1973;2110;2123;x
Shin Dokin;578024;KOR;1973;1998;2004;2012;2;3;0;1;0;5;2;L578024;1973;2110;2123;x
BokuSatoshi;578025;KOR;1973;1998;2004;2012;2;3;0;1;0;5;2;Unknown;1973;2110;2123;x
