Name;ID;Country;Rank;3;Year;Rank;2;Year;Rank;1;Year;Rank;0;Year;Ideal;Rank;;Max;Skill;Traits;Skill;Experience;Loyalty;Type;Picture;Start;Year;End;Year;x
Brain-Class001;9019001;U20;1930;1930;1930;1930;3;8;0;3;0;5;0;BETA;1930;2100;3100;x;;;;;;;;;;;;
Brain-Class002;9019002;U20;1930;1930;1930;1930;3;8;0;3;0;5;0;BETA;1930;2100;3100;x;;;;;;;;;;;;
Brain-Class003;9019003;U20;1930;1930;1930;1930;3;8;0;3;0;5;0;BETA;1930;2100;3100;x;;;;;;;;;;;;
Brain-Class004;9019004;U20;1930;1930;1930;1930;3;8;0;3;0;5;0;BETA;1930;2100;3100;x;;;;;;;;;;;;
Brain-Class005;9019005;U20;1930;1930;1930;1930;3;8;0;3;0;5;0;BETA;1930;2100;3100;x;;;;;;;;;;;;
Brain-Class006;9019006;U20;1930;1930;1930;1930;3;8;0;3;0;5;0;BETA;1930;2100;3100;x;;;;;;;;;;;;
Brain-Class007;9019007;U20;1930;1930;1930;1930;3;8;0;3;0;5;0;BETA;1930;2100;3100;x;;;;;;;;;;;;
Brain-Class008;9019008;U20;1930;1930;1930;1930;3;8;0;3;0;5;0;BETA;1930;2100;3100;x;;;;;;;;;;;;
Brain-Class009;9019009;U20;1930;1930;1930;1930;3;8;0;3;0;5;0;BETA;1930;2100;3100;x;;;;;;;;;;;;
Brain-Class010;9019010;U20;1930;1930;1930;1930;3;8;0;3;0;5;0;BETA;1930;2100;3100;x;;;;;;;;;;;;
Brain-Class011;9019011;U20;1930;1930;1930;1930;3;8;0;3;0;5;0;BETA;1930;2100;3100;x;;;;;;;;;;;;
Brain-Class012;9019012;U20;1930;1930;1930;1930;3;8;0;3;0;5;0;BETA;1930;2100;3100;x;;;;;;;;;;;;
Brain-Class013;9019013;U20;1930;1930;1930;1930;3;8;0;3;0;5;0;BETA;1930;2100;3100;x;;;;;;;;;;;;
Brain-Class014;9019014;U20;1930;1930;1930;1930;3;8;0;3;0;5;0;BETA;1930;2100;3100;x;;;;;;;;;;;;
Brain-Class015;9019015;U20;1930;1930;1930;1930;3;8;0;3;0;5;0;BETA;1930;2100;3100;x;;;;;;;;;;;;
Brain-Class016;9019016;U20;1930;1930;1930;1930;3;8;0;3;0;5;0;BETA;1930;2100;3100;x;;;;;;;;;;;;
Brain-Class017;9019017;U20;1930;1930;1930;1930;3;8;0;3;0;5;0;BETA;1930;2100;3100;x;;;;;;;;;;;;
Brain-Class018;9019018;U20;1930;1930;1930;1930;3;8;0;3;0;5;0;BETA;1930;2100;3100;x;;;;;;;;;;;;
Brain-Class019;9019019;U20;1930;1930;1930;1930;3;8;0;3;0;5;0;BETA;1930;2100;3100;x;;;;;;;;;;;;
Brain-Class020;9019020;U20;1930;1930;1930;1930;3;8;0;3;0;5;0;BETA;1930;2100;3100;x;;;;;;;;;;;;
Brain-Class021;9019021;U20;1930;1930;1930;1930;3;8;0;3;0;5;0;BETA;1930;2100;3100;x;;;;;;;;;;;;
Brain-Class022;9019022;U20;1930;1930;1930;1930;3;8;0;3;0;5;0;BETA;1930;2100;3100;x;;;;;;;;;;;;
Brain-Class023;9019023;U20;1930;1930;1930;1930;3;8;0;3;0;5;0;BETA;1930;2100;3100;x;;;;;;;;;;;;
Brain-Class024;9019024;U20;1930;1930;1930;1930;3;8;0;3;0;5;0;BETA;1930;2100;3100;x;;;;;;;;;;;;
Brain-Class025;9019025;U20;1930;1930;1930;1930;3;8;0;3;0;5;0;BETA;1930;2100;3100;x;;;;;;;;;;;;
Brain-Class026;9019026;U20;1930;1930;1930;1930;3;8;0;3;0;5;0;BETA;1930;2100;3100;x;;;;;;;;;;;;
Brain-Class027;9019027;U20;1930;1930;1930;1930;3;8;0;3;0;5;0;BETA;1930;2100;3100;x;;;;;;;;;;;;
Brain-Class028;9019028;U20;1930;1930;1930;1930;3;8;0;3;0;5;0;BETA;1930;2100;3100;x;;;;;;;;;;;;
Brain-Class029;9019029;U20;1930;1930;1930;1930;3;8;0;3;0;5;0;BETA;1930;2100;3100;x;;;;;;;;;;;;
Brain-Class030;9019030;U20;1930;1930;1930;1930;3;8;0;3;0;5;0;BETA;1930;2100;3100;x;;;;;;;;;;;;
Brain-Class031;9019031;U20;1930;1930;1930;1930;3;8;0;3;0;5;0;BETA;1930;2100;3100;x;;;;;;;;;;;;
Brain-Class032;9019032;U20;1930;1930;1930;1930;3;8;0;3;0;5;0;BETA;1930;2100;3100;x;;;;;;;;;;;;
Brain-Class033;9019033;U20;1930;1930;1930;1930;3;8;0;3;0;5;0;BETA;1930;2100;3100;x;;;;;;;;;;;;
Brain-Class034;9019034;U20;1930;1930;1930;1930;3;8;0;3;0;5;0;BETA;1930;2100;3100;x;;;;;;;;;;;;
Brain-Class035;9019035;U20;1930;1930;1930;1930;3;8;0;3;0;5;0;BETA;1930;2100;3100;x;;;;;;;;;;;;
Brain-Class036;9019036;U20;1930;1930;1930;1930;3;8;0;3;0;5;0;BETA;1930;2100;3100;x;;;;;;;;;;;;
Brain-Class037;9019037;U20;1930;1930;1930;1930;3;8;0;3;0;5;0;BETA;1930;2100;3100;x;;;;;;;;;;;;
Brain-Class038;9019038;U20;1930;1930;1930;1930;3;8;0;3;0;5;0;BETA;1930;2100;3100;x;;;;;;;;;;;;
Brain-Class039;9019039;U20;1930;1930;1930;1930;3;8;0;3;0;5;0;BETA;1930;2100;3100;x;;;;;;;;;;;;
Brain-Class040;9019040;U20;1930;1930;1930;1930;3;8;0;3;0;5;0;BETA;1930;2100;3100;x;;;;;;;;;;;;
Brain-Class041;9019041;U20;1930;1930;1930;1930;3;8;0;3;0;5;0;BETA;1930;2100;3100;x;;;;;;;;;;;;
Brain-Class042;9019042;U20;1930;1930;1930;1930;3;8;0;3;0;5;0;BETA;1930;2100;3100;x;;;;;;;;;;;;
Brain-Class043;9019043;U20;1930;1930;1930;1930;3;8;0;3;0;5;0;BETA;1930;2100;3100;x;;;;;;;;;;;;
Brain-Class044;9019044;U20;1930;1930;1930;1930;3;8;0;3;0;5;0;BETA;1930;2100;3100;x;;;;;;;;;;;;
Brain-Class045;9019045;U20;1930;1930;1930;1930;3;8;0;3;0;5;0;BETA;1930;2100;3100;x;;;;;;;;;;;;
Brain-Class046;9019046;U20;1930;1930;1930;1930;3;8;0;3;0;5;0;BETA;1930;2100;3100;x;;;;;;;;;;;;
Brain-Class047;9019047;U20;1930;1930;1930;1930;3;8;0;3;0;5;0;BETA;1930;2100;3100;x;;;;;;;;;;;;
Brain-Class048;9019048;U20;1930;1930;1930;1930;3;8;0;3;0;5;0;BETA;1930;2100;3100;x;;;;;;;;;;;;
Brain-Class049;9019049;U20;1930;1930;1930;1930;3;8;0;3;0;5;0;BETA;1930;2100;3100;x;;;;;;;;;;;;
Brain-Class050;9019050;U20;1930;1930;1930;1930;3;8;0;3;0;5;0;BETA;1930;2100;3100;x;;;;;;;;;;;;
Brain-Class051;9019051;U20;1930;1930;1930;1930;3;8;0;3;0;5;0;BETA;1930;2100;3100;x;;;;;;;;;;;;
Brain-Class052;9019052;U20;1930;1930;1930;1930;3;8;0;3;0;5;0;BETA;1930;2100;3100;x;;;;;;;;;;;;
Brain-Class053;9019053;U20;1930;1930;1930;1930;3;8;0;3;0;5;0;BETA;1930;2100;3100;x;;;;;;;;;;;;
Brain-Class054;9019054;U20;1930;1930;1930;1930;3;8;0;3;0;5;0;BETA;1930;2100;3100;x;;;;;;;;;;;;
Brain-Class055;9019055;U20;1930;1930;1930;1930;3;8;0;3;0;5;0;BETA;1930;2100;3100;x;;;;;;;;;;;;
Brain-Class056;9019056;U20;1930;1930;1930;1930;3;8;0;3;0;5;0;BETA;1930;2100;3100;x;;;;;;;;;;;;
Brain-Class057;9019057;U20;1930;1930;1930;1930;3;8;0;3;0;5;0;BETA;1930;2100;3100;x;;;;;;;;;;;;
Brain-Class058;9019058;U20;1930;1930;1930;1930;3;8;0;3;0;5;0;BETA;1930;2100;3100;x;;;;;;;;;;;;
Brain-Class059;9019059;U20;1930;1930;1930;1930;3;8;0;3;0;5;0;BETA;1930;2100;3100;x;;;;;;;;;;;;
Brain-Class060;9019060;U20;1930;1930;1930;1930;3;8;0;3;0;5;0;BETA;1930;2100;3100;x;;;;;;;;;;;;
Brain-Class061;9019061;U20;1930;1930;1930;1930;3;8;0;3;0;5;0;BETA;1930;2100;3100;x;;;;;;;;;;;;
Brain-Class062;9019062;U20;1930;1930;1930;1930;3;8;0;3;0;5;0;BETA;1930;2100;3100;x;;;;;;;;;;;;
Brain-Class063;9019063;U20;1930;1930;1930;1930;3;8;0;3;0;5;0;BETA;1930;2100;3100;x;;;;;;;;;;;;
Brain-Class064;9019064;U20;1930;1930;1930;1930;3;8;0;3;0;5;0;BETA;1930;2100;3100;x;;;;;;;;;;;;
Brain-Class065;9019065;U20;1930;1930;1930;1930;3;8;0;3;0;5;0;BETA;1930;2100;3100;x;;;;;;;;;;;;
Brain-Class066;9019066;U20;1930;1930;1930;1930;3;8;0;3;0;5;0;BETA;1930;2100;3100;x;;;;;;;;;;;;
Brain-Class067;9019067;U20;1930;1930;1930;1930;3;8;0;3;0;5;0;BETA;1930;2100;3100;x;;;;;;;;;;;;
Brain-Class068;9019068;U20;1930;1930;1930;1930;3;8;0;3;0;5;0;BETA;1930;2100;3100;x;;;;;;;;;;;;
Brain-Class069;9019069;U20;1930;1930;1930;1930;3;8;0;3;0;5;0;BETA;1930;2100;3100;x;;;;;;;;;;;;
Brain-Class070;9019070;U20;1930;1930;1930;1930;3;8;0;3;0;5;0;BETA;1930;2100;3100;x;;;;;;;;;;;;
Brain-Class071;9019071;U20;1930;1930;1930;1930;3;8;0;3;0;5;0;BETA;1930;2100;3100;x;;;;;;;;;;;;
Brain-Class072;9019072;U20;1930;1930;1930;1930;3;8;0;3;0;5;0;BETA;1930;2100;3100;x;;;;;;;;;;;;
Brain-Class073;9019073;U20;1930;1930;1930;1930;3;8;0;3;0;5;0;BETA;1930;2100;3100;x;;;;;;;;;;;;
Brain-Class074;9019074;U20;1930;1930;1930;1930;3;8;0;3;0;5;0;BETA;1930;2100;3100;x;;;;;;;;;;;;
Brain-Class075;9019075;U20;1930;1930;1930;1930;3;8;0;3;0;5;0;BETA;1930;2100;3100;x;;;;;;;;;;;;
Brain-Class076;9019076;U20;1930;1930;1930;1930;3;8;0;3;0;5;0;BETA;1930;2100;3100;x;;;;;;;;;;;;
Brain-Class077;9019077;U20;1930;1930;1930;1930;3;8;0;3;0;5;0;BETA;1930;2100;3100;x;;;;;;;;;;;;
Brain-Class078;9019078;U20;1930;1930;1930;1930;3;8;0;3;0;5;0;BETA;1930;2100;3100;x;;;;;;;;;;;;
Brain-Class079;9019079;U20;1930;1930;1930;1930;3;8;0;3;0;5;0;BETA;1930;2100;3100;x;;;;;;;;;;;;
Brain-Class080;9019080;U20;1930;1930;1930;1930;3;8;0;3;0;5;0;BETA;1930;2100;3100;x;;;;;;;;;;;;
Brain-Class081;9019081;U20;1930;1930;1930;1930;3;8;0;3;0;5;0;BETA;1930;2100;3100;x;;;;;;;;;;;;
Brain-Class082;9019082;U20;1930;1930;1930;1930;3;8;0;3;0;5;0;BETA;1930;2100;3100;x;;;;;;;;;;;;
Brain-Class083;9019083;U20;1930;1930;1930;1930;3;8;0;3;0;5;0;BETA;1930;2100;3100;x;;;;;;;;;;;;
Brain-Class084;9019084;U20;1930;1930;1930;1930;3;8;0;3;0;5;0;BETA;1930;2100;3100;x;;;;;;;;;;;;
Brain-Class085;9019085;U20;1930;1930;1930;1930;3;8;0;3;0;5;0;BETA;1930;2100;3100;x;;;;;;;;;;;;
Brain-Class086;9019086;U20;1930;1930;1930;1930;3;8;0;3;0;5;0;BETA;1930;2100;3100;x;;;;;;;;;;;;
Brain-Class087;9019087;U20;1930;1930;1930;1930;3;8;0;3;0;5;0;BETA;1930;2100;3100;x;;;;;;;;;;;;
Brain-Class088;9019088;U20;1930;1930;1930;1930;3;8;0;3;0;5;0;BETA;1930;2100;3100;x;;;;;;;;;;;;
Brain-Class089;9019089;U20;1930;1930;1930;1930;3;8;0;3;0;5;0;BETA;1930;2100;3100;x;;;;;;;;;;;;
Brain-Class090;9019090;U20;1930;1930;1930;1930;3;8;0;3;0;5;0;BETA;1930;2100;3100;x;;;;;;;;;;;;
Brain-Class091;9019091;U20;1930;1930;1930;1930;3;8;0;3;0;5;0;BETA;1930;2100;3100;x;;;;;;;;;;;;
Brain-Class092;9019092;U20;1930;1930;1930;1930;3;8;0;3;0;5;0;BETA;1930;2100;3100;x;;;;;;;;;;;;
Brain-Class093;9019093;U20;1930;1930;1930;1930;3;8;0;3;0;5;0;BETA;1930;2100;3100;x;;;;;;;;;;;;
Brain-Class094;9019094;U20;1930;1930;1930;1930;3;8;0;3;0;5;0;BETA;1930;2100;3100;x;;;;;;;;;;;;
Brain-Class095;9019095;U20;1930;1930;1930;1930;3;8;0;3;0;5;0;BETA;1930;2100;3100;x;;;;;;;;;;;;
Brain-Class096;9019096;U20;1930;1930;1930;1930;3;8;0;3;0;5;0;BETA;1930;2100;3100;x;;;;;;;;;;;;
Brain-Class097;9019097;U20;1930;1930;1930;1930;3;8;0;3;0;5;0;BETA;1930;2100;3100;x;;;;;;;;;;;;
Brain-Class098;9019098;U20;1930;1930;1930;1930;3;8;0;3;0;5;0;BETA;1930;2100;3100;x;;;;;;;;;;;;
Brain-Class099;9019099;U20;1930;1930;1930;1930;3;8;0;3;0;5;0;BETA;1930;2100;3100;x;;;;;;;;;;;;
Brain-Class100;9019100;U20;1930;1930;1930;1930;3;8;0;3;0;5;0;BETA;1930;2100;3100;x;;;;;;;;;;;;
Brain-Class101;9019101;U20;1930;1930;1930;1930;3;8;0;3;0;5;0;BETA;1930;2100;3100;x;;;;;;;;;;;;
Brain-Class102;9019102;U20;1930;1930;1930;1930;3;8;0;3;0;5;0;BETA;1930;2100;3100;x;;;;;;;;;;;;
Brain-Class103;9019103;U20;1930;1930;1930;1930;3;8;0;3;0;5;0;BETA;1930;2100;3100;x;;;;;;;;;;;;
Brain-Class104;9019104;U20;1930;1930;1930;1930;3;8;0;3;0;5;0;BETA;1930;2100;3100;x;;;;;;;;;;;;
Brain-Class105;9019105;U20;1930;1930;1930;1930;3;8;0;3;0;5;0;BETA;1930;2100;3100;x;;;;;;;;;;;;
Brain-Class106;9019106;U20;1930;1930;1930;1930;3;8;0;3;0;5;0;BETA;1930;2100;3100;x;;;;;;;;;;;;
Brain-Class107;9019107;U20;1930;1930;1930;1930;3;8;0;3;0;5;0;BETA;1930;2100;3100;x;;;;;;;;;;;;
Brain-Class108;9019108;U20;1930;1930;1930;1930;3;8;0;3;0;5;0;BETA;1930;2100;3100;x;;;;;;;;;;;;
Brain-Class109;9019109;U20;1930;1930;1930;1930;3;8;0;3;0;5;0;BETA;1930;2100;3100;x;;;;;;;;;;;;
Brain-Class110;9019110;U20;1930;1930;1930;1930;3;8;0;3;0;5;0;BETA;1930;2100;3100;x;;;;;;;;;;;;
Brain-Class111;9019111;U20;1930;1930;1930;1930;3;8;0;3;0;5;0;BETA;1930;2100;3100;x;;;;;;;;;;;;
Brain-Class112;9019112;U20;1930;1930;1930;1930;3;8;0;3;0;5;0;BETA;1930;2100;3100;x;;;;;;;;;;;;
Brain-Class113;9019113;U20;1930;1930;1930;1930;3;8;0;3;0;5;0;BETA;1930;2100;3100;x;;;;;;;;;;;;
Brain-Class114;9019114;U20;1930;1930;1930;1930;3;8;0;3;0;5;0;BETA;1930;2100;3100;x;;;;;;;;;;;;
Brain-Class115;9019115;U20;1930;1930;1930;1930;3;8;0;3;0;5;0;BETA;1930;2100;3100;x;;;;;;;;;;;;
Brain-Class116;9019116;U20;1930;1930;1930;1930;3;8;0;3;0;5;0;BETA;1930;2100;3100;x;;;;;;;;;;;;
Brain-Class117;9019117;U20;1930;1930;1930;1930;3;8;0;3;0;5;0;BETA;1930;2100;3100;x;;;;;;;;;;;;
Brain-Class118;9019118;U20;1930;1930;1930;1930;3;8;0;3;0;5;0;BETA;1930;2100;3100;x;;;;;;;;;;;;
Brain-Class119;9019119;U20;1930;1930;1930;1930;3;8;0;3;0;5;0;BETA;1930;2100;3100;x;;;;;;;;;;;;
Brain-Class120;9019120;U20;1930;1930;1930;1930;3;8;0;3;0;5;0;BETA;1930;2100;3100;x;;;;;;;;;;;;
Brain-Class121;9019121;U20;1930;1930;1930;1930;3;8;0;3;0;5;0;BETA;1930;2100;3100;x;;;;;;;;;;;;
Brain-Class122;9019122;U20;1930;1930;1930;1930;3;8;0;3;0;5;0;BETA;1930;2100;3100;x;;;;;;;;;;;;
Brain-Class123;9019123;U20;1930;1930;1930;1930;3;8;0;3;0;5;0;BETA;1930;2100;3100;x;;;;;;;;;;;;
Brain-Class124;9019124;U20;1930;1930;1930;1930;3;8;0;3;0;5;0;BETA;1930;2100;3100;x;;;;;;;;;;;;
Brain-Class125;9019125;U20;1930;1930;1930;1930;3;8;0;3;0;5;0;BETA;1930;2100;3100;x;;;;;;;;;;;;
Brain-Class126;9019126;U20;1930;1930;1930;1930;3;8;0;3;0;5;0;BETA;1930;2100;3100;x;;;;;;;;;;;;
Brain-Class127;9019127;U20;1930;1930;1930;1930;3;8;0;3;0;5;0;BETA;1930;2100;3100;x;;;;;;;;;;;;
Brain-Class128;9019128;U20;1930;1930;1930;1930;3;8;0;3;0;5;0;BETA;1930;2100;3100;x;;;;;;;;;;;;
Brain-Class129;9019129;U20;1930;1930;1930;1930;3;8;0;3;0;5;0;BETA;1930;2100;3100;x;;;;;;;;;;;;
Brain-Class130;9019130;U20;1930;1930;1930;1930;3;8;0;3;0;5;0;BETA;1930;2100;3100;x;;;;;;;;;;;;
Brain-Class131;9019131;U20;1930;1930;1930;1930;3;8;0;3;0;5;0;BETA;1930;2100;3100;x;;;;;;;;;;;;
Brain-Class132;9019132;U20;1930;1930;1930;1930;3;8;0;3;0;5;0;BETA;1930;2100;3100;x;;;;;;;;;;;;
Brain-Class133;9019133;U20;1930;1930;1930;1930;3;8;0;3;0;5;0;BETA;1930;2100;3100;x;;;;;;;;;;;;
Brain-Class134;9019134;U20;1930;1930;1930;1930;3;8;0;3;0;5;0;BETA;1930;2100;3100;x;;;;;;;;;;;;
Brain-Class135;9019135;U20;1930;1930;1930;1930;3;8;0;3;0;5;0;BETA;1930;2100;3100;x;;;;;;;;;;;;
Brain-Class136;9019136;U20;1930;1930;1930;1930;3;8;0;3;0;5;0;BETA;1930;2100;3100;x;;;;;;;;;;;;
Brain-Class137;9019137;U20;1930;1930;1930;1930;3;8;0;3;0;5;0;BETA;1930;2100;3100;x;;;;;;;;;;;;
Brain-Class138;9019138;U20;1930;1930;1930;1930;3;8;0;3;0;5;0;BETA;1930;2100;3100;x;;;;;;;;;;;;
Brain-Class139;9019139;U20;1930;1930;1930;1930;3;8;0;3;0;5;0;BETA;1930;2100;3100;x;;;;;;;;;;;;
Brain-Class140;9019140;U20;1930;1930;1930;1930;3;8;0;3;0;5;0;BETA;1930;2100;3100;x;;;;;;;;;;;;
Brain-Class141;9019141;U20;1930;1930;1930;1930;3;8;0;3;0;5;0;BETA;1930;2100;3100;x;;;;;;;;;;;;
Brain-Class142;9019142;U20;1930;1930;1930;1930;3;8;0;3;0;5;0;BETA;1930;2100;3100;x;;;;;;;;;;;;
Brain-Class143;9019143;U20;1930;1930;1930;1930;3;8;0;3;0;5;0;BETA;1930;2100;3100;x;;;;;;;;;;;;
Brain-Class144;9019144;U20;1930;1930;1930;1930;3;8;0;3;0;5;0;BETA;1930;2100;3100;x;;;;;;;;;;;;
Brain-Class145;9019145;U20;1930;1930;1930;1930;3;8;0;3;0;5;0;BETA;1930;2100;3100;x;;;;;;;;;;;;
Brain-Class146;9019146;U20;1930;1930;1930;1930;3;8;0;3;0;5;0;BETA;1930;2100;3100;x;;;;;;;;;;;;
Brain-Class147;9019147;U20;1930;1930;1930;1930;3;8;0;3;0;5;0;BETA;1930;2100;3100;x;;;;;;;;;;;;
Brain-Class148;9019148;U20;1930;1930;1930;1930;3;8;0;3;0;5;0;BETA;1930;2100;3100;x;;;;;;;;;;;;
Brain-Class149;9019149;U20;1930;1930;1930;1930;3;8;0;3;0;5;0;BETA;1930;2100;3100;x;;;;;;;;;;;;
Brain-Class150;9019150;U20;1930;1930;1930;1930;3;8;0;3;0;5;0;BETA;1930;2100;3100;x;;;;;;;;;;;;
Brain-Class151;9019151;U20;1930;1930;1930;1930;3;8;0;3;0;5;0;BETA;1930;2100;3100;x;;;;;;;;;;;;
Brain-Class152;9019152;U20;1930;1930;1930;1930;3;8;0;3;0;5;0;BETA;1930;2100;3100;x;;;;;;;;;;;;
Brain-Class153;9019153;U20;1930;1930;1930;1930;3;8;0;3;0;5;0;BETA;1930;2100;3100;x;;;;;;;;;;;;
Brain-Class154;9019154;U20;1930;1930;1930;1930;3;8;0;3;0;5;0;BETA;1930;2100;3100;x;;;;;;;;;;;;
Brain-Class155;9019155;U20;1930;1930;1930;1930;3;8;0;3;0;5;0;BETA;1930;2100;3100;x;;;;;;;;;;;;
Brain-Class156;9019156;U20;1930;1930;1930;1930;3;8;0;3;0;5;0;BETA;1930;2100;3100;x;;;;;;;;;;;;
Brain-Class157;9019157;U20;1930;1930;1930;1930;3;8;0;3;0;5;0;BETA;1930;2100;3100;x;;;;;;;;;;;;
Brain-Class158;9019158;U20;1930;1930;1930;1930;3;8;0;3;0;5;0;BETA;1930;2100;3100;x;;;;;;;;;;;;
Brain-Class159;9019159;U20;1930;1930;1930;1930;3;8;0;3;0;5;0;BETA;1930;2100;3100;x;;;;;;;;;;;;
Brain-Class160;9019160;U20;1930;1930;1930;1930;3;8;0;3;0;5;0;BETA;1930;2100;3100;x;;;;;;;;;;;;
Brain-Class161;9019161;U20;1930;1930;1930;1930;3;8;0;3;0;5;0;BETA;1930;2100;3100;x;;;;;;;;;;;;
Brain-Class162;9019162;U20;1930;1930;1930;1930;3;8;0;3;0;5;0;BETA;1930;2100;3100;x;;;;;;;;;;;;
Brain-Class163;9019163;U20;1930;1930;1930;1930;3;8;0;3;0;5;0;BETA;1930;2100;3100;x;;;;;;;;;;;;
Brain-Class164;9019164;U20;1930;1930;1930;1930;3;8;0;3;0;5;0;BETA;1930;2100;3100;x;;;;;;;;;;;;
Brain-Class165;9019165;U20;1930;1930;1930;1930;3;8;0;3;0;5;0;BETA;1930;2100;3100;x;;;;;;;;;;;;
Brain-Class166;9019166;U20;1930;1930;1930;1930;3;8;0;3;0;5;0;BETA;1930;2100;3100;x;;;;;;;;;;;;
Brain-Class167;9019167;U20;1930;1930;1930;1930;3;8;0;3;0;5;0;BETA;1930;2100;3100;x;;;;;;;;;;;;
Brain-Class168;9019168;U20;1930;1930;1930;1930;3;8;0;3;0;5;0;BETA;1930;2100;3100;x;;;;;;;;;;;;
Brain-Class169;9019169;U20;1930;1930;1930;1930;3;8;0;3;0;5;0;BETA;1930;2100;3100;x;;;;;;;;;;;;
Brain-Class170;9019170;U20;1930;1930;1930;1930;3;8;0;3;0;5;0;BETA;1930;2100;3100;x;;;;;;;;;;;;
Brain-Class171;9019171;U20;1930;1930;1930;1930;3;8;0;3;0;5;0;BETA;1930;2100;3100;x;;;;;;;;;;;;
Brain-Class172;9019172;U20;1930;1930;1930;1930;3;8;0;3;0;5;0;BETA;1930;2100;3100;x;;;;;;;;;;;;
Brain-Class173;9019173;U20;1930;1930;1930;1930;3;8;0;3;0;5;0;BETA;1930;2100;3100;x;;;;;;;;;;;;
Brain-Class174;9019174;U20;1930;1930;1930;1930;3;8;0;3;0;5;0;BETA;1930;2100;3100;x;;;;;;;;;;;;
Brain-Class175;9019175;U20;1930;1930;1930;1930;3;8;0;3;0;5;0;BETA;1930;2100;3100;x;;;;;;;;;;;;
Brain-Class176;9019176;U20;1930;1930;1930;1930;3;8;0;3;0;5;0;BETA;1930;2100;3100;x;;;;;;;;;;;;
Brain-Class177;9019177;U20;1930;1930;1930;1930;3;8;0;3;0;5;0;BETA;1930;2100;3100;x;;;;;;;;;;;;
Brain-Class178;9019178;U20;1930;1930;1930;1930;3;8;0;3;0;5;0;BETA;1930;2100;3100;x;;;;;;;;;;;;
Brain-Class179;9019179;U20;1930;1930;1930;1930;3;8;0;3;0;5;0;BETA;1930;2100;3100;x;;;;;;;;;;;;
Brain-Class180;9019180;U20;1930;1930;1930;1930;3;8;0;3;0;5;0;BETA;1930;2100;3100;x;;;;;;;;;;;;
Brain-Class181;9019181;U20;1930;1930;1930;1930;3;8;0;3;0;5;0;BETA;1930;2100;3100;x;;;;;;;;;;;;
Brain-Class182;9019182;U20;1930;1930;1930;1930;3;8;0;3;0;5;0;BETA;1930;2100;3100;x;;;;;;;;;;;;
Brain-Class183;9019183;U20;1930;1930;1930;1930;3;8;0;3;0;5;0;BETA;1930;2100;3100;x;;;;;;;;;;;;
Brain-Class184;9019184;U20;1930;1930;1930;1930;3;8;0;3;0;5;0;BETA;1930;2100;3100;x;;;;;;;;;;;;
Brain-Class185;9019185;U20;1930;1930;1930;1930;3;8;0;3;0;5;0;BETA;1930;2100;3100;x;;;;;;;;;;;;
Brain-Class186;9019186;U20;1930;1930;1930;1930;3;8;0;3;0;5;0;BETA;1930;2100;3100;x;;;;;;;;;;;;
Brain-Class187;9019187;U20;1930;1930;1930;1930;3;8;0;3;0;5;0;BETA;1930;2100;3100;x;;;;;;;;;;;;
Brain-Class188;9019188;U20;1930;1930;1930;1930;3;8;0;3;0;5;0;BETA;1930;2100;3100;x;;;;;;;;;;;;
Brain-Class189;9019189;U20;1930;1930;1930;1930;3;8;0;3;0;5;0;BETA;1930;2100;3100;x;;;;;;;;;;;;
Brain-Class190;9019190;U20;1930;1930;1930;1930;3;8;0;3;0;5;0;BETA;1930;2100;3100;x;;;;;;;;;;;;
Brain-Class191;9019191;U20;1930;1930;1930;1930;3;8;0;3;0;5;0;BETA;1930;2100;3100;x;;;;;;;;;;;;
Brain-Class192;9019192;U20;1930;1930;1930;1930;3;8;0;3;0;5;0;BETA;1930;2100;3100;x;;;;;;;;;;;;
Brain-Class193;9019193;U20;1930;1930;1930;1930;3;8;0;3;0;5;0;BETA;1930;2100;3100;x;;;;;;;;;;;;
Brain-Class194;9019194;U20;1930;1930;1930;1930;3;8;0;3;0;5;0;BETA;1930;2100;3100;x;;;;;;;;;;;;
Brain-Class195;9019195;U20;1930;1930;1930;1930;3;8;0;3;0;5;0;BETA;1930;2100;3100;x;;;;;;;;;;;;
Brain-Class196;9019196;U20;1930;1930;1930;1930;3;8;0;3;0;5;0;BETA;1930;2100;3100;x;;;;;;;;;;;;
Brain-Class197;9019197;U20;1930;1930;1930;1930;3;8;0;3;0;5;0;BETA;1930;2100;3100;x;;;;;;;;;;;;
Brain-Class198;9019198;U20;1930;1930;1930;1930;3;8;0;3;0;5;0;BETA;1930;2100;3100;x;;;;;;;;;;;;
Brain-Class199;9019199;U20;1930;1930;1930;1930;3;8;0;3;0;5;0;BETA;1930;2100;3100;x;;;;;;;;;;;;
Brain-Class200;9019200;U20;1930;1930;1930;1930;3;8;0;3;0;5;0;BETA;1930;2100;3100;x;;;;;;;;;;;;
Brain-Class201;9019201;U20;1930;1930;1930;1930;3;8;0;3;0;5;0;BETA;1930;2100;3100;x;;;;;;;;;;;;
Brain-Class202;9019202;U20;1930;1930;1930;1930;3;8;0;3;0;5;0;BETA;1930;2100;3100;x;;;;;;;;;;;;
Brain-Class203;9019203;U20;1930;1930;1930;1930;3;8;0;3;0;5;0;BETA;1930;2100;3100;x;;;;;;;;;;;;
Brain-Class204;9019204;U20;1930;1930;1930;1930;3;8;0;3;0;5;0;BETA;1930;2100;3100;x;;;;;;;;;;;;
Brain-Class205;9019205;U20;1930;1930;1930;1930;3;8;0;3;0;5;0;BETA;1930;2100;3100;x;;;;;;;;;;;;
Brain-Class206;9019206;U20;1930;1930;1930;1930;3;8;0;3;0;5;0;BETA;1930;2100;3100;x;;;;;;;;;;;;
Brain-Class207;9019207;U20;1930;1930;1930;1930;3;8;0;3;0;5;0;BETA;1930;2100;3100;x;;;;;;;;;;;;
Brain-Class208;9019208;U20;1930;1930;1930;1930;3;8;0;3;0;5;0;BETA;1930;2100;3100;x;;;;;;;;;;;;
Brain-Class209;9019209;U20;1930;1930;1930;1930;3;8;0;3;0;5;0;BETA;1930;2100;3100;x;;;;;;;;;;;;
Brain-Class210;9019210;U20;1930;1930;1930;1930;3;8;0;3;0;5;0;BETA;1930;2100;3100;x;;;;;;;;;;;;
Brain-Class211;9019211;U20;1930;1930;1930;1930;3;8;0;3;0;5;0;BETA;1930;2100;3100;x;;;;;;;;;;;;
Brain-Class212;9019212;U20;1930;1930;1930;1930;3;8;0;3;0;5;0;BETA;1930;2100;3100;x;;;;;;;;;;;;
Brain-Class213;9019213;U20;1930;1930;1930;1930;3;8;0;3;0;5;0;BETA;1930;2100;3100;x;;;;;;;;;;;;
Brain-Class214;9019214;U20;1930;1930;1930;1930;3;8;0;3;0;5;0;BETA;1930;2100;3100;x;;;;;;;;;;;;
Brain-Class215;9019215;U20;1930;1930;1930;1930;3;8;0;3;0;5;0;BETA;1930;2100;3100;x;;;;;;;;;;;;
Brain-Class216;9019216;U20;1930;1930;1930;1930;3;8;0;3;0;5;0;BETA;1930;2100;3100;x;;;;;;;;;;;;
Brain-Class217;9019217;U20;1930;1930;1930;1930;3;8;0;3;0;5;0;BETA;1930;2100;3100;x;;;;;;;;;;;;
Brain-Class218;9019218;U20;1930;1930;1930;1930;3;8;0;3;0;5;0;BETA;1930;2100;3100;x;;;;;;;;;;;;
Brain-Class219;9019219;U20;1930;1930;1930;1930;3;8;0;3;0;5;0;BETA;1930;2100;3100;x;;;;;;;;;;;;
Brain-Class220;9019220;U20;1930;1930;1930;1930;3;8;0;3;0;5;0;BETA;1930;2100;3100;x;;;;;;;;;;;;
Brain-Class221;9019221;U20;1930;1930;1930;1930;3;8;0;3;0;5;0;BETA;1930;2100;3100;x;;;;;;;;;;;;
Brain-Class222;9019222;U20;1930;1930;1930;1930;3;8;0;3;0;5;0;BETA;1930;2100;3100;x;;;;;;;;;;;;
Brain-Class223;9019223;U20;1930;1930;1930;1930;3;8;0;3;0;5;0;BETA;1930;2100;3100;x;;;;;;;;;;;;
Brain-Class224;9019224;U20;1930;1930;1930;1930;3;8;0;3;0;5;0;BETA;1930;2100;3100;x;;;;;;;;;;;;
Brain-Class225;9019225;U20;1930;1930;1930;1930;3;8;0;3;0;5;0;BETA;1930;2100;3100;x;;;;;;;;;;;;
Brain-Class226;9019226;U20;1930;1930;1930;1930;3;8;0;3;0;5;0;BETA;1930;2100;3100;x;;;;;;;;;;;;
Brain-Class227;9019227;U20;1930;1930;1930;1930;3;8;0;3;0;5;0;BETA;1930;2100;3100;x;;;;;;;;;;;;
Brain-Class228;9019228;U20;1930;1930;1930;1930;3;8;0;3;0;5;0;BETA;1930;2100;3100;x;;;;;;;;;;;;
Brain-Class229;9019229;U20;1930;1930;1930;1930;3;8;0;3;0;5;0;BETA;1930;2100;3100;x;;;;;;;;;;;;
Brain-Class230;9019230;U20;1930;1930;1930;1930;3;8;0;3;0;5;0;BETA;1930;2100;3100;x;;;;;;;;;;;;
Brain-Class231;9019231;U20;1930;1930;1930;1930;3;8;0;3;0;5;0;BETA;1930;2100;3100;x;;;;;;;;;;;;
Brain-Class232;9019232;U20;1930;1930;1930;1930;3;8;0;3;0;5;0;BETA;1930;2100;3100;x;;;;;;;;;;;;
Brain-Class233;9019233;U20;1930;1930;1930;1930;3;8;0;3;0;5;0;BETA;1930;2100;3100;x;;;;;;;;;;;;
Brain-Class234;9019234;U20;1930;1930;1930;1930;3;8;0;3;0;5;0;BETA;1930;2100;3100;x;;;;;;;;;;;;
Brain-Class235;9019235;U20;1930;1930;1930;1930;3;8;0;3;0;5;0;BETA;1930;2100;3100;x;;;;;;;;;;;;
Brain-Class236;9019236;U20;1930;1930;1930;1930;3;8;0;3;0;5;0;BETA;1930;2100;3100;x;;;;;;;;;;;;
Brain-Class237;9019237;U20;1930;1930;1930;1930;3;8;0;3;0;5;0;BETA;1930;2100;3100;x;;;;;;;;;;;;
Brain-Class238;9019238;U20;1930;1930;1930;1930;3;8;0;3;0;5;0;BETA;1930;2100;3100;x;;;;;;;;;;;;
Brain-Class239;9019239;U20;1930;1930;1930;1930;3;8;0;3;0;5;0;BETA;1930;2100;3100;x;;;;;;;;;;;;
Brain-Class240;9019240;U20;1930;1930;1930;1930;3;8;0;3;0;5;0;BETA;1930;2100;3100;x;;;;;;;;;;;;
Brain-Class241;9019241;U20;1930;1930;1930;1930;3;8;0;3;0;5;0;BETA;1930;2100;3100;x;;;;;;;;;;;;
Brain-Class242;9019242;U20;1930;1930;1930;1930;3;8;0;3;0;5;0;BETA;1930;2100;3100;x;;;;;;;;;;;;
Brain-Class243;9019243;U20;1930;1930;1930;1930;3;8;0;3;0;5;0;BETA;1930;2100;3100;x;;;;;;;;;;;;
Brain-Class244;9019244;U20;1930;1930;1930;1930;3;8;0;3;0;5;0;BETA;1930;2100;3100;x;;;;;;;;;;;;
Brain-Class245;9019245;U20;1930;1930;1930;1930;3;8;0;3;0;5;0;BETA;1930;2100;3100;x;;;;;;;;;;;;
Brain-Class246;9019246;U20;1930;1930;1930;1930;3;8;0;3;0;5;0;BETA;1930;2100;3100;x;;;;;;;;;;;;
Brain-Class247;9019247;U20;1930;1930;1930;1930;3;8;0;3;0;5;0;BETA;1930;2100;3100;x;;;;;;;;;;;;
Brain-Class248;9019248;U20;1930;1930;1930;1930;3;8;0;3;0;5;0;BETA;1930;2100;3100;x;;;;;;;;;;;;
Brain-Class249;9019249;U20;1930;1930;1930;1930;3;8;0;3;0;5;0;BETA;1930;2100;3100;x;;;;;;;;;;;;
Brain-Class250;9019250;U20;1930;1930;1930;1930;3;8;0;3;0;5;0;BETA;1930;2100;3100;x;;;;;;;;;;;;
Brain-Class251;9019251;U20;1930;1930;1930;1930;3;8;0;3;0;5;0;BETA;1930;2100;3100;x;;;;;;;;;;;;
Brain-Class252;9019252;U20;1930;1930;1930;1930;3;8;0;3;0;5;0;BETA;1930;2100;3100;x;;;;;;;;;;;;
Brain-Class253;9019253;U20;1930;1930;1930;1930;3;8;0;3;0;5;0;BETA;1930;2100;3100;x;;;;;;;;;;;;
Brain-Class254;9019254;U20;1930;1930;1930;1930;3;8;0;3;0;5;0;BETA;1930;2100;3100;x;;;;;;;;;;;;
Brain-Class255;9019255;U20;1930;1930;1930;1930;3;8;0;3;0;5;0;BETA;1930;2100;3100;x;;;;;;;;;;;;
Brain-Class256;9019256;U20;1930;1930;1930;1930;3;8;0;3;0;5;0;BETA;1930;2100;3100;x;;;;;;;;;;;;
Brain-Class257;9019257;U20;1930;1930;1930;1930;3;8;0;3;0;5;0;BETA;1930;2100;3100;x;;;;;;;;;;;;
Brain-Class258;9019258;U20;1930;1930;1930;1930;3;8;0;3;0;5;0;BETA;1930;2100;3100;x;;;;;;;;;;;;
Brain-Class259;9019259;U20;1930;1930;1930;1930;3;8;0;3;0;5;0;BETA;1930;2100;3100;x;;;;;;;;;;;;
Brain-Class260;9019260;U20;1930;1930;1930;1930;3;8;0;3;0;5;0;BETA;1930;2100;3100;x;;;;;;;;;;;;
Brain-Class261;9019261;U20;1930;1930;1930;1930;3;8;0;3;0;5;0;BETA;1930;2100;3100;x;;;;;;;;;;;;
Brain-Class262;9019262;U20;1930;1930;1930;1930;3;8;0;3;0;5;0;BETA;1930;2100;3100;x;;;;;;;;;;;;
Brain-Class263;9019263;U20;1930;1930;1930;1930;3;8;0;3;0;5;0;BETA;1930;2100;3100;x;;;;;;;;;;;;
Brain-Class264;9019264;U20;1930;1930;1930;1930;3;8;0;3;0;5;0;BETA;1930;2100;3100;x;;;;;;;;;;;;
Brain-Class265;9019265;U20;1930;1930;1930;1930;3;8;0;3;0;5;0;BETA;1930;2100;3100;x;;;;;;;;;;;;
Brain-Class266;9019266;U20;1930;1930;1930;1930;3;8;0;3;0;5;0;BETA;1930;2100;3100;x;;;;;;;;;;;;
Brain-Class267;9019267;U20;1930;1930;1930;1930;3;8;0;3;0;5;0;BETA;1930;2100;3100;x;;;;;;;;;;;;
Brain-Class268;9019268;U20;1930;1930;1930;1930;3;8;0;3;0;5;0;BETA;1930;2100;3100;x;;;;;;;;;;;;
Brain-Class269;9019269;U20;1930;1930;1930;1930;3;8;0;3;0;5;0;BETA;1930;2100;3100;x;;;;;;;;;;;;
Brain-Class270;9019270;U20;1930;1930;1930;1930;3;8;0;3;0;5;0;BETA;1930;2100;3100;x;;;;;;;;;;;;
Brain-Class271;9019271;U20;1930;1930;1930;1930;3;8;0;3;0;5;0;BETA;1930;2100;3100;x;;;;;;;;;;;;
Brain-Class272;9019272;U20;1930;1930;1930;1930;3;8;0;3;0;5;0;BETA;1930;2100;3100;x;;;;;;;;;;;;
Brain-Class273;9019273;U20;1930;1930;1930;1930;3;8;0;3;0;5;0;BETA;1930;2100;3100;x;;;;;;;;;;;;
Brain-Class274;9019274;U20;1930;1930;1930;1930;3;8;0;3;0;5;0;BETA;1930;2100;3100;x;;;;;;;;;;;;
Brain-Class275;9019275;U20;1930;1930;1930;1930;3;8;0;3;0;5;0;BETA;1930;2100;3100;x;;;;;;;;;;;;
Brain-Class276;9019276;U20;1930;1930;1930;1930;3;8;0;3;0;5;0;BETA;1930;2100;3100;x;;;;;;;;;;;;
Brain-Class277;9019277;U20;1930;1930;1930;1930;3;8;0;3;0;5;0;BETA;1930;2100;3100;x;;;;;;;;;;;;
Brain-Class278;9019278;U20;1930;1930;1930;1930;3;8;0;3;0;5;0;BETA;1930;2100;3100;x;;;;;;;;;;;;
Brain-Class279;9019279;U20;1930;1930;1930;1930;3;8;0;3;0;5;0;BETA;1930;2100;3100;x;;;;;;;;;;;;
Brain-Class280;9019280;U20;1930;1930;1930;1930;3;8;0;3;0;5;0;BETA;1930;2100;3100;x;;;;;;;;;;;;
Brain-Class281;9019281;U20;1930;1930;1930;1930;3;8;0;3;0;5;0;BETA;1930;2100;3100;x;;;;;;;;;;;;
Brain-Class282;9019282;U20;1930;1930;1930;1930;3;8;0;3;0;5;0;BETA;1930;2100;3100;x;;;;;;;;;;;;
Brain-Class283;9019283;U20;1930;1930;1930;1930;3;8;0;3;0;5;0;BETA;1930;2100;3100;x;;;;;;;;;;;;
Brain-Class284;9019284;U20;1930;1930;1930;1930;3;8;0;3;0;5;0;BETA;1930;2100;3100;x;;;;;;;;;;;;
Brain-Class285;9019285;U20;1930;1930;1930;1930;3;8;0;3;0;5;0;BETA;1930;2100;3100;x;;;;;;;;;;;;
Brain-Class286;9019286;U20;1930;1930;1930;1930;3;8;0;3;0;5;0;BETA;1930;2100;3100;x;;;;;;;;;;;;
Brain-Class287;9019287;U20;1930;1930;1930;1930;3;8;0;3;0;5;0;BETA;1930;2100;3100;x;;;;;;;;;;;;
Brain-Class288;9019288;U20;1930;1930;1930;1930;3;8;0;3;0;5;0;BETA;1930;2100;3100;x;;;;;;;;;;;;
Brain-Class289;9019289;U20;1930;1930;1930;1930;3;8;0;3;0;5;0;BETA;1930;2100;3100;x;;;;;;;;;;;;
Brain-Class290;9019290;U20;1930;1930;1930;1930;3;8;0;3;0;5;0;BETA;1930;2100;3100;x;;;;;;;;;;;;
Brain-Class291;9019291;U20;1930;1930;1930;1930;3;8;0;3;0;5;0;BETA;1930;2100;3100;x;;;;;;;;;;;;
Brain-Class292;9019292;U20;1930;1930;1930;1930;3;8;0;3;0;5;0;BETA;1930;2100;3100;x;;;;;;;;;;;;
Brain-Class293;9019293;U20;1930;1930;1930;1930;3;8;0;3;0;5;0;BETA;1930;2100;3100;x;;;;;;;;;;;;
Brain-Class294;9019294;U20;1930;1930;1930;1930;3;8;0;3;0;5;0;BETA;1930;2100;3100;x;;;;;;;;;;;;
Brain-Class295;9019295;U20;1930;1930;1930;1930;3;8;0;3;0;5;0;BETA;1930;2100;3100;x;;;;;;;;;;;;
Brain-Class296;9019296;U20;1930;1930;1930;1930;3;8;0;3;0;5;0;BETA;1930;2100;3100;x;;;;;;;;;;;;
Brain-Class297;9019297;U20;1930;1930;1930;1930;3;8;0;3;0;5;0;BETA;1930;2100;3100;x;;;;;;;;;;;;
Brain-Class298;9019298;U20;1930;1930;1930;1930;3;8;0;3;0;5;0;BETA;1930;2100;3100;x;;;;;;;;;;;;
Brain-Class299;9019299;U20;1930;1930;1930;1930;3;8;0;3;0;5;0;BETA;1930;2100;3100;x;;;;;;;;;;;;
Brain-Class300;9019300;U20;1930;1930;1930;1930;3;8;0;3;0;5;0;BETA;1930;2100;3100;x;;;;;;;;;;;;
Brain-Class301;9019301;U20;1930;1930;1930;1930;3;8;0;3;0;5;0;BETA;1930;2100;3100;x;;;;;;;;;;;;
Brain-Class302;9019302;U20;1930;1930;1930;1930;3;8;0;3;0;5;0;BETA;1930;2100;3100;x;;;;;;;;;;;;
Brain-Class303;9019303;U20;1930;1930;1930;1930;3;8;0;3;0;5;0;BETA;1930;2100;3100;x;;;;;;;;;;;;
Brain-Class304;9019304;U20;1930;1930;1930;1930;3;8;0;3;0;5;0;BETA;1930;2100;3100;x;;;;;;;;;;;;
Brain-Class305;9019305;U20;1930;1930;1930;1930;3;8;0;3;0;5;0;BETA;1930;2100;3100;x;;;;;;;;;;;;
Brain-Class306;9019306;U20;1930;1930;1930;1930;3;8;0;3;0;5;0;BETA;1930;2100;3100;x;;;;;;;;;;;;
Brain-Class307;9019307;U20;1930;1930;1930;1930;3;8;0;3;0;5;0;BETA;1930;2100;3100;x;;;;;;;;;;;;
Brain-Class308;9019308;U20;1930;1930;1930;1930;3;8;0;3;0;5;0;BETA;1930;2100;3100;x;;;;;;;;;;;;
Brain-Class309;9019309;U20;1930;1930;1930;1930;3;8;0;3;0;5;0;BETA;1930;2100;3100;x;;;;;;;;;;;;
Brain-Class310;9019310;U20;1930;1930;1930;1930;3;8;0;3;0;5;0;BETA;1930;2100;3100;x;;;;;;;;;;;;
Brain-Class311;9019311;U20;1930;1930;1930;1930;3;8;0;3;0;5;0;BETA;1930;2100;3100;x;;;;;;;;;;;;
Brain-Class312;9019312;U20;1930;1930;1930;1930;3;8;0;3;0;5;0;BETA;1930;2100;3100;x;;;;;;;;;;;;
Brain-Class313;9019313;U20;1930;1930;1930;1930;3;8;0;3;0;5;0;BETA;1930;2100;3100;x;;;;;;;;;;;;
Brain-Class314;9019314;U20;1930;1930;1930;1930;3;8;0;3;0;5;0;BETA;1930;2100;3100;x;;;;;;;;;;;;
Brain-Class315;9019315;U20;1930;1930;1930;1930;3;8;0;3;0;5;0;BETA;1930;2100;3100;x;;;;;;;;;;;;
Brain-Class316;9019316;U20;1930;1930;1930;1930;3;8;0;3;0;5;0;BETA;1930;2100;3100;x;;;;;;;;;;;;
Brain-Class317;9019317;U20;1930;1930;1930;1930;3;8;0;3;0;5;0;BETA;1930;2100;3100;x;;;;;;;;;;;;
Brain-Class318;9019318;U20;1930;1930;1930;1930;3;8;0;3;0;5;0;BETA;1930;2100;3100;x;;;;;;;;;;;;
Brain-Class319;9019319;U20;1930;1930;1930;1930;3;8;0;3;0;5;0;BETA;1930;2100;3100;x;;;;;;;;;;;;
Brain-Class320;9019320;U20;1930;1930;1930;1930;3;8;0;3;0;5;0;BETA;1930;2100;3100;x;;;;;;;;;;;;
Brain-Class321;9019321;U20;1930;1930;1930;1930;3;8;0;3;0;5;0;BETA;1930;2100;3100;x;;;;;;;;;;;;
Brain-Class322;9019322;U20;1930;1930;1930;1930;3;8;0;3;0;5;0;BETA;1930;2100;3100;x;;;;;;;;;;;;
Brain-Class323;9019323;U20;1930;1930;1930;1930;3;8;0;3;0;5;0;BETA;1930;2100;3100;x;;;;;;;;;;;;
Brain-Class324;9019324;U20;1930;1930;1930;1930;3;8;0;3;0;5;0;BETA;1930;2100;3100;x;;;;;;;;;;;;
Brain-Class325;9019325;U20;1930;1930;1930;1930;3;8;0;3;0;5;0;BETA;1930;2100;3100;x;;;;;;;;;;;;
Brain-Class326;9019326;U20;1930;1930;1930;1930;3;8;0;3;0;5;0;BETA;1930;2100;3100;x;;;;;;;;;;;;
Brain-Class327;9019327;U20;1930;1930;1930;1930;3;8;0;3;0;5;0;BETA;1930;2100;3100;x;;;;;;;;;;;;
Brain-Class328;9019328;U20;1930;1930;1930;1930;3;8;0;3;0;5;0;BETA;1930;2100;3100;x;;;;;;;;;;;;
Brain-Class329;9019329;U20;1930;1930;1930;1930;3;8;0;3;0;5;0;BETA;1930;2100;3100;x;;;;;;;;;;;;
Brain-Class330;9019330;U20;1930;1930;1930;1930;3;8;0;3;0;5;0;BETA;1930;2100;3100;x;;;;;;;;;;;;
Brain-Class331;9019331;U20;1930;1930;1930;1930;3;8;0;3;0;5;0;BETA;1930;2100;3100;x;;;;;;;;;;;;
Brain-Class332;9019332;U20;1930;1930;1930;1930;3;8;0;3;0;5;0;BETA;1930;2100;3100;x;;;;;;;;;;;;
Brain-Class333;9019333;U20;1930;1930;1930;1930;3;8;0;3;0;5;0;BETA;1930;2100;3100;x;;;;;;;;;;;;
Brain-Class334;9019334;U20;1930;1930;1930;1930;3;8;0;3;0;5;0;BETA;1930;2100;3100;x;;;;;;;;;;;;
Brain-Class335;9019335;U20;1930;1930;1930;1930;3;8;0;3;0;5;0;BETA;1930;2100;3100;x;;;;;;;;;;;;
Brain-Class336;9019336;U20;1930;1930;1930;1930;3;8;0;3;0;5;0;BETA;1930;2100;3100;x;;;;;;;;;;;;
Brain-Class337;9019337;U20;1930;1930;1930;1930;3;8;0;3;0;5;0;BETA;1930;2100;3100;x;;;;;;;;;;;;
Brain-Class338;9019338;U20;1930;1930;1930;1930;3;8;0;3;0;5;0;BETA;1930;2100;3100;x;;;;;;;;;;;;
Brain-Class339;9019339;U20;1930;1930;1930;1930;3;8;0;3;0;5;0;BETA;1930;2100;3100;x;;;;;;;;;;;;
Brain-Class340;9019340;U20;1930;1930;1930;1930;3;8;0;3;0;5;0;BETA;1930;2100;3100;x;;;;;;;;;;;;
Brain-Class341;9019341;U20;1930;1930;1930;1930;3;8;0;3;0;5;0;BETA;1930;2100;3100;x;;;;;;;;;;;;
Brain-Class342;9019342;U20;1930;1930;1930;1930;3;8;0;3;0;5;0;BETA;1930;2100;3100;x;;;;;;;;;;;;
Brain-Class343;9019343;U20;1930;1930;1930;1930;3;8;0;3;0;5;0;BETA;1930;2100;3100;x;;;;;;;;;;;;
Brain-Class344;9019344;U20;1930;1930;1930;1930;3;8;0;3;0;5;0;BETA;1930;2100;3100;x;;;;;;;;;;;;
Brain-Class345;9019345;U20;1930;1930;1930;1930;3;8;0;3;0;5;0;BETA;1930;2100;3100;x;;;;;;;;;;;;
Brain-Class346;9019346;U20;1930;1930;1930;1930;3;8;0;3;0;5;0;BETA;1930;2100;3100;x;;;;;;;;;;;;
Brain-Class347;9019347;U20;1930;1930;1930;1930;3;8;0;3;0;5;0;BETA;1930;2100;3100;x;;;;;;;;;;;;
Brain-Class348;9019348;U20;1930;1930;1930;1930;3;8;0;3;0;5;0;BETA;1930;2100;3100;x;;;;;;;;;;;;
Brain-Class349;9019349;U20;1930;1930;1930;1930;3;8;0;3;0;5;0;BETA;1930;2100;3100;x;;;;;;;;;;;;
Brain-Class350;9019350;U20;1930;1930;1930;1930;3;8;0;3;0;5;0;BETA;1930;2100;3100;x;;;;;;;;;;;;
Brain-Class351;9019351;U20;1930;1930;1930;1930;3;8;0;3;0;5;0;BETA;1930;2100;3100;x;;;;;;;;;;;;
Brain-Class352;9019352;U20;1930;1930;1930;1930;3;8;0;3;0;5;0;BETA;1930;2100;3100;x;;;;;;;;;;;;
Brain-Class353;9019353;U20;1930;1930;1930;1930;3;8;0;3;0;5;0;BETA;1930;2100;3100;x;;;;;;;;;;;;
Brain-Class354;9019354;U20;1930;1930;1930;1930;3;8;0;3;0;5;0;BETA;1930;2100;3100;x;;;;;;;;;;;;
Brain-Class355;9019355;U20;1930;1930;1930;1930;3;8;0;3;0;5;0;BETA;1930;2100;3100;x;;;;;;;;;;;;
Brain-Class356;9019356;U20;1930;1930;1930;1930;3;8;0;3;0;5;0;BETA;1930;2100;3100;x;;;;;;;;;;;;
Brain-Class357;9019357;U20;1930;1930;1930;1930;3;8;0;3;0;5;0;BETA;1930;2100;3100;x;;;;;;;;;;;;
Brain-Class358;9019358;U20;1930;1930;1930;1930;3;8;0;3;0;5;0;BETA;1930;2100;3100;x;;;;;;;;;;;;
Brain-Class359;9019359;U20;1930;1930;1930;1930;3;8;0;3;0;5;0;BETA;1930;2100;3100;x;;;;;;;;;;;;
Brain-Class360;9019360;U20;1930;1930;1930;1930;3;8;0;3;0;5;0;BETA;1930;2100;3100;x;;;;;;;;;;;;
Brain-Class361;9019361;U20;1930;1930;1930;1930;3;8;0;3;0;5;0;BETA;1930;2100;3100;x;;;;;;;;;;;;
Brain-Class362;9019362;U20;1930;1930;1930;1930;3;8;0;3;0;5;0;BETA;1930;2100;3100;x;;;;;;;;;;;;
Brain-Class363;9019363;U20;1930;1930;1930;1930;3;8;0;3;0;5;0;BETA;1930;2100;3100;x;;;;;;;;;;;;
Brain-Class364;9019364;U20;1930;1930;1930;1930;3;8;0;3;0;5;0;BETA;1930;2100;3100;x;;;;;;;;;;;;
Brain-Class365;9019365;U20;1930;1930;1930;1930;3;8;0;3;0;5;0;BETA;1930;2100;3100;x;;;;;;;;;;;;
Brain-Class366;9019366;U20;1930;1930;1930;1930;3;8;0;3;0;5;0;BETA;1930;2100;3100;x;;;;;;;;;;;;
Brain-Class367;9019367;U20;1930;1930;1930;1930;3;8;0;3;0;5;0;BETA;1930;2100;3100;x;;;;;;;;;;;;
Brain-Class368;9019368;U20;1930;1930;1930;1930;3;8;0;3;0;5;0;BETA;1930;2100;3100;x;;;;;;;;;;;;
Brain-Class369;9019369;U20;1930;1930;1930;1930;3;8;0;3;0;5;0;BETA;1930;2100;3100;x;;;;;;;;;;;;
Brain-Class370;9019370;U20;1930;1930;1930;1930;3;8;0;3;0;5;0;BETA;1930;2100;3100;x;;;;;;;;;;;;
Brain-Class371;9019371;U20;1930;1930;1930;1930;3;8;0;3;0;5;0;BETA;1930;2100;3100;x;;;;;;;;;;;;
Brain-Class372;9019372;U20;1930;1930;1930;1930;3;8;0;3;0;5;0;BETA;1930;2100;3100;x;;;;;;;;;;;;
Brain-Class373;9019373;U20;1930;1930;1930;1930;3;8;0;3;0;5;0;BETA;1930;2100;3100;x;;;;;;;;;;;;
Brain-Class374;9019374;U20;1930;1930;1930;1930;3;8;0;3;0;5;0;BETA;1930;2100;3100;x;;;;;;;;;;;;
Brain-Class375;9019375;U20;1930;1930;1930;1930;3;8;0;3;0;5;0;BETA;1930;2100;3100;x;;;;;;;;;;;;
Brain-Class376;9019376;U20;1930;1930;1930;1930;3;8;0;3;0;5;0;BETA;1930;2100;3100;x;;;;;;;;;;;;
Brain-Class377;9019377;U20;1930;1930;1930;1930;3;8;0;3;0;5;0;BETA;1930;2100;3100;x;;;;;;;;;;;;
Brain-Class378;9019378;U20;1930;1930;1930;1930;3;8;0;3;0;5;0;BETA;1930;2100;3100;x;;;;;;;;;;;;
Brain-Class379;9019379;U20;1930;1930;1930;1930;3;8;0;3;0;5;0;BETA;1930;2100;3100;x;;;;;;;;;;;;
Brain-Class380;9019380;U20;1930;1930;1930;1930;3;8;0;3;0;5;0;BETA;1930;2100;3100;x;;;;;;;;;;;;
Brain-Class381;9019381;U20;1930;1930;1930;1930;3;8;0;3;0;5;0;BETA;1930;2100;3100;x;;;;;;;;;;;;
Brain-Class382;9019382;U20;1930;1930;1930;1930;3;8;0;3;0;5;0;BETA;1930;2100;3100;x;;;;;;;;;;;;
Brain-Class383;9019383;U20;1930;1930;1930;1930;3;8;0;3;0;5;0;BETA;1930;2100;3100;x;;;;;;;;;;;;
Brain-Class384;9019384;U20;1930;1930;1930;1930;3;8;0;3;0;5;0;BETA;1930;2100;3100;x;;;;;;;;;;;;
Brain-Class385;9019385;U20;1930;1930;1930;1930;3;8;0;3;0;5;0;BETA;1930;2100;3100;x;;;;;;;;;;;;
Brain-Class386;9019386;U20;1930;1930;1930;1930;3;8;0;3;0;5;0;BETA;1930;2100;3100;x;;;;;;;;;;;;
Brain-Class387;9019387;U20;1930;1930;1930;1930;3;8;0;3;0;5;0;BETA;1930;2100;3100;x;;;;;;;;;;;;
Brain-Class388;9019388;U20;1930;1930;1930;1930;3;8;0;3;0;5;0;BETA;1930;2100;3100;x;;;;;;;;;;;;
Brain-Class389;9019389;U20;1930;1930;1930;1930;3;8;0;3;0;5;0;BETA;1930;2100;3100;x;;;;;;;;;;;;
Brain-Class390;9019390;U20;1930;1930;1930;1930;3;8;0;3;0;5;0;BETA;1930;2100;3100;x;;;;;;;;;;;;
Brain-Class391;9019391;U20;1930;1930;1930;1930;3;8;0;3;0;5;0;BETA;1930;2100;3100;x;;;;;;;;;;;;
Brain-Class392;9019392;U20;1930;1930;1930;1930;3;8;0;3;0;5;0;BETA;1930;2100;3100;x;;;;;;;;;;;;
Brain-Class393;9019393;U20;1930;1930;1930;1930;3;8;0;3;0;5;0;BETA;1930;2100;3100;x;;;;;;;;;;;;
Brain-Class394;9019394;U20;1930;1930;1930;1930;3;8;0;3;0;5;0;BETA;1930;2100;3100;x;;;;;;;;;;;;
Brain-Class395;9019395;U20;1930;1930;1930;1930;3;8;0;3;0;5;0;BETA;1930;2100;3100;x;;;;;;;;;;;;
Brain-Class396;9019396;U20;1930;1930;1930;1930;3;8;0;3;0;5;0;BETA;1930;2100;3100;x;;;;;;;;;;;;
Brain-Class397;9019397;U20;1930;1930;1930;1930;3;8;0;3;0;5;0;BETA;1930;2100;3100;x;;;;;;;;;;;;
Brain-Class398;9019398;U20;1930;1930;1930;1930;3;8;0;3;0;5;0;BETA;1930;2100;3100;x;;;;;;;;;;;;
Brain-Class399;9019399;U20;1930;1930;1930;1930;3;8;0;3;0;5;0;BETA;1930;2100;3100;x;;;;;;;;;;;;
Brain-Class400;9019400;U20;1930;1930;1930;1930;3;8;0;3;0;5;0;BETA;1930;2100;3100;x;;;;;;;;;;;;
Brain-Class401;9019401;U20;1930;1930;1930;1930;3;8;0;3;0;5;0;BETA;1930;2100;3100;x;;;;;;;;;;;;
Brain-Class402;9019402;U20;1930;1930;1930;1930;3;8;0;3;0;5;0;BETA;1930;2100;3100;x;;;;;;;;;;;;
Brain-Class403;9019403;U20;1930;1930;1930;1930;3;8;0;3;0;5;0;BETA;1930;2100;3100;x;;;;;;;;;;;;
Brain-Class404;9019404;U20;1930;1930;1930;1930;3;8;0;3;0;5;0;BETA;1930;2100;3100;x;;;;;;;;;;;;
Brain-Class405;9019405;U20;1930;1930;1930;1930;3;8;0;3;0;5;0;BETA;1930;2100;3100;x;;;;;;;;;;;;
Brain-Class406;9019406;U20;1930;1930;1930;1930;3;8;0;3;0;5;0;BETA;1930;2100;3100;x;;;;;;;;;;;;
Brain-Class407;9019407;U20;1930;1930;1930;1930;3;8;0;3;0;5;0;BETA;1930;2100;3100;x;;;;;;;;;;;;
Brain-Class408;9019408;U20;1930;1930;1930;1930;3;8;0;3;0;5;0;BETA;1930;2100;3100;x;;;;;;;;;;;;
Brain-Class409;9019409;U20;1930;1930;1930;1930;3;8;0;3;0;5;0;BETA;1930;2100;3100;x;;;;;;;;;;;;
Brain-Class410;9019410;U20;1930;1930;1930;1930;3;8;0;3;0;5;0;BETA;1930;2100;3100;x;;;;;;;;;;;;
Brain-Class411;9019411;U20;1930;1930;1930;1930;3;8;0;3;0;5;0;BETA;1930;2100;3100;x;;;;;;;;;;;;
Brain-Class412;9019412;U20;1930;1930;1930;1930;3;8;0;3;0;5;0;BETA;1930;2100;3100;x;;;;;;;;;;;;
Brain-Class413;9019413;U20;1930;1930;1930;1930;3;8;0;3;0;5;0;BETA;1930;2100;3100;x;;;;;;;;;;;;
Brain-Class414;9019414;U20;1930;1930;1930;1930;3;8;0;3;0;5;0;BETA;1930;2100;3100;x;;;;;;;;;;;;
Brain-Class415;9019415;U20;1930;1930;1930;1930;3;8;0;3;0;5;0;BETA;1930;2100;3100;x;;;;;;;;;;;;
Brain-Class416;9019416;U20;1930;1930;1930;1930;3;8;0;3;0;5;0;BETA;1930;2100;3100;x;;;;;;;;;;;;
Brain-Class417;9019417;U20;1930;1930;1930;1930;3;8;0;3;0;5;0;BETA;1930;2100;3100;x;;;;;;;;;;;;
Brain-Class418;9019418;U20;1930;1930;1930;1930;3;8;0;3;0;5;0;BETA;1930;2100;3100;x;;;;;;;;;;;;
Brain-Class419;9019419;U20;1930;1930;1930;1930;3;8;0;3;0;5;0;BETA;1930;2100;3100;x;;;;;;;;;;;;
Brain-Class420;9019420;U20;1930;1930;1930;1930;3;8;0;3;0;5;0;BETA;1930;2100;3100;x;;;;;;;;;;;;
Brain-Class421;9019421;U20;1930;1930;1930;1930;3;8;0;3;0;5;0;BETA;1930;2100;3100;x;;;;;;;;;;;;
Brain-Class422;9019422;U20;1930;1930;1930;1930;3;8;0;3;0;5;0;BETA;1930;2100;3100;x;;;;;;;;;;;;
Brain-Class423;9019423;U20;1930;1930;1930;1930;3;8;0;3;0;5;0;BETA;1930;2100;3100;x;;;;;;;;;;;;
Brain-Class424;9019424;U20;1930;1930;1930;1930;3;8;0;3;0;5;0;BETA;1930;2100;3100;x;;;;;;;;;;;;
Brain-Class425;9019425;U20;1930;1930;1930;1930;3;8;0;3;0;5;0;BETA;1930;2100;3100;x;;;;;;;;;;;;
Brain-Class426;9019426;U20;1930;1930;1930;1930;3;8;0;3;0;5;0;BETA;1930;2100;3100;x;;;;;;;;;;;;
Brain-Class427;9019427;U20;1930;1930;1930;1930;3;8;0;3;0;5;0;BETA;1930;2100;3100;x;;;;;;;;;;;;
Brain-Class428;9019428;U20;1930;1930;1930;1930;3;8;0;3;0;5;0;BETA;1930;2100;3100;x;;;;;;;;;;;;
Brain-Class429;9019429;U20;1930;1930;1930;1930;3;8;0;3;0;5;0;BETA;1930;2100;3100;x;;;;;;;;;;;;
Brain-Class430;9019430;U20;1930;1930;1930;1930;3;8;0;3;0;5;0;BETA;1930;2100;3100;x;;;;;;;;;;;;
Brain-Class431;9019431;U20;1930;1930;1930;1930;3;8;0;3;0;5;0;BETA;1930;2100;3100;x;;;;;;;;;;;;
Brain-Class432;9019432;U20;1930;1930;1930;1930;3;8;0;3;0;5;0;BETA;1930;2100;3100;x;;;;;;;;;;;;
Brain-Class433;9019433;U20;1930;1930;1930;1930;3;8;0;3;0;5;0;BETA;1930;2100;3100;x;;;;;;;;;;;;
Brain-Class434;9019434;U20;1930;1930;1930;1930;3;8;0;3;0;5;0;BETA;1930;2100;3100;x;;;;;;;;;;;;
Brain-Class435;9019435;U20;1930;1930;1930;1930;3;8;0;3;0;5;0;BETA;1930;2100;3100;x;;;;;;;;;;;;
Brain-Class436;9019436;U20;1930;1930;1930;1930;3;8;0;3;0;5;0;BETA;1930;2100;3100;x;;;;;;;;;;;;
Brain-Class437;9019437;U20;1930;1930;1930;1930;3;8;0;3;0;5;0;BETA;1930;2100;3100;x;;;;;;;;;;;;
Brain-Class438;9019438;U20;1930;1930;1930;1930;3;8;0;3;0;5;0;BETA;1930;2100;3100;x;;;;;;;;;;;;
Brain-Class439;9019439;U20;1930;1930;1930;1930;3;8;0;3;0;5;0;BETA;1930;2100;3100;x;;;;;;;;;;;;
Brain-Class440;9019440;U20;1930;1930;1930;1930;3;8;0;3;0;5;0;BETA;1930;2100;3100;x;;;;;;;;;;;;
Brain-Class441;9019441;U20;1930;1930;1930;1930;3;8;0;3;0;5;0;BETA;1930;2100;3100;x;;;;;;;;;;;;
Brain-Class442;9019442;U20;1930;1930;1930;1930;3;8;0;3;0;5;0;BETA;1930;2100;3100;x;;;;;;;;;;;;
Brain-Class443;9019443;U20;1930;1930;1930;1930;3;8;0;3;0;5;0;BETA;1930;2100;3100;x;;;;;;;;;;;;
Brain-Class444;9019444;U20;1930;1930;1930;1930;3;8;0;3;0;5;0;BETA;1930;2100;3100;x;;;;;;;;;;;;
Brain-Class445;9019445;U20;1930;1930;1930;1930;3;8;0;3;0;5;0;BETA;1930;2100;3100;x;;;;;;;;;;;;
Brain-Class446;9019446;U20;1930;1930;1930;1930;3;8;0;3;0;5;0;BETA;1930;2100;3100;x;;;;;;;;;;;;
Brain-Class447;9019447;U20;1930;1930;1930;1930;3;8;0;3;0;5;0;BETA;1930;2100;3100;x;;;;;;;;;;;;
Brain-Class448;9019448;U20;1930;1930;1930;1930;3;8;0;3;0;5;0;BETA;1930;2100;3100;x;;;;;;;;;;;;
Brain-Class449;9019449;U20;1930;1930;1930;1930;3;8;0;3;0;5;0;BETA;1930;2100;3100;x;;;;;;;;;;;;
Brain-Class450;9019450;U20;1930;1930;1930;1930;3;8;0;3;0;5;0;BETA;1930;2100;3100;x;;;;;;;;;;;;
Brain-Class451;9019451;U20;1930;1930;1930;1930;3;8;0;3;0;5;0;BETA;1930;2100;3100;x;;;;;;;;;;;;
Brain-Class452;9019452;U20;1930;1930;1930;1930;3;8;0;3;0;5;0;BETA;1930;2100;3100;x;;;;;;;;;;;;
Brain-Class453;9019453;U20;1930;1930;1930;1930;3;8;0;3;0;5;0;BETA;1930;2100;3100;x;;;;;;;;;;;;
Brain-Class454;9019454;U20;1930;1930;1930;1930;3;8;0;3;0;5;0;BETA;1930;2100;3100;x;;;;;;;;;;;;
Brain-Class455;9019455;U20;1930;1930;1930;1930;3;8;0;3;0;5;0;BETA;1930;2100;3100;x;;;;;;;;;;;;
Brain-Class456;9019456;U20;1930;1930;1930;1930;3;8;0;3;0;5;0;BETA;1930;2100;3100;x;;;;;;;;;;;;
Brain-Class457;9019457;U20;1930;1930;1930;1930;3;8;0;3;0;5;0;BETA;1930;2100;3100;x;;;;;;;;;;;;
Brain-Class458;9019458;U20;1930;1930;1930;1930;3;8;0;3;0;5;0;BETA;1930;2100;3100;x;;;;;;;;;;;;
Brain-Class459;9019459;U20;1930;1930;1930;1930;3;8;0;3;0;5;0;BETA;1930;2100;3100;x;;;;;;;;;;;;
Brain-Class460;9019460;U20;1930;1930;1930;1930;3;8;0;3;0;5;0;BETA;1930;2100;3100;x;;;;;;;;;;;;
Brain-Class461;9019461;U20;1930;1930;1930;1930;3;8;0;3;0;5;0;BETA;1930;2100;3100;x;;;;;;;;;;;;
Brain-Class462;9019462;U20;1930;1930;1930;1930;3;8;0;3;0;5;0;BETA;1930;2100;3100;x;;;;;;;;;;;;
Brain-Class463;9019463;U20;1930;1930;1930;1930;3;8;0;3;0;5;0;BETA;1930;2100;3100;x;;;;;;;;;;;;
Brain-Class464;9019464;U20;1930;1930;1930;1930;3;8;0;3;0;5;0;BETA;1930;2100;3100;x;;;;;;;;;;;;
Brain-Class465;9019465;U20;1930;1930;1930;1930;3;8;0;3;0;5;0;BETA;1930;2100;3100;x;;;;;;;;;;;;
Brain-Class466;9019466;U20;1930;1930;1930;1930;3;8;0;3;0;5;0;BETA;1930;2100;3100;x;;;;;;;;;;;;
Brain-Class467;9019467;U20;1930;1930;1930;1930;3;8;0;3;0;5;0;BETA;1930;2100;3100;x;;;;;;;;;;;;
Brain-Class468;9019468;U20;1930;1930;1930;1930;3;8;0;3;0;5;0;BETA;1930;2100;3100;x;;;;;;;;;;;;
Brain-Class469;9019469;U20;1930;1930;1930;1930;3;8;0;3;0;5;0;BETA;1930;2100;3100;x;;;;;;;;;;;;
Brain-Class470;9019470;U20;1930;1930;1930;1930;3;8;0;3;0;5;0;BETA;1930;2100;3100;x;;;;;;;;;;;;
Brain-Class471;9019471;U20;1930;1930;1930;1930;3;8;0;3;0;5;0;BETA;1930;2100;3100;x;;;;;;;;;;;;
Brain-Class472;9019472;U20;1930;1930;1930;1930;3;8;0;3;0;5;0;BETA;1930;2100;3100;x;;;;;;;;;;;;
Brain-Class473;9019473;U20;1930;1930;1930;1930;3;8;0;3;0;5;0;BETA;1930;2100;3100;x;;;;;;;;;;;;
Brain-Class474;9019474;U20;1930;1930;1930;1930;3;8;0;3;0;5;0;BETA;1930;2100;3100;x;;;;;;;;;;;;
Brain-Class475;9019475;U20;1930;1930;1930;1930;3;8;0;3;0;5;0;BETA;1930;2100;3100;x;;;;;;;;;;;;
Brain-Class476;9019476;U20;1930;1930;1930;1930;3;8;0;3;0;5;0;BETA;1930;2100;3100;x;;;;;;;;;;;;
Brain-Class477;9019477;U20;1930;1930;1930;1930;3;8;0;3;0;5;0;BETA;1930;2100;3100;x;;;;;;;;;;;;
Brain-Class478;9019478;U20;1930;1930;1930;1930;3;8;0;3;0;5;0;BETA;1930;2100;3100;x;;;;;;;;;;;;
Brain-Class479;9019479;U20;1930;1930;1930;1930;3;8;0;3;0;5;0;BETA;1930;2100;3100;x;;;;;;;;;;;;
Brain-Class480;9019480;U20;1930;1930;1930;1930;3;8;0;3;0;5;0;BETA;1930;2100;3100;x;;;;;;;;;;;;
Brain-Class481;9019481;U20;1930;1930;1930;1930;3;8;0;3;0;5;0;BETA;1930;2100;3100;x;;;;;;;;;;;;
Brain-Class482;9019482;U20;1930;1930;1930;1930;3;8;0;3;0;5;0;BETA;1930;2100;3100;x;;;;;;;;;;;;
Brain-Class483;9019483;U20;1930;1930;1930;1930;3;8;0;3;0;5;0;BETA;1930;2100;3100;x;;;;;;;;;;;;
Brain-Class484;9019484;U20;1930;1930;1930;1930;3;8;0;3;0;5;0;BETA;1930;2100;3100;x;;;;;;;;;;;;
Brain-Class485;9019485;U20;1930;1930;1930;1930;3;8;0;3;0;5;0;BETA;1930;2100;3100;x;;;;;;;;;;;;
Brain-Class486;9019486;U20;1930;1930;1930;1930;3;8;0;3;0;5;0;BETA;1930;2100;3100;x;;;;;;;;;;;;
Brain-Class487;9019487;U20;1930;1930;1930;1930;3;8;0;3;0;5;0;BETA;1930;2100;3100;x;;;;;;;;;;;;
Brain-Class488;9019488;U20;1930;1930;1930;1930;3;8;0;3;0;5;0;BETA;1930;2100;3100;x;;;;;;;;;;;;
Brain-Class489;9019489;U20;1930;1930;1930;1930;3;8;0;3;0;5;0;BETA;1930;2100;3100;x;;;;;;;;;;;;
Brain-Class490;9019490;U20;1930;1930;1930;1930;3;8;0;3;0;5;0;BETA;1930;2100;3100;x;;;;;;;;;;;;
Brain-Class491;9019491;U20;1930;1930;1930;1930;3;8;0;3;0;5;0;BETA;1930;2100;3100;x;;;;;;;;;;;;
Brain-Class492;9019492;U20;1930;1930;1930;1930;3;8;0;3;0;5;0;BETA;1930;2100;3100;x;;;;;;;;;;;;
Brain-Class493;9019493;U20;1930;1930;1930;1930;3;8;0;3;0;5;0;BETA;1930;2100;3100;x;;;;;;;;;;;;
Brain-Class494;9019494;U20;1930;1930;1930;1930;3;8;0;3;0;5;0;BETA;1930;2100;3100;x;;;;;;;;;;;;
Brain-Class495;9019495;U20;1930;1930;1930;1930;3;8;0;3;0;5;0;BETA;1930;2100;3100;x;;;;;;;;;;;;
Brain-Class496;9019496;U20;1930;1930;1930;1930;3;8;0;3;0;5;0;BETA;1930;2100;3100;x;;;;;;;;;;;;
Brain-Class497;9019497;U20;1930;1930;1930;1930;3;8;0;3;0;5;0;BETA;1930;2100;3100;x;;;;;;;;;;;;
Brain-Class498;9019498;U20;1930;1930;1930;1930;3;8;0;3;0;5;0;BETA;1930;2100;3100;x;;;;;;;;;;;;
Brain-Class499;9019499;U20;1930;1930;1930;1930;3;8;0;3;0;5;0;BETA;1930;2100;3100;x;;;;;;;;;;;;
Brain-Class500;9019500;U20;1930;1930;1930;1930;3;8;0;3;0;5;0;BETA;1930;2100;3100;x;;;;;;;;;;;;
Brain-Class501;9019501;U20;1930;1930;1930;1930;3;8;0;3;0;5;0;BETA;1930;2100;3100;x;;;;;;;;;;;;
Brain-Class502;9019502;U20;1930;1930;1930;1930;3;8;0;3;0;5;0;BETA;1930;2100;3100;x;;;;;;;;;;;;
Brain-Class503;9019503;U20;1930;1930;1930;1930;3;8;0;3;0;5;0;BETA;1930;2100;3100;x;;;;;;;;;;;;
Brain-Class504;9019504;U20;1930;1930;1930;1930;3;8;0;3;0;5;0;BETA;1930;2100;3100;x;;;;;;;;;;;;
Brain-Class505;9019505;U20;1930;1930;1930;1930;3;8;0;3;0;5;0;BETA;1930;2100;3100;x;;;;;;;;;;;;
Brain-Class506;9019506;U20;1930;1930;1930;1930;3;8;0;3;0;5;0;BETA;1930;2100;3100;x;;;;;;;;;;;;
Brain-Class507;9019507;U20;1930;1930;1930;1930;3;8;0;3;0;5;0;BETA;1930;2100;3100;x;;;;;;;;;;;;
Brain-Class508;9019508;U20;1930;1930;1930;1930;3;8;0;3;0;5;0;BETA;1930;2100;3100;x;;;;;;;;;;;;
Brain-Class509;9019509;U20;1930;1930;1930;1930;3;8;0;3;0;5;0;BETA;1930;2100;3100;x;;;;;;;;;;;;
Brain-Class510;9019510;U20;1930;1930;1930;1930;3;8;0;3;0;5;0;BETA;1930;2100;3100;x;;;;;;;;;;;;
Brain-Class511;9019511;U20;1930;1930;1930;1930;3;8;0;3;0;5;0;BETA;1930;2100;3100;x;;;;;;;;;;;;
Brain-Class512;9019512;U20;1930;1930;1930;1930;3;8;0;3;0;5;0;BETA;1930;2100;3100;x;;;;;;;;;;;;
Brain-Class513;9019513;U20;1930;1930;1930;1930;3;8;0;3;0;5;0;BETA;1930;2100;3100;x;;;;;;;;;;;;
Brain-Class514;9019514;U20;1930;1930;1930;1930;3;8;0;3;0;5;0;BETA;1930;2100;3100;x;;;;;;;;;;;;
Brain-Class515;9019515;U20;1930;1930;1930;1930;3;8;0;3;0;5;0;BETA;1930;2100;3100;x;;;;;;;;;;;;
Brain-Class516;9019516;U20;1930;1930;1930;1930;3;8;0;3;0;5;0;BETA;1930;2100;3100;x;;;;;;;;;;;;
Brain-Class517;9019517;U20;1930;1930;1930;1930;3;8;0;3;0;5;0;BETA;1930;2100;3100;x;;;;;;;;;;;;
Brain-Class518;9019518;U20;1930;1930;1930;1930;3;8;0;3;0;5;0;BETA;1930;2100;3100;x;;;;;;;;;;;;
Brain-Class519;9019519;U20;1930;1930;1930;1930;3;8;0;3;0;5;0;BETA;1930;2100;3100;x;;;;;;;;;;;;
Brain-Class520;9019520;U20;1930;1930;1930;1930;3;8;0;3;0;5;0;BETA;1930;2100;3100;x;;;;;;;;;;;;
Brain-Class521;9019521;U20;1930;1930;1930;1930;3;8;0;3;0;5;0;BETA;1930;2100;3100;x;;;;;;;;;;;;
Brain-Class522;9019522;U20;1930;1930;1930;1930;3;8;0;3;0;5;0;BETA;1930;2100;3100;x;;;;;;;;;;;;
Brain-Class523;9019523;U20;1930;1930;1930;1930;3;8;0;3;0;5;0;BETA;1930;2100;3100;x;;;;;;;;;;;;
Brain-Class524;9019524;U20;1930;1930;1930;1930;3;8;0;3;0;5;0;BETA;1930;2100;3100;x;;;;;;;;;;;;
Brain-Class525;9019525;U20;1930;1930;1930;1930;3;8;0;3;0;5;0;BETA;1930;2100;3100;x;;;;;;;;;;;;
Brain-Class526;9019526;U20;1930;1930;1930;1930;3;8;0;3;0;5;0;BETA;1930;2100;3100;x;;;;;;;;;;;;
Brain-Class527;9019527;U20;1930;1930;1930;1930;3;8;0;3;0;5;0;BETA;1930;2100;3100;x;;;;;;;;;;;;
Brain-Class528;9019528;U20;1930;1930;1930;1930;3;8;0;3;0;5;0;BETA;1930;2100;3100;x;;;;;;;;;;;;
Brain-Class529;9019529;U20;1930;1930;1930;1930;3;8;0;3;0;5;0;BETA;1930;2100;3100;x;;;;;;;;;;;;
Brain-Class530;9019530;U20;1930;1930;1930;1930;3;8;0;3;0;5;0;BETA;1930;2100;3100;x;;;;;;;;;;;;
Brain-Class531;9019531;U20;1930;1930;1930;1930;3;8;0;3;0;5;0;BETA;1930;2100;3100;x;;;;;;;;;;;;
Brain-Class532;9019532;U20;1930;1930;1930;1930;3;8;0;3;0;5;0;BETA;1930;2100;3100;x;;;;;;;;;;;;
Brain-Class533;9019533;U20;1930;1930;1930;1930;3;8;0;3;0;5;0;BETA;1930;2100;3100;x;;;;;;;;;;;;
Brain-Class534;9019534;U20;1930;1930;1930;1930;3;8;0;3;0;5;0;BETA;1930;2100;3100;x;;;;;;;;;;;;
Brain-Class535;9019535;U20;1930;1930;1930;1930;3;8;0;3;0;5;0;BETA;1930;2100;3100;x;;;;;;;;;;;;
Brain-Class536;9019536;U20;1930;1930;1930;1930;3;8;0;3;0;5;0;BETA;1930;2100;3100;x;;;;;;;;;;;;
Brain-Class537;9019537;U20;1930;1930;1930;1930;3;8;0;3;0;5;0;BETA;1930;2100;3100;x;;;;;;;;;;;;
Brain-Class538;9019538;U20;1930;1930;1930;1930;3;8;0;3;0;5;0;BETA;1930;2100;3100;x;;;;;;;;;;;;
Brain-Class539;9019539;U20;1930;1930;1930;1930;3;8;0;3;0;5;0;BETA;1930;2100;3100;x;;;;;;;;;;;;
Brain-Class540;9019540;U20;1930;1930;1930;1930;3;8;0;3;0;5;0;BETA;1930;2100;3100;x;;;;;;;;;;;;
Brain-Class541;9019541;U20;1930;1930;1930;1930;3;8;0;3;0;5;0;BETA;1930;2100;3100;x;;;;;;;;;;;;
Brain-Class542;9019542;U20;1930;1930;1930;1930;3;8;0;3;0;5;0;BETA;1930;2100;3100;x;;;;;;;;;;;;
Brain-Class543;9019543;U20;1930;1930;1930;1930;3;8;0;3;0;5;0;BETA;1930;2100;3100;x;;;;;;;;;;;;
Brain-Class544;9019544;U20;1930;1930;1930;1930;3;8;0;3;0;5;0;BETA;1930;2100;3100;x;;;;;;;;;;;;
Brain-Class545;9019545;U20;1930;1930;1930;1930;3;8;0;3;0;5;0;BETA;1930;2100;3100;x;;;;;;;;;;;;
Brain-Class546;9019546;U20;1930;1930;1930;1930;3;8;0;3;0;5;0;BETA;1930;2100;3100;x;;;;;;;;;;;;
Brain-Class547;9019547;U20;1930;1930;1930;1930;3;8;0;3;0;5;0;BETA;1930;2100;3100;x;;;;;;;;;;;;
Brain-Class548;9019548;U20;1930;1930;1930;1930;3;8;0;3;0;5;0;BETA;1930;2100;3100;x;;;;;;;;;;;;
Brain-Class549;9019549;U20;1930;1930;1930;1930;3;8;0;3;0;5;0;BETA;1930;2100;3100;x;;;;;;;;;;;;
Brain-Class550;9019550;U20;1930;1930;1930;1930;3;8;0;3;0;5;0;BETA;1930;2100;3100;x;;;;;;;;;;;;
Brain-Class551;9019551;U20;1930;1930;1930;1930;3;8;0;3;0;5;0;BETA;1930;2100;3100;x;;;;;;;;;;;;
Brain-Class552;9019552;U20;1930;1930;1930;1930;3;8;0;3;0;5;0;BETA;1930;2100;3100;x;;;;;;;;;;;;
Brain-Class553;9019553;U20;1930;1930;1930;1930;3;8;0;3;0;5;0;BETA;1930;2100;3100;x;;;;;;;;;;;;
Brain-Class554;9019554;U20;1930;1930;1930;1930;3;8;0;3;0;5;0;BETA;1930;2100;3100;x;;;;;;;;;;;;
Brain-Class555;9019555;U20;1930;1930;1930;1930;3;8;0;3;0;5;0;BETA;1930;2100;3100;x;;;;;;;;;;;;
Brain-Class556;9019556;U20;1930;1930;1930;1930;3;8;0;3;0;5;0;BETA;1930;2100;3100;x;;;;;;;;;;;;
Brain-Class557;9019557;U20;1930;1930;1930;1930;3;8;0;3;0;5;0;BETA;1930;2100;3100;x;;;;;;;;;;;;
Brain-Class558;9019558;U20;1930;1930;1930;1930;3;8;0;3;0;5;0;BETA;1930;2100;3100;x;;;;;;;;;;;;
Brain-Class559;9019559;U20;1930;1930;1930;1930;3;8;0;3;0;5;0;BETA;1930;2100;3100;x;;;;;;;;;;;;
Brain-Class560;9019560;U20;1930;1930;1930;1930;3;8;0;3;0;5;0;BETA;1930;2100;3100;x;;;;;;;;;;;;
Brain-Class561;9019561;U20;1930;1930;1930;1930;3;8;0;3;0;5;0;BETA;1930;2100;3100;x;;;;;;;;;;;;
Brain-Class562;9019562;U20;1930;1930;1930;1930;3;8;0;3;0;5;0;BETA;1930;2100;3100;x;;;;;;;;;;;;
Brain-Class563;9019563;U20;1930;1930;1930;1930;3;8;0;3;0;5;0;BETA;1930;2100;3100;x;;;;;;;;;;;;
Brain-Class564;9019564;U20;1930;1930;1930;1930;3;8;0;3;0;5;0;BETA;1930;2100;3100;x;;;;;;;;;;;;
Brain-Class565;9019565;U20;1930;1930;1930;1930;3;8;0;3;0;5;0;BETA;1930;2100;3100;x;;;;;;;;;;;;
Brain-Class566;9019566;U20;1930;1930;1930;1930;3;8;0;3;0;5;0;BETA;1930;2100;3100;x;;;;;;;;;;;;
Brain-Class567;9019567;U20;1930;1930;1930;1930;3;8;0;3;0;5;0;BETA;1930;2100;3100;x;;;;;;;;;;;;
Brain-Class568;9019568;U20;1930;1930;1930;1930;3;8;0;3;0;5;0;BETA;1930;2100;3100;x;;;;;;;;;;;;
Brain-Class569;9019569;U20;1930;1930;1930;1930;3;8;0;3;0;5;0;BETA;1930;2100;3100;x;;;;;;;;;;;;
Brain-Class570;9019570;U20;1930;1930;1930;1930;3;8;0;3;0;5;0;BETA;1930;2100;3100;x;;;;;;;;;;;;
Brain-Class571;9019571;U20;1930;1930;1930;1930;3;8;0;3;0;5;0;BETA;1930;2100;3100;x;;;;;;;;;;;;
Brain-Class572;9019572;U20;1930;1930;1930;1930;3;8;0;3;0;5;0;BETA;1930;2100;3100;x;;;;;;;;;;;;
Brain-Class573;9019573;U20;1930;1930;1930;1930;3;8;0;3;0;5;0;BETA;1930;2100;3100;x;;;;;;;;;;;;
Brain-Class574;9019574;U20;1930;1930;1930;1930;3;8;0;3;0;5;0;BETA;1930;2100;3100;x;;;;;;;;;;;;
Brain-Class575;9019575;U20;1930;1930;1930;1930;3;8;0;3;0;5;0;BETA;1930;2100;3100;x;;;;;;;;;;;;
Brain-Class576;9019576;U20;1930;1930;1930;1930;3;8;0;3;0;5;0;BETA;1930;2100;3100;x;;;;;;;;;;;;
Brain-Class577;9019577;U20;1930;1930;1930;1930;3;8;0;3;0;5;0;BETA;1930;2100;3100;x;;;;;;;;;;;;
Brain-Class578;9019578;U20;1930;1930;1930;1930;3;8;0;3;0;5;0;BETA;1930;2100;3100;x;;;;;;;;;;;;
Brain-Class579;9019579;U20;1930;1930;1930;1930;3;8;0;3;0;5;0;BETA;1930;2100;3100;x;;;;;;;;;;;;
Brain-Class580;9019580;U20;1930;1930;1930;1930;3;8;0;3;0;5;0;BETA;1930;2100;3100;x;;;;;;;;;;;;
Brain-Class581;9019581;U20;1930;1930;1930;1930;3;8;0;3;0;5;0;BETA;1930;2100;3100;x;;;;;;;;;;;;
Brain-Class582;9019582;U20;1930;1930;1930;1930;3;8;0;3;0;5;0;BETA;1930;2100;3100;x;;;;;;;;;;;;
Brain-Class583;9019583;U20;1930;1930;1930;1930;3;8;0;3;0;5;0;BETA;1930;2100;3100;x;;;;;;;;;;;;
Brain-Class584;9019584;U20;1930;1930;1930;1930;3;8;0;3;0;5;0;BETA;1930;2100;3100;x;;;;;;;;;;;;
Brain-Class585;9019585;U20;1930;1930;1930;1930;3;8;0;3;0;5;0;BETA;1930;2100;3100;x;;;;;;;;;;;;
Brain-Class586;9019586;U20;1930;1930;1930;1930;3;8;0;3;0;5;0;BETA;1930;2100;3100;x;;;;;;;;;;;;
Brain-Class587;9019587;U20;1930;1930;1930;1930;3;8;0;3;0;5;0;BETA;1930;2100;3100;x;;;;;;;;;;;;
Brain-Class588;9019588;U20;1930;1930;1930;1930;3;8;0;3;0;5;0;BETA;1930;2100;3100;x;;;;;;;;;;;;
Brain-Class589;9019589;U20;1930;1930;1930;1930;3;8;0;3;0;5;0;BETA;1930;2100;3100;x;;;;;;;;;;;;
Brain-Class590;9019590;U20;1930;1930;1930;1930;3;8;0;3;0;5;0;BETA;1930;2100;3100;x;;;;;;;;;;;;
Brain-Class591;9019591;U20;1930;1930;1930;1930;3;8;0;3;0;5;0;BETA;1930;2100;3100;x;;;;;;;;;;;;
Brain-Class592;9019592;U20;1930;1930;1930;1930;3;8;0;3;0;5;0;BETA;1930;2100;3100;x;;;;;;;;;;;;
Brain-Class593;9019593;U20;1930;1930;1930;1930;3;8;0;3;0;5;0;BETA;1930;2100;3100;x;;;;;;;;;;;;
Brain-Class594;9019594;U20;1930;1930;1930;1930;3;8;0;3;0;5;0;BETA;1930;2100;3100;x;;;;;;;;;;;;
Brain-Class595;9019595;U20;1930;1930;1930;1930;3;8;0;3;0;5;0;BETA;1930;2100;3100;x;;;;;;;;;;;;
Brain-Class596;9019596;U20;1930;1930;1930;1930;3;8;0;3;0;5;0;BETA;1930;2100;3100;x;;;;;;;;;;;;
Brain-Class597;9019597;U20;1930;1930;1930;1930;3;8;0;3;0;5;0;BETA;1930;2100;3100;x;;;;;;;;;;;;
Brain-Class598;9019598;U20;1930;1930;1930;1930;3;8;0;3;0;5;0;BETA;1930;2100;3100;x;;;;;;;;;;;;
Brain-Class599;9019599;U20;1930;1930;1930;1930;3;8;0;3;0;5;0;BETA;1930;2100;3100;x;;;;;;;;;;;;
Brain-Class600;9019600;U20;1930;1930;1930;1930;3;8;0;3;0;5;0;BETA;1930;2100;3100;x;;;;;;;;;;;;
Brain-Class601;9019601;U20;1930;1930;1930;1930;3;8;0;3;0;5;0;BETA;1930;2100;3100;x;;;;;;;;;;;;
Brain-Class602;9019602;U20;1930;1930;1930;1930;3;8;0;3;0;5;0;BETA;1930;2100;3100;x;;;;;;;;;;;;
Brain-Class603;9019603;U20;1930;1930;1930;1930;3;8;0;3;0;5;0;BETA;1930;2100;3100;x;;;;;;;;;;;;
Brain-Class604;9019604;U20;1930;1930;1930;1930;3;8;0;3;0;5;0;BETA;1930;2100;3100;x;;;;;;;;;;;;
Brain-Class605;9019605;U20;1930;1930;1930;1930;3;8;0;3;0;5;0;BETA;1930;2100;3100;x;;;;;;;;;;;;
Brain-Class606;9019606;U20;1930;1930;1930;1930;3;8;0;3;0;5;0;BETA;1930;2100;3100;x;;;;;;;;;;;;
Brain-Class607;9019607;U20;1930;1930;1930;1930;3;8;0;3;0;5;0;BETA;1930;2100;3100;x;;;;;;;;;;;;
Brain-Class608;9019608;U20;1930;1930;1930;1930;3;8;0;3;0;5;0;BETA;1930;2100;3100;x;;;;;;;;;;;;
Brain-Class609;9019609;U20;1930;1930;1930;1930;3;8;0;3;0;5;0;BETA;1930;2100;3100;x;;;;;;;;;;;;
Brain-Class610;9019610;U20;1930;1930;1930;1930;3;8;0;3;0;5;0;BETA;1930;2100;3100;x;;;;;;;;;;;;
Brain-Class611;9019611;U20;1930;1930;1930;1930;3;8;0;3;0;5;0;BETA;1930;2100;3100;x;;;;;;;;;;;;
Brain-Class612;9019612;U20;1930;1930;1930;1930;3;8;0;3;0;5;0;BETA;1930;2100;3100;x;;;;;;;;;;;;
Brain-Class613;9019613;U20;1930;1930;1930;1930;3;8;0;3;0;5;0;BETA;1930;2100;3100;x;;;;;;;;;;;;
Brain-Class614;9019614;U20;1930;1930;1930;1930;3;8;0;3;0;5;0;BETA;1930;2100;3100;x;;;;;;;;;;;;
Brain-Class615;9019615;U20;1930;1930;1930;1930;3;8;0;3;0;5;0;BETA;1930;2100;3100;x;;;;;;;;;;;;
Brain-Class616;9019616;U20;1930;1930;1930;1930;3;8;0;3;0;5;0;BETA;1930;2100;3100;x;;;;;;;;;;;;
Brain-Class617;9019617;U20;1930;1930;1930;1930;3;8;0;3;0;5;0;BETA;1930;2100;3100;x;;;;;;;;;;;;
Brain-Class618;9019618;U20;1930;1930;1930;1930;3;8;0;3;0;5;0;BETA;1930;2100;3100;x;;;;;;;;;;;;
Brain-Class619;9019619;U20;1930;1930;1930;1930;3;8;0;3;0;5;0;BETA;1930;2100;3100;x;;;;;;;;;;;;
Brain-Class620;9019620;U20;1930;1930;1930;1930;3;8;0;3;0;5;0;BETA;1930;2100;3100;x;;;;;;;;;;;;
Brain-Class621;9019621;U20;1930;1930;1930;1930;3;8;0;3;0;5;0;BETA;1930;2100;3100;x;;;;;;;;;;;;
Brain-Class622;9019622;U20;1930;1930;1930;1930;3;8;0;3;0;5;0;BETA;1930;2100;3100;x;;;;;;;;;;;;
Brain-Class623;9019623;U20;1930;1930;1930;1930;3;8;0;3;0;5;0;BETA;1930;2100;3100;x;;;;;;;;;;;;
Brain-Class624;9019624;U20;1930;1930;1930;1930;3;8;0;3;0;5;0;BETA;1930;2100;3100;x;;;;;;;;;;;;
Brain-Class625;9019625;U20;1930;1930;1930;1930;3;8;0;3;0;5;0;BETA;1930;2100;3100;x;;;;;;;;;;;;
Brain-Class626;9019626;U20;1930;1930;1930;1930;3;8;0;3;0;5;0;BETA;1930;2100;3100;x;;;;;;;;;;;;
Brain-Class627;9019627;U20;1930;1930;1930;1930;3;8;0;3;0;5;0;BETA;1930;2100;3100;x;;;;;;;;;;;;
Brain-Class628;9019628;U20;1930;1930;1930;1930;3;8;0;3;0;5;0;BETA;1930;2100;3100;x;;;;;;;;;;;;
Brain-Class629;9019629;U20;1930;1930;1930;1930;3;8;0;3;0;5;0;BETA;1930;2100;3100;x;;;;;;;;;;;;
Brain-Class630;9019630;U20;1930;1930;1930;1930;3;8;0;3;0;5;0;BETA;1930;2100;3100;x;;;;;;;;;;;;
Brain-Class631;9019631;U20;1930;1930;1930;1930;3;8;0;3;0;5;0;BETA;1930;2100;3100;x;;;;;;;;;;;;
Brain-Class632;9019632;U20;1930;1930;1930;1930;3;8;0;3;0;5;0;BETA;1930;2100;3100;x;;;;;;;;;;;;
Brain-Class633;9019633;U20;1930;1930;1930;1930;3;8;0;3;0;5;0;BETA;1930;2100;3100;x;;;;;;;;;;;;
Brain-Class634;9019634;U20;1930;1930;1930;1930;3;8;0;3;0;5;0;BETA;1930;2100;3100;x;;;;;;;;;;;;
Brain-Class635;9019635;U20;1930;1930;1930;1930;3;8;0;3;0;5;0;BETA;1930;2100;3100;x;;;;;;;;;;;;
Brain-Class636;9019636;U20;1930;1930;1930;1930;3;8;0;3;0;5;0;BETA;1930;2100;3100;x;;;;;;;;;;;;
Brain-Class637;9019637;U20;1930;1930;1930;1930;3;8;0;3;0;5;0;BETA;1930;2100;3100;x;;;;;;;;;;;;
Brain-Class638;9019638;U20;1930;1930;1930;1930;3;8;0;3;0;5;0;BETA;1930;2100;3100;x;;;;;;;;;;;;
Brain-Class639;9019639;U20;1930;1930;1930;1930;3;8;0;3;0;5;0;BETA;1930;2100;3100;x;;;;;;;;;;;;
Brain-Class640;9019640;U20;1930;1930;1930;1930;3;8;0;3;0;5;0;BETA;1930;2100;3100;x;;;;;;;;;;;;
Brain-Class641;9019641;U20;1930;1930;1930;1930;3;8;0;3;0;5;0;BETA;1930;2100;3100;x;;;;;;;;;;;;
Brain-Class642;9019642;U20;1930;1930;1930;1930;3;8;0;3;0;5;0;BETA;1930;2100;3100;x;;;;;;;;;;;;
Brain-Class643;9019643;U20;1930;1930;1930;1930;3;8;0;3;0;5;0;BETA;1930;2100;3100;x;;;;;;;;;;;;
Brain-Class644;9019644;U20;1930;1930;1930;1930;3;8;0;3;0;5;0;BETA;1930;2100;3100;x;;;;;;;;;;;;
Brain-Class645;9019645;U20;1930;1930;1930;1930;3;8;0;3;0;5;0;BETA;1930;2100;3100;x;;;;;;;;;;;;
Brain-Class646;9019646;U20;1930;1930;1930;1930;3;8;0;3;0;5;0;BETA;1930;2100;3100;x;;;;;;;;;;;;
Brain-Class647;9019647;U20;1930;1930;1930;1930;3;8;0;3;0;5;0;BETA;1930;2100;3100;x;;;;;;;;;;;;
Brain-Class648;9019648;U20;1930;1930;1930;1930;3;8;0;3;0;5;0;BETA;1930;2100;3100;x;;;;;;;;;;;;
Brain-Class649;9019649;U20;1930;1930;1930;1930;3;8;0;3;0;5;0;BETA;1930;2100;3100;x;;;;;;;;;;;;
Brain-Class650;9019650;U20;1930;1930;1930;1930;3;8;0;3;0;5;0;BETA;1930;2100;3100;x;;;;;;;;;;;;
Brain-Class651;9019651;U20;1930;1930;1930;1930;3;8;0;3;0;5;0;BETA;1930;2100;3100;x;;;;;;;;;;;;
Brain-Class652;9019652;U20;1930;1930;1930;1930;3;8;0;3;0;5;0;BETA;1930;2100;3100;x;;;;;;;;;;;;
Brain-Class653;9019653;U20;1930;1930;1930;1930;3;8;0;3;0;5;0;BETA;1930;2100;3100;x;;;;;;;;;;;;
Brain-Class654;9019654;U20;1930;1930;1930;1930;3;8;0;3;0;5;0;BETA;1930;2100;3100;x;;;;;;;;;;;;
Brain-Class655;9019655;U20;1930;1930;1930;1930;3;8;0;3;0;5;0;BETA;1930;2100;3100;x;;;;;;;;;;;;
Brain-Class656;9019656;U20;1930;1930;1930;1930;3;8;0;3;0;5;0;BETA;1930;2100;3100;x;;;;;;;;;;;;
Brain-Class657;9019657;U20;1930;1930;1930;1930;3;8;0;3;0;5;0;BETA;1930;2100;3100;x;;;;;;;;;;;;
Brain-Class658;9019658;U20;1930;1930;1930;1930;3;8;0;3;0;5;0;BETA;1930;2100;3100;x;;;;;;;;;;;;
Brain-Class659;9019659;U20;1930;1930;1930;1930;3;8;0;3;0;5;0;BETA;1930;2100;3100;x;;;;;;;;;;;;
Brain-Class660;9019660;U20;1930;1930;1930;1930;3;8;0;3;0;5;0;BETA;1930;2100;3100;x;;;;;;;;;;;;
Brain-Class661;9019661;U20;1930;1930;1930;1930;3;8;0;3;0;5;0;BETA;1930;2100;3100;x;;;;;;;;;;;;
Brain-Class662;9019662;U20;1930;1930;1930;1930;3;8;0;3;0;5;0;BETA;1930;2100;3100;x;;;;;;;;;;;;
Brain-Class663;9019663;U20;1930;1930;1930;1930;3;8;0;3;0;5;0;BETA;1930;2100;3100;x;;;;;;;;;;;;
Brain-Class664;9019664;U20;1930;1930;1930;1930;3;8;0;3;0;5;0;BETA;1930;2100;3100;x;;;;;;;;;;;;
Brain-Class665;9019665;U20;1930;1930;1930;1930;3;8;0;3;0;5;0;BETA;1930;2100;3100;x;;;;;;;;;;;;
Brain-Class666;9019666;U20;1930;1930;1930;1930;3;8;0;3;0;5;0;BETA;1930;2100;3100;x;;;;;;;;;;;;
Brain-Class667;9019667;U20;1930;1930;1930;1930;3;8;0;3;0;5;0;BETA;1930;2100;3100;x;;;;;;;;;;;;
Brain-Class668;9019668;U20;1930;1930;1930;1930;3;8;0;3;0;5;0;BETA;1930;2100;3100;x;;;;;;;;;;;;
Brain-Class669;9019669;U20;1930;1930;1930;1930;3;8;0;3;0;5;0;BETA;1930;2100;3100;x;;;;;;;;;;;;
Brain-Class670;9019670;U20;1930;1930;1930;1930;3;8;0;3;0;5;0;BETA;1930;2100;3100;x;;;;;;;;;;;;
Brain-Class671;9019671;U20;1930;1930;1930;1930;3;8;0;3;0;5;0;BETA;1930;2100;3100;x;;;;;;;;;;;;
Brain-Class672;9019672;U20;1930;1930;1930;1930;3;8;0;3;0;5;0;BETA;1930;2100;3100;x;;;;;;;;;;;;
Brain-Class673;9019673;U20;1930;1930;1930;1930;3;8;0;3;0;5;0;BETA;1930;2100;3100;x;;;;;;;;;;;;
Brain-Class674;9019674;U20;1930;1930;1930;1930;3;8;0;3;0;5;0;BETA;1930;2100;3100;x;;;;;;;;;;;;
Brain-Class675;9019675;U20;1930;1930;1930;1930;3;8;0;3;0;5;0;BETA;1930;2100;3100;x;;;;;;;;;;;;
Brain-Class676;9019676;U20;1930;1930;1930;1930;3;8;0;3;0;5;0;BETA;1930;2100;3100;x;;;;;;;;;;;;
Brain-Class677;9019677;U20;1930;1930;1930;1930;3;8;0;3;0;5;0;BETA;1930;2100;3100;x;;;;;;;;;;;;
Brain-Class678;9019678;U20;1930;1930;1930;1930;3;8;0;3;0;5;0;BETA;1930;2100;3100;x;;;;;;;;;;;;
Brain-Class679;9019679;U20;1930;1930;1930;1930;3;8;0;3;0;5;0;BETA;1930;2100;3100;x;;;;;;;;;;;;
Brain-Class680;9019680;U20;1930;1930;1930;1930;3;8;0;3;0;5;0;BETA;1930;2100;3100;x;;;;;;;;;;;;
Brain-Class681;9019681;U20;1930;1930;1930;1930;3;8;0;3;0;5;0;BETA;1930;2100;3100;x;;;;;;;;;;;;
Brain-Class682;9019682;U20;1930;1930;1930;1930;3;8;0;3;0;5;0;BETA;1930;2100;3100;x;;;;;;;;;;;;
Brain-Class683;9019683;U20;1930;1930;1930;1930;3;8;0;3;0;5;0;BETA;1930;2100;3100;x;;;;;;;;;;;;
Brain-Class684;9019684;U20;1930;1930;1930;1930;3;8;0;3;0;5;0;BETA;1930;2100;3100;x;;;;;;;;;;;;
Brain-Class685;9019685;U20;1930;1930;1930;1930;3;8;0;3;0;5;0;BETA;1930;2100;3100;x;;;;;;;;;;;;
Brain-Class686;9019686;U20;1930;1930;1930;1930;3;8;0;3;0;5;0;BETA;1930;2100;3100;x;;;;;;;;;;;;
Brain-Class687;9019687;U20;1930;1930;1930;1930;3;8;0;3;0;5;0;BETA;1930;2100;3100;x;;;;;;;;;;;;
Brain-Class688;9019688;U20;1930;1930;1930;1930;3;8;0;3;0;5;0;BETA;1930;2100;3100;x;;;;;;;;;;;;
Brain-Class689;9019689;U20;1930;1930;1930;1930;3;8;0;3;0;5;0;BETA;1930;2100;3100;x;;;;;;;;;;;;
Brain-Class690;9019690;U20;1930;1930;1930;1930;3;8;0;3;0;5;0;BETA;1930;2100;3100;x;;;;;;;;;;;;
Brain-Class691;9019691;U20;1930;1930;1930;1930;3;8;0;3;0;5;0;BETA;1930;2100;3100;x;;;;;;;;;;;;
Brain-Class692;9019692;U20;1930;1930;1930;1930;3;8;0;3;0;5;0;BETA;1930;2100;3100;x;;;;;;;;;;;;
Brain-Class693;9019693;U20;1930;1930;1930;1930;3;8;0;3;0;5;0;BETA;1930;2100;3100;x;;;;;;;;;;;;
Brain-Class694;9019694;U20;1930;1930;1930;1930;3;8;0;3;0;5;0;BETA;1930;2100;3100;x;;;;;;;;;;;;
Brain-Class695;9019695;U20;1930;1930;1930;1930;3;8;0;3;0;5;0;BETA;1930;2100;3100;x;;;;;;;;;;;;
Brain-Class696;9019696;U20;1930;1930;1930;1930;3;8;0;3;0;5;0;BETA;1930;2100;3100;x;;;;;;;;;;;;
Brain-Class697;9019697;U20;1930;1930;1930;1930;3;8;0;3;0;5;0;BETA;1930;2100;3100;x;;;;;;;;;;;;
Brain-Class698;9019698;U20;1930;1930;1930;1930;3;8;0;3;0;5;0;BETA;1930;2100;3100;x;;;;;;;;;;;;
Brain-Class699;9019699;U20;1930;1930;1930;1930;3;8;0;3;0;5;0;BETA;1930;2100;3100;x;;;;;;;;;;;;
Brain-Class700;9019700;U20;1930;1930;1930;1930;3;8;0;3;0;5;0;BETA;1930;2100;3100;x;;;;;;;;;;;;
Brain-Class701;9019701;U20;1930;1930;1930;1930;3;8;0;3;0;5;0;BETA;1930;2100;3100;x;;;;;;;;;;;;
Brain-Class702;9019702;U20;1930;1930;1930;1930;3;8;0;3;0;5;0;BETA;1930;2100;3100;x;;;;;;;;;;;;
Brain-Class703;9019703;U20;1930;1930;1930;1930;3;8;0;3;0;5;0;BETA;1930;2100;3100;x;;;;;;;;;;;;
Brain-Class704;9019704;U20;1930;1930;1930;1930;3;8;0;3;0;5;0;BETA;1930;2100;3100;x;;;;;;;;;;;;
Brain-Class705;9019705;U20;1930;1930;1930;1930;3;8;0;3;0;5;0;BETA;1930;2100;3100;x;;;;;;;;;;;;
Brain-Class706;9019706;U20;1930;1930;1930;1930;3;8;0;3;0;5;0;BETA;1930;2100;3100;x;;;;;;;;;;;;
Brain-Class707;9019707;U20;1930;1930;1930;1930;3;8;0;3;0;5;0;BETA;1930;2100;3100;x;;;;;;;;;;;;
Brain-Class708;9019708;U20;1930;1930;1930;1930;3;8;0;3;0;5;0;BETA;1930;2100;3100;x;;;;;;;;;;;;
Brain-Class709;9019709;U20;1930;1930;1930;1930;3;8;0;3;0;5;0;BETA;1930;2100;3100;x;;;;;;;;;;;;
Brain-Class710;9019710;U20;1930;1930;1930;1930;3;8;0;3;0;5;0;BETA;1930;2100;3100;x;;;;;;;;;;;;
Brain-Class711;9019711;U20;1930;1930;1930;1930;3;8;0;3;0;5;0;BETA;1930;2100;3100;x;;;;;;;;;;;;
Brain-Class712;9019712;U20;1930;1930;1930;1930;3;8;0;3;0;5;0;BETA;1930;2100;3100;x;;;;;;;;;;;;
Brain-Class713;9019713;U20;1930;1930;1930;1930;3;8;0;3;0;5;0;BETA;1930;2100;3100;x;;;;;;;;;;;;
Brain-Class714;9019714;U20;1930;1930;1930;1930;3;8;0;3;0;5;0;BETA;1930;2100;3100;x;;;;;;;;;;;;
Brain-Class715;9019715;U20;1930;1930;1930;1930;3;8;0;3;0;5;0;BETA;1930;2100;3100;x;;;;;;;;;;;;
Brain-Class716;9019716;U20;1930;1930;1930;1930;3;8;0;3;0;5;0;BETA;1930;2100;3100;x;;;;;;;;;;;;
Brain-Class717;9019717;U20;1930;1930;1930;1930;3;8;0;3;0;5;0;BETA;1930;2100;3100;x;;;;;;;;;;;;
Brain-Class718;9019718;U20;1930;1930;1930;1930;3;8;0;3;0;5;0;BETA;1930;2100;3100;x;;;;;;;;;;;;
Brain-Class719;9019719;U20;1930;1930;1930;1930;3;8;0;3;0;5;0;BETA;1930;2100;3100;x;;;;;;;;;;;;
Brain-Class720;9019720;U20;1930;1930;1930;1930;3;8;0;3;0;5;0;BETA;1930;2100;3100;x;;;;;;;;;;;;
Brain-Class721;9019721;U20;1930;1930;1930;1930;3;8;0;3;0;5;0;BETA;1930;2100;3100;x;;;;;;;;;;;;
Brain-Class722;9019722;U20;1930;1930;1930;1930;3;8;0;3;0;5;0;BETA;1930;2100;3100;x;;;;;;;;;;;;
Brain-Class723;9019723;U20;1930;1930;1930;1930;3;8;0;3;0;5;0;BETA;1930;2100;3100;x;;;;;;;;;;;;
Brain-Class724;9019724;U20;1930;1930;1930;1930;3;8;0;3;0;5;0;BETA;1930;2100;3100;x;;;;;;;;;;;;
Brain-Class725;9019725;U20;1930;1930;1930;1930;3;8;0;3;0;5;0;BETA;1930;2100;3100;x;;;;;;;;;;;;
Brain-Class726;9019726;U20;1930;1930;1930;1930;3;8;0;3;0;5;0;BETA;1930;2100;3100;x;;;;;;;;;;;;
Brain-Class727;9019727;U20;1930;1930;1930;1930;3;8;0;3;0;5;0;BETA;1930;2100;3100;x;;;;;;;;;;;;
Brain-Class728;9019728;U20;1930;1930;1930;1930;3;8;0;3;0;5;0;BETA;1930;2100;3100;x;;;;;;;;;;;;
Brain-Class729;9019729;U20;1930;1930;1930;1930;3;8;0;3;0;5;0;BETA;1930;2100;3100;x;;;;;;;;;;;;
Brain-Class730;9019730;U20;1930;1930;1930;1930;3;8;0;3;0;5;0;BETA;1930;2100;3100;x;;;;;;;;;;;;
Brain-Class731;9019731;U20;1930;1930;1930;1930;3;8;0;3;0;5;0;BETA;1930;2100;3100;x;;;;;;;;;;;;
Brain-Class732;9019732;U20;1930;1930;1930;1930;3;8;0;3;0;5;0;BETA;1930;2100;3100;x;;;;;;;;;;;;
Brain-Class733;9019733;U20;1930;1930;1930;1930;3;8;0;3;0;5;0;BETA;1930;2100;3100;x;;;;;;;;;;;;
Brain-Class734;9019734;U20;1930;1930;1930;1930;3;8;0;3;0;5;0;BETA;1930;2100;3100;x;;;;;;;;;;;;
Brain-Class735;9019735;U20;1930;1930;1930;1930;3;8;0;3;0;5;0;BETA;1930;2100;3100;x;;;;;;;;;;;;
Brain-Class736;9019736;U20;1930;1930;1930;1930;3;8;0;3;0;5;0;BETA;1930;2100;3100;x;;;;;;;;;;;;
Brain-Class737;9019737;U20;1930;1930;1930;1930;3;8;0;3;0;5;0;BETA;1930;2100;3100;x;;;;;;;;;;;;
Brain-Class738;9019738;U20;1930;1930;1930;1930;3;8;0;3;0;5;0;BETA;1930;2100;3100;x;;;;;;;;;;;;
Brain-Class739;9019739;U20;1930;1930;1930;1930;3;8;0;3;0;5;0;BETA;1930;2100;3100;x;;;;;;;;;;;;
Brain-Class740;9019740;U20;1930;1930;1930;1930;3;8;0;3;0;5;0;BETA;1930;2100;3100;x;;;;;;;;;;;;
Brain-Class741;9019741;U20;1930;1930;1930;1930;3;8;0;3;0;5;0;BETA;1930;2100;3100;x;;;;;;;;;;;;
Brain-Class742;9019742;U20;1930;1930;1930;1930;3;8;0;3;0;5;0;BETA;1930;2100;3100;x;;;;;;;;;;;;
Brain-Class743;9019743;U20;1930;1930;1930;1930;3;8;0;3;0;5;0;BETA;1930;2100;3100;x;;;;;;;;;;;;
Brain-Class744;9019744;U20;1930;1930;1930;1930;3;8;0;3;0;5;0;BETA;1930;2100;3100;x;;;;;;;;;;;;
Brain-Class745;9019745;U20;1930;1930;1930;1930;3;8;0;3;0;5;0;BETA;1930;2100;3100;x;;;;;;;;;;;;
Brain-Class746;9019746;U20;1930;1930;1930;1930;3;8;0;3;0;5;0;BETA;1930;2100;3100;x;;;;;;;;;;;;
Brain-Class747;9019747;U20;1930;1930;1930;1930;3;8;0;3;0;5;0;BETA;1930;2100;3100;x;;;;;;;;;;;;
Brain-Class748;9019748;U20;1930;1930;1930;1930;3;8;0;3;0;5;0;BETA;1930;2100;3100;x;;;;;;;;;;;;
Brain-Class749;9019749;U20;1930;1930;1930;1930;3;8;0;3;0;5;0;BETA;1930;2100;3100;x;;;;;;;;;;;;
Brain-Class750;9019750;U20;1930;1930;1930;1930;3;8;0;3;0;5;0;BETA;1930;2100;3100;x;;;;;;;;;;;;
Brain-Class751;9019751;U20;1930;1930;1930;1930;3;8;0;3;0;5;0;BETA;1930;2100;3100;x;;;;;;;;;;;;
Brain-Class752;9019752;U20;1930;1930;1930;1930;3;8;0;3;0;5;0;BETA;1930;2100;3100;x;;;;;;;;;;;;
Brain-Class753;9019753;U20;1930;1930;1930;1930;3;8;0;3;0;5;0;BETA;1930;2100;3100;x;;;;;;;;;;;;
Brain-Class754;9019754;U20;1930;1930;1930;1930;3;8;0;3;0;5;0;BETA;1930;2100;3100;x;;;;;;;;;;;;
Brain-Class755;9019755;U20;1930;1930;1930;1930;3;8;0;3;0;5;0;BETA;1930;2100;3100;x;;;;;;;;;;;;
Brain-Class756;9019756;U20;1930;1930;1930;1930;3;8;0;3;0;5;0;BETA;1930;2100;3100;x;;;;;;;;;;;;
Brain-Class757;9019757;U20;1930;1930;1930;1930;3;8;0;3;0;5;0;BETA;1930;2100;3100;x;;;;;;;;;;;;
Brain-Class758;9019758;U20;1930;1930;1930;1930;3;8;0;3;0;5;0;BETA;1930;2100;3100;x;;;;;;;;;;;;
Brain-Class759;9019759;U20;1930;1930;1930;1930;3;8;0;3;0;5;0;BETA;1930;2100;3100;x;;;;;;;;;;;;
Brain-Class760;9019760;U20;1930;1930;1930;1930;3;8;0;3;0;5;0;BETA;1930;2100;3100;x;;;;;;;;;;;;
Brain-Class761;9019761;U20;1930;1930;1930;1930;3;8;0;3;0;5;0;BETA;1930;2100;3100;x;;;;;;;;;;;;
Brain-Class762;9019762;U20;1930;1930;1930;1930;3;8;0;3;0;5;0;BETA;1930;2100;3100;x;;;;;;;;;;;;
Brain-Class763;9019763;U20;1930;1930;1930;1930;3;8;0;3;0;5;0;BETA;1930;2100;3100;x;;;;;;;;;;;;
Brain-Class764;9019764;U20;1930;1930;1930;1930;3;8;0;3;0;5;0;BETA;1930;2100;3100;x;;;;;;;;;;;;
Brain-Class765;9019765;U20;1930;1930;1930;1930;3;8;0;3;0;5;0;BETA;1930;2100;3100;x;;;;;;;;;;;;
Brain-Class766;9019766;U20;1930;1930;1930;1930;3;8;0;3;0;5;0;BETA;1930;2100;3100;x;;;;;;;;;;;;
Brain-Class767;9019767;U20;1930;1930;1930;1930;3;8;0;3;0;5;0;BETA;1930;2100;3100;x;;;;;;;;;;;;
Brain-Class768;9019768;U20;1930;1930;1930;1930;3;8;0;3;0;5;0;BETA;1930;2100;3100;x;;;;;;;;;;;;
Brain-Class769;9019769;U20;1930;1930;1930;1930;3;8;0;3;0;5;0;BETA;1930;2100;3100;x;;;;;;;;;;;;
Brain-Class770;9019770;U20;1930;1930;1930;1930;3;8;0;3;0;5;0;BETA;1930;2100;3100;x;;;;;;;;;;;;
Brain-Class771;9019771;U20;1930;1930;1930;1930;3;8;0;3;0;5;0;BETA;1930;2100;3100;x;;;;;;;;;;;;
Brain-Class772;9019772;U20;1930;1930;1930;1930;3;8;0;3;0;5;0;BETA;1930;2100;3100;x;;;;;;;;;;;;
Brain-Class773;9019773;U20;1930;1930;1930;1930;3;8;0;3;0;5;0;BETA;1930;2100;3100;x;;;;;;;;;;;;
Brain-Class774;9019774;U20;1930;1930;1930;1930;3;8;0;3;0;5;0;BETA;1930;2100;3100;x;;;;;;;;;;;;
Brain-Class775;9019775;U20;1930;1930;1930;1930;3;8;0;3;0;5;0;BETA;1930;2100;3100;x;;;;;;;;;;;;
Brain-Class776;9019776;U20;1930;1930;1930;1930;3;8;0;3;0;5;0;BETA;1930;2100;3100;x;;;;;;;;;;;;
Brain-Class777;9019777;U20;1930;1930;1930;1930;3;8;0;3;0;5;0;BETA;1930;2100;3100;x;;;;;;;;;;;;
Brain-Class778;9019778;U20;1930;1930;1930;1930;3;8;0;3;0;5;0;BETA;1930;2100;3100;x;;;;;;;;;;;;
Brain-Class779;9019779;U20;1930;1930;1930;1930;3;8;0;3;0;5;0;BETA;1930;2100;3100;x;;;;;;;;;;;;
Brain-Class780;9019780;U20;1930;1930;1930;1930;3;8;0;3;0;5;0;BETA;1930;2100;3100;x;;;;;;;;;;;;
Brain-Class781;9019781;U20;1930;1930;1930;1930;3;8;0;3;0;5;0;BETA;1930;2100;3100;x;;;;;;;;;;;;
Brain-Class782;9019782;U20;1930;1930;1930;1930;3;8;0;3;0;5;0;BETA;1930;2100;3100;x;;;;;;;;;;;;
Brain-Class783;9019783;U20;1930;1930;1930;1930;3;8;0;3;0;5;0;BETA;1930;2100;3100;x;;;;;;;;;;;;
Brain-Class784;9019784;U20;1930;1930;1930;1930;3;8;0;3;0;5;0;BETA;1930;2100;3100;x;;;;;;;;;;;;
Brain-Class785;9019785;U20;1930;1930;1930;1930;3;8;0;3;0;5;0;BETA;1930;2100;3100;x;;;;;;;;;;;;
Brain-Class786;9019786;U20;1930;1930;1930;1930;3;8;0;3;0;5;0;BETA;1930;2100;3100;x;;;;;;;;;;;;
Brain-Class787;9019787;U20;1930;1930;1930;1930;3;8;0;3;0;5;0;BETA;1930;2100;3100;x;;;;;;;;;;;;
Brain-Class788;9019788;U20;1930;1930;1930;1930;3;8;0;3;0;5;0;BETA;1930;2100;3100;x;;;;;;;;;;;;
Brain-Class789;9019789;U20;1930;1930;1930;1930;3;8;0;3;0;5;0;BETA;1930;2100;3100;x;;;;;;;;;;;;
Brain-Class790;9019790;U20;1930;1930;1930;1930;3;8;0;3;0;5;0;BETA;1930;2100;3100;x;;;;;;;;;;;;
Brain-Class791;9019791;U20;1930;1930;1930;1930;3;8;0;3;0;5;0;BETA;1930;2100;3100;x;;;;;;;;;;;;
Brain-Class792;9019792;U20;1930;1930;1930;1930;3;8;0;3;0;5;0;BETA;1930;2100;3100;x;;;;;;;;;;;;
Brain-Class793;9019793;U20;1930;1930;1930;1930;3;8;0;3;0;5;0;BETA;1930;2100;3100;x;;;;;;;;;;;;
Brain-Class794;9019794;U20;1930;1930;1930;1930;3;8;0;3;0;5;0;BETA;1930;2100;3100;x;;;;;;;;;;;;
Brain-Class795;9019795;U20;1930;1930;1930;1930;3;8;0;3;0;5;0;BETA;1930;2100;3100;x;;;;;;;;;;;;
Brain-Class796;9019796;U20;1930;1930;1930;1930;3;8;0;3;0;5;0;BETA;1930;2100;3100;x;;;;;;;;;;;;
Brain-Class797;9019797;U20;1930;1930;1930;1930;3;8;0;3;0;5;0;BETA;1930;2100;3100;x;;;;;;;;;;;;
Brain-Class798;9019798;U20;1930;1930;1930;1930;3;8;0;3;0;5;0;BETA;1930;2100;3100;x;;;;;;;;;;;;
Brain-Class799;9019799;U20;1930;1930;1930;1930;3;8;0;3;0;5;0;BETA;1930;2100;3100;x;;;;;;;;;;;;
Brain-Class800;9019800;U20;1930;1930;1930;1930;3;8;0;3;0;5;0;BETA;1930;2100;3100;x;;;;;;;;;;;;
Brain-Class801;9019801;U20;1930;1930;1930;1930;3;8;0;3;0;5;0;BETA;1930;2100;3100;x;;;;;;;;;;;;
Brain-Class802;9019802;U20;1930;1930;1930;1930;3;8;0;3;0;5;0;BETA;1930;2100;3100;x;;;;;;;;;;;;
Brain-Class803;9019803;U20;1930;1930;1930;1930;3;8;0;3;0;5;0;BETA;1930;2100;3100;x;;;;;;;;;;;;
Brain-Class804;9019804;U20;1930;1930;1930;1930;3;8;0;3;0;5;0;BETA;1930;2100;3100;x;;;;;;;;;;;;
Brain-Class805;9019805;U20;1930;1930;1930;1930;3;8;0;3;0;5;0;BETA;1930;2100;3100;x;;;;;;;;;;;;
Brain-Class806;9019806;U20;1930;1930;1930;1930;3;8;0;3;0;5;0;BETA;1930;2100;3100;x;;;;;;;;;;;;
Brain-Class807;9019807;U20;1930;1930;1930;1930;3;8;0;3;0;5;0;BETA;1930;2100;3100;x;;;;;;;;;;;;
Brain-Class808;9019808;U20;1930;1930;1930;1930;3;8;0;3;0;5;0;BETA;1930;2100;3100;x;;;;;;;;;;;;
Brain-Class809;9019809;U20;1930;1930;1930;1930;3;8;0;3;0;5;0;BETA;1930;2100;3100;x;;;;;;;;;;;;
Brain-Class810;9019810;U20;1930;1930;1930;1930;3;8;0;3;0;5;0;BETA;1930;2100;3100;x;;;;;;;;;;;;
Brain-Class811;9019811;U20;1930;1930;1930;1930;3;8;0;3;0;5;0;BETA;1930;2100;3100;x;;;;;;;;;;;;
Brain-Class812;9019812;U20;1930;1930;1930;1930;3;8;0;3;0;5;0;BETA;1930;2100;3100;x;;;;;;;;;;;;
Brain-Class813;9019813;U20;1930;1930;1930;1930;3;8;0;3;0;5;0;BETA;1930;2100;3100;x;;;;;;;;;;;;
Brain-Class814;9019814;U20;1930;1930;1930;1930;3;8;0;3;0;5;0;BETA;1930;2100;3100;x;;;;;;;;;;;;
Brain-Class815;9019815;U20;1930;1930;1930;1930;3;8;0;3;0;5;0;BETA;1930;2100;3100;x;;;;;;;;;;;;
Brain-Class816;9019816;U20;1930;1930;1930;1930;3;8;0;3;0;5;0;BETA;1930;2100;3100;x;;;;;;;;;;;;
Brain-Class817;9019817;U20;1930;1930;1930;1930;3;8;0;3;0;5;0;BETA;1930;2100;3100;x;;;;;;;;;;;;
Brain-Class818;9019818;U20;1930;1930;1930;1930;3;8;0;3;0;5;0;BETA;1930;2100;3100;x;;;;;;;;;;;;
Brain-Class819;9019819;U20;1930;1930;1930;1930;3;8;0;3;0;5;0;BETA;1930;2100;3100;x;;;;;;;;;;;;
Brain-Class820;9019820;U20;1930;1930;1930;1930;3;8;0;3;0;5;0;BETA;1930;2100;3100;x;;;;;;;;;;;;
Brain-Class821;9019821;U20;1930;1930;1930;1930;3;8;0;3;0;5;0;BETA;1930;2100;3100;x;;;;;;;;;;;;
Brain-Class822;9019822;U20;1930;1930;1930;1930;3;8;0;3;0;5;0;BETA;1930;2100;3100;x;;;;;;;;;;;;
Brain-Class823;9019823;U20;1930;1930;1930;1930;3;8;0;3;0;5;0;BETA;1930;2100;3100;x;;;;;;;;;;;;
Brain-Class824;9019824;U20;1930;1930;1930;1930;3;8;0;3;0;5;0;BETA;1930;2100;3100;x;;;;;;;;;;;;
Brain-Class825;9019825;U20;1930;1930;1930;1930;3;8;0;3;0;5;0;BETA;1930;2100;3100;x;;;;;;;;;;;;
Brain-Class826;9019826;U20;1930;1930;1930;1930;3;8;0;3;0;5;0;BETA;1930;2100;3100;x;;;;;;;;;;;;
Brain-Class827;9019827;U20;1930;1930;1930;1930;3;8;0;3;0;5;0;BETA;1930;2100;3100;x;;;;;;;;;;;;
Brain-Class828;9019828;U20;1930;1930;1930;1930;3;8;0;3;0;5;0;BETA;1930;2100;3100;x;;;;;;;;;;;;
Brain-Class829;9019829;U20;1930;1930;1930;1930;3;8;0;3;0;5;0;BETA;1930;2100;3100;x;;;;;;;;;;;;
Brain-Class830;9019830;U20;1930;1930;1930;1930;3;8;0;3;0;5;0;BETA;1930;2100;3100;x;;;;;;;;;;;;
Brain-Class831;9019831;U20;1930;1930;1930;1930;3;8;0;3;0;5;0;BETA;1930;2100;3100;x;;;;;;;;;;;;
Brain-Class832;9019832;U20;1930;1930;1930;1930;3;8;0;3;0;5;0;BETA;1930;2100;3100;x;;;;;;;;;;;;
Brain-Class833;9019833;U20;1930;1930;1930;1930;3;8;0;3;0;5;0;BETA;1930;2100;3100;x;;;;;;;;;;;;
Brain-Class834;9019834;U20;1930;1930;1930;1930;3;8;0;3;0;5;0;BETA;1930;2100;3100;x;;;;;;;;;;;;
Brain-Class835;9019835;U20;1930;1930;1930;1930;3;8;0;3;0;5;0;BETA;1930;2100;3100;x;;;;;;;;;;;;
Brain-Class836;9019836;U20;1930;1930;1930;1930;3;8;0;3;0;5;0;BETA;1930;2100;3100;x;;;;;;;;;;;;
Brain-Class837;9019837;U20;1930;1930;1930;1930;3;8;0;3;0;5;0;BETA;1930;2100;3100;x;;;;;;;;;;;;
Brain-Class838;9019838;U20;1930;1930;1930;1930;3;8;0;3;0;5;0;BETA;1930;2100;3100;x;;;;;;;;;;;;
Brain-Class839;9019839;U20;1930;1930;1930;1930;3;8;0;3;0;5;0;BETA;1930;2100;3100;x;;;;;;;;;;;;
Brain-Class840;9019840;U20;1930;1930;1930;1930;3;8;0;3;0;5;0;BETA;1930;2100;3100;x;;;;;;;;;;;;
Brain-Class841;9019841;U20;1930;1930;1930;1930;3;8;0;3;0;5;0;BETA;1930;2100;3100;x;;;;;;;;;;;;
Brain-Class842;9019842;U20;1930;1930;1930;1930;3;8;0;3;0;5;0;BETA;1930;2100;3100;x;;;;;;;;;;;;
Brain-Class843;9019843;U20;1930;1930;1930;1930;3;8;0;3;0;5;0;BETA;1930;2100;3100;x;;;;;;;;;;;;
Brain-Class844;9019844;U20;1930;1930;1930;1930;3;8;0;3;0;5;0;BETA;1930;2100;3100;x;;;;;;;;;;;;
Brain-Class845;9019845;U20;1930;1930;1930;1930;3;8;0;3;0;5;0;BETA;1930;2100;3100;x;;;;;;;;;;;;
Brain-Class846;9019846;U20;1930;1930;1930;1930;3;8;0;3;0;5;0;BETA;1930;2100;3100;x;;;;;;;;;;;;
Brain-Class847;9019847;U20;1930;1930;1930;1930;3;8;0;3;0;5;0;BETA;1930;2100;3100;x;;;;;;;;;;;;
Brain-Class848;9019848;U20;1930;1930;1930;1930;3;8;0;3;0;5;0;BETA;1930;2100;3100;x;;;;;;;;;;;;
Brain-Class849;9019849;U20;1930;1930;1930;1930;3;8;0;3;0;5;0;BETA;1930;2100;3100;x;;;;;;;;;;;;
Brain-Class850;9019850;U20;1930;1930;1930;1930;3;8;0;3;0;5;0;BETA;1930;2100;3100;x;;;;;;;;;;;;
Brain-Class851;9019851;U20;1930;1930;1930;1930;3;8;0;3;0;5;0;BETA;1930;2100;3100;x;;;;;;;;;;;;
Brain-Class852;9019852;U20;1930;1930;1930;1930;3;8;0;3;0;5;0;BETA;1930;2100;3100;x;;;;;;;;;;;;
Brain-Class853;9019853;U20;1930;1930;1930;1930;3;8;0;3;0;5;0;BETA;1930;2100;3100;x;;;;;;;;;;;;
Brain-Class854;9019854;U20;1930;1930;1930;1930;3;8;0;3;0;5;0;BETA;1930;2100;3100;x;;;;;;;;;;;;
Brain-Class855;9019855;U20;1930;1930;1930;1930;3;8;0;3;0;5;0;BETA;1930;2100;3100;x;;;;;;;;;;;;
Brain-Class856;9019856;U20;1930;1930;1930;1930;3;8;0;3;0;5;0;BETA;1930;2100;3100;x;;;;;;;;;;;;
Brain-Class857;9019857;U20;1930;1930;1930;1930;3;8;0;3;0;5;0;BETA;1930;2100;3100;x;;;;;;;;;;;;
Brain-Class858;9019858;U20;1930;1930;1930;1930;3;8;0;3;0;5;0;BETA;1930;2100;3100;x;;;;;;;;;;;;
Brain-Class859;9019859;U20;1930;1930;1930;1930;3;8;0;3;0;5;0;BETA;1930;2100;3100;x;;;;;;;;;;;;
Brain-Class860;9019860;U20;1930;1930;1930;1930;3;8;0;3;0;5;0;BETA;1930;2100;3100;x;;;;;;;;;;;;
Brain-Class861;9019861;U20;1930;1930;1930;1930;3;8;0;3;0;5;0;BETA;1930;2100;3100;x;;;;;;;;;;;;
Brain-Class862;9019862;U20;1930;1930;1930;1930;3;8;0;3;0;5;0;BETA;1930;2100;3100;x;;;;;;;;;;;;
Brain-Class863;9019863;U20;1930;1930;1930;1930;3;8;0;3;0;5;0;BETA;1930;2100;3100;x;;;;;;;;;;;;
Brain-Class864;9019864;U20;1930;1930;1930;1930;3;8;0;3;0;5;0;BETA;1930;2100;3100;x;;;;;;;;;;;;
Brain-Class865;9019865;U20;1930;1930;1930;1930;3;8;0;3;0;5;0;BETA;1930;2100;3100;x;;;;;;;;;;;;
Brain-Class866;9019866;U20;1930;1930;1930;1930;3;8;0;3;0;5;0;BETA;1930;2100;3100;x;;;;;;;;;;;;
Brain-Class867;9019867;U20;1930;1930;1930;1930;3;8;0;3;0;5;0;BETA;1930;2100;3100;x;;;;;;;;;;;;
Brain-Class868;9019868;U20;1930;1930;1930;1930;3;8;0;3;0;5;0;BETA;1930;2100;3100;x;;;;;;;;;;;;
Brain-Class869;9019869;U20;1930;1930;1930;1930;3;8;0;3;0;5;0;BETA;1930;2100;3100;x;;;;;;;;;;;;
Brain-Class870;9019870;U20;1930;1930;1930;1930;3;8;0;3;0;5;0;BETA;1930;2100;3100;x;;;;;;;;;;;;
Brain-Class871;9019871;U20;1930;1930;1930;1930;3;8;0;3;0;5;0;BETA;1930;2100;3100;x;;;;;;;;;;;;
Brain-Class872;9019872;U20;1930;1930;1930;1930;3;8;0;3;0;5;0;BETA;1930;2100;3100;x;;;;;;;;;;;;
Brain-Class873;9019873;U20;1930;1930;1930;1930;3;8;0;3;0;5;0;BETA;1930;2100;3100;x;;;;;;;;;;;;
Brain-Class874;9019874;U20;1930;1930;1930;1930;3;8;0;3;0;5;0;BETA;1930;2100;3100;x;;;;;;;;;;;;
Brain-Class875;9019875;U20;1930;1930;1930;1930;3;8;0;3;0;5;0;BETA;1930;2100;3100;x;;;;;;;;;;;;
Brain-Class876;9019876;U20;1930;1930;1930;1930;3;8;0;3;0;5;0;BETA;1930;2100;3100;x;;;;;;;;;;;;
Brain-Class877;9019877;U20;1930;1930;1930;1930;3;8;0;3;0;5;0;BETA;1930;2100;3100;x;;;;;;;;;;;;
Brain-Class878;9019878;U20;1930;1930;1930;1930;3;8;0;3;0;5;0;BETA;1930;2100;3100;x;;;;;;;;;;;;
Brain-Class879;9019879;U20;1930;1930;1930;1930;3;8;0;3;0;5;0;BETA;1930;2100;3100;x;;;;;;;;;;;;
Brain-Class880;9019880;U20;1930;1930;1930;1930;3;8;0;3;0;5;0;BETA;1930;2100;3100;x;;;;;;;;;;;;
Brain-Class881;9019881;U20;1930;1930;1930;1930;3;8;0;3;0;5;0;BETA;1930;2100;3100;x;;;;;;;;;;;;
Brain-Class882;9019882;U20;1930;1930;1930;1930;3;8;0;3;0;5;0;BETA;1930;2100;3100;x;;;;;;;;;;;;
Brain-Class883;9019883;U20;1930;1930;1930;1930;3;8;0;3;0;5;0;BETA;1930;2100;3100;x;;;;;;;;;;;;
Brain-Class884;9019884;U20;1930;1930;1930;1930;3;8;0;3;0;5;0;BETA;1930;2100;3100;x;;;;;;;;;;;;
Brain-Class885;9019885;U20;1930;1930;1930;1930;3;8;0;3;0;5;0;BETA;1930;2100;3100;x;;;;;;;;;;;;
Brain-Class886;9019886;U20;1930;1930;1930;1930;3;8;0;3;0;5;0;BETA;1930;2100;3100;x;;;;;;;;;;;;
Brain-Class887;9019887;U20;1930;1930;1930;1930;3;8;0;3;0;5;0;BETA;1930;2100;3100;x;;;;;;;;;;;;
Brain-Class888;9019888;U20;1930;1930;1930;1930;3;8;0;3;0;5;0;BETA;1930;2100;3100;x;;;;;;;;;;;;
Brain-Class889;9019889;U20;1930;1930;1930;1930;3;8;0;3;0;5;0;BETA;1930;2100;3100;x;;;;;;;;;;;;
Brain-Class890;9019890;U20;1930;1930;1930;1930;3;8;0;3;0;5;0;BETA;1930;2100;3100;x;;;;;;;;;;;;
Brain-Class891;9019891;U20;1930;1930;1930;1930;3;8;0;3;0;5;0;BETA;1930;2100;3100;x;;;;;;;;;;;;
Brain-Class892;9019892;U20;1930;1930;1930;1930;3;8;0;3;0;5;0;BETA;1930;2100;3100;x;;;;;;;;;;;;
Brain-Class893;9019893;U20;1930;1930;1930;1930;3;8;0;3;0;5;0;BETA;1930;2100;3100;x;;;;;;;;;;;;
Brain-Class894;9019894;U20;1930;1930;1930;1930;3;8;0;3;0;5;0;BETA;1930;2100;3100;x;;;;;;;;;;;;
Brain-Class895;9019895;U20;1930;1930;1930;1930;3;8;0;3;0;5;0;BETA;1930;2100;3100;x;;;;;;;;;;;;
Brain-Class896;9019896;U20;1930;1930;1930;1930;3;8;0;3;0;5;0;BETA;1930;2100;3100;x;;;;;;;;;;;;
Brain-Class897;9019897;U20;1930;1930;1930;1930;3;8;0;3;0;5;0;BETA;1930;2100;3100;x;;;;;;;;;;;;
Brain-Class898;9019898;U20;1930;1930;1930;1930;3;8;0;3;0;5;0;BETA;1930;2100;3100;x;;;;;;;;;;;;
Brain-Class899;9019899;U20;1930;1930;1930;1930;3;8;0;3;0;5;0;BETA;1930;2100;3100;x;;;;;;;;;;;;
Brain-Class900;9019900;U20;1930;1930;1930;1930;3;8;0;3;0;5;0;BETA;1930;2100;3100;x;;;;;;;;;;;;
Brain-Class901;9019901;U20;1930;1930;1930;1930;3;8;0;3;0;5;0;BETA;1930;2100;3100;x;;;;;;;;;;;;
Brain-Class902;9019902;U20;1930;1930;1930;1930;3;8;0;3;0;5;0;BETA;1930;2100;3100;x;;;;;;;;;;;;
Brain-Class903;9019903;U20;1930;1930;1930;1930;3;8;0;3;0;5;0;BETA;1930;2100;3100;x;;;;;;;;;;;;
Brain-Class904;9019904;U20;1930;1930;1930;1930;3;8;0;3;0;5;0;BETA;1930;2100;3100;x;;;;;;;;;;;;
Brain-Class905;9019905;U20;1930;1930;1930;1930;3;8;0;3;0;5;0;BETA;1930;2100;3100;x;;;;;;;;;;;;
Brain-Class906;9019906;U20;1930;1930;1930;1930;3;8;0;3;0;5;0;BETA;1930;2100;3100;x;;;;;;;;;;;;
Brain-Class907;9019907;U20;1930;1930;1930;1930;3;8;0;3;0;5;0;BETA;1930;2100;3100;x;;;;;;;;;;;;
Brain-Class908;9019908;U20;1930;1930;1930;1930;3;8;0;3;0;5;0;BETA;1930;2100;3100;x;;;;;;;;;;;;
Brain-Class909;9019909;U20;1930;1930;1930;1930;3;8;0;3;0;5;0;BETA;1930;2100;3100;x;;;;;;;;;;;;
Brain-Class910;9019910;U20;1930;1930;1930;1930;3;8;0;3;0;5;0;BETA;1930;2100;3100;x;;;;;;;;;;;;
Brain-Class911;9019911;U20;1930;1930;1930;1930;3;8;0;3;0;5;0;BETA;1930;2100;3100;x;;;;;;;;;;;;
Brain-Class912;9019912;U20;1930;1930;1930;1930;3;8;0;3;0;5;0;BETA;1930;2100;3100;x;;;;;;;;;;;;
Brain-Class913;9019913;U20;1930;1930;1930;1930;3;8;0;3;0;5;0;BETA;1930;2100;3100;x;;;;;;;;;;;;
Brain-Class914;9019914;U20;1930;1930;1930;1930;3;8;0;3;0;5;0;BETA;1930;2100;3100;x;;;;;;;;;;;;
Brain-Class915;9019915;U20;1930;1930;1930;1930;3;8;0;3;0;5;0;BETA;1930;2100;3100;x;;;;;;;;;;;;
Brain-Class916;9019916;U20;1930;1930;1930;1930;3;8;0;3;0;5;0;BETA;1930;2100;3100;x;;;;;;;;;;;;
Brain-Class917;9019917;U20;1930;1930;1930;1930;3;8;0;3;0;5;0;BETA;1930;2100;3100;x;;;;;;;;;;;;
Brain-Class918;9019918;U20;1930;1930;1930;1930;3;8;0;3;0;5;0;BETA;1930;2100;3100;x;;;;;;;;;;;;
Brain-Class919;9019919;U20;1930;1930;1930;1930;3;8;0;3;0;5;0;BETA;1930;2100;3100;x;;;;;;;;;;;;
Brain-Class920;9019920;U20;1930;1930;1930;1930;3;8;0;3;0;5;0;BETA;1930;2100;3100;x;;;;;;;;;;;;
Brain-Class921;9019921;U20;1930;1930;1930;1930;3;8;0;3;0;5;0;BETA;1930;2100;3100;x;;;;;;;;;;;;
Brain-Class922;9019922;U20;1930;1930;1930;1930;3;8;0;3;0;5;0;BETA;1930;2100;3100;x;;;;;;;;;;;;
Brain-Class923;9019923;U20;1930;1930;1930;1930;3;8;0;3;0;5;0;BETA;1930;2100;3100;x;;;;;;;;;;;;
Brain-Class924;9019924;U20;1930;1930;1930;1930;3;8;0;3;0;5;0;BETA;1930;2100;3100;x;;;;;;;;;;;;
Brain-Class925;9019925;U20;1930;1930;1930;1930;3;8;0;3;0;5;0;BETA;1930;2100;3100;x;;;;;;;;;;;;
Brain-Class926;9019926;U20;1930;1930;1930;1930;3;8;0;3;0;5;0;BETA;1930;2100;3100;x;;;;;;;;;;;;
Brain-Class927;9019927;U20;1930;1930;1930;1930;3;8;0;3;0;5;0;BETA;1930;2100;3100;x;;;;;;;;;;;;
Brain-Class928;9019928;U20;1930;1930;1930;1930;3;8;0;3;0;5;0;BETA;1930;2100;3100;x;;;;;;;;;;;;
Brain-Class929;9019929;U20;1930;1930;1930;1930;3;8;0;3;0;5;0;BETA;1930;2100;3100;x;;;;;;;;;;;;
Brain-Class930;9019930;U20;1930;1930;1930;1930;3;8;0;3;0;5;0;BETA;1930;2100;3100;x;;;;;;;;;;;;
Brain-Class931;9019931;U20;1930;1930;1930;1930;3;8;0;3;0;5;0;BETA;1930;2100;3100;x;;;;;;;;;;;;
Brain-Class932;9019932;U20;1930;1930;1930;1930;3;8;0;3;0;5;0;BETA;1930;2100;3100;x;;;;;;;;;;;;
Brain-Class933;9019933;U20;1930;1930;1930;1930;3;8;0;3;0;5;0;BETA;1930;2100;3100;x;;;;;;;;;;;;
Brain-Class934;9019934;U20;1930;1930;1930;1930;3;8;0;3;0;5;0;BETA;1930;2100;3100;x;;;;;;;;;;;;
Brain-Class935;9019935;U20;1930;1930;1930;1930;3;8;0;3;0;5;0;BETA;1930;2100;3100;x;;;;;;;;;;;;
Brain-Class936;9019936;U20;1930;1930;1930;1930;3;8;0;3;0;5;0;BETA;1930;2100;3100;x;;;;;;;;;;;;
Brain-Class937;9019937;U20;1930;1930;1930;1930;3;8;0;3;0;5;0;BETA;1930;2100;3100;x;;;;;;;;;;;;
Brain-Class938;9019938;U20;1930;1930;1930;1930;3;8;0;3;0;5;0;BETA;1930;2100;3100;x;;;;;;;;;;;;
Brain-Class939;9019939;U20;1930;1930;1930;1930;3;8;0;3;0;5;0;BETA;1930;2100;3100;x;;;;;;;;;;;;
Brain-Class940;9019940;U20;1930;1930;1930;1930;3;8;0;3;0;5;0;BETA;1930;2100;3100;x;;;;;;;;;;;;
Brain-Class941;9019941;U20;1930;1930;1930;1930;3;8;0;3;0;5;0;BETA;1930;2100;3100;x;;;;;;;;;;;;
Brain-Class942;9019942;U20;1930;1930;1930;1930;3;8;0;3;0;5;0;BETA;1930;2100;3100;x;;;;;;;;;;;;
Brain-Class943;9019943;U20;1930;1930;1930;1930;3;8;0;3;0;5;0;BETA;1930;2100;3100;x;;;;;;;;;;;;
Brain-Class944;9019944;U20;1930;1930;1930;1930;3;8;0;3;0;5;0;BETA;1930;2100;3100;x;;;;;;;;;;;;
Brain-Class945;9019945;U20;1930;1930;1930;1930;3;8;0;3;0;5;0;BETA;1930;2100;3100;x;;;;;;;;;;;;
Brain-Class946;9019946;U20;1930;1930;1930;1930;3;8;0;3;0;5;0;BETA;1930;2100;3100;x;;;;;;;;;;;;
Brain-Class947;9019947;U20;1930;1930;1930;1930;3;8;0;3;0;5;0;BETA;1930;2100;3100;x;;;;;;;;;;;;
Brain-Class948;9019948;U20;1930;1930;1930;1930;3;8;0;3;0;5;0;BETA;1930;2100;3100;x;;;;;;;;;;;;
Brain-Class949;9019949;U20;1930;1930;1930;1930;3;8;0;3;0;5;0;BETA;1930;2100;3100;x;;;;;;;;;;;;
Brain-Class950;9019950;U20;1930;1930;1930;1930;3;8;0;3;0;5;0;BETA;1930;2100;3100;x;;;;;;;;;;;;
Brain-Class951;9019951;U20;1930;1930;1930;1930;3;8;0;3;0;5;0;BETA;1930;2100;3100;x;;;;;;;;;;;;
Brain-Class952;9019952;U20;1930;1930;1930;1930;3;8;0;3;0;5;0;BETA;1930;2100;3100;x;;;;;;;;;;;;
Brain-Class953;9019953;U20;1930;1930;1930;1930;3;8;0;3;0;5;0;BETA;1930;2100;3100;x;;;;;;;;;;;;
Brain-Class954;9019954;U20;1930;1930;1930;1930;3;8;0;3;0;5;0;BETA;1930;2100;3100;x;;;;;;;;;;;;
Brain-Class955;9019955;U20;1930;1930;1930;1930;3;8;0;3;0;5;0;BETA;1930;2100;3100;x;;;;;;;;;;;;
Brain-Class956;9019956;U20;1930;1930;1930;1930;3;8;0;3;0;5;0;BETA;1930;2100;3100;x;;;;;;;;;;;;
Brain-Class957;9019957;U20;1930;1930;1930;1930;3;8;0;3;0;5;0;BETA;1930;2100;3100;x;;;;;;;;;;;;
Brain-Class958;9019958;U20;1930;1930;1930;1930;3;8;0;3;0;5;0;BETA;1930;2100;3100;x;;;;;;;;;;;;
Brain-Class959;9019959;U20;1930;1930;1930;1930;3;8;0;3;0;5;0;BETA;1930;2100;3100;x;;;;;;;;;;;;
Brain-Class960;9019960;U20;1930;1930;1930;1930;3;8;0;3;0;5;0;BETA;1930;2100;3100;x;;;;;;;;;;;;
Brain-Class961;9019961;U20;1930;1930;1930;1930;3;8;0;3;0;5;0;BETA;1930;2100;3100;x;;;;;;;;;;;;
Brain-Class962;9019962;U20;1930;1930;1930;1930;3;8;0;3;0;5;0;BETA;1930;2100;3100;x;;;;;;;;;;;;
Brain-Class963;9019963;U20;1930;1930;1930;1930;3;8;0;3;0;5;0;BETA;1930;2100;3100;x;;;;;;;;;;;;
Brain-Class964;9019964;U20;1930;1930;1930;1930;3;8;0;3;0;5;0;BETA;1930;2100;3100;x;;;;;;;;;;;;
Brain-Class965;9019965;U20;1930;1930;1930;1930;3;8;0;3;0;5;0;BETA;1930;2100;3100;x;;;;;;;;;;;;
Brain-Class966;9019966;U20;1930;1930;1930;1930;3;8;0;3;0;5;0;BETA;1930;2100;3100;x;;;;;;;;;;;;
Brain-Class967;9019967;U20;1930;1930;1930;1930;3;8;0;3;0;5;0;BETA;1930;2100;3100;x;;;;;;;;;;;;
Brain-Class968;9019968;U20;1930;1930;1930;1930;3;8;0;3;0;5;0;BETA;1930;2100;3100;x;;;;;;;;;;;;
Brain-Class969;9019969;U20;1930;1930;1930;1930;3;8;0;3;0;5;0;BETA;1930;2100;3100;x;;;;;;;;;;;;
Brain-Class970;9019970;U20;1930;1930;1930;1930;3;8;0;3;0;5;0;BETA;1930;2100;3100;x;;;;;;;;;;;;
Brain-Class971;9019971;U20;1930;1930;1930;1930;3;8;0;3;0;5;0;BETA;1930;2100;3100;x;;;;;;;;;;;;
Brain-Class972;9019972;U20;1930;1930;1930;1930;3;8;0;3;0;5;0;BETA;1930;2100;3100;x;;;;;;;;;;;;
Brain-Class973;9019973;U20;1930;1930;1930;1930;3;8;0;3;0;5;0;BETA;1930;2100;3100;x;;;;;;;;;;;;
Brain-Class974;9019974;U20;1930;1930;1930;1930;3;8;0;3;0;5;0;BETA;1930;2100;3100;x;;;;;;;;;;;;
Brain-Class975;9019975;U20;1930;1930;1930;1930;3;8;0;3;0;5;0;BETA;1930;2100;3100;x;;;;;;;;;;;;
Brain-Class976;9019976;U20;1930;1930;1930;1930;3;8;0;3;0;5;0;BETA;1930;2100;3100;x;;;;;;;;;;;;
Brain-Class977;9019977;U20;1930;1930;1930;1930;3;8;0;3;0;5;0;BETA;1930;2100;3100;x;;;;;;;;;;;;
Brain-Class978;9019978;U20;1930;1930;1930;1930;3;8;0;3;0;5;0;BETA;1930;2100;3100;x;;;;;;;;;;;;
Brain-Class979;9019979;U20;1930;1930;1930;1930;3;8;0;3;0;5;0;BETA;1930;2100;3100;x;;;;;;;;;;;;
Brain-Class980;9019980;U20;1930;1930;1930;1930;3;8;0;3;0;5;0;BETA;1930;2100;3100;x;;;;;;;;;;;;
Brain-Class981;9019981;U20;1930;1930;1930;1930;3;8;0;3;0;5;0;BETA;1930;2100;3100;x;;;;;;;;;;;;
Brain-Class982;9019982;U20;1930;1930;1930;1930;3;8;0;3;0;5;0;BETA;1930;2100;3100;x;;;;;;;;;;;;
Brain-Class983;9019983;U20;1930;1930;1930;1930;3;8;0;3;0;5;0;BETA;1930;2100;3100;x;;;;;;;;;;;;
Brain-Class984;9019984;U20;1930;1930;1930;1930;3;8;0;3;0;5;0;BETA;1930;2100;3100;x;;;;;;;;;;;;
Brain-Class985;9019985;U20;1930;1930;1930;1930;3;8;0;3;0;5;0;BETA;1930;2100;3100;x;;;;;;;;;;;;
Brain-Class986;9019986;U20;1930;1930;1930;1930;3;8;0;3;0;5;0;BETA;1930;2100;3100;x;;;;;;;;;;;;
Brain-Class987;9019987;U20;1930;1930;1930;1930;3;8;0;3;0;5;0;BETA;1930;2100;3100;x;;;;;;;;;;;;
Brain-Class988;9019988;U20;1930;1930;1930;1930;3;8;0;3;0;5;0;BETA;1930;2100;3100;x;;;;;;;;;;;;
Brain-Class989;9019989;U20;1930;1930;1930;1930;3;8;0;3;0;5;0;BETA;1930;2100;3100;x;;;;;;;;;;;;
Brain-Class990;9019990;U20;1930;1930;1930;1930;3;8;0;3;0;5;0;BETA;1930;2100;3100;x;;;;;;;;;;;;
Brain-Class991;9019991;U20;1930;1930;1930;1930;3;8;0;3;0;5;0;BETA;1930;2100;3100;x;;;;;;;;;;;;
Brain-Class992;9019992;U20;1930;1930;1930;1930;3;8;0;3;0;5;0;BETA;1930;2100;3100;x;;;;;;;;;;;;
Brain-Class993;9019993;U20;1930;1930;1930;1930;3;8;0;3;0;5;0;BETA;1930;2100;3100;x;;;;;;;;;;;;
Brain-Class994;9019994;U20;1930;1930;1930;1930;3;8;0;3;0;5;0;BETA;1930;2100;3100;x;;;;;;;;;;;;
Brain-Class995;9019995;U20;1930;1930;1930;1930;3;8;0;3;0;5;0;BETA;1930;2100;3100;x;;;;;;;;;;;;
Brain-Class996;9019996;U20;1930;1930;1930;1930;3;8;0;3;0;5;0;BETA;1930;2100;3100;x;;;;;;;;;;;;
Brain-Class997;9019997;U20;1930;1930;1930;1930;3;8;0;3;0;5;0;BETA;1930;2100;3100;x;;;;;;;;;;;;
Brain-Class998;9019998;U20;1930;1930;1930;1930;3;8;0;3;0;5;0;BETA;1930;2100;3100;x;;;;;;;;;;;;
Brain-Class999;9019999;U20;1930;1930;1930;1930;3;8;0;3;0;5;0;BETA;1930;2100;3100;x;;;;;;;;;;;;
Brain-Class1000;9020000;U20;1930;1930;1930;1930;3;8;0;3;0;5;0;BETA;1930;2100;3100;x;;;;;;;;;;;;
