Name;ID;Country;Rank;3;Year;Rank;2;Year;Rank;1;Year;Rank;0;Year;Ideal;Rank;;Max;Skill;Traits;Skill;Experience;Loyalty;Type;Picture;Start;Year;End;Year;x
Brain-Class001;9040001;U41;1930;1930;1930;1930;3;8;0;3;0;5;0;BETA;1930;2100;3100;x;;;;;;;;;;;;
Brain-Class002;9040002;U41;1930;1930;1930;1930;3;8;0;3;0;5;0;BETA;1930;2100;3100;x;;;;;;;;;;;;
Brain-Class003;9040003;U41;1930;1930;1930;1930;3;8;0;3;0;5;0;BETA;1930;2100;3100;x;;;;;;;;;;;;
Brain-Class004;9040004;U41;1930;1930;1930;1930;3;8;0;3;0;5;0;BETA;1930;2100;3100;x;;;;;;;;;;;;
Brain-Class005;9040005;U41;1930;1930;1930;1930;3;8;0;3;0;5;0;BETA;1930;2100;3100;x;;;;;;;;;;;;
Brain-Class006;9040006;U41;1930;1930;1930;1930;3;8;0;3;0;5;0;BETA;1930;2100;3100;x;;;;;;;;;;;;
Brain-Class007;9040007;U41;1930;1930;1930;1930;3;8;0;3;0;5;0;BETA;1930;2100;3100;x;;;;;;;;;;;;
Brain-Class008;9040008;U41;1930;1930;1930;1930;3;8;0;3;0;5;0;BETA;1930;2100;3100;x;;;;;;;;;;;;
Brain-Class009;9040009;U41;1930;1930;1930;1930;3;8;0;3;0;5;0;BETA;1930;2100;3100;x;;;;;;;;;;;;
Brain-Class010;9040010;U41;1930;1930;1930;1930;3;8;0;3;0;5;0;BETA;1930;2100;3100;x;;;;;;;;;;;;
Brain-Class011;9040011;U41;1930;1930;1930;1930;3;8;0;3;0;5;0;BETA;1930;2100;3100;x;;;;;;;;;;;;
Brain-Class012;9040012;U41;1930;1930;1930;1930;3;8;0;3;0;5;0;BETA;1930;2100;3100;x;;;;;;;;;;;;
Brain-Class013;9040013;U41;1930;1930;1930;1930;3;8;0;3;0;5;0;BETA;1930;2100;3100;x;;;;;;;;;;;;
Brain-Class014;9040014;U41;1930;1930;1930;1930;3;8;0;3;0;5;0;BETA;1930;2100;3100;x;;;;;;;;;;;;
Brain-Class015;9040015;U41;1930;1930;1930;1930;3;8;0;3;0;5;0;BETA;1930;2100;3100;x;;;;;;;;;;;;
Brain-Class016;9040016;U41;1930;1930;1930;1930;3;8;0;3;0;5;0;BETA;1930;2100;3100;x;;;;;;;;;;;;
Brain-Class017;9040017;U41;1930;1930;1930;1930;3;8;0;3;0;5;0;BETA;1930;2100;3100;x;;;;;;;;;;;;
Brain-Class018;9040018;U41;1930;1930;1930;1930;3;8;0;3;0;5;0;BETA;1930;2100;3100;x;;;;;;;;;;;;
Brain-Class019;9040019;U41;1930;1930;1930;1930;3;8;0;3;0;5;0;BETA;1930;2100;3100;x;;;;;;;;;;;;
Brain-Class020;9040020;U41;1930;1930;1930;1930;3;8;0;3;0;5;0;BETA;1930;2100;3100;x;;;;;;;;;;;;
Brain-Class021;9040021;U41;1930;1930;1930;1930;3;8;0;3;0;5;0;BETA;1930;2100;3100;x;;;;;;;;;;;;
Brain-Class022;9040022;U41;1930;1930;1930;1930;3;8;0;3;0;5;0;BETA;1930;2100;3100;x;;;;;;;;;;;;
Brain-Class023;9040023;U41;1930;1930;1930;1930;3;8;0;3;0;5;0;BETA;1930;2100;3100;x;;;;;;;;;;;;
Brain-Class024;9040024;U41;1930;1930;1930;1930;3;8;0;3;0;5;0;BETA;1930;2100;3100;x;;;;;;;;;;;;
Brain-Class025;9040025;U41;1930;1930;1930;1930;3;8;0;3;0;5;0;BETA;1930;2100;3100;x;;;;;;;;;;;;
Brain-Class026;9040026;U41;1930;1930;1930;1930;3;8;0;3;0;5;0;BETA;1930;2100;3100;x;;;;;;;;;;;;
Brain-Class027;9040027;U41;1930;1930;1930;1930;3;8;0;3;0;5;0;BETA;1930;2100;3100;x;;;;;;;;;;;;
Brain-Class028;9040028;U41;1930;1930;1930;1930;3;8;0;3;0;5;0;BETA;1930;2100;3100;x;;;;;;;;;;;;
Brain-Class029;9040029;U41;1930;1930;1930;1930;3;8;0;3;0;5;0;BETA;1930;2100;3100;x;;;;;;;;;;;;
Brain-Class030;9040030;U41;1930;1930;1930;1930;3;8;0;3;0;5;0;BETA;1930;2100;3100;x;;;;;;;;;;;;
Brain-Class031;9040031;U41;1930;1930;1930;1930;3;8;0;3;0;5;0;BETA;1930;2100;3100;x;;;;;;;;;;;;
Brain-Class032;9040032;U41;1930;1930;1930;1930;3;8;0;3;0;5;0;BETA;1930;2100;3100;x;;;;;;;;;;;;
Brain-Class033;9040033;U41;1930;1930;1930;1930;3;8;0;3;0;5;0;BETA;1930;2100;3100;x;;;;;;;;;;;;
Brain-Class034;9040034;U41;1930;1930;1930;1930;3;8;0;3;0;5;0;BETA;1930;2100;3100;x;;;;;;;;;;;;
Brain-Class035;9040035;U41;1930;1930;1930;1930;3;8;0;3;0;5;0;BETA;1930;2100;3100;x;;;;;;;;;;;;
Brain-Class036;9040036;U41;1930;1930;1930;1930;3;8;0;3;0;5;0;BETA;1930;2100;3100;x;;;;;;;;;;;;
Brain-Class037;9040037;U41;1930;1930;1930;1930;3;8;0;3;0;5;0;BETA;1930;2100;3100;x;;;;;;;;;;;;
Brain-Class038;9040038;U41;1930;1930;1930;1930;3;8;0;3;0;5;0;BETA;1930;2100;3100;x;;;;;;;;;;;;
Brain-Class039;9040039;U41;1930;1930;1930;1930;3;8;0;3;0;5;0;BETA;1930;2100;3100;x;;;;;;;;;;;;
Brain-Class040;9040040;U41;1930;1930;1930;1930;3;8;0;3;0;5;0;BETA;1930;2100;3100;x;;;;;;;;;;;;
Brain-Class041;9040041;U41;1930;1930;1930;1930;3;8;0;3;0;5;0;BETA;1930;2100;3100;x;;;;;;;;;;;;
Brain-Class042;9040042;U41;1930;1930;1930;1930;3;8;0;3;0;5;0;BETA;1930;2100;3100;x;;;;;;;;;;;;
Brain-Class043;9040043;U41;1930;1930;1930;1930;3;8;0;3;0;5;0;BETA;1930;2100;3100;x;;;;;;;;;;;;
Brain-Class044;9040044;U41;1930;1930;1930;1930;3;8;0;3;0;5;0;BETA;1930;2100;3100;x;;;;;;;;;;;;
Brain-Class045;9040045;U41;1930;1930;1930;1930;3;8;0;3;0;5;0;BETA;1930;2100;3100;x;;;;;;;;;;;;
Brain-Class046;9040046;U41;1930;1930;1930;1930;3;8;0;3;0;5;0;BETA;1930;2100;3100;x;;;;;;;;;;;;
Brain-Class047;9040047;U41;1930;1930;1930;1930;3;8;0;3;0;5;0;BETA;1930;2100;3100;x;;;;;;;;;;;;
Brain-Class048;9040048;U41;1930;1930;1930;1930;3;8;0;3;0;5;0;BETA;1930;2100;3100;x;;;;;;;;;;;;
Brain-Class049;9040049;U41;1930;1930;1930;1930;3;8;0;3;0;5;0;BETA;1930;2100;3100;x;;;;;;;;;;;;
Brain-Class050;9040050;U41;1930;1930;1930;1930;3;8;0;3;0;5;0;BETA;1930;2100;3100;x;;;;;;;;;;;;
Brain-Class051;9040051;U41;1930;1930;1930;1930;3;8;0;3;0;5;0;BETA;1930;2100;3100;x;;;;;;;;;;;;
Brain-Class052;9040052;U41;1930;1930;1930;1930;3;8;0;3;0;5;0;BETA;1930;2100;3100;x;;;;;;;;;;;;
Brain-Class053;9040053;U41;1930;1930;1930;1930;3;8;0;3;0;5;0;BETA;1930;2100;3100;x;;;;;;;;;;;;
Brain-Class054;9040054;U41;1930;1930;1930;1930;3;8;0;3;0;5;0;BETA;1930;2100;3100;x;;;;;;;;;;;;
Brain-Class055;9040055;U41;1930;1930;1930;1930;3;8;0;3;0;5;0;BETA;1930;2100;3100;x;;;;;;;;;;;;
Brain-Class056;9040056;U41;1930;1930;1930;1930;3;8;0;3;0;5;0;BETA;1930;2100;3100;x;;;;;;;;;;;;
Brain-Class057;9040057;U41;1930;1930;1930;1930;3;8;0;3;0;5;0;BETA;1930;2100;3100;x;;;;;;;;;;;;
Brain-Class058;9040058;U41;1930;1930;1930;1930;3;8;0;3;0;5;0;BETA;1930;2100;3100;x;;;;;;;;;;;;
Brain-Class059;9040059;U41;1930;1930;1930;1930;3;8;0;3;0;5;0;BETA;1930;2100;3100;x;;;;;;;;;;;;
Brain-Class060;9040060;U41;1930;1930;1930;1930;3;8;0;3;0;5;0;BETA;1930;2100;3100;x;;;;;;;;;;;;
Brain-Class061;9040061;U41;1930;1930;1930;1930;3;8;0;3;0;5;0;BETA;1930;2100;3100;x;;;;;;;;;;;;
Brain-Class062;9040062;U41;1930;1930;1930;1930;3;8;0;3;0;5;0;BETA;1930;2100;3100;x;;;;;;;;;;;;
Brain-Class063;9040063;U41;1930;1930;1930;1930;3;8;0;3;0;5;0;BETA;1930;2100;3100;x;;;;;;;;;;;;
Brain-Class064;9040064;U41;1930;1930;1930;1930;3;8;0;3;0;5;0;BETA;1930;2100;3100;x;;;;;;;;;;;;
Brain-Class065;9040065;U41;1930;1930;1930;1930;3;8;0;3;0;5;0;BETA;1930;2100;3100;x;;;;;;;;;;;;
Brain-Class066;9040066;U41;1930;1930;1930;1930;3;8;0;3;0;5;0;BETA;1930;2100;3100;x;;;;;;;;;;;;
Brain-Class067;9040067;U41;1930;1930;1930;1930;3;8;0;3;0;5;0;BETA;1930;2100;3100;x;;;;;;;;;;;;
Brain-Class068;9040068;U41;1930;1930;1930;1930;3;8;0;3;0;5;0;BETA;1930;2100;3100;x;;;;;;;;;;;;
Brain-Class069;9040069;U41;1930;1930;1930;1930;3;8;0;3;0;5;0;BETA;1930;2100;3100;x;;;;;;;;;;;;
Brain-Class070;9040070;U41;1930;1930;1930;1930;3;8;0;3;0;5;0;BETA;1930;2100;3100;x;;;;;;;;;;;;
Brain-Class071;9040071;U41;1930;1930;1930;1930;3;8;0;3;0;5;0;BETA;1930;2100;3100;x;;;;;;;;;;;;
Brain-Class072;9040072;U41;1930;1930;1930;1930;3;8;0;3;0;5;0;BETA;1930;2100;3100;x;;;;;;;;;;;;
Brain-Class073;9040073;U41;1930;1930;1930;1930;3;8;0;3;0;5;0;BETA;1930;2100;3100;x;;;;;;;;;;;;
Brain-Class074;9040074;U41;1930;1930;1930;1930;3;8;0;3;0;5;0;BETA;1930;2100;3100;x;;;;;;;;;;;;
Brain-Class075;9040075;U41;1930;1930;1930;1930;3;8;0;3;0;5;0;BETA;1930;2100;3100;x;;;;;;;;;;;;
Brain-Class076;9040076;U41;1930;1930;1930;1930;3;8;0;3;0;5;0;BETA;1930;2100;3100;x;;;;;;;;;;;;
Brain-Class077;9040077;U41;1930;1930;1930;1930;3;8;0;3;0;5;0;BETA;1930;2100;3100;x;;;;;;;;;;;;
Brain-Class078;9040078;U41;1930;1930;1930;1930;3;8;0;3;0;5;0;BETA;1930;2100;3100;x;;;;;;;;;;;;
Brain-Class079;9040079;U41;1930;1930;1930;1930;3;8;0;3;0;5;0;BETA;1930;2100;3100;x;;;;;;;;;;;;
Brain-Class080;9040080;U41;1930;1930;1930;1930;3;8;0;3;0;5;0;BETA;1930;2100;3100;x;;;;;;;;;;;;
Brain-Class081;9040081;U41;1930;1930;1930;1930;3;8;0;3;0;5;0;BETA;1930;2100;3100;x;;;;;;;;;;;;
Brain-Class082;9040082;U41;1930;1930;1930;1930;3;8;0;3;0;5;0;BETA;1930;2100;3100;x;;;;;;;;;;;;
Brain-Class083;9040083;U41;1930;1930;1930;1930;3;8;0;3;0;5;0;BETA;1930;2100;3100;x;;;;;;;;;;;;
Brain-Class084;9040084;U41;1930;1930;1930;1930;3;8;0;3;0;5;0;BETA;1930;2100;3100;x;;;;;;;;;;;;
Brain-Class085;9040085;U41;1930;1930;1930;1930;3;8;0;3;0;5;0;BETA;1930;2100;3100;x;;;;;;;;;;;;
Brain-Class086;9040086;U41;1930;1930;1930;1930;3;8;0;3;0;5;0;BETA;1930;2100;3100;x;;;;;;;;;;;;
Brain-Class087;9040087;U41;1930;1930;1930;1930;3;8;0;3;0;5;0;BETA;1930;2100;3100;x;;;;;;;;;;;;
Brain-Class088;9040088;U41;1930;1930;1930;1930;3;8;0;3;0;5;0;BETA;1930;2100;3100;x;;;;;;;;;;;;
Brain-Class089;9040089;U41;1930;1930;1930;1930;3;8;0;3;0;5;0;BETA;1930;2100;3100;x;;;;;;;;;;;;
Brain-Class090;9040090;U41;1930;1930;1930;1930;3;8;0;3;0;5;0;BETA;1930;2100;3100;x;;;;;;;;;;;;
Brain-Class091;9040091;U41;1930;1930;1930;1930;3;8;0;3;0;5;0;BETA;1930;2100;3100;x;;;;;;;;;;;;
Brain-Class092;9040092;U41;1930;1930;1930;1930;3;8;0;3;0;5;0;BETA;1930;2100;3100;x;;;;;;;;;;;;
Brain-Class093;9040093;U41;1930;1930;1930;1930;3;8;0;3;0;5;0;BETA;1930;2100;3100;x;;;;;;;;;;;;
Brain-Class094;9040094;U41;1930;1930;1930;1930;3;8;0;3;0;5;0;BETA;1930;2100;3100;x;;;;;;;;;;;;
Brain-Class095;9040095;U41;1930;1930;1930;1930;3;8;0;3;0;5;0;BETA;1930;2100;3100;x;;;;;;;;;;;;
Brain-Class096;9040096;U41;1930;1930;1930;1930;3;8;0;3;0;5;0;BETA;1930;2100;3100;x;;;;;;;;;;;;
Brain-Class097;9040097;U41;1930;1930;1930;1930;3;8;0;3;0;5;0;BETA;1930;2100;3100;x;;;;;;;;;;;;
Brain-Class098;9040098;U41;1930;1930;1930;1930;3;8;0;3;0;5;0;BETA;1930;2100;3100;x;;;;;;;;;;;;
Brain-Class099;9040099;U41;1930;1930;1930;1930;3;8;0;3;0;5;0;BETA;1930;2100;3100;x;;;;;;;;;;;;
Brain-Class100;9040100;U41;1930;1930;1930;1930;3;8;0;3;0;5;0;BETA;1930;2100;3100;x;;;;;;;;;;;;
Brain-Class101;9040101;U41;1930;1930;1930;1930;3;8;0;3;0;5;0;BETA;1930;2100;3100;x;;;;;;;;;;;;
Brain-Class102;9040102;U41;1930;1930;1930;1930;3;8;0;3;0;5;0;BETA;1930;2100;3100;x;;;;;;;;;;;;
Brain-Class103;9040103;U41;1930;1930;1930;1930;3;8;0;3;0;5;0;BETA;1930;2100;3100;x;;;;;;;;;;;;
Brain-Class104;9040104;U41;1930;1930;1930;1930;3;8;0;3;0;5;0;BETA;1930;2100;3100;x;;;;;;;;;;;;
Brain-Class105;9040105;U41;1930;1930;1930;1930;3;8;0;3;0;5;0;BETA;1930;2100;3100;x;;;;;;;;;;;;
Brain-Class106;9040106;U41;1930;1930;1930;1930;3;8;0;3;0;5;0;BETA;1930;2100;3100;x;;;;;;;;;;;;
Brain-Class107;9040107;U41;1930;1930;1930;1930;3;8;0;3;0;5;0;BETA;1930;2100;3100;x;;;;;;;;;;;;
Brain-Class108;9040108;U41;1930;1930;1930;1930;3;8;0;3;0;5;0;BETA;1930;2100;3100;x;;;;;;;;;;;;
Brain-Class109;9040109;U41;1930;1930;1930;1930;3;8;0;3;0;5;0;BETA;1930;2100;3100;x;;;;;;;;;;;;
Brain-Class110;9040110;U41;1930;1930;1930;1930;3;8;0;3;0;5;0;BETA;1930;2100;3100;x;;;;;;;;;;;;
Brain-Class111;9040111;U41;1930;1930;1930;1930;3;8;0;3;0;5;0;BETA;1930;2100;3100;x;;;;;;;;;;;;
Brain-Class112;9040112;U41;1930;1930;1930;1930;3;8;0;3;0;5;0;BETA;1930;2100;3100;x;;;;;;;;;;;;
Brain-Class113;9040113;U41;1930;1930;1930;1930;3;8;0;3;0;5;0;BETA;1930;2100;3100;x;;;;;;;;;;;;
Brain-Class114;9040114;U41;1930;1930;1930;1930;3;8;0;3;0;5;0;BETA;1930;2100;3100;x;;;;;;;;;;;;
Brain-Class115;9040115;U41;1930;1930;1930;1930;3;8;0;3;0;5;0;BETA;1930;2100;3100;x;;;;;;;;;;;;
Brain-Class116;9040116;U41;1930;1930;1930;1930;3;8;0;3;0;5;0;BETA;1930;2100;3100;x;;;;;;;;;;;;
Brain-Class117;9040117;U41;1930;1930;1930;1930;3;8;0;3;0;5;0;BETA;1930;2100;3100;x;;;;;;;;;;;;
Brain-Class118;9040118;U41;1930;1930;1930;1930;3;8;0;3;0;5;0;BETA;1930;2100;3100;x;;;;;;;;;;;;
Brain-Class119;9040119;U41;1930;1930;1930;1930;3;8;0;3;0;5;0;BETA;1930;2100;3100;x;;;;;;;;;;;;
Brain-Class120;9040120;U41;1930;1930;1930;1930;3;8;0;3;0;5;0;BETA;1930;2100;3100;x;;;;;;;;;;;;
Brain-Class121;9040121;U41;1930;1930;1930;1930;3;8;0;3;0;5;0;BETA;1930;2100;3100;x;;;;;;;;;;;;
Brain-Class122;9040122;U41;1930;1930;1930;1930;3;8;0;3;0;5;0;BETA;1930;2100;3100;x;;;;;;;;;;;;
Brain-Class123;9040123;U41;1930;1930;1930;1930;3;8;0;3;0;5;0;BETA;1930;2100;3100;x;;;;;;;;;;;;
Brain-Class124;9040124;U41;1930;1930;1930;1930;3;8;0;3;0;5;0;BETA;1930;2100;3100;x;;;;;;;;;;;;
Brain-Class125;9040125;U41;1930;1930;1930;1930;3;8;0;3;0;5;0;BETA;1930;2100;3100;x;;;;;;;;;;;;
Brain-Class126;9040126;U41;1930;1930;1930;1930;3;8;0;3;0;5;0;BETA;1930;2100;3100;x;;;;;;;;;;;;
Brain-Class127;9040127;U41;1930;1930;1930;1930;3;8;0;3;0;5;0;BETA;1930;2100;3100;x;;;;;;;;;;;;
Brain-Class128;9040128;U41;1930;1930;1930;1930;3;8;0;3;0;5;0;BETA;1930;2100;3100;x;;;;;;;;;;;;
Brain-Class129;9040129;U41;1930;1930;1930;1930;3;8;0;3;0;5;0;BETA;1930;2100;3100;x;;;;;;;;;;;;
Brain-Class130;9040130;U41;1930;1930;1930;1930;3;8;0;3;0;5;0;BETA;1930;2100;3100;x;;;;;;;;;;;;
Brain-Class131;9040131;U41;1930;1930;1930;1930;3;8;0;3;0;5;0;BETA;1930;2100;3100;x;;;;;;;;;;;;
Brain-Class132;9040132;U41;1930;1930;1930;1930;3;8;0;3;0;5;0;BETA;1930;2100;3100;x;;;;;;;;;;;;
Brain-Class133;9040133;U41;1930;1930;1930;1930;3;8;0;3;0;5;0;BETA;1930;2100;3100;x;;;;;;;;;;;;
Brain-Class134;9040134;U41;1930;1930;1930;1930;3;8;0;3;0;5;0;BETA;1930;2100;3100;x;;;;;;;;;;;;
Brain-Class135;9040135;U41;1930;1930;1930;1930;3;8;0;3;0;5;0;BETA;1930;2100;3100;x;;;;;;;;;;;;
Brain-Class136;9040136;U41;1930;1930;1930;1930;3;8;0;3;0;5;0;BETA;1930;2100;3100;x;;;;;;;;;;;;
Brain-Class137;9040137;U41;1930;1930;1930;1930;3;8;0;3;0;5;0;BETA;1930;2100;3100;x;;;;;;;;;;;;
Brain-Class138;9040138;U41;1930;1930;1930;1930;3;8;0;3;0;5;0;BETA;1930;2100;3100;x;;;;;;;;;;;;
Brain-Class139;9040139;U41;1930;1930;1930;1930;3;8;0;3;0;5;0;BETA;1930;2100;3100;x;;;;;;;;;;;;
Brain-Class140;9040140;U41;1930;1930;1930;1930;3;8;0;3;0;5;0;BETA;1930;2100;3100;x;;;;;;;;;;;;
Brain-Class141;9040141;U41;1930;1930;1930;1930;3;8;0;3;0;5;0;BETA;1930;2100;3100;x;;;;;;;;;;;;
Brain-Class142;9040142;U41;1930;1930;1930;1930;3;8;0;3;0;5;0;BETA;1930;2100;3100;x;;;;;;;;;;;;
Brain-Class143;9040143;U41;1930;1930;1930;1930;3;8;0;3;0;5;0;BETA;1930;2100;3100;x;;;;;;;;;;;;
Brain-Class144;9040144;U41;1930;1930;1930;1930;3;8;0;3;0;5;0;BETA;1930;2100;3100;x;;;;;;;;;;;;
Brain-Class145;9040145;U41;1930;1930;1930;1930;3;8;0;3;0;5;0;BETA;1930;2100;3100;x;;;;;;;;;;;;
Brain-Class146;9040146;U41;1930;1930;1930;1930;3;8;0;3;0;5;0;BETA;1930;2100;3100;x;;;;;;;;;;;;
Brain-Class147;9040147;U41;1930;1930;1930;1930;3;8;0;3;0;5;0;BETA;1930;2100;3100;x;;;;;;;;;;;;
Brain-Class148;9040148;U41;1930;1930;1930;1930;3;8;0;3;0;5;0;BETA;1930;2100;3100;x;;;;;;;;;;;;
Brain-Class149;9040149;U41;1930;1930;1930;1930;3;8;0;3;0;5;0;BETA;1930;2100;3100;x;;;;;;;;;;;;
Brain-Class150;9040150;U41;1930;1930;1930;1930;3;8;0;3;0;5;0;BETA;1930;2100;3100;x;;;;;;;;;;;;
Brain-Class151;9040151;U41;1930;1930;1930;1930;3;8;0;3;0;5;0;BETA;1930;2100;3100;x;;;;;;;;;;;;
Brain-Class152;9040152;U41;1930;1930;1930;1930;3;8;0;3;0;5;0;BETA;1930;2100;3100;x;;;;;;;;;;;;
Brain-Class153;9040153;U41;1930;1930;1930;1930;3;8;0;3;0;5;0;BETA;1930;2100;3100;x;;;;;;;;;;;;
Brain-Class154;9040154;U41;1930;1930;1930;1930;3;8;0;3;0;5;0;BETA;1930;2100;3100;x;;;;;;;;;;;;
Brain-Class155;9040155;U41;1930;1930;1930;1930;3;8;0;3;0;5;0;BETA;1930;2100;3100;x;;;;;;;;;;;;
Brain-Class156;9040156;U41;1930;1930;1930;1930;3;8;0;3;0;5;0;BETA;1930;2100;3100;x;;;;;;;;;;;;
Brain-Class157;9040157;U41;1930;1930;1930;1930;3;8;0;3;0;5;0;BETA;1930;2100;3100;x;;;;;;;;;;;;
Brain-Class158;9040158;U41;1930;1930;1930;1930;3;8;0;3;0;5;0;BETA;1930;2100;3100;x;;;;;;;;;;;;
Brain-Class159;9040159;U41;1930;1930;1930;1930;3;8;0;3;0;5;0;BETA;1930;2100;3100;x;;;;;;;;;;;;
Brain-Class160;9040160;U41;1930;1930;1930;1930;3;8;0;3;0;5;0;BETA;1930;2100;3100;x;;;;;;;;;;;;
Brain-Class161;9040161;U41;1930;1930;1930;1930;3;8;0;3;0;5;0;BETA;1930;2100;3100;x;;;;;;;;;;;;
Brain-Class162;9040162;U41;1930;1930;1930;1930;3;8;0;3;0;5;0;BETA;1930;2100;3100;x;;;;;;;;;;;;
Brain-Class163;9040163;U41;1930;1930;1930;1930;3;8;0;3;0;5;0;BETA;1930;2100;3100;x;;;;;;;;;;;;
Brain-Class164;9040164;U41;1930;1930;1930;1930;3;8;0;3;0;5;0;BETA;1930;2100;3100;x;;;;;;;;;;;;
Brain-Class165;9040165;U41;1930;1930;1930;1930;3;8;0;3;0;5;0;BETA;1930;2100;3100;x;;;;;;;;;;;;
Brain-Class166;9040166;U41;1930;1930;1930;1930;3;8;0;3;0;5;0;BETA;1930;2100;3100;x;;;;;;;;;;;;
Brain-Class167;9040167;U41;1930;1930;1930;1930;3;8;0;3;0;5;0;BETA;1930;2100;3100;x;;;;;;;;;;;;
Brain-Class168;9040168;U41;1930;1930;1930;1930;3;8;0;3;0;5;0;BETA;1930;2100;3100;x;;;;;;;;;;;;
Brain-Class169;9040169;U41;1930;1930;1930;1930;3;8;0;3;0;5;0;BETA;1930;2100;3100;x;;;;;;;;;;;;
Brain-Class170;9040170;U41;1930;1930;1930;1930;3;8;0;3;0;5;0;BETA;1930;2100;3100;x;;;;;;;;;;;;
Brain-Class171;9040171;U41;1930;1930;1930;1930;3;8;0;3;0;5;0;BETA;1930;2100;3100;x;;;;;;;;;;;;
Brain-Class172;9040172;U41;1930;1930;1930;1930;3;8;0;3;0;5;0;BETA;1930;2100;3100;x;;;;;;;;;;;;
Brain-Class173;9040173;U41;1930;1930;1930;1930;3;8;0;3;0;5;0;BETA;1930;2100;3100;x;;;;;;;;;;;;
Brain-Class174;9040174;U41;1930;1930;1930;1930;3;8;0;3;0;5;0;BETA;1930;2100;3100;x;;;;;;;;;;;;
Brain-Class175;9040175;U41;1930;1930;1930;1930;3;8;0;3;0;5;0;BETA;1930;2100;3100;x;;;;;;;;;;;;
Brain-Class176;9040176;U41;1930;1930;1930;1930;3;8;0;3;0;5;0;BETA;1930;2100;3100;x;;;;;;;;;;;;
Brain-Class177;9040177;U41;1930;1930;1930;1930;3;8;0;3;0;5;0;BETA;1930;2100;3100;x;;;;;;;;;;;;
Brain-Class178;9040178;U41;1930;1930;1930;1930;3;8;0;3;0;5;0;BETA;1930;2100;3100;x;;;;;;;;;;;;
Brain-Class179;9040179;U41;1930;1930;1930;1930;3;8;0;3;0;5;0;BETA;1930;2100;3100;x;;;;;;;;;;;;
Brain-Class180;9040180;U41;1930;1930;1930;1930;3;8;0;3;0;5;0;BETA;1930;2100;3100;x;;;;;;;;;;;;
Brain-Class181;9040181;U41;1930;1930;1930;1930;3;8;0;3;0;5;0;BETA;1930;2100;3100;x;;;;;;;;;;;;
Brain-Class182;9040182;U41;1930;1930;1930;1930;3;8;0;3;0;5;0;BETA;1930;2100;3100;x;;;;;;;;;;;;
Brain-Class183;9040183;U41;1930;1930;1930;1930;3;8;0;3;0;5;0;BETA;1930;2100;3100;x;;;;;;;;;;;;
Brain-Class184;9040184;U41;1930;1930;1930;1930;3;8;0;3;0;5;0;BETA;1930;2100;3100;x;;;;;;;;;;;;
Brain-Class185;9040185;U41;1930;1930;1930;1930;3;8;0;3;0;5;0;BETA;1930;2100;3100;x;;;;;;;;;;;;
Brain-Class186;9040186;U41;1930;1930;1930;1930;3;8;0;3;0;5;0;BETA;1930;2100;3100;x;;;;;;;;;;;;
Brain-Class187;9040187;U41;1930;1930;1930;1930;3;8;0;3;0;5;0;BETA;1930;2100;3100;x;;;;;;;;;;;;
Brain-Class188;9040188;U41;1930;1930;1930;1930;3;8;0;3;0;5;0;BETA;1930;2100;3100;x;;;;;;;;;;;;
Brain-Class189;9040189;U41;1930;1930;1930;1930;3;8;0;3;0;5;0;BETA;1930;2100;3100;x;;;;;;;;;;;;
Brain-Class190;9040190;U41;1930;1930;1930;1930;3;8;0;3;0;5;0;BETA;1930;2100;3100;x;;;;;;;;;;;;
Brain-Class191;9040191;U41;1930;1930;1930;1930;3;8;0;3;0;5;0;BETA;1930;2100;3100;x;;;;;;;;;;;;
Brain-Class192;9040192;U41;1930;1930;1930;1930;3;8;0;3;0;5;0;BETA;1930;2100;3100;x;;;;;;;;;;;;
Brain-Class193;9040193;U41;1930;1930;1930;1930;3;8;0;3;0;5;0;BETA;1930;2100;3100;x;;;;;;;;;;;;
Brain-Class194;9040194;U41;1930;1930;1930;1930;3;8;0;3;0;5;0;BETA;1930;2100;3100;x;;;;;;;;;;;;
Brain-Class195;9040195;U41;1930;1930;1930;1930;3;8;0;3;0;5;0;BETA;1930;2100;3100;x;;;;;;;;;;;;
Brain-Class196;9040196;U41;1930;1930;1930;1930;3;8;0;3;0;5;0;BETA;1930;2100;3100;x;;;;;;;;;;;;
Brain-Class197;9040197;U41;1930;1930;1930;1930;3;8;0;3;0;5;0;BETA;1930;2100;3100;x;;;;;;;;;;;;
Brain-Class198;9040198;U41;1930;1930;1930;1930;3;8;0;3;0;5;0;BETA;1930;2100;3100;x;;;;;;;;;;;;
Brain-Class199;9040199;U41;1930;1930;1930;1930;3;8;0;3;0;5;0;BETA;1930;2100;3100;x;;;;;;;;;;;;
Brain-Class200;9040200;U41;1930;1930;1930;1930;3;8;0;3;0;5;0;BETA;1930;2100;3100;x;;;;;;;;;;;;
Brain-Class201;9040201;U41;1930;1930;1930;1930;3;8;0;3;0;5;0;BETA;1930;2100;3100;x;;;;;;;;;;;;
Brain-Class202;9040202;U41;1930;1930;1930;1930;3;8;0;3;0;5;0;BETA;1930;2100;3100;x;;;;;;;;;;;;
Brain-Class203;9040203;U41;1930;1930;1930;1930;3;8;0;3;0;5;0;BETA;1930;2100;3100;x;;;;;;;;;;;;
Brain-Class204;9040204;U41;1930;1930;1930;1930;3;8;0;3;0;5;0;BETA;1930;2100;3100;x;;;;;;;;;;;;
Brain-Class205;9040205;U41;1930;1930;1930;1930;3;8;0;3;0;5;0;BETA;1930;2100;3100;x;;;;;;;;;;;;
Brain-Class206;9040206;U41;1930;1930;1930;1930;3;8;0;3;0;5;0;BETA;1930;2100;3100;x;;;;;;;;;;;;
Brain-Class207;9040207;U41;1930;1930;1930;1930;3;8;0;3;0;5;0;BETA;1930;2100;3100;x;;;;;;;;;;;;
Brain-Class208;9040208;U41;1930;1930;1930;1930;3;8;0;3;0;5;0;BETA;1930;2100;3100;x;;;;;;;;;;;;
Brain-Class209;9040209;U41;1930;1930;1930;1930;3;8;0;3;0;5;0;BETA;1930;2100;3100;x;;;;;;;;;;;;
Brain-Class210;9040210;U41;1930;1930;1930;1930;3;8;0;3;0;5;0;BETA;1930;2100;3100;x;;;;;;;;;;;;
Brain-Class211;9040211;U41;1930;1930;1930;1930;3;8;0;3;0;5;0;BETA;1930;2100;3100;x;;;;;;;;;;;;
Brain-Class212;9040212;U41;1930;1930;1930;1930;3;8;0;3;0;5;0;BETA;1930;2100;3100;x;;;;;;;;;;;;
Brain-Class213;9040213;U41;1930;1930;1930;1930;3;8;0;3;0;5;0;BETA;1930;2100;3100;x;;;;;;;;;;;;
Brain-Class214;9040214;U41;1930;1930;1930;1930;3;8;0;3;0;5;0;BETA;1930;2100;3100;x;;;;;;;;;;;;
Brain-Class215;9040215;U41;1930;1930;1930;1930;3;8;0;3;0;5;0;BETA;1930;2100;3100;x;;;;;;;;;;;;
Brain-Class216;9040216;U41;1930;1930;1930;1930;3;8;0;3;0;5;0;BETA;1930;2100;3100;x;;;;;;;;;;;;
Brain-Class217;9040217;U41;1930;1930;1930;1930;3;8;0;3;0;5;0;BETA;1930;2100;3100;x;;;;;;;;;;;;
Brain-Class218;9040218;U41;1930;1930;1930;1930;3;8;0;3;0;5;0;BETA;1930;2100;3100;x;;;;;;;;;;;;
Brain-Class219;9040219;U41;1930;1930;1930;1930;3;8;0;3;0;5;0;BETA;1930;2100;3100;x;;;;;;;;;;;;
Brain-Class220;9040220;U41;1930;1930;1930;1930;3;8;0;3;0;5;0;BETA;1930;2100;3100;x;;;;;;;;;;;;
Brain-Class221;9040221;U41;1930;1930;1930;1930;3;8;0;3;0;5;0;BETA;1930;2100;3100;x;;;;;;;;;;;;
Brain-Class222;9040222;U41;1930;1930;1930;1930;3;8;0;3;0;5;0;BETA;1930;2100;3100;x;;;;;;;;;;;;
Brain-Class223;9040223;U41;1930;1930;1930;1930;3;8;0;3;0;5;0;BETA;1930;2100;3100;x;;;;;;;;;;;;
Brain-Class224;9040224;U41;1930;1930;1930;1930;3;8;0;3;0;5;0;BETA;1930;2100;3100;x;;;;;;;;;;;;
Brain-Class225;9040225;U41;1930;1930;1930;1930;3;8;0;3;0;5;0;BETA;1930;2100;3100;x;;;;;;;;;;;;
Brain-Class226;9040226;U41;1930;1930;1930;1930;3;8;0;3;0;5;0;BETA;1930;2100;3100;x;;;;;;;;;;;;
Brain-Class227;9040227;U41;1930;1930;1930;1930;3;8;0;3;0;5;0;BETA;1930;2100;3100;x;;;;;;;;;;;;
Brain-Class228;9040228;U41;1930;1930;1930;1930;3;8;0;3;0;5;0;BETA;1930;2100;3100;x;;;;;;;;;;;;
Brain-Class229;9040229;U41;1930;1930;1930;1930;3;8;0;3;0;5;0;BETA;1930;2100;3100;x;;;;;;;;;;;;
Brain-Class230;9040230;U41;1930;1930;1930;1930;3;8;0;3;0;5;0;BETA;1930;2100;3100;x;;;;;;;;;;;;
Brain-Class231;9040231;U41;1930;1930;1930;1930;3;8;0;3;0;5;0;BETA;1930;2100;3100;x;;;;;;;;;;;;
Brain-Class232;9040232;U41;1930;1930;1930;1930;3;8;0;3;0;5;0;BETA;1930;2100;3100;x;;;;;;;;;;;;
Brain-Class233;9040233;U41;1930;1930;1930;1930;3;8;0;3;0;5;0;BETA;1930;2100;3100;x;;;;;;;;;;;;
Brain-Class234;9040234;U41;1930;1930;1930;1930;3;8;0;3;0;5;0;BETA;1930;2100;3100;x;;;;;;;;;;;;
Brain-Class235;9040235;U41;1930;1930;1930;1930;3;8;0;3;0;5;0;BETA;1930;2100;3100;x;;;;;;;;;;;;
Brain-Class236;9040236;U41;1930;1930;1930;1930;3;8;0;3;0;5;0;BETA;1930;2100;3100;x;;;;;;;;;;;;
Brain-Class237;9040237;U41;1930;1930;1930;1930;3;8;0;3;0;5;0;BETA;1930;2100;3100;x;;;;;;;;;;;;
Brain-Class238;9040238;U41;1930;1930;1930;1930;3;8;0;3;0;5;0;BETA;1930;2100;3100;x;;;;;;;;;;;;
Brain-Class239;9040239;U41;1930;1930;1930;1930;3;8;0;3;0;5;0;BETA;1930;2100;3100;x;;;;;;;;;;;;
Brain-Class240;9040240;U41;1930;1930;1930;1930;3;8;0;3;0;5;0;BETA;1930;2100;3100;x;;;;;;;;;;;;
Brain-Class241;9040241;U41;1930;1930;1930;1930;3;8;0;3;0;5;0;BETA;1930;2100;3100;x;;;;;;;;;;;;
Brain-Class242;9040242;U41;1930;1930;1930;1930;3;8;0;3;0;5;0;BETA;1930;2100;3100;x;;;;;;;;;;;;
Brain-Class243;9040243;U41;1930;1930;1930;1930;3;8;0;3;0;5;0;BETA;1930;2100;3100;x;;;;;;;;;;;;
Brain-Class244;9040244;U41;1930;1930;1930;1930;3;8;0;3;0;5;0;BETA;1930;2100;3100;x;;;;;;;;;;;;
Brain-Class245;9040245;U41;1930;1930;1930;1930;3;8;0;3;0;5;0;BETA;1930;2100;3100;x;;;;;;;;;;;;
Brain-Class246;9040246;U41;1930;1930;1930;1930;3;8;0;3;0;5;0;BETA;1930;2100;3100;x;;;;;;;;;;;;
Brain-Class247;9040247;U41;1930;1930;1930;1930;3;8;0;3;0;5;0;BETA;1930;2100;3100;x;;;;;;;;;;;;
Brain-Class248;9040248;U41;1930;1930;1930;1930;3;8;0;3;0;5;0;BETA;1930;2100;3100;x;;;;;;;;;;;;
Brain-Class249;9040249;U41;1930;1930;1930;1930;3;8;0;3;0;5;0;BETA;1930;2100;3100;x;;;;;;;;;;;;
Brain-Class250;9040250;U41;1930;1930;1930;1930;3;8;0;3;0;5;0;BETA;1930;2100;3100;x;;;;;;;;;;;;
Brain-Class251;9040251;U41;1930;1930;1930;1930;3;8;0;3;0;5;0;BETA;1930;2100;3100;x;;;;;;;;;;;;
Brain-Class252;9040252;U41;1930;1930;1930;1930;3;8;0;3;0;5;0;BETA;1930;2100;3100;x;;;;;;;;;;;;
Brain-Class253;9040253;U41;1930;1930;1930;1930;3;8;0;3;0;5;0;BETA;1930;2100;3100;x;;;;;;;;;;;;
Brain-Class254;9040254;U41;1930;1930;1930;1930;3;8;0;3;0;5;0;BETA;1930;2100;3100;x;;;;;;;;;;;;
Brain-Class255;9040255;U41;1930;1930;1930;1930;3;8;0;3;0;5;0;BETA;1930;2100;3100;x;;;;;;;;;;;;
Brain-Class256;9040256;U41;1930;1930;1930;1930;3;8;0;3;0;5;0;BETA;1930;2100;3100;x;;;;;;;;;;;;
Brain-Class257;9040257;U41;1930;1930;1930;1930;3;8;0;3;0;5;0;BETA;1930;2100;3100;x;;;;;;;;;;;;
Brain-Class258;9040258;U41;1930;1930;1930;1930;3;8;0;3;0;5;0;BETA;1930;2100;3100;x;;;;;;;;;;;;
Brain-Class259;9040259;U41;1930;1930;1930;1930;3;8;0;3;0;5;0;BETA;1930;2100;3100;x;;;;;;;;;;;;
Brain-Class260;9040260;U41;1930;1930;1930;1930;3;8;0;3;0;5;0;BETA;1930;2100;3100;x;;;;;;;;;;;;
Brain-Class261;9040261;U41;1930;1930;1930;1930;3;8;0;3;0;5;0;BETA;1930;2100;3100;x;;;;;;;;;;;;
Brain-Class262;9040262;U41;1930;1930;1930;1930;3;8;0;3;0;5;0;BETA;1930;2100;3100;x;;;;;;;;;;;;
Brain-Class263;9040263;U41;1930;1930;1930;1930;3;8;0;3;0;5;0;BETA;1930;2100;3100;x;;;;;;;;;;;;
Brain-Class264;9040264;U41;1930;1930;1930;1930;3;8;0;3;0;5;0;BETA;1930;2100;3100;x;;;;;;;;;;;;
Brain-Class265;9040265;U41;1930;1930;1930;1930;3;8;0;3;0;5;0;BETA;1930;2100;3100;x;;;;;;;;;;;;
Brain-Class266;9040266;U41;1930;1930;1930;1930;3;8;0;3;0;5;0;BETA;1930;2100;3100;x;;;;;;;;;;;;
Brain-Class267;9040267;U41;1930;1930;1930;1930;3;8;0;3;0;5;0;BETA;1930;2100;3100;x;;;;;;;;;;;;
Brain-Class268;9040268;U41;1930;1930;1930;1930;3;8;0;3;0;5;0;BETA;1930;2100;3100;x;;;;;;;;;;;;
Brain-Class269;9040269;U41;1930;1930;1930;1930;3;8;0;3;0;5;0;BETA;1930;2100;3100;x;;;;;;;;;;;;
Brain-Class270;9040270;U41;1930;1930;1930;1930;3;8;0;3;0;5;0;BETA;1930;2100;3100;x;;;;;;;;;;;;
Brain-Class271;9040271;U41;1930;1930;1930;1930;3;8;0;3;0;5;0;BETA;1930;2100;3100;x;;;;;;;;;;;;
Brain-Class272;9040272;U41;1930;1930;1930;1930;3;8;0;3;0;5;0;BETA;1930;2100;3100;x;;;;;;;;;;;;
Brain-Class273;9040273;U41;1930;1930;1930;1930;3;8;0;3;0;5;0;BETA;1930;2100;3100;x;;;;;;;;;;;;
Brain-Class274;9040274;U41;1930;1930;1930;1930;3;8;0;3;0;5;0;BETA;1930;2100;3100;x;;;;;;;;;;;;
Brain-Class275;9040275;U41;1930;1930;1930;1930;3;8;0;3;0;5;0;BETA;1930;2100;3100;x;;;;;;;;;;;;
Brain-Class276;9040276;U41;1930;1930;1930;1930;3;8;0;3;0;5;0;BETA;1930;2100;3100;x;;;;;;;;;;;;
Brain-Class277;9040277;U41;1930;1930;1930;1930;3;8;0;3;0;5;0;BETA;1930;2100;3100;x;;;;;;;;;;;;
Brain-Class278;9040278;U41;1930;1930;1930;1930;3;8;0;3;0;5;0;BETA;1930;2100;3100;x;;;;;;;;;;;;
Brain-Class279;9040279;U41;1930;1930;1930;1930;3;8;0;3;0;5;0;BETA;1930;2100;3100;x;;;;;;;;;;;;
Brain-Class280;9040280;U41;1930;1930;1930;1930;3;8;0;3;0;5;0;BETA;1930;2100;3100;x;;;;;;;;;;;;
Brain-Class281;9040281;U41;1930;1930;1930;1930;3;8;0;3;0;5;0;BETA;1930;2100;3100;x;;;;;;;;;;;;
Brain-Class282;9040282;U41;1930;1930;1930;1930;3;8;0;3;0;5;0;BETA;1930;2100;3100;x;;;;;;;;;;;;
Brain-Class283;9040283;U41;1930;1930;1930;1930;3;8;0;3;0;5;0;BETA;1930;2100;3100;x;;;;;;;;;;;;
Brain-Class284;9040284;U41;1930;1930;1930;1930;3;8;0;3;0;5;0;BETA;1930;2100;3100;x;;;;;;;;;;;;
Brain-Class285;9040285;U41;1930;1930;1930;1930;3;8;0;3;0;5;0;BETA;1930;2100;3100;x;;;;;;;;;;;;
Brain-Class286;9040286;U41;1930;1930;1930;1930;3;8;0;3;0;5;0;BETA;1930;2100;3100;x;;;;;;;;;;;;
Brain-Class287;9040287;U41;1930;1930;1930;1930;3;8;0;3;0;5;0;BETA;1930;2100;3100;x;;;;;;;;;;;;
Brain-Class288;9040288;U41;1930;1930;1930;1930;3;8;0;3;0;5;0;BETA;1930;2100;3100;x;;;;;;;;;;;;
Brain-Class289;9040289;U41;1930;1930;1930;1930;3;8;0;3;0;5;0;BETA;1930;2100;3100;x;;;;;;;;;;;;
Brain-Class290;9040290;U41;1930;1930;1930;1930;3;8;0;3;0;5;0;BETA;1930;2100;3100;x;;;;;;;;;;;;
Brain-Class291;9040291;U41;1930;1930;1930;1930;3;8;0;3;0;5;0;BETA;1930;2100;3100;x;;;;;;;;;;;;
Brain-Class292;9040292;U41;1930;1930;1930;1930;3;8;0;3;0;5;0;BETA;1930;2100;3100;x;;;;;;;;;;;;
Brain-Class293;9040293;U41;1930;1930;1930;1930;3;8;0;3;0;5;0;BETA;1930;2100;3100;x;;;;;;;;;;;;
Brain-Class294;9040294;U41;1930;1930;1930;1930;3;8;0;3;0;5;0;BETA;1930;2100;3100;x;;;;;;;;;;;;
Brain-Class295;9040295;U41;1930;1930;1930;1930;3;8;0;3;0;5;0;BETA;1930;2100;3100;x;;;;;;;;;;;;
Brain-Class296;9040296;U41;1930;1930;1930;1930;3;8;0;3;0;5;0;BETA;1930;2100;3100;x;;;;;;;;;;;;
Brain-Class297;9040297;U41;1930;1930;1930;1930;3;8;0;3;0;5;0;BETA;1930;2100;3100;x;;;;;;;;;;;;
Brain-Class298;9040298;U41;1930;1930;1930;1930;3;8;0;3;0;5;0;BETA;1930;2100;3100;x;;;;;;;;;;;;
Brain-Class299;9040299;U41;1930;1930;1930;1930;3;8;0;3;0;5;0;BETA;1930;2100;3100;x;;;;;;;;;;;;
Brain-Class300;9040300;U41;1930;1930;1930;1930;3;8;0;3;0;5;0;BETA;1930;2100;3100;x;;;;;;;;;;;;
Brain-Class301;9040301;U41;1930;1930;1930;1930;3;8;0;3;0;5;0;BETA;1930;2100;3100;x;;;;;;;;;;;;
Brain-Class302;9040302;U41;1930;1930;1930;1930;3;8;0;3;0;5;0;BETA;1930;2100;3100;x;;;;;;;;;;;;
Brain-Class303;9040303;U41;1930;1930;1930;1930;3;8;0;3;0;5;0;BETA;1930;2100;3100;x;;;;;;;;;;;;
Brain-Class304;9040304;U41;1930;1930;1930;1930;3;8;0;3;0;5;0;BETA;1930;2100;3100;x;;;;;;;;;;;;
Brain-Class305;9040305;U41;1930;1930;1930;1930;3;8;0;3;0;5;0;BETA;1930;2100;3100;x;;;;;;;;;;;;
Brain-Class306;9040306;U41;1930;1930;1930;1930;3;8;0;3;0;5;0;BETA;1930;2100;3100;x;;;;;;;;;;;;
Brain-Class307;9040307;U41;1930;1930;1930;1930;3;8;0;3;0;5;0;BETA;1930;2100;3100;x;;;;;;;;;;;;
Brain-Class308;9040308;U41;1930;1930;1930;1930;3;8;0;3;0;5;0;BETA;1930;2100;3100;x;;;;;;;;;;;;
Brain-Class309;9040309;U41;1930;1930;1930;1930;3;8;0;3;0;5;0;BETA;1930;2100;3100;x;;;;;;;;;;;;
Brain-Class310;9040310;U41;1930;1930;1930;1930;3;8;0;3;0;5;0;BETA;1930;2100;3100;x;;;;;;;;;;;;
Brain-Class311;9040311;U41;1930;1930;1930;1930;3;8;0;3;0;5;0;BETA;1930;2100;3100;x;;;;;;;;;;;;
Brain-Class312;9040312;U41;1930;1930;1930;1930;3;8;0;3;0;5;0;BETA;1930;2100;3100;x;;;;;;;;;;;;
Brain-Class313;9040313;U41;1930;1930;1930;1930;3;8;0;3;0;5;0;BETA;1930;2100;3100;x;;;;;;;;;;;;
Brain-Class314;9040314;U41;1930;1930;1930;1930;3;8;0;3;0;5;0;BETA;1930;2100;3100;x;;;;;;;;;;;;
Brain-Class315;9040315;U41;1930;1930;1930;1930;3;8;0;3;0;5;0;BETA;1930;2100;3100;x;;;;;;;;;;;;
Brain-Class316;9040316;U41;1930;1930;1930;1930;3;8;0;3;0;5;0;BETA;1930;2100;3100;x;;;;;;;;;;;;
Brain-Class317;9040317;U41;1930;1930;1930;1930;3;8;0;3;0;5;0;BETA;1930;2100;3100;x;;;;;;;;;;;;
Brain-Class318;9040318;U41;1930;1930;1930;1930;3;8;0;3;0;5;0;BETA;1930;2100;3100;x;;;;;;;;;;;;
Brain-Class319;9040319;U41;1930;1930;1930;1930;3;8;0;3;0;5;0;BETA;1930;2100;3100;x;;;;;;;;;;;;
Brain-Class320;9040320;U41;1930;1930;1930;1930;3;8;0;3;0;5;0;BETA;1930;2100;3100;x;;;;;;;;;;;;
Brain-Class321;9040321;U41;1930;1930;1930;1930;3;8;0;3;0;5;0;BETA;1930;2100;3100;x;;;;;;;;;;;;
Brain-Class322;9040322;U41;1930;1930;1930;1930;3;8;0;3;0;5;0;BETA;1930;2100;3100;x;;;;;;;;;;;;
Brain-Class323;9040323;U41;1930;1930;1930;1930;3;8;0;3;0;5;0;BETA;1930;2100;3100;x;;;;;;;;;;;;
Brain-Class324;9040324;U41;1930;1930;1930;1930;3;8;0;3;0;5;0;BETA;1930;2100;3100;x;;;;;;;;;;;;
Brain-Class325;9040325;U41;1930;1930;1930;1930;3;8;0;3;0;5;0;BETA;1930;2100;3100;x;;;;;;;;;;;;
Brain-Class326;9040326;U41;1930;1930;1930;1930;3;8;0;3;0;5;0;BETA;1930;2100;3100;x;;;;;;;;;;;;
Brain-Class327;9040327;U41;1930;1930;1930;1930;3;8;0;3;0;5;0;BETA;1930;2100;3100;x;;;;;;;;;;;;
Brain-Class328;9040328;U41;1930;1930;1930;1930;3;8;0;3;0;5;0;BETA;1930;2100;3100;x;;;;;;;;;;;;
Brain-Class329;9040329;U41;1930;1930;1930;1930;3;8;0;3;0;5;0;BETA;1930;2100;3100;x;;;;;;;;;;;;
Brain-Class330;9040330;U41;1930;1930;1930;1930;3;8;0;3;0;5;0;BETA;1930;2100;3100;x;;;;;;;;;;;;
Brain-Class331;9040331;U41;1930;1930;1930;1930;3;8;0;3;0;5;0;BETA;1930;2100;3100;x;;;;;;;;;;;;
Brain-Class332;9040332;U41;1930;1930;1930;1930;3;8;0;3;0;5;0;BETA;1930;2100;3100;x;;;;;;;;;;;;
Brain-Class333;9040333;U41;1930;1930;1930;1930;3;8;0;3;0;5;0;BETA;1930;2100;3100;x;;;;;;;;;;;;
Brain-Class334;9040334;U41;1930;1930;1930;1930;3;8;0;3;0;5;0;BETA;1930;2100;3100;x;;;;;;;;;;;;
Brain-Class335;9040335;U41;1930;1930;1930;1930;3;8;0;3;0;5;0;BETA;1930;2100;3100;x;;;;;;;;;;;;
Brain-Class336;9040336;U41;1930;1930;1930;1930;3;8;0;3;0;5;0;BETA;1930;2100;3100;x;;;;;;;;;;;;
Brain-Class337;9040337;U41;1930;1930;1930;1930;3;8;0;3;0;5;0;BETA;1930;2100;3100;x;;;;;;;;;;;;
Brain-Class338;9040338;U41;1930;1930;1930;1930;3;8;0;3;0;5;0;BETA;1930;2100;3100;x;;;;;;;;;;;;
Brain-Class339;9040339;U41;1930;1930;1930;1930;3;8;0;3;0;5;0;BETA;1930;2100;3100;x;;;;;;;;;;;;
Brain-Class340;9040340;U41;1930;1930;1930;1930;3;8;0;3;0;5;0;BETA;1930;2100;3100;x;;;;;;;;;;;;
Brain-Class341;9040341;U41;1930;1930;1930;1930;3;8;0;3;0;5;0;BETA;1930;2100;3100;x;;;;;;;;;;;;
Brain-Class342;9040342;U41;1930;1930;1930;1930;3;8;0;3;0;5;0;BETA;1930;2100;3100;x;;;;;;;;;;;;
Brain-Class343;9040343;U41;1930;1930;1930;1930;3;8;0;3;0;5;0;BETA;1930;2100;3100;x;;;;;;;;;;;;
Brain-Class344;9040344;U41;1930;1930;1930;1930;3;8;0;3;0;5;0;BETA;1930;2100;3100;x;;;;;;;;;;;;
Brain-Class345;9040345;U41;1930;1930;1930;1930;3;8;0;3;0;5;0;BETA;1930;2100;3100;x;;;;;;;;;;;;
Brain-Class346;9040346;U41;1930;1930;1930;1930;3;8;0;3;0;5;0;BETA;1930;2100;3100;x;;;;;;;;;;;;
Brain-Class347;9040347;U41;1930;1930;1930;1930;3;8;0;3;0;5;0;BETA;1930;2100;3100;x;;;;;;;;;;;;
Brain-Class348;9040348;U41;1930;1930;1930;1930;3;8;0;3;0;5;0;BETA;1930;2100;3100;x;;;;;;;;;;;;
Brain-Class349;9040349;U41;1930;1930;1930;1930;3;8;0;3;0;5;0;BETA;1930;2100;3100;x;;;;;;;;;;;;
Brain-Class350;9040350;U41;1930;1930;1930;1930;3;8;0;3;0;5;0;BETA;1930;2100;3100;x;;;;;;;;;;;;
Brain-Class351;9040351;U41;1930;1930;1930;1930;3;8;0;3;0;5;0;BETA;1930;2100;3100;x;;;;;;;;;;;;
Brain-Class352;9040352;U41;1930;1930;1930;1930;3;8;0;3;0;5;0;BETA;1930;2100;3100;x;;;;;;;;;;;;
Brain-Class353;9040353;U41;1930;1930;1930;1930;3;8;0;3;0;5;0;BETA;1930;2100;3100;x;;;;;;;;;;;;
Brain-Class354;9040354;U41;1930;1930;1930;1930;3;8;0;3;0;5;0;BETA;1930;2100;3100;x;;;;;;;;;;;;
Brain-Class355;9040355;U41;1930;1930;1930;1930;3;8;0;3;0;5;0;BETA;1930;2100;3100;x;;;;;;;;;;;;
Brain-Class356;9040356;U41;1930;1930;1930;1930;3;8;0;3;0;5;0;BETA;1930;2100;3100;x;;;;;;;;;;;;
Brain-Class357;9040357;U41;1930;1930;1930;1930;3;8;0;3;0;5;0;BETA;1930;2100;3100;x;;;;;;;;;;;;
Brain-Class358;9040358;U41;1930;1930;1930;1930;3;8;0;3;0;5;0;BETA;1930;2100;3100;x;;;;;;;;;;;;
Brain-Class359;9040359;U41;1930;1930;1930;1930;3;8;0;3;0;5;0;BETA;1930;2100;3100;x;;;;;;;;;;;;
Brain-Class360;9040360;U41;1930;1930;1930;1930;3;8;0;3;0;5;0;BETA;1930;2100;3100;x;;;;;;;;;;;;
Brain-Class361;9040361;U41;1930;1930;1930;1930;3;8;0;3;0;5;0;BETA;1930;2100;3100;x;;;;;;;;;;;;
Brain-Class362;9040362;U41;1930;1930;1930;1930;3;8;0;3;0;5;0;BETA;1930;2100;3100;x;;;;;;;;;;;;
Brain-Class363;9040363;U41;1930;1930;1930;1930;3;8;0;3;0;5;0;BETA;1930;2100;3100;x;;;;;;;;;;;;
Brain-Class364;9040364;U41;1930;1930;1930;1930;3;8;0;3;0;5;0;BETA;1930;2100;3100;x;;;;;;;;;;;;
Brain-Class365;9040365;U41;1930;1930;1930;1930;3;8;0;3;0;5;0;BETA;1930;2100;3100;x;;;;;;;;;;;;
Brain-Class366;9040366;U41;1930;1930;1930;1930;3;8;0;3;0;5;0;BETA;1930;2100;3100;x;;;;;;;;;;;;
Brain-Class367;9040367;U41;1930;1930;1930;1930;3;8;0;3;0;5;0;BETA;1930;2100;3100;x;;;;;;;;;;;;
Brain-Class368;9040368;U41;1930;1930;1930;1930;3;8;0;3;0;5;0;BETA;1930;2100;3100;x;;;;;;;;;;;;
Brain-Class369;9040369;U41;1930;1930;1930;1930;3;8;0;3;0;5;0;BETA;1930;2100;3100;x;;;;;;;;;;;;
Brain-Class370;9040370;U41;1930;1930;1930;1930;3;8;0;3;0;5;0;BETA;1930;2100;3100;x;;;;;;;;;;;;
Brain-Class371;9040371;U41;1930;1930;1930;1930;3;8;0;3;0;5;0;BETA;1930;2100;3100;x;;;;;;;;;;;;
Brain-Class372;9040372;U41;1930;1930;1930;1930;3;8;0;3;0;5;0;BETA;1930;2100;3100;x;;;;;;;;;;;;
Brain-Class373;9040373;U41;1930;1930;1930;1930;3;8;0;3;0;5;0;BETA;1930;2100;3100;x;;;;;;;;;;;;
Brain-Class374;9040374;U41;1930;1930;1930;1930;3;8;0;3;0;5;0;BETA;1930;2100;3100;x;;;;;;;;;;;;
Brain-Class375;9040375;U41;1930;1930;1930;1930;3;8;0;3;0;5;0;BETA;1930;2100;3100;x;;;;;;;;;;;;
Brain-Class376;9040376;U41;1930;1930;1930;1930;3;8;0;3;0;5;0;BETA;1930;2100;3100;x;;;;;;;;;;;;
Brain-Class377;9040377;U41;1930;1930;1930;1930;3;8;0;3;0;5;0;BETA;1930;2100;3100;x;;;;;;;;;;;;
Brain-Class378;9040378;U41;1930;1930;1930;1930;3;8;0;3;0;5;0;BETA;1930;2100;3100;x;;;;;;;;;;;;
Brain-Class379;9040379;U41;1930;1930;1930;1930;3;8;0;3;0;5;0;BETA;1930;2100;3100;x;;;;;;;;;;;;
Brain-Class380;9040380;U41;1930;1930;1930;1930;3;8;0;3;0;5;0;BETA;1930;2100;3100;x;;;;;;;;;;;;
Brain-Class381;9040381;U41;1930;1930;1930;1930;3;8;0;3;0;5;0;BETA;1930;2100;3100;x;;;;;;;;;;;;
Brain-Class382;9040382;U41;1930;1930;1930;1930;3;8;0;3;0;5;0;BETA;1930;2100;3100;x;;;;;;;;;;;;
Brain-Class383;9040383;U41;1930;1930;1930;1930;3;8;0;3;0;5;0;BETA;1930;2100;3100;x;;;;;;;;;;;;
Brain-Class384;9040384;U41;1930;1930;1930;1930;3;8;0;3;0;5;0;BETA;1930;2100;3100;x;;;;;;;;;;;;
Brain-Class385;9040385;U41;1930;1930;1930;1930;3;8;0;3;0;5;0;BETA;1930;2100;3100;x;;;;;;;;;;;;
Brain-Class386;9040386;U41;1930;1930;1930;1930;3;8;0;3;0;5;0;BETA;1930;2100;3100;x;;;;;;;;;;;;
Brain-Class387;9040387;U41;1930;1930;1930;1930;3;8;0;3;0;5;0;BETA;1930;2100;3100;x;;;;;;;;;;;;
Brain-Class388;9040388;U41;1930;1930;1930;1930;3;8;0;3;0;5;0;BETA;1930;2100;3100;x;;;;;;;;;;;;
Brain-Class389;9040389;U41;1930;1930;1930;1930;3;8;0;3;0;5;0;BETA;1930;2100;3100;x;;;;;;;;;;;;
Brain-Class390;9040390;U41;1930;1930;1930;1930;3;8;0;3;0;5;0;BETA;1930;2100;3100;x;;;;;;;;;;;;
Brain-Class391;9040391;U41;1930;1930;1930;1930;3;8;0;3;0;5;0;BETA;1930;2100;3100;x;;;;;;;;;;;;
Brain-Class392;9040392;U41;1930;1930;1930;1930;3;8;0;3;0;5;0;BETA;1930;2100;3100;x;;;;;;;;;;;;
Brain-Class393;9040393;U41;1930;1930;1930;1930;3;8;0;3;0;5;0;BETA;1930;2100;3100;x;;;;;;;;;;;;
Brain-Class394;9040394;U41;1930;1930;1930;1930;3;8;0;3;0;5;0;BETA;1930;2100;3100;x;;;;;;;;;;;;
Brain-Class395;9040395;U41;1930;1930;1930;1930;3;8;0;3;0;5;0;BETA;1930;2100;3100;x;;;;;;;;;;;;
Brain-Class396;9040396;U41;1930;1930;1930;1930;3;8;0;3;0;5;0;BETA;1930;2100;3100;x;;;;;;;;;;;;
Brain-Class397;9040397;U41;1930;1930;1930;1930;3;8;0;3;0;5;0;BETA;1930;2100;3100;x;;;;;;;;;;;;
Brain-Class398;9040398;U41;1930;1930;1930;1930;3;8;0;3;0;5;0;BETA;1930;2100;3100;x;;;;;;;;;;;;
Brain-Class399;9040399;U41;1930;1930;1930;1930;3;8;0;3;0;5;0;BETA;1930;2100;3100;x;;;;;;;;;;;;
Brain-Class400;9040400;U41;1930;1930;1930;1930;3;8;0;3;0;5;0;BETA;1930;2100;3100;x;;;;;;;;;;;;
Brain-Class401;9040401;U41;1930;1930;1930;1930;3;8;0;3;0;5;0;BETA;1930;2100;3100;x;;;;;;;;;;;;
Brain-Class402;9040402;U41;1930;1930;1930;1930;3;8;0;3;0;5;0;BETA;1930;2100;3100;x;;;;;;;;;;;;
Brain-Class403;9040403;U41;1930;1930;1930;1930;3;8;0;3;0;5;0;BETA;1930;2100;3100;x;;;;;;;;;;;;
Brain-Class404;9040404;U41;1930;1930;1930;1930;3;8;0;3;0;5;0;BETA;1930;2100;3100;x;;;;;;;;;;;;
Brain-Class405;9040405;U41;1930;1930;1930;1930;3;8;0;3;0;5;0;BETA;1930;2100;3100;x;;;;;;;;;;;;
Brain-Class406;9040406;U41;1930;1930;1930;1930;3;8;0;3;0;5;0;BETA;1930;2100;3100;x;;;;;;;;;;;;
Brain-Class407;9040407;U41;1930;1930;1930;1930;3;8;0;3;0;5;0;BETA;1930;2100;3100;x;;;;;;;;;;;;
Brain-Class408;9040408;U41;1930;1930;1930;1930;3;8;0;3;0;5;0;BETA;1930;2100;3100;x;;;;;;;;;;;;
Brain-Class409;9040409;U41;1930;1930;1930;1930;3;8;0;3;0;5;0;BETA;1930;2100;3100;x;;;;;;;;;;;;
Brain-Class410;9040410;U41;1930;1930;1930;1930;3;8;0;3;0;5;0;BETA;1930;2100;3100;x;;;;;;;;;;;;
Brain-Class411;9040411;U41;1930;1930;1930;1930;3;8;0;3;0;5;0;BETA;1930;2100;3100;x;;;;;;;;;;;;
Brain-Class412;9040412;U41;1930;1930;1930;1930;3;8;0;3;0;5;0;BETA;1930;2100;3100;x;;;;;;;;;;;;
Brain-Class413;9040413;U41;1930;1930;1930;1930;3;8;0;3;0;5;0;BETA;1930;2100;3100;x;;;;;;;;;;;;
Brain-Class414;9040414;U41;1930;1930;1930;1930;3;8;0;3;0;5;0;BETA;1930;2100;3100;x;;;;;;;;;;;;
Brain-Class415;9040415;U41;1930;1930;1930;1930;3;8;0;3;0;5;0;BETA;1930;2100;3100;x;;;;;;;;;;;;
Brain-Class416;9040416;U41;1930;1930;1930;1930;3;8;0;3;0;5;0;BETA;1930;2100;3100;x;;;;;;;;;;;;
Brain-Class417;9040417;U41;1930;1930;1930;1930;3;8;0;3;0;5;0;BETA;1930;2100;3100;x;;;;;;;;;;;;
Brain-Class418;9040418;U41;1930;1930;1930;1930;3;8;0;3;0;5;0;BETA;1930;2100;3100;x;;;;;;;;;;;;
Brain-Class419;9040419;U41;1930;1930;1930;1930;3;8;0;3;0;5;0;BETA;1930;2100;3100;x;;;;;;;;;;;;
Brain-Class420;9040420;U41;1930;1930;1930;1930;3;8;0;3;0;5;0;BETA;1930;2100;3100;x;;;;;;;;;;;;
Brain-Class421;9040421;U41;1930;1930;1930;1930;3;8;0;3;0;5;0;BETA;1930;2100;3100;x;;;;;;;;;;;;
Brain-Class422;9040422;U41;1930;1930;1930;1930;3;8;0;3;0;5;0;BETA;1930;2100;3100;x;;;;;;;;;;;;
Brain-Class423;9040423;U41;1930;1930;1930;1930;3;8;0;3;0;5;0;BETA;1930;2100;3100;x;;;;;;;;;;;;
Brain-Class424;9040424;U41;1930;1930;1930;1930;3;8;0;3;0;5;0;BETA;1930;2100;3100;x;;;;;;;;;;;;
Brain-Class425;9040425;U41;1930;1930;1930;1930;3;8;0;3;0;5;0;BETA;1930;2100;3100;x;;;;;;;;;;;;
Brain-Class426;9040426;U41;1930;1930;1930;1930;3;8;0;3;0;5;0;BETA;1930;2100;3100;x;;;;;;;;;;;;
Brain-Class427;9040427;U41;1930;1930;1930;1930;3;8;0;3;0;5;0;BETA;1930;2100;3100;x;;;;;;;;;;;;
Brain-Class428;9040428;U41;1930;1930;1930;1930;3;8;0;3;0;5;0;BETA;1930;2100;3100;x;;;;;;;;;;;;
Brain-Class429;9040429;U41;1930;1930;1930;1930;3;8;0;3;0;5;0;BETA;1930;2100;3100;x;;;;;;;;;;;;
Brain-Class430;9040430;U41;1930;1930;1930;1930;3;8;0;3;0;5;0;BETA;1930;2100;3100;x;;;;;;;;;;;;
Brain-Class431;9040431;U41;1930;1930;1930;1930;3;8;0;3;0;5;0;BETA;1930;2100;3100;x;;;;;;;;;;;;
Brain-Class432;9040432;U41;1930;1930;1930;1930;3;8;0;3;0;5;0;BETA;1930;2100;3100;x;;;;;;;;;;;;
Brain-Class433;9040433;U41;1930;1930;1930;1930;3;8;0;3;0;5;0;BETA;1930;2100;3100;x;;;;;;;;;;;;
Brain-Class434;9040434;U41;1930;1930;1930;1930;3;8;0;3;0;5;0;BETA;1930;2100;3100;x;;;;;;;;;;;;
Brain-Class435;9040435;U41;1930;1930;1930;1930;3;8;0;3;0;5;0;BETA;1930;2100;3100;x;;;;;;;;;;;;
Brain-Class436;9040436;U41;1930;1930;1930;1930;3;8;0;3;0;5;0;BETA;1930;2100;3100;x;;;;;;;;;;;;
Brain-Class437;9040437;U41;1930;1930;1930;1930;3;8;0;3;0;5;0;BETA;1930;2100;3100;x;;;;;;;;;;;;
Brain-Class438;9040438;U41;1930;1930;1930;1930;3;8;0;3;0;5;0;BETA;1930;2100;3100;x;;;;;;;;;;;;
Brain-Class439;9040439;U41;1930;1930;1930;1930;3;8;0;3;0;5;0;BETA;1930;2100;3100;x;;;;;;;;;;;;
Brain-Class440;9040440;U41;1930;1930;1930;1930;3;8;0;3;0;5;0;BETA;1930;2100;3100;x;;;;;;;;;;;;
Brain-Class441;9040441;U41;1930;1930;1930;1930;3;8;0;3;0;5;0;BETA;1930;2100;3100;x;;;;;;;;;;;;
Brain-Class442;9040442;U41;1930;1930;1930;1930;3;8;0;3;0;5;0;BETA;1930;2100;3100;x;;;;;;;;;;;;
Brain-Class443;9040443;U41;1930;1930;1930;1930;3;8;0;3;0;5;0;BETA;1930;2100;3100;x;;;;;;;;;;;;
Brain-Class444;9040444;U41;1930;1930;1930;1930;3;8;0;3;0;5;0;BETA;1930;2100;3100;x;;;;;;;;;;;;
Brain-Class445;9040445;U41;1930;1930;1930;1930;3;8;0;3;0;5;0;BETA;1930;2100;3100;x;;;;;;;;;;;;
Brain-Class446;9040446;U41;1930;1930;1930;1930;3;8;0;3;0;5;0;BETA;1930;2100;3100;x;;;;;;;;;;;;
Brain-Class447;9040447;U41;1930;1930;1930;1930;3;8;0;3;0;5;0;BETA;1930;2100;3100;x;;;;;;;;;;;;
Brain-Class448;9040448;U41;1930;1930;1930;1930;3;8;0;3;0;5;0;BETA;1930;2100;3100;x;;;;;;;;;;;;
Brain-Class449;9040449;U41;1930;1930;1930;1930;3;8;0;3;0;5;0;BETA;1930;2100;3100;x;;;;;;;;;;;;
Brain-Class450;9040450;U41;1930;1930;1930;1930;3;8;0;3;0;5;0;BETA;1930;2100;3100;x;;;;;;;;;;;;
Brain-Class451;9040451;U41;1930;1930;1930;1930;3;8;0;3;0;5;0;BETA;1930;2100;3100;x;;;;;;;;;;;;
Brain-Class452;9040452;U41;1930;1930;1930;1930;3;8;0;3;0;5;0;BETA;1930;2100;3100;x;;;;;;;;;;;;
Brain-Class453;9040453;U41;1930;1930;1930;1930;3;8;0;3;0;5;0;BETA;1930;2100;3100;x;;;;;;;;;;;;
Brain-Class454;9040454;U41;1930;1930;1930;1930;3;8;0;3;0;5;0;BETA;1930;2100;3100;x;;;;;;;;;;;;
Brain-Class455;9040455;U41;1930;1930;1930;1930;3;8;0;3;0;5;0;BETA;1930;2100;3100;x;;;;;;;;;;;;
Brain-Class456;9040456;U41;1930;1930;1930;1930;3;8;0;3;0;5;0;BETA;1930;2100;3100;x;;;;;;;;;;;;
Brain-Class457;9040457;U41;1930;1930;1930;1930;3;8;0;3;0;5;0;BETA;1930;2100;3100;x;;;;;;;;;;;;
Brain-Class458;9040458;U41;1930;1930;1930;1930;3;8;0;3;0;5;0;BETA;1930;2100;3100;x;;;;;;;;;;;;
Brain-Class459;9040459;U41;1930;1930;1930;1930;3;8;0;3;0;5;0;BETA;1930;2100;3100;x;;;;;;;;;;;;
Brain-Class460;9040460;U41;1930;1930;1930;1930;3;8;0;3;0;5;0;BETA;1930;2100;3100;x;;;;;;;;;;;;
Brain-Class461;9040461;U41;1930;1930;1930;1930;3;8;0;3;0;5;0;BETA;1930;2100;3100;x;;;;;;;;;;;;
Brain-Class462;9040462;U41;1930;1930;1930;1930;3;8;0;3;0;5;0;BETA;1930;2100;3100;x;;;;;;;;;;;;
Brain-Class463;9040463;U41;1930;1930;1930;1930;3;8;0;3;0;5;0;BETA;1930;2100;3100;x;;;;;;;;;;;;
Brain-Class464;9040464;U41;1930;1930;1930;1930;3;8;0;3;0;5;0;BETA;1930;2100;3100;x;;;;;;;;;;;;
Brain-Class465;9040465;U41;1930;1930;1930;1930;3;8;0;3;0;5;0;BETA;1930;2100;3100;x;;;;;;;;;;;;
Brain-Class466;9040466;U41;1930;1930;1930;1930;3;8;0;3;0;5;0;BETA;1930;2100;3100;x;;;;;;;;;;;;
Brain-Class467;9040467;U41;1930;1930;1930;1930;3;8;0;3;0;5;0;BETA;1930;2100;3100;x;;;;;;;;;;;;
Brain-Class468;9040468;U41;1930;1930;1930;1930;3;8;0;3;0;5;0;BETA;1930;2100;3100;x;;;;;;;;;;;;
Brain-Class469;9040469;U41;1930;1930;1930;1930;3;8;0;3;0;5;0;BETA;1930;2100;3100;x;;;;;;;;;;;;
Brain-Class470;9040470;U41;1930;1930;1930;1930;3;8;0;3;0;5;0;BETA;1930;2100;3100;x;;;;;;;;;;;;
Brain-Class471;9040471;U41;1930;1930;1930;1930;3;8;0;3;0;5;0;BETA;1930;2100;3100;x;;;;;;;;;;;;
Brain-Class472;9040472;U41;1930;1930;1930;1930;3;8;0;3;0;5;0;BETA;1930;2100;3100;x;;;;;;;;;;;;
Brain-Class473;9040473;U41;1930;1930;1930;1930;3;8;0;3;0;5;0;BETA;1930;2100;3100;x;;;;;;;;;;;;
Brain-Class474;9040474;U41;1930;1930;1930;1930;3;8;0;3;0;5;0;BETA;1930;2100;3100;x;;;;;;;;;;;;
Brain-Class475;9040475;U41;1930;1930;1930;1930;3;8;0;3;0;5;0;BETA;1930;2100;3100;x;;;;;;;;;;;;
Brain-Class476;9040476;U41;1930;1930;1930;1930;3;8;0;3;0;5;0;BETA;1930;2100;3100;x;;;;;;;;;;;;
Brain-Class477;9040477;U41;1930;1930;1930;1930;3;8;0;3;0;5;0;BETA;1930;2100;3100;x;;;;;;;;;;;;
Brain-Class478;9040478;U41;1930;1930;1930;1930;3;8;0;3;0;5;0;BETA;1930;2100;3100;x;;;;;;;;;;;;
Brain-Class479;9040479;U41;1930;1930;1930;1930;3;8;0;3;0;5;0;BETA;1930;2100;3100;x;;;;;;;;;;;;
Brain-Class480;9040480;U41;1930;1930;1930;1930;3;8;0;3;0;5;0;BETA;1930;2100;3100;x;;;;;;;;;;;;
Brain-Class481;9040481;U41;1930;1930;1930;1930;3;8;0;3;0;5;0;BETA;1930;2100;3100;x;;;;;;;;;;;;
Brain-Class482;9040482;U41;1930;1930;1930;1930;3;8;0;3;0;5;0;BETA;1930;2100;3100;x;;;;;;;;;;;;
Brain-Class483;9040483;U41;1930;1930;1930;1930;3;8;0;3;0;5;0;BETA;1930;2100;3100;x;;;;;;;;;;;;
Brain-Class484;9040484;U41;1930;1930;1930;1930;3;8;0;3;0;5;0;BETA;1930;2100;3100;x;;;;;;;;;;;;
Brain-Class485;9040485;U41;1930;1930;1930;1930;3;8;0;3;0;5;0;BETA;1930;2100;3100;x;;;;;;;;;;;;
Brain-Class486;9040486;U41;1930;1930;1930;1930;3;8;0;3;0;5;0;BETA;1930;2100;3100;x;;;;;;;;;;;;
Brain-Class487;9040487;U41;1930;1930;1930;1930;3;8;0;3;0;5;0;BETA;1930;2100;3100;x;;;;;;;;;;;;
Brain-Class488;9040488;U41;1930;1930;1930;1930;3;8;0;3;0;5;0;BETA;1930;2100;3100;x;;;;;;;;;;;;
Brain-Class489;9040489;U41;1930;1930;1930;1930;3;8;0;3;0;5;0;BETA;1930;2100;3100;x;;;;;;;;;;;;
Brain-Class490;9040490;U41;1930;1930;1930;1930;3;8;0;3;0;5;0;BETA;1930;2100;3100;x;;;;;;;;;;;;
Brain-Class491;9040491;U41;1930;1930;1930;1930;3;8;0;3;0;5;0;BETA;1930;2100;3100;x;;;;;;;;;;;;
Brain-Class492;9040492;U41;1930;1930;1930;1930;3;8;0;3;0;5;0;BETA;1930;2100;3100;x;;;;;;;;;;;;
Brain-Class493;9040493;U41;1930;1930;1930;1930;3;8;0;3;0;5;0;BETA;1930;2100;3100;x;;;;;;;;;;;;
Brain-Class494;9040494;U41;1930;1930;1930;1930;3;8;0;3;0;5;0;BETA;1930;2100;3100;x;;;;;;;;;;;;
Brain-Class495;9040495;U41;1930;1930;1930;1930;3;8;0;3;0;5;0;BETA;1930;2100;3100;x;;;;;;;;;;;;
Brain-Class496;9040496;U41;1930;1930;1930;1930;3;8;0;3;0;5;0;BETA;1930;2100;3100;x;;;;;;;;;;;;
Brain-Class497;9040497;U41;1930;1930;1930;1930;3;8;0;3;0;5;0;BETA;1930;2100;3100;x;;;;;;;;;;;;
Brain-Class498;9040498;U41;1930;1930;1930;1930;3;8;0;3;0;5;0;BETA;1930;2100;3100;x;;;;;;;;;;;;
Brain-Class499;9040499;U41;1930;1930;1930;1930;3;8;0;3;0;5;0;BETA;1930;2100;3100;x;;;;;;;;;;;;
Brain-Class500;9040500;U41;1930;1930;1930;1930;3;8;0;3;0;5;0;BETA;1930;2100;3100;x;;;;;;;;;;;;
Brain-Class501;9040501;U41;1930;1930;1930;1930;3;8;0;3;0;5;0;BETA;1930;2100;3100;x;;;;;;;;;;;;
Brain-Class502;9040502;U41;1930;1930;1930;1930;3;8;0;3;0;5;0;BETA;1930;2100;3100;x;;;;;;;;;;;;
Brain-Class503;9040503;U41;1930;1930;1930;1930;3;8;0;3;0;5;0;BETA;1930;2100;3100;x;;;;;;;;;;;;
Brain-Class504;9040504;U41;1930;1930;1930;1930;3;8;0;3;0;5;0;BETA;1930;2100;3100;x;;;;;;;;;;;;
Brain-Class505;9040505;U41;1930;1930;1930;1930;3;8;0;3;0;5;0;BETA;1930;2100;3100;x;;;;;;;;;;;;
Brain-Class506;9040506;U41;1930;1930;1930;1930;3;8;0;3;0;5;0;BETA;1930;2100;3100;x;;;;;;;;;;;;
Brain-Class507;9040507;U41;1930;1930;1930;1930;3;8;0;3;0;5;0;BETA;1930;2100;3100;x;;;;;;;;;;;;
Brain-Class508;9040508;U41;1930;1930;1930;1930;3;8;0;3;0;5;0;BETA;1930;2100;3100;x;;;;;;;;;;;;
Brain-Class509;9040509;U41;1930;1930;1930;1930;3;8;0;3;0;5;0;BETA;1930;2100;3100;x;;;;;;;;;;;;
Brain-Class510;9040510;U41;1930;1930;1930;1930;3;8;0;3;0;5;0;BETA;1930;2100;3100;x;;;;;;;;;;;;
Brain-Class511;9040511;U41;1930;1930;1930;1930;3;8;0;3;0;5;0;BETA;1930;2100;3100;x;;;;;;;;;;;;
Brain-Class512;9040512;U41;1930;1930;1930;1930;3;8;0;3;0;5;0;BETA;1930;2100;3100;x;;;;;;;;;;;;
Brain-Class513;9040513;U41;1930;1930;1930;1930;3;8;0;3;0;5;0;BETA;1930;2100;3100;x;;;;;;;;;;;;
Brain-Class514;9040514;U41;1930;1930;1930;1930;3;8;0;3;0;5;0;BETA;1930;2100;3100;x;;;;;;;;;;;;
Brain-Class515;9040515;U41;1930;1930;1930;1930;3;8;0;3;0;5;0;BETA;1930;2100;3100;x;;;;;;;;;;;;
Brain-Class516;9040516;U41;1930;1930;1930;1930;3;8;0;3;0;5;0;BETA;1930;2100;3100;x;;;;;;;;;;;;
Brain-Class517;9040517;U41;1930;1930;1930;1930;3;8;0;3;0;5;0;BETA;1930;2100;3100;x;;;;;;;;;;;;
Brain-Class518;9040518;U41;1930;1930;1930;1930;3;8;0;3;0;5;0;BETA;1930;2100;3100;x;;;;;;;;;;;;
Brain-Class519;9040519;U41;1930;1930;1930;1930;3;8;0;3;0;5;0;BETA;1930;2100;3100;x;;;;;;;;;;;;
Brain-Class520;9040520;U41;1930;1930;1930;1930;3;8;0;3;0;5;0;BETA;1930;2100;3100;x;;;;;;;;;;;;
Brain-Class521;9040521;U41;1930;1930;1930;1930;3;8;0;3;0;5;0;BETA;1930;2100;3100;x;;;;;;;;;;;;
Brain-Class522;9040522;U41;1930;1930;1930;1930;3;8;0;3;0;5;0;BETA;1930;2100;3100;x;;;;;;;;;;;;
Brain-Class523;9040523;U41;1930;1930;1930;1930;3;8;0;3;0;5;0;BETA;1930;2100;3100;x;;;;;;;;;;;;
Brain-Class524;9040524;U41;1930;1930;1930;1930;3;8;0;3;0;5;0;BETA;1930;2100;3100;x;;;;;;;;;;;;
Brain-Class525;9040525;U41;1930;1930;1930;1930;3;8;0;3;0;5;0;BETA;1930;2100;3100;x;;;;;;;;;;;;
Brain-Class526;9040526;U41;1930;1930;1930;1930;3;8;0;3;0;5;0;BETA;1930;2100;3100;x;;;;;;;;;;;;
Brain-Class527;9040527;U41;1930;1930;1930;1930;3;8;0;3;0;5;0;BETA;1930;2100;3100;x;;;;;;;;;;;;
Brain-Class528;9040528;U41;1930;1930;1930;1930;3;8;0;3;0;5;0;BETA;1930;2100;3100;x;;;;;;;;;;;;
Brain-Class529;9040529;U41;1930;1930;1930;1930;3;8;0;3;0;5;0;BETA;1930;2100;3100;x;;;;;;;;;;;;
Brain-Class530;9040530;U41;1930;1930;1930;1930;3;8;0;3;0;5;0;BETA;1930;2100;3100;x;;;;;;;;;;;;
Brain-Class531;9040531;U41;1930;1930;1930;1930;3;8;0;3;0;5;0;BETA;1930;2100;3100;x;;;;;;;;;;;;
Brain-Class532;9040532;U41;1930;1930;1930;1930;3;8;0;3;0;5;0;BETA;1930;2100;3100;x;;;;;;;;;;;;
Brain-Class533;9040533;U41;1930;1930;1930;1930;3;8;0;3;0;5;0;BETA;1930;2100;3100;x;;;;;;;;;;;;
Brain-Class534;9040534;U41;1930;1930;1930;1930;3;8;0;3;0;5;0;BETA;1930;2100;3100;x;;;;;;;;;;;;
Brain-Class535;9040535;U41;1930;1930;1930;1930;3;8;0;3;0;5;0;BETA;1930;2100;3100;x;;;;;;;;;;;;
Brain-Class536;9040536;U41;1930;1930;1930;1930;3;8;0;3;0;5;0;BETA;1930;2100;3100;x;;;;;;;;;;;;
Brain-Class537;9040537;U41;1930;1930;1930;1930;3;8;0;3;0;5;0;BETA;1930;2100;3100;x;;;;;;;;;;;;
Brain-Class538;9040538;U41;1930;1930;1930;1930;3;8;0;3;0;5;0;BETA;1930;2100;3100;x;;;;;;;;;;;;
Brain-Class539;9040539;U41;1930;1930;1930;1930;3;8;0;3;0;5;0;BETA;1930;2100;3100;x;;;;;;;;;;;;
Brain-Class540;9040540;U41;1930;1930;1930;1930;3;8;0;3;0;5;0;BETA;1930;2100;3100;x;;;;;;;;;;;;
Brain-Class541;9040541;U41;1930;1930;1930;1930;3;8;0;3;0;5;0;BETA;1930;2100;3100;x;;;;;;;;;;;;
Brain-Class542;9040542;U41;1930;1930;1930;1930;3;8;0;3;0;5;0;BETA;1930;2100;3100;x;;;;;;;;;;;;
Brain-Class543;9040543;U41;1930;1930;1930;1930;3;8;0;3;0;5;0;BETA;1930;2100;3100;x;;;;;;;;;;;;
Brain-Class544;9040544;U41;1930;1930;1930;1930;3;8;0;3;0;5;0;BETA;1930;2100;3100;x;;;;;;;;;;;;
Brain-Class545;9040545;U41;1930;1930;1930;1930;3;8;0;3;0;5;0;BETA;1930;2100;3100;x;;;;;;;;;;;;
Brain-Class546;9040546;U41;1930;1930;1930;1930;3;8;0;3;0;5;0;BETA;1930;2100;3100;x;;;;;;;;;;;;
Brain-Class547;9040547;U41;1930;1930;1930;1930;3;8;0;3;0;5;0;BETA;1930;2100;3100;x;;;;;;;;;;;;
Brain-Class548;9040548;U41;1930;1930;1930;1930;3;8;0;3;0;5;0;BETA;1930;2100;3100;x;;;;;;;;;;;;
Brain-Class549;9040549;U41;1930;1930;1930;1930;3;8;0;3;0;5;0;BETA;1930;2100;3100;x;;;;;;;;;;;;
Brain-Class550;9040550;U41;1930;1930;1930;1930;3;8;0;3;0;5;0;BETA;1930;2100;3100;x;;;;;;;;;;;;
Brain-Class551;9040551;U41;1930;1930;1930;1930;3;8;0;3;0;5;0;BETA;1930;2100;3100;x;;;;;;;;;;;;
Brain-Class552;9040552;U41;1930;1930;1930;1930;3;8;0;3;0;5;0;BETA;1930;2100;3100;x;;;;;;;;;;;;
Brain-Class553;9040553;U41;1930;1930;1930;1930;3;8;0;3;0;5;0;BETA;1930;2100;3100;x;;;;;;;;;;;;
Brain-Class554;9040554;U41;1930;1930;1930;1930;3;8;0;3;0;5;0;BETA;1930;2100;3100;x;;;;;;;;;;;;
Brain-Class555;9040555;U41;1930;1930;1930;1930;3;8;0;3;0;5;0;BETA;1930;2100;3100;x;;;;;;;;;;;;
Brain-Class556;9040556;U41;1930;1930;1930;1930;3;8;0;3;0;5;0;BETA;1930;2100;3100;x;;;;;;;;;;;;
Brain-Class557;9040557;U41;1930;1930;1930;1930;3;8;0;3;0;5;0;BETA;1930;2100;3100;x;;;;;;;;;;;;
Brain-Class558;9040558;U41;1930;1930;1930;1930;3;8;0;3;0;5;0;BETA;1930;2100;3100;x;;;;;;;;;;;;
Brain-Class559;9040559;U41;1930;1930;1930;1930;3;8;0;3;0;5;0;BETA;1930;2100;3100;x;;;;;;;;;;;;
Brain-Class560;9040560;U41;1930;1930;1930;1930;3;8;0;3;0;5;0;BETA;1930;2100;3100;x;;;;;;;;;;;;
Brain-Class561;9040561;U41;1930;1930;1930;1930;3;8;0;3;0;5;0;BETA;1930;2100;3100;x;;;;;;;;;;;;
Brain-Class562;9040562;U41;1930;1930;1930;1930;3;8;0;3;0;5;0;BETA;1930;2100;3100;x;;;;;;;;;;;;
Brain-Class563;9040563;U41;1930;1930;1930;1930;3;8;0;3;0;5;0;BETA;1930;2100;3100;x;;;;;;;;;;;;
Brain-Class564;9040564;U41;1930;1930;1930;1930;3;8;0;3;0;5;0;BETA;1930;2100;3100;x;;;;;;;;;;;;
Brain-Class565;9040565;U41;1930;1930;1930;1930;3;8;0;3;0;5;0;BETA;1930;2100;3100;x;;;;;;;;;;;;
Brain-Class566;9040566;U41;1930;1930;1930;1930;3;8;0;3;0;5;0;BETA;1930;2100;3100;x;;;;;;;;;;;;
Brain-Class567;9040567;U41;1930;1930;1930;1930;3;8;0;3;0;5;0;BETA;1930;2100;3100;x;;;;;;;;;;;;
Brain-Class568;9040568;U41;1930;1930;1930;1930;3;8;0;3;0;5;0;BETA;1930;2100;3100;x;;;;;;;;;;;;
Brain-Class569;9040569;U41;1930;1930;1930;1930;3;8;0;3;0;5;0;BETA;1930;2100;3100;x;;;;;;;;;;;;
Brain-Class570;9040570;U41;1930;1930;1930;1930;3;8;0;3;0;5;0;BETA;1930;2100;3100;x;;;;;;;;;;;;
Brain-Class571;9040571;U41;1930;1930;1930;1930;3;8;0;3;0;5;0;BETA;1930;2100;3100;x;;;;;;;;;;;;
Brain-Class572;9040572;U41;1930;1930;1930;1930;3;8;0;3;0;5;0;BETA;1930;2100;3100;x;;;;;;;;;;;;
Brain-Class573;9040573;U41;1930;1930;1930;1930;3;8;0;3;0;5;0;BETA;1930;2100;3100;x;;;;;;;;;;;;
Brain-Class574;9040574;U41;1930;1930;1930;1930;3;8;0;3;0;5;0;BETA;1930;2100;3100;x;;;;;;;;;;;;
Brain-Class575;9040575;U41;1930;1930;1930;1930;3;8;0;3;0;5;0;BETA;1930;2100;3100;x;;;;;;;;;;;;
Brain-Class576;9040576;U41;1930;1930;1930;1930;3;8;0;3;0;5;0;BETA;1930;2100;3100;x;;;;;;;;;;;;
Brain-Class577;9040577;U41;1930;1930;1930;1930;3;8;0;3;0;5;0;BETA;1930;2100;3100;x;;;;;;;;;;;;
Brain-Class578;9040578;U41;1930;1930;1930;1930;3;8;0;3;0;5;0;BETA;1930;2100;3100;x;;;;;;;;;;;;
Brain-Class579;9040579;U41;1930;1930;1930;1930;3;8;0;3;0;5;0;BETA;1930;2100;3100;x;;;;;;;;;;;;
Brain-Class580;9040580;U41;1930;1930;1930;1930;3;8;0;3;0;5;0;BETA;1930;2100;3100;x;;;;;;;;;;;;
Brain-Class581;9040581;U41;1930;1930;1930;1930;3;8;0;3;0;5;0;BETA;1930;2100;3100;x;;;;;;;;;;;;
Brain-Class582;9040582;U41;1930;1930;1930;1930;3;8;0;3;0;5;0;BETA;1930;2100;3100;x;;;;;;;;;;;;
Brain-Class583;9040583;U41;1930;1930;1930;1930;3;8;0;3;0;5;0;BETA;1930;2100;3100;x;;;;;;;;;;;;
Brain-Class584;9040584;U41;1930;1930;1930;1930;3;8;0;3;0;5;0;BETA;1930;2100;3100;x;;;;;;;;;;;;
Brain-Class585;9040585;U41;1930;1930;1930;1930;3;8;0;3;0;5;0;BETA;1930;2100;3100;x;;;;;;;;;;;;
Brain-Class586;9040586;U41;1930;1930;1930;1930;3;8;0;3;0;5;0;BETA;1930;2100;3100;x;;;;;;;;;;;;
Brain-Class587;9040587;U41;1930;1930;1930;1930;3;8;0;3;0;5;0;BETA;1930;2100;3100;x;;;;;;;;;;;;
Brain-Class588;9040588;U41;1930;1930;1930;1930;3;8;0;3;0;5;0;BETA;1930;2100;3100;x;;;;;;;;;;;;
Brain-Class589;9040589;U41;1930;1930;1930;1930;3;8;0;3;0;5;0;BETA;1930;2100;3100;x;;;;;;;;;;;;
Brain-Class590;9040590;U41;1930;1930;1930;1930;3;8;0;3;0;5;0;BETA;1930;2100;3100;x;;;;;;;;;;;;
Brain-Class591;9040591;U41;1930;1930;1930;1930;3;8;0;3;0;5;0;BETA;1930;2100;3100;x;;;;;;;;;;;;
Brain-Class592;9040592;U41;1930;1930;1930;1930;3;8;0;3;0;5;0;BETA;1930;2100;3100;x;;;;;;;;;;;;
Brain-Class593;9040593;U41;1930;1930;1930;1930;3;8;0;3;0;5;0;BETA;1930;2100;3100;x;;;;;;;;;;;;
Brain-Class594;9040594;U41;1930;1930;1930;1930;3;8;0;3;0;5;0;BETA;1930;2100;3100;x;;;;;;;;;;;;
Brain-Class595;9040595;U41;1930;1930;1930;1930;3;8;0;3;0;5;0;BETA;1930;2100;3100;x;;;;;;;;;;;;
Brain-Class596;9040596;U41;1930;1930;1930;1930;3;8;0;3;0;5;0;BETA;1930;2100;3100;x;;;;;;;;;;;;
Brain-Class597;9040597;U41;1930;1930;1930;1930;3;8;0;3;0;5;0;BETA;1930;2100;3100;x;;;;;;;;;;;;
Brain-Class598;9040598;U41;1930;1930;1930;1930;3;8;0;3;0;5;0;BETA;1930;2100;3100;x;;;;;;;;;;;;
Brain-Class599;9040599;U41;1930;1930;1930;1930;3;8;0;3;0;5;0;BETA;1930;2100;3100;x;;;;;;;;;;;;
Brain-Class600;9040600;U41;1930;1930;1930;1930;3;8;0;3;0;5;0;BETA;1930;2100;3100;x;;;;;;;;;;;;
Brain-Class601;9040601;U41;1930;1930;1930;1930;3;8;0;3;0;5;0;BETA;1930;2100;3100;x;;;;;;;;;;;;
Brain-Class602;9040602;U41;1930;1930;1930;1930;3;8;0;3;0;5;0;BETA;1930;2100;3100;x;;;;;;;;;;;;
Brain-Class603;9040603;U41;1930;1930;1930;1930;3;8;0;3;0;5;0;BETA;1930;2100;3100;x;;;;;;;;;;;;
Brain-Class604;9040604;U41;1930;1930;1930;1930;3;8;0;3;0;5;0;BETA;1930;2100;3100;x;;;;;;;;;;;;
Brain-Class605;9040605;U41;1930;1930;1930;1930;3;8;0;3;0;5;0;BETA;1930;2100;3100;x;;;;;;;;;;;;
Brain-Class606;9040606;U41;1930;1930;1930;1930;3;8;0;3;0;5;0;BETA;1930;2100;3100;x;;;;;;;;;;;;
Brain-Class607;9040607;U41;1930;1930;1930;1930;3;8;0;3;0;5;0;BETA;1930;2100;3100;x;;;;;;;;;;;;
Brain-Class608;9040608;U41;1930;1930;1930;1930;3;8;0;3;0;5;0;BETA;1930;2100;3100;x;;;;;;;;;;;;
Brain-Class609;9040609;U41;1930;1930;1930;1930;3;8;0;3;0;5;0;BETA;1930;2100;3100;x;;;;;;;;;;;;
Brain-Class610;9040610;U41;1930;1930;1930;1930;3;8;0;3;0;5;0;BETA;1930;2100;3100;x;;;;;;;;;;;;
Brain-Class611;9040611;U41;1930;1930;1930;1930;3;8;0;3;0;5;0;BETA;1930;2100;3100;x;;;;;;;;;;;;
Brain-Class612;9040612;U41;1930;1930;1930;1930;3;8;0;3;0;5;0;BETA;1930;2100;3100;x;;;;;;;;;;;;
Brain-Class613;9040613;U41;1930;1930;1930;1930;3;8;0;3;0;5;0;BETA;1930;2100;3100;x;;;;;;;;;;;;
Brain-Class614;9040614;U41;1930;1930;1930;1930;3;8;0;3;0;5;0;BETA;1930;2100;3100;x;;;;;;;;;;;;
Brain-Class615;9040615;U41;1930;1930;1930;1930;3;8;0;3;0;5;0;BETA;1930;2100;3100;x;;;;;;;;;;;;
Brain-Class616;9040616;U41;1930;1930;1930;1930;3;8;0;3;0;5;0;BETA;1930;2100;3100;x;;;;;;;;;;;;
Brain-Class617;9040617;U41;1930;1930;1930;1930;3;8;0;3;0;5;0;BETA;1930;2100;3100;x;;;;;;;;;;;;
Brain-Class618;9040618;U41;1930;1930;1930;1930;3;8;0;3;0;5;0;BETA;1930;2100;3100;x;;;;;;;;;;;;
Brain-Class619;9040619;U41;1930;1930;1930;1930;3;8;0;3;0;5;0;BETA;1930;2100;3100;x;;;;;;;;;;;;
Brain-Class620;9040620;U41;1930;1930;1930;1930;3;8;0;3;0;5;0;BETA;1930;2100;3100;x;;;;;;;;;;;;
Brain-Class621;9040621;U41;1930;1930;1930;1930;3;8;0;3;0;5;0;BETA;1930;2100;3100;x;;;;;;;;;;;;
Brain-Class622;9040622;U41;1930;1930;1930;1930;3;8;0;3;0;5;0;BETA;1930;2100;3100;x;;;;;;;;;;;;
Brain-Class623;9040623;U41;1930;1930;1930;1930;3;8;0;3;0;5;0;BETA;1930;2100;3100;x;;;;;;;;;;;;
Brain-Class624;9040624;U41;1930;1930;1930;1930;3;8;0;3;0;5;0;BETA;1930;2100;3100;x;;;;;;;;;;;;
Brain-Class625;9040625;U41;1930;1930;1930;1930;3;8;0;3;0;5;0;BETA;1930;2100;3100;x;;;;;;;;;;;;
Brain-Class626;9040626;U41;1930;1930;1930;1930;3;8;0;3;0;5;0;BETA;1930;2100;3100;x;;;;;;;;;;;;
Brain-Class627;9040627;U41;1930;1930;1930;1930;3;8;0;3;0;5;0;BETA;1930;2100;3100;x;;;;;;;;;;;;
Brain-Class628;9040628;U41;1930;1930;1930;1930;3;8;0;3;0;5;0;BETA;1930;2100;3100;x;;;;;;;;;;;;
Brain-Class629;9040629;U41;1930;1930;1930;1930;3;8;0;3;0;5;0;BETA;1930;2100;3100;x;;;;;;;;;;;;
Brain-Class630;9040630;U41;1930;1930;1930;1930;3;8;0;3;0;5;0;BETA;1930;2100;3100;x;;;;;;;;;;;;
Brain-Class631;9040631;U41;1930;1930;1930;1930;3;8;0;3;0;5;0;BETA;1930;2100;3100;x;;;;;;;;;;;;
Brain-Class632;9040632;U41;1930;1930;1930;1930;3;8;0;3;0;5;0;BETA;1930;2100;3100;x;;;;;;;;;;;;
Brain-Class633;9040633;U41;1930;1930;1930;1930;3;8;0;3;0;5;0;BETA;1930;2100;3100;x;;;;;;;;;;;;
Brain-Class634;9040634;U41;1930;1930;1930;1930;3;8;0;3;0;5;0;BETA;1930;2100;3100;x;;;;;;;;;;;;
Brain-Class635;9040635;U41;1930;1930;1930;1930;3;8;0;3;0;5;0;BETA;1930;2100;3100;x;;;;;;;;;;;;
Brain-Class636;9040636;U41;1930;1930;1930;1930;3;8;0;3;0;5;0;BETA;1930;2100;3100;x;;;;;;;;;;;;
Brain-Class637;9040637;U41;1930;1930;1930;1930;3;8;0;3;0;5;0;BETA;1930;2100;3100;x;;;;;;;;;;;;
Brain-Class638;9040638;U41;1930;1930;1930;1930;3;8;0;3;0;5;0;BETA;1930;2100;3100;x;;;;;;;;;;;;
Brain-Class639;9040639;U41;1930;1930;1930;1930;3;8;0;3;0;5;0;BETA;1930;2100;3100;x;;;;;;;;;;;;
Brain-Class640;9040640;U41;1930;1930;1930;1930;3;8;0;3;0;5;0;BETA;1930;2100;3100;x;;;;;;;;;;;;
Brain-Class641;9040641;U41;1930;1930;1930;1930;3;8;0;3;0;5;0;BETA;1930;2100;3100;x;;;;;;;;;;;;
Brain-Class642;9040642;U41;1930;1930;1930;1930;3;8;0;3;0;5;0;BETA;1930;2100;3100;x;;;;;;;;;;;;
Brain-Class643;9040643;U41;1930;1930;1930;1930;3;8;0;3;0;5;0;BETA;1930;2100;3100;x;;;;;;;;;;;;
Brain-Class644;9040644;U41;1930;1930;1930;1930;3;8;0;3;0;5;0;BETA;1930;2100;3100;x;;;;;;;;;;;;
Brain-Class645;9040645;U41;1930;1930;1930;1930;3;8;0;3;0;5;0;BETA;1930;2100;3100;x;;;;;;;;;;;;
Brain-Class646;9040646;U41;1930;1930;1930;1930;3;8;0;3;0;5;0;BETA;1930;2100;3100;x;;;;;;;;;;;;
Brain-Class647;9040647;U41;1930;1930;1930;1930;3;8;0;3;0;5;0;BETA;1930;2100;3100;x;;;;;;;;;;;;
Brain-Class648;9040648;U41;1930;1930;1930;1930;3;8;0;3;0;5;0;BETA;1930;2100;3100;x;;;;;;;;;;;;
Brain-Class649;9040649;U41;1930;1930;1930;1930;3;8;0;3;0;5;0;BETA;1930;2100;3100;x;;;;;;;;;;;;
Brain-Class650;9040650;U41;1930;1930;1930;1930;3;8;0;3;0;5;0;BETA;1930;2100;3100;x;;;;;;;;;;;;
Brain-Class651;9040651;U41;1930;1930;1930;1930;3;8;0;3;0;5;0;BETA;1930;2100;3100;x;;;;;;;;;;;;
Brain-Class652;9040652;U41;1930;1930;1930;1930;3;8;0;3;0;5;0;BETA;1930;2100;3100;x;;;;;;;;;;;;
Brain-Class653;9040653;U41;1930;1930;1930;1930;3;8;0;3;0;5;0;BETA;1930;2100;3100;x;;;;;;;;;;;;
Brain-Class654;9040654;U41;1930;1930;1930;1930;3;8;0;3;0;5;0;BETA;1930;2100;3100;x;;;;;;;;;;;;
Brain-Class655;9040655;U41;1930;1930;1930;1930;3;8;0;3;0;5;0;BETA;1930;2100;3100;x;;;;;;;;;;;;
Brain-Class656;9040656;U41;1930;1930;1930;1930;3;8;0;3;0;5;0;BETA;1930;2100;3100;x;;;;;;;;;;;;
Brain-Class657;9040657;U41;1930;1930;1930;1930;3;8;0;3;0;5;0;BETA;1930;2100;3100;x;;;;;;;;;;;;
Brain-Class658;9040658;U41;1930;1930;1930;1930;3;8;0;3;0;5;0;BETA;1930;2100;3100;x;;;;;;;;;;;;
Brain-Class659;9040659;U41;1930;1930;1930;1930;3;8;0;3;0;5;0;BETA;1930;2100;3100;x;;;;;;;;;;;;
Brain-Class660;9040660;U41;1930;1930;1930;1930;3;8;0;3;0;5;0;BETA;1930;2100;3100;x;;;;;;;;;;;;
Brain-Class661;9040661;U41;1930;1930;1930;1930;3;8;0;3;0;5;0;BETA;1930;2100;3100;x;;;;;;;;;;;;
Brain-Class662;9040662;U41;1930;1930;1930;1930;3;8;0;3;0;5;0;BETA;1930;2100;3100;x;;;;;;;;;;;;
Brain-Class663;9040663;U41;1930;1930;1930;1930;3;8;0;3;0;5;0;BETA;1930;2100;3100;x;;;;;;;;;;;;
Brain-Class664;9040664;U41;1930;1930;1930;1930;3;8;0;3;0;5;0;BETA;1930;2100;3100;x;;;;;;;;;;;;
Brain-Class665;9040665;U41;1930;1930;1930;1930;3;8;0;3;0;5;0;BETA;1930;2100;3100;x;;;;;;;;;;;;
Brain-Class666;9040666;U41;1930;1930;1930;1930;3;8;0;3;0;5;0;BETA;1930;2100;3100;x;;;;;;;;;;;;
Brain-Class667;9040667;U41;1930;1930;1930;1930;3;8;0;3;0;5;0;BETA;1930;2100;3100;x;;;;;;;;;;;;
Brain-Class668;9040668;U41;1930;1930;1930;1930;3;8;0;3;0;5;0;BETA;1930;2100;3100;x;;;;;;;;;;;;
Brain-Class669;9040669;U41;1930;1930;1930;1930;3;8;0;3;0;5;0;BETA;1930;2100;3100;x;;;;;;;;;;;;
Brain-Class670;9040670;U41;1930;1930;1930;1930;3;8;0;3;0;5;0;BETA;1930;2100;3100;x;;;;;;;;;;;;
Brain-Class671;9040671;U41;1930;1930;1930;1930;3;8;0;3;0;5;0;BETA;1930;2100;3100;x;;;;;;;;;;;;
Brain-Class672;9040672;U41;1930;1930;1930;1930;3;8;0;3;0;5;0;BETA;1930;2100;3100;x;;;;;;;;;;;;
Brain-Class673;9040673;U41;1930;1930;1930;1930;3;8;0;3;0;5;0;BETA;1930;2100;3100;x;;;;;;;;;;;;
Brain-Class674;9040674;U41;1930;1930;1930;1930;3;8;0;3;0;5;0;BETA;1930;2100;3100;x;;;;;;;;;;;;
Brain-Class675;9040675;U41;1930;1930;1930;1930;3;8;0;3;0;5;0;BETA;1930;2100;3100;x;;;;;;;;;;;;
Brain-Class676;9040676;U41;1930;1930;1930;1930;3;8;0;3;0;5;0;BETA;1930;2100;3100;x;;;;;;;;;;;;
Brain-Class677;9040677;U41;1930;1930;1930;1930;3;8;0;3;0;5;0;BETA;1930;2100;3100;x;;;;;;;;;;;;
Brain-Class678;9040678;U41;1930;1930;1930;1930;3;8;0;3;0;5;0;BETA;1930;2100;3100;x;;;;;;;;;;;;
Brain-Class679;9040679;U41;1930;1930;1930;1930;3;8;0;3;0;5;0;BETA;1930;2100;3100;x;;;;;;;;;;;;
Brain-Class680;9040680;U41;1930;1930;1930;1930;3;8;0;3;0;5;0;BETA;1930;2100;3100;x;;;;;;;;;;;;
Brain-Class681;9040681;U41;1930;1930;1930;1930;3;8;0;3;0;5;0;BETA;1930;2100;3100;x;;;;;;;;;;;;
Brain-Class682;9040682;U41;1930;1930;1930;1930;3;8;0;3;0;5;0;BETA;1930;2100;3100;x;;;;;;;;;;;;
Brain-Class683;9040683;U41;1930;1930;1930;1930;3;8;0;3;0;5;0;BETA;1930;2100;3100;x;;;;;;;;;;;;
Brain-Class684;9040684;U41;1930;1930;1930;1930;3;8;0;3;0;5;0;BETA;1930;2100;3100;x;;;;;;;;;;;;
Brain-Class685;9040685;U41;1930;1930;1930;1930;3;8;0;3;0;5;0;BETA;1930;2100;3100;x;;;;;;;;;;;;
Brain-Class686;9040686;U41;1930;1930;1930;1930;3;8;0;3;0;5;0;BETA;1930;2100;3100;x;;;;;;;;;;;;
Brain-Class687;9040687;U41;1930;1930;1930;1930;3;8;0;3;0;5;0;BETA;1930;2100;3100;x;;;;;;;;;;;;
Brain-Class688;9040688;U41;1930;1930;1930;1930;3;8;0;3;0;5;0;BETA;1930;2100;3100;x;;;;;;;;;;;;
Brain-Class689;9040689;U41;1930;1930;1930;1930;3;8;0;3;0;5;0;BETA;1930;2100;3100;x;;;;;;;;;;;;
Brain-Class690;9040690;U41;1930;1930;1930;1930;3;8;0;3;0;5;0;BETA;1930;2100;3100;x;;;;;;;;;;;;
Brain-Class691;9040691;U41;1930;1930;1930;1930;3;8;0;3;0;5;0;BETA;1930;2100;3100;x;;;;;;;;;;;;
Brain-Class692;9040692;U41;1930;1930;1930;1930;3;8;0;3;0;5;0;BETA;1930;2100;3100;x;;;;;;;;;;;;
Brain-Class693;9040693;U41;1930;1930;1930;1930;3;8;0;3;0;5;0;BETA;1930;2100;3100;x;;;;;;;;;;;;
Brain-Class694;9040694;U41;1930;1930;1930;1930;3;8;0;3;0;5;0;BETA;1930;2100;3100;x;;;;;;;;;;;;
Brain-Class695;9040695;U41;1930;1930;1930;1930;3;8;0;3;0;5;0;BETA;1930;2100;3100;x;;;;;;;;;;;;
Brain-Class696;9040696;U41;1930;1930;1930;1930;3;8;0;3;0;5;0;BETA;1930;2100;3100;x;;;;;;;;;;;;
Brain-Class697;9040697;U41;1930;1930;1930;1930;3;8;0;3;0;5;0;BETA;1930;2100;3100;x;;;;;;;;;;;;
Brain-Class698;9040698;U41;1930;1930;1930;1930;3;8;0;3;0;5;0;BETA;1930;2100;3100;x;;;;;;;;;;;;
Brain-Class699;9040699;U41;1930;1930;1930;1930;3;8;0;3;0;5;0;BETA;1930;2100;3100;x;;;;;;;;;;;;
Brain-Class700;9040700;U41;1930;1930;1930;1930;3;8;0;3;0;5;0;BETA;1930;2100;3100;x;;;;;;;;;;;;
Brain-Class701;9040701;U41;1930;1930;1930;1930;3;8;0;3;0;5;0;BETA;1930;2100;3100;x;;;;;;;;;;;;
Brain-Class702;9040702;U41;1930;1930;1930;1930;3;8;0;3;0;5;0;BETA;1930;2100;3100;x;;;;;;;;;;;;
Brain-Class703;9040703;U41;1930;1930;1930;1930;3;8;0;3;0;5;0;BETA;1930;2100;3100;x;;;;;;;;;;;;
Brain-Class704;9040704;U41;1930;1930;1930;1930;3;8;0;3;0;5;0;BETA;1930;2100;3100;x;;;;;;;;;;;;
Brain-Class705;9040705;U41;1930;1930;1930;1930;3;8;0;3;0;5;0;BETA;1930;2100;3100;x;;;;;;;;;;;;
Brain-Class706;9040706;U41;1930;1930;1930;1930;3;8;0;3;0;5;0;BETA;1930;2100;3100;x;;;;;;;;;;;;
Brain-Class707;9040707;U41;1930;1930;1930;1930;3;8;0;3;0;5;0;BETA;1930;2100;3100;x;;;;;;;;;;;;
Brain-Class708;9040708;U41;1930;1930;1930;1930;3;8;0;3;0;5;0;BETA;1930;2100;3100;x;;;;;;;;;;;;
Brain-Class709;9040709;U41;1930;1930;1930;1930;3;8;0;3;0;5;0;BETA;1930;2100;3100;x;;;;;;;;;;;;
Brain-Class710;9040710;U41;1930;1930;1930;1930;3;8;0;3;0;5;0;BETA;1930;2100;3100;x;;;;;;;;;;;;
Brain-Class711;9040711;U41;1930;1930;1930;1930;3;8;0;3;0;5;0;BETA;1930;2100;3100;x;;;;;;;;;;;;
Brain-Class712;9040712;U41;1930;1930;1930;1930;3;8;0;3;0;5;0;BETA;1930;2100;3100;x;;;;;;;;;;;;
Brain-Class713;9040713;U41;1930;1930;1930;1930;3;8;0;3;0;5;0;BETA;1930;2100;3100;x;;;;;;;;;;;;
Brain-Class714;9040714;U41;1930;1930;1930;1930;3;8;0;3;0;5;0;BETA;1930;2100;3100;x;;;;;;;;;;;;
Brain-Class715;9040715;U41;1930;1930;1930;1930;3;8;0;3;0;5;0;BETA;1930;2100;3100;x;;;;;;;;;;;;
Brain-Class716;9040716;U41;1930;1930;1930;1930;3;8;0;3;0;5;0;BETA;1930;2100;3100;x;;;;;;;;;;;;
Brain-Class717;9040717;U41;1930;1930;1930;1930;3;8;0;3;0;5;0;BETA;1930;2100;3100;x;;;;;;;;;;;;
Brain-Class718;9040718;U41;1930;1930;1930;1930;3;8;0;3;0;5;0;BETA;1930;2100;3100;x;;;;;;;;;;;;
Brain-Class719;9040719;U41;1930;1930;1930;1930;3;8;0;3;0;5;0;BETA;1930;2100;3100;x;;;;;;;;;;;;
Brain-Class720;9040720;U41;1930;1930;1930;1930;3;8;0;3;0;5;0;BETA;1930;2100;3100;x;;;;;;;;;;;;
Brain-Class721;9040721;U41;1930;1930;1930;1930;3;8;0;3;0;5;0;BETA;1930;2100;3100;x;;;;;;;;;;;;
Brain-Class722;9040722;U41;1930;1930;1930;1930;3;8;0;3;0;5;0;BETA;1930;2100;3100;x;;;;;;;;;;;;
Brain-Class723;9040723;U41;1930;1930;1930;1930;3;8;0;3;0;5;0;BETA;1930;2100;3100;x;;;;;;;;;;;;
Brain-Class724;9040724;U41;1930;1930;1930;1930;3;8;0;3;0;5;0;BETA;1930;2100;3100;x;;;;;;;;;;;;
Brain-Class725;9040725;U41;1930;1930;1930;1930;3;8;0;3;0;5;0;BETA;1930;2100;3100;x;;;;;;;;;;;;
Brain-Class726;9040726;U41;1930;1930;1930;1930;3;8;0;3;0;5;0;BETA;1930;2100;3100;x;;;;;;;;;;;;
Brain-Class727;9040727;U41;1930;1930;1930;1930;3;8;0;3;0;5;0;BETA;1930;2100;3100;x;;;;;;;;;;;;
Brain-Class728;9040728;U41;1930;1930;1930;1930;3;8;0;3;0;5;0;BETA;1930;2100;3100;x;;;;;;;;;;;;
Brain-Class729;9040729;U41;1930;1930;1930;1930;3;8;0;3;0;5;0;BETA;1930;2100;3100;x;;;;;;;;;;;;
Brain-Class730;9040730;U41;1930;1930;1930;1930;3;8;0;3;0;5;0;BETA;1930;2100;3100;x;;;;;;;;;;;;
Brain-Class731;9040731;U41;1930;1930;1930;1930;3;8;0;3;0;5;0;BETA;1930;2100;3100;x;;;;;;;;;;;;
Brain-Class732;9040732;U41;1930;1930;1930;1930;3;8;0;3;0;5;0;BETA;1930;2100;3100;x;;;;;;;;;;;;
Brain-Class733;9040733;U41;1930;1930;1930;1930;3;8;0;3;0;5;0;BETA;1930;2100;3100;x;;;;;;;;;;;;
Brain-Class734;9040734;U41;1930;1930;1930;1930;3;8;0;3;0;5;0;BETA;1930;2100;3100;x;;;;;;;;;;;;
Brain-Class735;9040735;U41;1930;1930;1930;1930;3;8;0;3;0;5;0;BETA;1930;2100;3100;x;;;;;;;;;;;;
Brain-Class736;9040736;U41;1930;1930;1930;1930;3;8;0;3;0;5;0;BETA;1930;2100;3100;x;;;;;;;;;;;;
Brain-Class737;9040737;U41;1930;1930;1930;1930;3;8;0;3;0;5;0;BETA;1930;2100;3100;x;;;;;;;;;;;;
Brain-Class738;9040738;U41;1930;1930;1930;1930;3;8;0;3;0;5;0;BETA;1930;2100;3100;x;;;;;;;;;;;;
Brain-Class739;9040739;U41;1930;1930;1930;1930;3;8;0;3;0;5;0;BETA;1930;2100;3100;x;;;;;;;;;;;;
Brain-Class740;9040740;U41;1930;1930;1930;1930;3;8;0;3;0;5;0;BETA;1930;2100;3100;x;;;;;;;;;;;;
Brain-Class741;9040741;U41;1930;1930;1930;1930;3;8;0;3;0;5;0;BETA;1930;2100;3100;x;;;;;;;;;;;;
Brain-Class742;9040742;U41;1930;1930;1930;1930;3;8;0;3;0;5;0;BETA;1930;2100;3100;x;;;;;;;;;;;;
Brain-Class743;9040743;U41;1930;1930;1930;1930;3;8;0;3;0;5;0;BETA;1930;2100;3100;x;;;;;;;;;;;;
Brain-Class744;9040744;U41;1930;1930;1930;1930;3;8;0;3;0;5;0;BETA;1930;2100;3100;x;;;;;;;;;;;;
Brain-Class745;9040745;U41;1930;1930;1930;1930;3;8;0;3;0;5;0;BETA;1930;2100;3100;x;;;;;;;;;;;;
Brain-Class746;9040746;U41;1930;1930;1930;1930;3;8;0;3;0;5;0;BETA;1930;2100;3100;x;;;;;;;;;;;;
Brain-Class747;9040747;U41;1930;1930;1930;1930;3;8;0;3;0;5;0;BETA;1930;2100;3100;x;;;;;;;;;;;;
Brain-Class748;9040748;U41;1930;1930;1930;1930;3;8;0;3;0;5;0;BETA;1930;2100;3100;x;;;;;;;;;;;;
Brain-Class749;9040749;U41;1930;1930;1930;1930;3;8;0;3;0;5;0;BETA;1930;2100;3100;x;;;;;;;;;;;;
Brain-Class750;9040750;U41;1930;1930;1930;1930;3;8;0;3;0;5;0;BETA;1930;2100;3100;x;;;;;;;;;;;;
Brain-Class751;9040751;U41;1930;1930;1930;1930;3;8;0;3;0;5;0;BETA;1930;2100;3100;x;;;;;;;;;;;;
Brain-Class752;9040752;U41;1930;1930;1930;1930;3;8;0;3;0;5;0;BETA;1930;2100;3100;x;;;;;;;;;;;;
Brain-Class753;9040753;U41;1930;1930;1930;1930;3;8;0;3;0;5;0;BETA;1930;2100;3100;x;;;;;;;;;;;;
Brain-Class754;9040754;U41;1930;1930;1930;1930;3;8;0;3;0;5;0;BETA;1930;2100;3100;x;;;;;;;;;;;;
Brain-Class755;9040755;U41;1930;1930;1930;1930;3;8;0;3;0;5;0;BETA;1930;2100;3100;x;;;;;;;;;;;;
Brain-Class756;9040756;U41;1930;1930;1930;1930;3;8;0;3;0;5;0;BETA;1930;2100;3100;x;;;;;;;;;;;;
Brain-Class757;9040757;U41;1930;1930;1930;1930;3;8;0;3;0;5;0;BETA;1930;2100;3100;x;;;;;;;;;;;;
Brain-Class758;9040758;U41;1930;1930;1930;1930;3;8;0;3;0;5;0;BETA;1930;2100;3100;x;;;;;;;;;;;;
Brain-Class759;9040759;U41;1930;1930;1930;1930;3;8;0;3;0;5;0;BETA;1930;2100;3100;x;;;;;;;;;;;;
Brain-Class760;9040760;U41;1930;1930;1930;1930;3;8;0;3;0;5;0;BETA;1930;2100;3100;x;;;;;;;;;;;;
Brain-Class761;9040761;U41;1930;1930;1930;1930;3;8;0;3;0;5;0;BETA;1930;2100;3100;x;;;;;;;;;;;;
Brain-Class762;9040762;U41;1930;1930;1930;1930;3;8;0;3;0;5;0;BETA;1930;2100;3100;x;;;;;;;;;;;;
Brain-Class763;9040763;U41;1930;1930;1930;1930;3;8;0;3;0;5;0;BETA;1930;2100;3100;x;;;;;;;;;;;;
Brain-Class764;9040764;U41;1930;1930;1930;1930;3;8;0;3;0;5;0;BETA;1930;2100;3100;x;;;;;;;;;;;;
Brain-Class765;9040765;U41;1930;1930;1930;1930;3;8;0;3;0;5;0;BETA;1930;2100;3100;x;;;;;;;;;;;;
Brain-Class766;9040766;U41;1930;1930;1930;1930;3;8;0;3;0;5;0;BETA;1930;2100;3100;x;;;;;;;;;;;;
Brain-Class767;9040767;U41;1930;1930;1930;1930;3;8;0;3;0;5;0;BETA;1930;2100;3100;x;;;;;;;;;;;;
Brain-Class768;9040768;U41;1930;1930;1930;1930;3;8;0;3;0;5;0;BETA;1930;2100;3100;x;;;;;;;;;;;;
Brain-Class769;9040769;U41;1930;1930;1930;1930;3;8;0;3;0;5;0;BETA;1930;2100;3100;x;;;;;;;;;;;;
Brain-Class770;9040770;U41;1930;1930;1930;1930;3;8;0;3;0;5;0;BETA;1930;2100;3100;x;;;;;;;;;;;;
Brain-Class771;9040771;U41;1930;1930;1930;1930;3;8;0;3;0;5;0;BETA;1930;2100;3100;x;;;;;;;;;;;;
Brain-Class772;9040772;U41;1930;1930;1930;1930;3;8;0;3;0;5;0;BETA;1930;2100;3100;x;;;;;;;;;;;;
Brain-Class773;9040773;U41;1930;1930;1930;1930;3;8;0;3;0;5;0;BETA;1930;2100;3100;x;;;;;;;;;;;;
Brain-Class774;9040774;U41;1930;1930;1930;1930;3;8;0;3;0;5;0;BETA;1930;2100;3100;x;;;;;;;;;;;;
Brain-Class775;9040775;U41;1930;1930;1930;1930;3;8;0;3;0;5;0;BETA;1930;2100;3100;x;;;;;;;;;;;;
Brain-Class776;9040776;U41;1930;1930;1930;1930;3;8;0;3;0;5;0;BETA;1930;2100;3100;x;;;;;;;;;;;;
Brain-Class777;9040777;U41;1930;1930;1930;1930;3;8;0;3;0;5;0;BETA;1930;2100;3100;x;;;;;;;;;;;;
Brain-Class778;9040778;U41;1930;1930;1930;1930;3;8;0;3;0;5;0;BETA;1930;2100;3100;x;;;;;;;;;;;;
Brain-Class779;9040779;U41;1930;1930;1930;1930;3;8;0;3;0;5;0;BETA;1930;2100;3100;x;;;;;;;;;;;;
Brain-Class780;9040780;U41;1930;1930;1930;1930;3;8;0;3;0;5;0;BETA;1930;2100;3100;x;;;;;;;;;;;;
Brain-Class781;9040781;U41;1930;1930;1930;1930;3;8;0;3;0;5;0;BETA;1930;2100;3100;x;;;;;;;;;;;;
Brain-Class782;9040782;U41;1930;1930;1930;1930;3;8;0;3;0;5;0;BETA;1930;2100;3100;x;;;;;;;;;;;;
Brain-Class783;9040783;U41;1930;1930;1930;1930;3;8;0;3;0;5;0;BETA;1930;2100;3100;x;;;;;;;;;;;;
Brain-Class784;9040784;U41;1930;1930;1930;1930;3;8;0;3;0;5;0;BETA;1930;2100;3100;x;;;;;;;;;;;;
Brain-Class785;9040785;U41;1930;1930;1930;1930;3;8;0;3;0;5;0;BETA;1930;2100;3100;x;;;;;;;;;;;;
Brain-Class786;9040786;U41;1930;1930;1930;1930;3;8;0;3;0;5;0;BETA;1930;2100;3100;x;;;;;;;;;;;;
Brain-Class787;9040787;U41;1930;1930;1930;1930;3;8;0;3;0;5;0;BETA;1930;2100;3100;x;;;;;;;;;;;;
Brain-Class788;9040788;U41;1930;1930;1930;1930;3;8;0;3;0;5;0;BETA;1930;2100;3100;x;;;;;;;;;;;;
Brain-Class789;9040789;U41;1930;1930;1930;1930;3;8;0;3;0;5;0;BETA;1930;2100;3100;x;;;;;;;;;;;;
Brain-Class790;9040790;U41;1930;1930;1930;1930;3;8;0;3;0;5;0;BETA;1930;2100;3100;x;;;;;;;;;;;;
Brain-Class791;9040791;U41;1930;1930;1930;1930;3;8;0;3;0;5;0;BETA;1930;2100;3100;x;;;;;;;;;;;;
Brain-Class792;9040792;U41;1930;1930;1930;1930;3;8;0;3;0;5;0;BETA;1930;2100;3100;x;;;;;;;;;;;;
Brain-Class793;9040793;U41;1930;1930;1930;1930;3;8;0;3;0;5;0;BETA;1930;2100;3100;x;;;;;;;;;;;;
Brain-Class794;9040794;U41;1930;1930;1930;1930;3;8;0;3;0;5;0;BETA;1930;2100;3100;x;;;;;;;;;;;;
Brain-Class795;9040795;U41;1930;1930;1930;1930;3;8;0;3;0;5;0;BETA;1930;2100;3100;x;;;;;;;;;;;;
Brain-Class796;9040796;U41;1930;1930;1930;1930;3;8;0;3;0;5;0;BETA;1930;2100;3100;x;;;;;;;;;;;;
Brain-Class797;9040797;U41;1930;1930;1930;1930;3;8;0;3;0;5;0;BETA;1930;2100;3100;x;;;;;;;;;;;;
Brain-Class798;9040798;U41;1930;1930;1930;1930;3;8;0;3;0;5;0;BETA;1930;2100;3100;x;;;;;;;;;;;;
Brain-Class799;9040799;U41;1930;1930;1930;1930;3;8;0;3;0;5;0;BETA;1930;2100;3100;x;;;;;;;;;;;;
Brain-Class800;9040800;U41;1930;1930;1930;1930;3;8;0;3;0;5;0;BETA;1930;2100;3100;x;;;;;;;;;;;;
Brain-Class801;9040801;U41;1930;1930;1930;1930;3;8;0;3;0;5;0;BETA;1930;2100;3100;x;;;;;;;;;;;;
Brain-Class802;9040802;U41;1930;1930;1930;1930;3;8;0;3;0;5;0;BETA;1930;2100;3100;x;;;;;;;;;;;;
Brain-Class803;9040803;U41;1930;1930;1930;1930;3;8;0;3;0;5;0;BETA;1930;2100;3100;x;;;;;;;;;;;;
Brain-Class804;9040804;U41;1930;1930;1930;1930;3;8;0;3;0;5;0;BETA;1930;2100;3100;x;;;;;;;;;;;;
Brain-Class805;9040805;U41;1930;1930;1930;1930;3;8;0;3;0;5;0;BETA;1930;2100;3100;x;;;;;;;;;;;;
Brain-Class806;9040806;U41;1930;1930;1930;1930;3;8;0;3;0;5;0;BETA;1930;2100;3100;x;;;;;;;;;;;;
Brain-Class807;9040807;U41;1930;1930;1930;1930;3;8;0;3;0;5;0;BETA;1930;2100;3100;x;;;;;;;;;;;;
Brain-Class808;9040808;U41;1930;1930;1930;1930;3;8;0;3;0;5;0;BETA;1930;2100;3100;x;;;;;;;;;;;;
Brain-Class809;9040809;U41;1930;1930;1930;1930;3;8;0;3;0;5;0;BETA;1930;2100;3100;x;;;;;;;;;;;;
Brain-Class810;9040810;U41;1930;1930;1930;1930;3;8;0;3;0;5;0;BETA;1930;2100;3100;x;;;;;;;;;;;;
Brain-Class811;9040811;U41;1930;1930;1930;1930;3;8;0;3;0;5;0;BETA;1930;2100;3100;x;;;;;;;;;;;;
Brain-Class812;9040812;U41;1930;1930;1930;1930;3;8;0;3;0;5;0;BETA;1930;2100;3100;x;;;;;;;;;;;;
Brain-Class813;9040813;U41;1930;1930;1930;1930;3;8;0;3;0;5;0;BETA;1930;2100;3100;x;;;;;;;;;;;;
Brain-Class814;9040814;U41;1930;1930;1930;1930;3;8;0;3;0;5;0;BETA;1930;2100;3100;x;;;;;;;;;;;;
Brain-Class815;9040815;U41;1930;1930;1930;1930;3;8;0;3;0;5;0;BETA;1930;2100;3100;x;;;;;;;;;;;;
Brain-Class816;9040816;U41;1930;1930;1930;1930;3;8;0;3;0;5;0;BETA;1930;2100;3100;x;;;;;;;;;;;;
Brain-Class817;9040817;U41;1930;1930;1930;1930;3;8;0;3;0;5;0;BETA;1930;2100;3100;x;;;;;;;;;;;;
Brain-Class818;9040818;U41;1930;1930;1930;1930;3;8;0;3;0;5;0;BETA;1930;2100;3100;x;;;;;;;;;;;;
Brain-Class819;9040819;U41;1930;1930;1930;1930;3;8;0;3;0;5;0;BETA;1930;2100;3100;x;;;;;;;;;;;;
Brain-Class820;9040820;U41;1930;1930;1930;1930;3;8;0;3;0;5;0;BETA;1930;2100;3100;x;;;;;;;;;;;;
Brain-Class821;9040821;U41;1930;1930;1930;1930;3;8;0;3;0;5;0;BETA;1930;2100;3100;x;;;;;;;;;;;;
Brain-Class822;9040822;U41;1930;1930;1930;1930;3;8;0;3;0;5;0;BETA;1930;2100;3100;x;;;;;;;;;;;;
Brain-Class823;9040823;U41;1930;1930;1930;1930;3;8;0;3;0;5;0;BETA;1930;2100;3100;x;;;;;;;;;;;;
Brain-Class824;9040824;U41;1930;1930;1930;1930;3;8;0;3;0;5;0;BETA;1930;2100;3100;x;;;;;;;;;;;;
Brain-Class825;9040825;U41;1930;1930;1930;1930;3;8;0;3;0;5;0;BETA;1930;2100;3100;x;;;;;;;;;;;;
Brain-Class826;9040826;U41;1930;1930;1930;1930;3;8;0;3;0;5;0;BETA;1930;2100;3100;x;;;;;;;;;;;;
Brain-Class827;9040827;U41;1930;1930;1930;1930;3;8;0;3;0;5;0;BETA;1930;2100;3100;x;;;;;;;;;;;;
Brain-Class828;9040828;U41;1930;1930;1930;1930;3;8;0;3;0;5;0;BETA;1930;2100;3100;x;;;;;;;;;;;;
Brain-Class829;9040829;U41;1930;1930;1930;1930;3;8;0;3;0;5;0;BETA;1930;2100;3100;x;;;;;;;;;;;;
Brain-Class830;9040830;U41;1930;1930;1930;1930;3;8;0;3;0;5;0;BETA;1930;2100;3100;x;;;;;;;;;;;;
Brain-Class831;9040831;U41;1930;1930;1930;1930;3;8;0;3;0;5;0;BETA;1930;2100;3100;x;;;;;;;;;;;;
Brain-Class832;9040832;U41;1930;1930;1930;1930;3;8;0;3;0;5;0;BETA;1930;2100;3100;x;;;;;;;;;;;;
Brain-Class833;9040833;U41;1930;1930;1930;1930;3;8;0;3;0;5;0;BETA;1930;2100;3100;x;;;;;;;;;;;;
Brain-Class834;9040834;U41;1930;1930;1930;1930;3;8;0;3;0;5;0;BETA;1930;2100;3100;x;;;;;;;;;;;;
Brain-Class835;9040835;U41;1930;1930;1930;1930;3;8;0;3;0;5;0;BETA;1930;2100;3100;x;;;;;;;;;;;;
Brain-Class836;9040836;U41;1930;1930;1930;1930;3;8;0;3;0;5;0;BETA;1930;2100;3100;x;;;;;;;;;;;;
Brain-Class837;9040837;U41;1930;1930;1930;1930;3;8;0;3;0;5;0;BETA;1930;2100;3100;x;;;;;;;;;;;;
Brain-Class838;9040838;U41;1930;1930;1930;1930;3;8;0;3;0;5;0;BETA;1930;2100;3100;x;;;;;;;;;;;;
Brain-Class839;9040839;U41;1930;1930;1930;1930;3;8;0;3;0;5;0;BETA;1930;2100;3100;x;;;;;;;;;;;;
Brain-Class840;9040840;U41;1930;1930;1930;1930;3;8;0;3;0;5;0;BETA;1930;2100;3100;x;;;;;;;;;;;;
Brain-Class841;9040841;U41;1930;1930;1930;1930;3;8;0;3;0;5;0;BETA;1930;2100;3100;x;;;;;;;;;;;;
Brain-Class842;9040842;U41;1930;1930;1930;1930;3;8;0;3;0;5;0;BETA;1930;2100;3100;x;;;;;;;;;;;;
Brain-Class843;9040843;U41;1930;1930;1930;1930;3;8;0;3;0;5;0;BETA;1930;2100;3100;x;;;;;;;;;;;;
Brain-Class844;9040844;U41;1930;1930;1930;1930;3;8;0;3;0;5;0;BETA;1930;2100;3100;x;;;;;;;;;;;;
Brain-Class845;9040845;U41;1930;1930;1930;1930;3;8;0;3;0;5;0;BETA;1930;2100;3100;x;;;;;;;;;;;;
Brain-Class846;9040846;U41;1930;1930;1930;1930;3;8;0;3;0;5;0;BETA;1930;2100;3100;x;;;;;;;;;;;;
Brain-Class847;9040847;U41;1930;1930;1930;1930;3;8;0;3;0;5;0;BETA;1930;2100;3100;x;;;;;;;;;;;;
Brain-Class848;9040848;U41;1930;1930;1930;1930;3;8;0;3;0;5;0;BETA;1930;2100;3100;x;;;;;;;;;;;;
Brain-Class849;9040849;U41;1930;1930;1930;1930;3;8;0;3;0;5;0;BETA;1930;2100;3100;x;;;;;;;;;;;;
Brain-Class850;9040850;U41;1930;1930;1930;1930;3;8;0;3;0;5;0;BETA;1930;2100;3100;x;;;;;;;;;;;;
Brain-Class851;9040851;U41;1930;1930;1930;1930;3;8;0;3;0;5;0;BETA;1930;2100;3100;x;;;;;;;;;;;;
Brain-Class852;9040852;U41;1930;1930;1930;1930;3;8;0;3;0;5;0;BETA;1930;2100;3100;x;;;;;;;;;;;;
Brain-Class853;9040853;U41;1930;1930;1930;1930;3;8;0;3;0;5;0;BETA;1930;2100;3100;x;;;;;;;;;;;;
Brain-Class854;9040854;U41;1930;1930;1930;1930;3;8;0;3;0;5;0;BETA;1930;2100;3100;x;;;;;;;;;;;;
Brain-Class855;9040855;U41;1930;1930;1930;1930;3;8;0;3;0;5;0;BETA;1930;2100;3100;x;;;;;;;;;;;;
Brain-Class856;9040856;U41;1930;1930;1930;1930;3;8;0;3;0;5;0;BETA;1930;2100;3100;x;;;;;;;;;;;;
Brain-Class857;9040857;U41;1930;1930;1930;1930;3;8;0;3;0;5;0;BETA;1930;2100;3100;x;;;;;;;;;;;;
Brain-Class858;9040858;U41;1930;1930;1930;1930;3;8;0;3;0;5;0;BETA;1930;2100;3100;x;;;;;;;;;;;;
Brain-Class859;9040859;U41;1930;1930;1930;1930;3;8;0;3;0;5;0;BETA;1930;2100;3100;x;;;;;;;;;;;;
Brain-Class860;9040860;U41;1930;1930;1930;1930;3;8;0;3;0;5;0;BETA;1930;2100;3100;x;;;;;;;;;;;;
Brain-Class861;9040861;U41;1930;1930;1930;1930;3;8;0;3;0;5;0;BETA;1930;2100;3100;x;;;;;;;;;;;;
Brain-Class862;9040862;U41;1930;1930;1930;1930;3;8;0;3;0;5;0;BETA;1930;2100;3100;x;;;;;;;;;;;;
Brain-Class863;9040863;U41;1930;1930;1930;1930;3;8;0;3;0;5;0;BETA;1930;2100;3100;x;;;;;;;;;;;;
Brain-Class864;9040864;U41;1930;1930;1930;1930;3;8;0;3;0;5;0;BETA;1930;2100;3100;x;;;;;;;;;;;;
Brain-Class865;9040865;U41;1930;1930;1930;1930;3;8;0;3;0;5;0;BETA;1930;2100;3100;x;;;;;;;;;;;;
Brain-Class866;9040866;U41;1930;1930;1930;1930;3;8;0;3;0;5;0;BETA;1930;2100;3100;x;;;;;;;;;;;;
Brain-Class867;9040867;U41;1930;1930;1930;1930;3;8;0;3;0;5;0;BETA;1930;2100;3100;x;;;;;;;;;;;;
Brain-Class868;9040868;U41;1930;1930;1930;1930;3;8;0;3;0;5;0;BETA;1930;2100;3100;x;;;;;;;;;;;;
Brain-Class869;9040869;U41;1930;1930;1930;1930;3;8;0;3;0;5;0;BETA;1930;2100;3100;x;;;;;;;;;;;;
Brain-Class870;9040870;U41;1930;1930;1930;1930;3;8;0;3;0;5;0;BETA;1930;2100;3100;x;;;;;;;;;;;;
Brain-Class871;9040871;U41;1930;1930;1930;1930;3;8;0;3;0;5;0;BETA;1930;2100;3100;x;;;;;;;;;;;;
Brain-Class872;9040872;U41;1930;1930;1930;1930;3;8;0;3;0;5;0;BETA;1930;2100;3100;x;;;;;;;;;;;;
Brain-Class873;9040873;U41;1930;1930;1930;1930;3;8;0;3;0;5;0;BETA;1930;2100;3100;x;;;;;;;;;;;;
Brain-Class874;9040874;U41;1930;1930;1930;1930;3;8;0;3;0;5;0;BETA;1930;2100;3100;x;;;;;;;;;;;;
Brain-Class875;9040875;U41;1930;1930;1930;1930;3;8;0;3;0;5;0;BETA;1930;2100;3100;x;;;;;;;;;;;;
Brain-Class876;9040876;U41;1930;1930;1930;1930;3;8;0;3;0;5;0;BETA;1930;2100;3100;x;;;;;;;;;;;;
Brain-Class877;9040877;U41;1930;1930;1930;1930;3;8;0;3;0;5;0;BETA;1930;2100;3100;x;;;;;;;;;;;;
Brain-Class878;9040878;U41;1930;1930;1930;1930;3;8;0;3;0;5;0;BETA;1930;2100;3100;x;;;;;;;;;;;;
Brain-Class879;9040879;U41;1930;1930;1930;1930;3;8;0;3;0;5;0;BETA;1930;2100;3100;x;;;;;;;;;;;;
Brain-Class880;9040880;U41;1930;1930;1930;1930;3;8;0;3;0;5;0;BETA;1930;2100;3100;x;;;;;;;;;;;;
Brain-Class881;9040881;U41;1930;1930;1930;1930;3;8;0;3;0;5;0;BETA;1930;2100;3100;x;;;;;;;;;;;;
Brain-Class882;9040882;U41;1930;1930;1930;1930;3;8;0;3;0;5;0;BETA;1930;2100;3100;x;;;;;;;;;;;;
Brain-Class883;9040883;U41;1930;1930;1930;1930;3;8;0;3;0;5;0;BETA;1930;2100;3100;x;;;;;;;;;;;;
Brain-Class884;9040884;U41;1930;1930;1930;1930;3;8;0;3;0;5;0;BETA;1930;2100;3100;x;;;;;;;;;;;;
Brain-Class885;9040885;U41;1930;1930;1930;1930;3;8;0;3;0;5;0;BETA;1930;2100;3100;x;;;;;;;;;;;;
Brain-Class886;9040886;U41;1930;1930;1930;1930;3;8;0;3;0;5;0;BETA;1930;2100;3100;x;;;;;;;;;;;;
Brain-Class887;9040887;U41;1930;1930;1930;1930;3;8;0;3;0;5;0;BETA;1930;2100;3100;x;;;;;;;;;;;;
Brain-Class888;9040888;U41;1930;1930;1930;1930;3;8;0;3;0;5;0;BETA;1930;2100;3100;x;;;;;;;;;;;;
Brain-Class889;9040889;U41;1930;1930;1930;1930;3;8;0;3;0;5;0;BETA;1930;2100;3100;x;;;;;;;;;;;;
Brain-Class890;9040890;U41;1930;1930;1930;1930;3;8;0;3;0;5;0;BETA;1930;2100;3100;x;;;;;;;;;;;;
Brain-Class891;9040891;U41;1930;1930;1930;1930;3;8;0;3;0;5;0;BETA;1930;2100;3100;x;;;;;;;;;;;;
Brain-Class892;9040892;U41;1930;1930;1930;1930;3;8;0;3;0;5;0;BETA;1930;2100;3100;x;;;;;;;;;;;;
Brain-Class893;9040893;U41;1930;1930;1930;1930;3;8;0;3;0;5;0;BETA;1930;2100;3100;x;;;;;;;;;;;;
Brain-Class894;9040894;U41;1930;1930;1930;1930;3;8;0;3;0;5;0;BETA;1930;2100;3100;x;;;;;;;;;;;;
Brain-Class895;9040895;U41;1930;1930;1930;1930;3;8;0;3;0;5;0;BETA;1930;2100;3100;x;;;;;;;;;;;;
Brain-Class896;9040896;U41;1930;1930;1930;1930;3;8;0;3;0;5;0;BETA;1930;2100;3100;x;;;;;;;;;;;;
Brain-Class897;9040897;U41;1930;1930;1930;1930;3;8;0;3;0;5;0;BETA;1930;2100;3100;x;;;;;;;;;;;;
Brain-Class898;9040898;U41;1930;1930;1930;1930;3;8;0;3;0;5;0;BETA;1930;2100;3100;x;;;;;;;;;;;;
Brain-Class899;9040899;U41;1930;1930;1930;1930;3;8;0;3;0;5;0;BETA;1930;2100;3100;x;;;;;;;;;;;;
Brain-Class900;9040900;U41;1930;1930;1930;1930;3;8;0;3;0;5;0;BETA;1930;2100;3100;x;;;;;;;;;;;;
Brain-Class901;9040901;U41;1930;1930;1930;1930;3;8;0;3;0;5;0;BETA;1930;2100;3100;x;;;;;;;;;;;;
Brain-Class902;9040902;U41;1930;1930;1930;1930;3;8;0;3;0;5;0;BETA;1930;2100;3100;x;;;;;;;;;;;;
Brain-Class903;9040903;U41;1930;1930;1930;1930;3;8;0;3;0;5;0;BETA;1930;2100;3100;x;;;;;;;;;;;;
Brain-Class904;9040904;U41;1930;1930;1930;1930;3;8;0;3;0;5;0;BETA;1930;2100;3100;x;;;;;;;;;;;;
Brain-Class905;9040905;U41;1930;1930;1930;1930;3;8;0;3;0;5;0;BETA;1930;2100;3100;x;;;;;;;;;;;;
Brain-Class906;9040906;U41;1930;1930;1930;1930;3;8;0;3;0;5;0;BETA;1930;2100;3100;x;;;;;;;;;;;;
Brain-Class907;9040907;U41;1930;1930;1930;1930;3;8;0;3;0;5;0;BETA;1930;2100;3100;x;;;;;;;;;;;;
Brain-Class908;9040908;U41;1930;1930;1930;1930;3;8;0;3;0;5;0;BETA;1930;2100;3100;x;;;;;;;;;;;;
Brain-Class909;9040909;U41;1930;1930;1930;1930;3;8;0;3;0;5;0;BETA;1930;2100;3100;x;;;;;;;;;;;;
Brain-Class910;9040910;U41;1930;1930;1930;1930;3;8;0;3;0;5;0;BETA;1930;2100;3100;x;;;;;;;;;;;;
Brain-Class911;9040911;U41;1930;1930;1930;1930;3;8;0;3;0;5;0;BETA;1930;2100;3100;x;;;;;;;;;;;;
Brain-Class912;9040912;U41;1930;1930;1930;1930;3;8;0;3;0;5;0;BETA;1930;2100;3100;x;;;;;;;;;;;;
Brain-Class913;9040913;U41;1930;1930;1930;1930;3;8;0;3;0;5;0;BETA;1930;2100;3100;x;;;;;;;;;;;;
Brain-Class914;9040914;U41;1930;1930;1930;1930;3;8;0;3;0;5;0;BETA;1930;2100;3100;x;;;;;;;;;;;;
Brain-Class915;9040915;U41;1930;1930;1930;1930;3;8;0;3;0;5;0;BETA;1930;2100;3100;x;;;;;;;;;;;;
Brain-Class916;9040916;U41;1930;1930;1930;1930;3;8;0;3;0;5;0;BETA;1930;2100;3100;x;;;;;;;;;;;;
Brain-Class917;9040917;U41;1930;1930;1930;1930;3;8;0;3;0;5;0;BETA;1930;2100;3100;x;;;;;;;;;;;;
Brain-Class918;9040918;U41;1930;1930;1930;1930;3;8;0;3;0;5;0;BETA;1930;2100;3100;x;;;;;;;;;;;;
Brain-Class919;9040919;U41;1930;1930;1930;1930;3;8;0;3;0;5;0;BETA;1930;2100;3100;x;;;;;;;;;;;;
Brain-Class920;9040920;U41;1930;1930;1930;1930;3;8;0;3;0;5;0;BETA;1930;2100;3100;x;;;;;;;;;;;;
Brain-Class921;9040921;U41;1930;1930;1930;1930;3;8;0;3;0;5;0;BETA;1930;2100;3100;x;;;;;;;;;;;;
Brain-Class922;9040922;U41;1930;1930;1930;1930;3;8;0;3;0;5;0;BETA;1930;2100;3100;x;;;;;;;;;;;;
Brain-Class923;9040923;U41;1930;1930;1930;1930;3;8;0;3;0;5;0;BETA;1930;2100;3100;x;;;;;;;;;;;;
Brain-Class924;9040924;U41;1930;1930;1930;1930;3;8;0;3;0;5;0;BETA;1930;2100;3100;x;;;;;;;;;;;;
Brain-Class925;9040925;U41;1930;1930;1930;1930;3;8;0;3;0;5;0;BETA;1930;2100;3100;x;;;;;;;;;;;;
Brain-Class926;9040926;U41;1930;1930;1930;1930;3;8;0;3;0;5;0;BETA;1930;2100;3100;x;;;;;;;;;;;;
Brain-Class927;9040927;U41;1930;1930;1930;1930;3;8;0;3;0;5;0;BETA;1930;2100;3100;x;;;;;;;;;;;;
Brain-Class928;9040928;U41;1930;1930;1930;1930;3;8;0;3;0;5;0;BETA;1930;2100;3100;x;;;;;;;;;;;;
Brain-Class929;9040929;U41;1930;1930;1930;1930;3;8;0;3;0;5;0;BETA;1930;2100;3100;x;;;;;;;;;;;;
Brain-Class930;9040930;U41;1930;1930;1930;1930;3;8;0;3;0;5;0;BETA;1930;2100;3100;x;;;;;;;;;;;;
Brain-Class931;9040931;U41;1930;1930;1930;1930;3;8;0;3;0;5;0;BETA;1930;2100;3100;x;;;;;;;;;;;;
Brain-Class932;9040932;U41;1930;1930;1930;1930;3;8;0;3;0;5;0;BETA;1930;2100;3100;x;;;;;;;;;;;;
Brain-Class933;9040933;U41;1930;1930;1930;1930;3;8;0;3;0;5;0;BETA;1930;2100;3100;x;;;;;;;;;;;;
Brain-Class934;9040934;U41;1930;1930;1930;1930;3;8;0;3;0;5;0;BETA;1930;2100;3100;x;;;;;;;;;;;;
Brain-Class935;9040935;U41;1930;1930;1930;1930;3;8;0;3;0;5;0;BETA;1930;2100;3100;x;;;;;;;;;;;;
Brain-Class936;9040936;U41;1930;1930;1930;1930;3;8;0;3;0;5;0;BETA;1930;2100;3100;x;;;;;;;;;;;;
Brain-Class937;9040937;U41;1930;1930;1930;1930;3;8;0;3;0;5;0;BETA;1930;2100;3100;x;;;;;;;;;;;;
Brain-Class938;9040938;U41;1930;1930;1930;1930;3;8;0;3;0;5;0;BETA;1930;2100;3100;x;;;;;;;;;;;;
Brain-Class939;9040939;U41;1930;1930;1930;1930;3;8;0;3;0;5;0;BETA;1930;2100;3100;x;;;;;;;;;;;;
Brain-Class940;9040940;U41;1930;1930;1930;1930;3;8;0;3;0;5;0;BETA;1930;2100;3100;x;;;;;;;;;;;;
Brain-Class941;9040941;U41;1930;1930;1930;1930;3;8;0;3;0;5;0;BETA;1930;2100;3100;x;;;;;;;;;;;;
Brain-Class942;9040942;U41;1930;1930;1930;1930;3;8;0;3;0;5;0;BETA;1930;2100;3100;x;;;;;;;;;;;;
Brain-Class943;9040943;U41;1930;1930;1930;1930;3;8;0;3;0;5;0;BETA;1930;2100;3100;x;;;;;;;;;;;;
Brain-Class944;9040944;U41;1930;1930;1930;1930;3;8;0;3;0;5;0;BETA;1930;2100;3100;x;;;;;;;;;;;;
Brain-Class945;9040945;U41;1930;1930;1930;1930;3;8;0;3;0;5;0;BETA;1930;2100;3100;x;;;;;;;;;;;;
Brain-Class946;9040946;U41;1930;1930;1930;1930;3;8;0;3;0;5;0;BETA;1930;2100;3100;x;;;;;;;;;;;;
Brain-Class947;9040947;U41;1930;1930;1930;1930;3;8;0;3;0;5;0;BETA;1930;2100;3100;x;;;;;;;;;;;;
Brain-Class948;9040948;U41;1930;1930;1930;1930;3;8;0;3;0;5;0;BETA;1930;2100;3100;x;;;;;;;;;;;;
Brain-Class949;9040949;U41;1930;1930;1930;1930;3;8;0;3;0;5;0;BETA;1930;2100;3100;x;;;;;;;;;;;;
Brain-Class950;9040950;U41;1930;1930;1930;1930;3;8;0;3;0;5;0;BETA;1930;2100;3100;x;;;;;;;;;;;;
Brain-Class951;9040951;U41;1930;1930;1930;1930;3;8;0;3;0;5;0;BETA;1930;2100;3100;x;;;;;;;;;;;;
Brain-Class952;9040952;U41;1930;1930;1930;1930;3;8;0;3;0;5;0;BETA;1930;2100;3100;x;;;;;;;;;;;;
Brain-Class953;9040953;U41;1930;1930;1930;1930;3;8;0;3;0;5;0;BETA;1930;2100;3100;x;;;;;;;;;;;;
Brain-Class954;9040954;U41;1930;1930;1930;1930;3;8;0;3;0;5;0;BETA;1930;2100;3100;x;;;;;;;;;;;;
Brain-Class955;9040955;U41;1930;1930;1930;1930;3;8;0;3;0;5;0;BETA;1930;2100;3100;x;;;;;;;;;;;;
Brain-Class956;9040956;U41;1930;1930;1930;1930;3;8;0;3;0;5;0;BETA;1930;2100;3100;x;;;;;;;;;;;;
Brain-Class957;9040957;U41;1930;1930;1930;1930;3;8;0;3;0;5;0;BETA;1930;2100;3100;x;;;;;;;;;;;;
Brain-Class958;9040958;U41;1930;1930;1930;1930;3;8;0;3;0;5;0;BETA;1930;2100;3100;x;;;;;;;;;;;;
Brain-Class959;9040959;U41;1930;1930;1930;1930;3;8;0;3;0;5;0;BETA;1930;2100;3100;x;;;;;;;;;;;;
Brain-Class960;9040960;U41;1930;1930;1930;1930;3;8;0;3;0;5;0;BETA;1930;2100;3100;x;;;;;;;;;;;;
Brain-Class961;9040961;U41;1930;1930;1930;1930;3;8;0;3;0;5;0;BETA;1930;2100;3100;x;;;;;;;;;;;;
Brain-Class962;9040962;U41;1930;1930;1930;1930;3;8;0;3;0;5;0;BETA;1930;2100;3100;x;;;;;;;;;;;;
Brain-Class963;9040963;U41;1930;1930;1930;1930;3;8;0;3;0;5;0;BETA;1930;2100;3100;x;;;;;;;;;;;;
Brain-Class964;9040964;U41;1930;1930;1930;1930;3;8;0;3;0;5;0;BETA;1930;2100;3100;x;;;;;;;;;;;;
Brain-Class965;9040965;U41;1930;1930;1930;1930;3;8;0;3;0;5;0;BETA;1930;2100;3100;x;;;;;;;;;;;;
Brain-Class966;9040966;U41;1930;1930;1930;1930;3;8;0;3;0;5;0;BETA;1930;2100;3100;x;;;;;;;;;;;;
Brain-Class967;9040967;U41;1930;1930;1930;1930;3;8;0;3;0;5;0;BETA;1930;2100;3100;x;;;;;;;;;;;;
Brain-Class968;9040968;U41;1930;1930;1930;1930;3;8;0;3;0;5;0;BETA;1930;2100;3100;x;;;;;;;;;;;;
Brain-Class969;9040969;U41;1930;1930;1930;1930;3;8;0;3;0;5;0;BETA;1930;2100;3100;x;;;;;;;;;;;;
Brain-Class970;9040970;U41;1930;1930;1930;1930;3;8;0;3;0;5;0;BETA;1930;2100;3100;x;;;;;;;;;;;;
Brain-Class971;9040971;U41;1930;1930;1930;1930;3;8;0;3;0;5;0;BETA;1930;2100;3100;x;;;;;;;;;;;;
Brain-Class972;9040972;U41;1930;1930;1930;1930;3;8;0;3;0;5;0;BETA;1930;2100;3100;x;;;;;;;;;;;;
Brain-Class973;9040973;U41;1930;1930;1930;1930;3;8;0;3;0;5;0;BETA;1930;2100;3100;x;;;;;;;;;;;;
Brain-Class974;9040974;U41;1930;1930;1930;1930;3;8;0;3;0;5;0;BETA;1930;2100;3100;x;;;;;;;;;;;;
Brain-Class975;9040975;U41;1930;1930;1930;1930;3;8;0;3;0;5;0;BETA;1930;2100;3100;x;;;;;;;;;;;;
Brain-Class976;9040976;U41;1930;1930;1930;1930;3;8;0;3;0;5;0;BETA;1930;2100;3100;x;;;;;;;;;;;;
Brain-Class977;9040977;U41;1930;1930;1930;1930;3;8;0;3;0;5;0;BETA;1930;2100;3100;x;;;;;;;;;;;;
Brain-Class978;9040978;U41;1930;1930;1930;1930;3;8;0;3;0;5;0;BETA;1930;2100;3100;x;;;;;;;;;;;;
Brain-Class979;9040979;U41;1930;1930;1930;1930;3;8;0;3;0;5;0;BETA;1930;2100;3100;x;;;;;;;;;;;;
Brain-Class980;9040980;U41;1930;1930;1930;1930;3;8;0;3;0;5;0;BETA;1930;2100;3100;x;;;;;;;;;;;;
Brain-Class981;9040981;U41;1930;1930;1930;1930;3;8;0;3;0;5;0;BETA;1930;2100;3100;x;;;;;;;;;;;;
Brain-Class982;9040982;U41;1930;1930;1930;1930;3;8;0;3;0;5;0;BETA;1930;2100;3100;x;;;;;;;;;;;;
Brain-Class983;9040983;U41;1930;1930;1930;1930;3;8;0;3;0;5;0;BETA;1930;2100;3100;x;;;;;;;;;;;;
Brain-Class984;9040984;U41;1930;1930;1930;1930;3;8;0;3;0;5;0;BETA;1930;2100;3100;x;;;;;;;;;;;;
Brain-Class985;9040985;U41;1930;1930;1930;1930;3;8;0;3;0;5;0;BETA;1930;2100;3100;x;;;;;;;;;;;;
Brain-Class986;9040986;U41;1930;1930;1930;1930;3;8;0;3;0;5;0;BETA;1930;2100;3100;x;;;;;;;;;;;;
Brain-Class987;9040987;U41;1930;1930;1930;1930;3;8;0;3;0;5;0;BETA;1930;2100;3100;x;;;;;;;;;;;;
Brain-Class988;9040988;U41;1930;1930;1930;1930;3;8;0;3;0;5;0;BETA;1930;2100;3100;x;;;;;;;;;;;;
Brain-Class989;9040989;U41;1930;1930;1930;1930;3;8;0;3;0;5;0;BETA;1930;2100;3100;x;;;;;;;;;;;;
Brain-Class990;9040990;U41;1930;1930;1930;1930;3;8;0;3;0;5;0;BETA;1930;2100;3100;x;;;;;;;;;;;;
Brain-Class991;9040991;U41;1930;1930;1930;1930;3;8;0;3;0;5;0;BETA;1930;2100;3100;x;;;;;;;;;;;;
Brain-Class992;9040992;U41;1930;1930;1930;1930;3;8;0;3;0;5;0;BETA;1930;2100;3100;x;;;;;;;;;;;;
Brain-Class993;9040993;U41;1930;1930;1930;1930;3;8;0;3;0;5;0;BETA;1930;2100;3100;x;;;;;;;;;;;;
Brain-Class994;9040994;U41;1930;1930;1930;1930;3;8;0;3;0;5;0;BETA;1930;2100;3100;x;;;;;;;;;;;;
Brain-Class995;9040995;U41;1930;1930;1930;1930;3;8;0;3;0;5;0;BETA;1930;2100;3100;x;;;;;;;;;;;;
Brain-Class996;9040996;U41;1930;1930;1930;1930;3;8;0;3;0;5;0;BETA;1930;2100;3100;x;;;;;;;;;;;;
Brain-Class997;9040997;U41;1930;1930;1930;1930;3;8;0;3;0;5;0;BETA;1930;2100;3100;x;;;;;;;;;;;;
Brain-Class998;9040998;U41;1930;1930;1930;1930;3;8;0;3;0;5;0;BETA;1930;2100;3100;x;;;;;;;;;;;;
Brain-Class999;9040999;U41;1930;1930;1930;1930;3;8;0;3;0;5;0;BETA;1930;2100;3100;x;;;;;;;;;;;;
Brain-Class1000;9041000;U41;1930;1930;1930;1930;3;8;0;3;0;5;0;BETA;1930;2100;3100;x;;;;;;;;;;;;
