Name;ID;Country;Rank;3;Year;Rank;2;Year;Rank;1;Year;Rank;0;Year;Ideal;Rank;;Max;Skill;Traits;Skill;Experience;Loyalty;Type;Picture;Start;Year;End;Year;x
Brain-Class001;9048001;U49;1930;1930;1930;1930;3;8;0;3;0;5;0;BETA;1930;2100;3100;x;;;;;;;;;;;;
Brain-Class002;9048002;U49;1930;1930;1930;1930;3;8;0;3;0;5;0;BETA;1930;2100;3100;x;;;;;;;;;;;;
Brain-Class003;9048003;U49;1930;1930;1930;1930;3;8;0;3;0;5;0;BETA;1930;2100;3100;x;;;;;;;;;;;;
Brain-Class004;9048004;U49;1930;1930;1930;1930;3;8;0;3;0;5;0;BETA;1930;2100;3100;x;;;;;;;;;;;;
Brain-Class005;9048005;U49;1930;1930;1930;1930;3;8;0;3;0;5;0;BETA;1930;2100;3100;x;;;;;;;;;;;;
Brain-Class006;9048006;U49;1930;1930;1930;1930;3;8;0;3;0;5;0;BETA;1930;2100;3100;x;;;;;;;;;;;;
Brain-Class007;9048007;U49;1930;1930;1930;1930;3;8;0;3;0;5;0;BETA;1930;2100;3100;x;;;;;;;;;;;;
Brain-Class008;9048008;U49;1930;1930;1930;1930;3;8;0;3;0;5;0;BETA;1930;2100;3100;x;;;;;;;;;;;;
Brain-Class009;9048009;U49;1930;1930;1930;1930;3;8;0;3;0;5;0;BETA;1930;2100;3100;x;;;;;;;;;;;;
Brain-Class010;9048010;U49;1930;1930;1930;1930;3;8;0;3;0;5;0;BETA;1930;2100;3100;x;;;;;;;;;;;;
Brain-Class011;9048011;U49;1930;1930;1930;1930;3;8;0;3;0;5;0;BETA;1930;2100;3100;x;;;;;;;;;;;;
Brain-Class012;9048012;U49;1930;1930;1930;1930;3;8;0;3;0;5;0;BETA;1930;2100;3100;x;;;;;;;;;;;;
Brain-Class013;9048013;U49;1930;1930;1930;1930;3;8;0;3;0;5;0;BETA;1930;2100;3100;x;;;;;;;;;;;;
Brain-Class014;9048014;U49;1930;1930;1930;1930;3;8;0;3;0;5;0;BETA;1930;2100;3100;x;;;;;;;;;;;;
Brain-Class015;9048015;U49;1930;1930;1930;1930;3;8;0;3;0;5;0;BETA;1930;2100;3100;x;;;;;;;;;;;;
Brain-Class016;9048016;U49;1930;1930;1930;1930;3;8;0;3;0;5;0;BETA;1930;2100;3100;x;;;;;;;;;;;;
Brain-Class017;9048017;U49;1930;1930;1930;1930;3;8;0;3;0;5;0;BETA;1930;2100;3100;x;;;;;;;;;;;;
Brain-Class018;9048018;U49;1930;1930;1930;1930;3;8;0;3;0;5;0;BETA;1930;2100;3100;x;;;;;;;;;;;;
Brain-Class019;9048019;U49;1930;1930;1930;1930;3;8;0;3;0;5;0;BETA;1930;2100;3100;x;;;;;;;;;;;;
Brain-Class020;9048020;U49;1930;1930;1930;1930;3;8;0;3;0;5;0;BETA;1930;2100;3100;x;;;;;;;;;;;;
Brain-Class021;9048021;U49;1930;1930;1930;1930;3;8;0;3;0;5;0;BETA;1930;2100;3100;x;;;;;;;;;;;;
Brain-Class022;9048022;U49;1930;1930;1930;1930;3;8;0;3;0;5;0;BETA;1930;2100;3100;x;;;;;;;;;;;;
Brain-Class023;9048023;U49;1930;1930;1930;1930;3;8;0;3;0;5;0;BETA;1930;2100;3100;x;;;;;;;;;;;;
Brain-Class024;9048024;U49;1930;1930;1930;1930;3;8;0;3;0;5;0;BETA;1930;2100;3100;x;;;;;;;;;;;;
Brain-Class025;9048025;U49;1930;1930;1930;1930;3;8;0;3;0;5;0;BETA;1930;2100;3100;x;;;;;;;;;;;;
Brain-Class026;9048026;U49;1930;1930;1930;1930;3;8;0;3;0;5;0;BETA;1930;2100;3100;x;;;;;;;;;;;;
Brain-Class027;9048027;U49;1930;1930;1930;1930;3;8;0;3;0;5;0;BETA;1930;2100;3100;x;;;;;;;;;;;;
Brain-Class028;9048028;U49;1930;1930;1930;1930;3;8;0;3;0;5;0;BETA;1930;2100;3100;x;;;;;;;;;;;;
Brain-Class029;9048029;U49;1930;1930;1930;1930;3;8;0;3;0;5;0;BETA;1930;2100;3100;x;;;;;;;;;;;;
Brain-Class030;9048030;U49;1930;1930;1930;1930;3;8;0;3;0;5;0;BETA;1930;2100;3100;x;;;;;;;;;;;;
Brain-Class031;9048031;U49;1930;1930;1930;1930;3;8;0;3;0;5;0;BETA;1930;2100;3100;x;;;;;;;;;;;;
Brain-Class032;9048032;U49;1930;1930;1930;1930;3;8;0;3;0;5;0;BETA;1930;2100;3100;x;;;;;;;;;;;;
Brain-Class033;9048033;U49;1930;1930;1930;1930;3;8;0;3;0;5;0;BETA;1930;2100;3100;x;;;;;;;;;;;;
Brain-Class034;9048034;U49;1930;1930;1930;1930;3;8;0;3;0;5;0;BETA;1930;2100;3100;x;;;;;;;;;;;;
Brain-Class035;9048035;U49;1930;1930;1930;1930;3;8;0;3;0;5;0;BETA;1930;2100;3100;x;;;;;;;;;;;;
Brain-Class036;9048036;U49;1930;1930;1930;1930;3;8;0;3;0;5;0;BETA;1930;2100;3100;x;;;;;;;;;;;;
Brain-Class037;9048037;U49;1930;1930;1930;1930;3;8;0;3;0;5;0;BETA;1930;2100;3100;x;;;;;;;;;;;;
Brain-Class038;9048038;U49;1930;1930;1930;1930;3;8;0;3;0;5;0;BETA;1930;2100;3100;x;;;;;;;;;;;;
Brain-Class039;9048039;U49;1930;1930;1930;1930;3;8;0;3;0;5;0;BETA;1930;2100;3100;x;;;;;;;;;;;;
Brain-Class040;9048040;U49;1930;1930;1930;1930;3;8;0;3;0;5;0;BETA;1930;2100;3100;x;;;;;;;;;;;;
Brain-Class041;9048041;U49;1930;1930;1930;1930;3;8;0;3;0;5;0;BETA;1930;2100;3100;x;;;;;;;;;;;;
Brain-Class042;9048042;U49;1930;1930;1930;1930;3;8;0;3;0;5;0;BETA;1930;2100;3100;x;;;;;;;;;;;;
Brain-Class043;9048043;U49;1930;1930;1930;1930;3;8;0;3;0;5;0;BETA;1930;2100;3100;x;;;;;;;;;;;;
Brain-Class044;9048044;U49;1930;1930;1930;1930;3;8;0;3;0;5;0;BETA;1930;2100;3100;x;;;;;;;;;;;;
Brain-Class045;9048045;U49;1930;1930;1930;1930;3;8;0;3;0;5;0;BETA;1930;2100;3100;x;;;;;;;;;;;;
Brain-Class046;9048046;U49;1930;1930;1930;1930;3;8;0;3;0;5;0;BETA;1930;2100;3100;x;;;;;;;;;;;;
Brain-Class047;9048047;U49;1930;1930;1930;1930;3;8;0;3;0;5;0;BETA;1930;2100;3100;x;;;;;;;;;;;;
Brain-Class048;9048048;U49;1930;1930;1930;1930;3;8;0;3;0;5;0;BETA;1930;2100;3100;x;;;;;;;;;;;;
Brain-Class049;9048049;U49;1930;1930;1930;1930;3;8;0;3;0;5;0;BETA;1930;2100;3100;x;;;;;;;;;;;;
Brain-Class050;9048050;U49;1930;1930;1930;1930;3;8;0;3;0;5;0;BETA;1930;2100;3100;x;;;;;;;;;;;;
Brain-Class051;9048051;U49;1930;1930;1930;1930;3;8;0;3;0;5;0;BETA;1930;2100;3100;x;;;;;;;;;;;;
Brain-Class052;9048052;U49;1930;1930;1930;1930;3;8;0;3;0;5;0;BETA;1930;2100;3100;x;;;;;;;;;;;;
Brain-Class053;9048053;U49;1930;1930;1930;1930;3;8;0;3;0;5;0;BETA;1930;2100;3100;x;;;;;;;;;;;;
Brain-Class054;9048054;U49;1930;1930;1930;1930;3;8;0;3;0;5;0;BETA;1930;2100;3100;x;;;;;;;;;;;;
Brain-Class055;9048055;U49;1930;1930;1930;1930;3;8;0;3;0;5;0;BETA;1930;2100;3100;x;;;;;;;;;;;;
Brain-Class056;9048056;U49;1930;1930;1930;1930;3;8;0;3;0;5;0;BETA;1930;2100;3100;x;;;;;;;;;;;;
Brain-Class057;9048057;U49;1930;1930;1930;1930;3;8;0;3;0;5;0;BETA;1930;2100;3100;x;;;;;;;;;;;;
Brain-Class058;9048058;U49;1930;1930;1930;1930;3;8;0;3;0;5;0;BETA;1930;2100;3100;x;;;;;;;;;;;;
Brain-Class059;9048059;U49;1930;1930;1930;1930;3;8;0;3;0;5;0;BETA;1930;2100;3100;x;;;;;;;;;;;;
Brain-Class060;9048060;U49;1930;1930;1930;1930;3;8;0;3;0;5;0;BETA;1930;2100;3100;x;;;;;;;;;;;;
Brain-Class061;9048061;U49;1930;1930;1930;1930;3;8;0;3;0;5;0;BETA;1930;2100;3100;x;;;;;;;;;;;;
Brain-Class062;9048062;U49;1930;1930;1930;1930;3;8;0;3;0;5;0;BETA;1930;2100;3100;x;;;;;;;;;;;;
Brain-Class063;9048063;U49;1930;1930;1930;1930;3;8;0;3;0;5;0;BETA;1930;2100;3100;x;;;;;;;;;;;;
Brain-Class064;9048064;U49;1930;1930;1930;1930;3;8;0;3;0;5;0;BETA;1930;2100;3100;x;;;;;;;;;;;;
Brain-Class065;9048065;U49;1930;1930;1930;1930;3;8;0;3;0;5;0;BETA;1930;2100;3100;x;;;;;;;;;;;;
Brain-Class066;9048066;U49;1930;1930;1930;1930;3;8;0;3;0;5;0;BETA;1930;2100;3100;x;;;;;;;;;;;;
Brain-Class067;9048067;U49;1930;1930;1930;1930;3;8;0;3;0;5;0;BETA;1930;2100;3100;x;;;;;;;;;;;;
Brain-Class068;9048068;U49;1930;1930;1930;1930;3;8;0;3;0;5;0;BETA;1930;2100;3100;x;;;;;;;;;;;;
Brain-Class069;9048069;U49;1930;1930;1930;1930;3;8;0;3;0;5;0;BETA;1930;2100;3100;x;;;;;;;;;;;;
Brain-Class070;9048070;U49;1930;1930;1930;1930;3;8;0;3;0;5;0;BETA;1930;2100;3100;x;;;;;;;;;;;;
Brain-Class071;9048071;U49;1930;1930;1930;1930;3;8;0;3;0;5;0;BETA;1930;2100;3100;x;;;;;;;;;;;;
Brain-Class072;9048072;U49;1930;1930;1930;1930;3;8;0;3;0;5;0;BETA;1930;2100;3100;x;;;;;;;;;;;;
Brain-Class073;9048073;U49;1930;1930;1930;1930;3;8;0;3;0;5;0;BETA;1930;2100;3100;x;;;;;;;;;;;;
Brain-Class074;9048074;U49;1930;1930;1930;1930;3;8;0;3;0;5;0;BETA;1930;2100;3100;x;;;;;;;;;;;;
Brain-Class075;9048075;U49;1930;1930;1930;1930;3;8;0;3;0;5;0;BETA;1930;2100;3100;x;;;;;;;;;;;;
Brain-Class076;9048076;U49;1930;1930;1930;1930;3;8;0;3;0;5;0;BETA;1930;2100;3100;x;;;;;;;;;;;;
Brain-Class077;9048077;U49;1930;1930;1930;1930;3;8;0;3;0;5;0;BETA;1930;2100;3100;x;;;;;;;;;;;;
Brain-Class078;9048078;U49;1930;1930;1930;1930;3;8;0;3;0;5;0;BETA;1930;2100;3100;x;;;;;;;;;;;;
Brain-Class079;9048079;U49;1930;1930;1930;1930;3;8;0;3;0;5;0;BETA;1930;2100;3100;x;;;;;;;;;;;;
Brain-Class080;9048080;U49;1930;1930;1930;1930;3;8;0;3;0;5;0;BETA;1930;2100;3100;x;;;;;;;;;;;;
Brain-Class081;9048081;U49;1930;1930;1930;1930;3;8;0;3;0;5;0;BETA;1930;2100;3100;x;;;;;;;;;;;;
Brain-Class082;9048082;U49;1930;1930;1930;1930;3;8;0;3;0;5;0;BETA;1930;2100;3100;x;;;;;;;;;;;;
Brain-Class083;9048083;U49;1930;1930;1930;1930;3;8;0;3;0;5;0;BETA;1930;2100;3100;x;;;;;;;;;;;;
Brain-Class084;9048084;U49;1930;1930;1930;1930;3;8;0;3;0;5;0;BETA;1930;2100;3100;x;;;;;;;;;;;;
Brain-Class085;9048085;U49;1930;1930;1930;1930;3;8;0;3;0;5;0;BETA;1930;2100;3100;x;;;;;;;;;;;;
Brain-Class086;9048086;U49;1930;1930;1930;1930;3;8;0;3;0;5;0;BETA;1930;2100;3100;x;;;;;;;;;;;;
Brain-Class087;9048087;U49;1930;1930;1930;1930;3;8;0;3;0;5;0;BETA;1930;2100;3100;x;;;;;;;;;;;;
Brain-Class088;9048088;U49;1930;1930;1930;1930;3;8;0;3;0;5;0;BETA;1930;2100;3100;x;;;;;;;;;;;;
Brain-Class089;9048089;U49;1930;1930;1930;1930;3;8;0;3;0;5;0;BETA;1930;2100;3100;x;;;;;;;;;;;;
Brain-Class090;9048090;U49;1930;1930;1930;1930;3;8;0;3;0;5;0;BETA;1930;2100;3100;x;;;;;;;;;;;;
Brain-Class091;9048091;U49;1930;1930;1930;1930;3;8;0;3;0;5;0;BETA;1930;2100;3100;x;;;;;;;;;;;;
Brain-Class092;9048092;U49;1930;1930;1930;1930;3;8;0;3;0;5;0;BETA;1930;2100;3100;x;;;;;;;;;;;;
Brain-Class093;9048093;U49;1930;1930;1930;1930;3;8;0;3;0;5;0;BETA;1930;2100;3100;x;;;;;;;;;;;;
Brain-Class094;9048094;U49;1930;1930;1930;1930;3;8;0;3;0;5;0;BETA;1930;2100;3100;x;;;;;;;;;;;;
Brain-Class095;9048095;U49;1930;1930;1930;1930;3;8;0;3;0;5;0;BETA;1930;2100;3100;x;;;;;;;;;;;;
Brain-Class096;9048096;U49;1930;1930;1930;1930;3;8;0;3;0;5;0;BETA;1930;2100;3100;x;;;;;;;;;;;;
Brain-Class097;9048097;U49;1930;1930;1930;1930;3;8;0;3;0;5;0;BETA;1930;2100;3100;x;;;;;;;;;;;;
Brain-Class098;9048098;U49;1930;1930;1930;1930;3;8;0;3;0;5;0;BETA;1930;2100;3100;x;;;;;;;;;;;;
Brain-Class099;9048099;U49;1930;1930;1930;1930;3;8;0;3;0;5;0;BETA;1930;2100;3100;x;;;;;;;;;;;;
Brain-Class100;9048100;U49;1930;1930;1930;1930;3;8;0;3;0;5;0;BETA;1930;2100;3100;x;;;;;;;;;;;;
Brain-Class101;9048101;U49;1930;1930;1930;1930;3;8;0;3;0;5;0;BETA;1930;2100;3100;x;;;;;;;;;;;;
Brain-Class102;9048102;U49;1930;1930;1930;1930;3;8;0;3;0;5;0;BETA;1930;2100;3100;x;;;;;;;;;;;;
Brain-Class103;9048103;U49;1930;1930;1930;1930;3;8;0;3;0;5;0;BETA;1930;2100;3100;x;;;;;;;;;;;;
Brain-Class104;9048104;U49;1930;1930;1930;1930;3;8;0;3;0;5;0;BETA;1930;2100;3100;x;;;;;;;;;;;;
Brain-Class105;9048105;U49;1930;1930;1930;1930;3;8;0;3;0;5;0;BETA;1930;2100;3100;x;;;;;;;;;;;;
Brain-Class106;9048106;U49;1930;1930;1930;1930;3;8;0;3;0;5;0;BETA;1930;2100;3100;x;;;;;;;;;;;;
Brain-Class107;9048107;U49;1930;1930;1930;1930;3;8;0;3;0;5;0;BETA;1930;2100;3100;x;;;;;;;;;;;;
Brain-Class108;9048108;U49;1930;1930;1930;1930;3;8;0;3;0;5;0;BETA;1930;2100;3100;x;;;;;;;;;;;;
Brain-Class109;9048109;U49;1930;1930;1930;1930;3;8;0;3;0;5;0;BETA;1930;2100;3100;x;;;;;;;;;;;;
Brain-Class110;9048110;U49;1930;1930;1930;1930;3;8;0;3;0;5;0;BETA;1930;2100;3100;x;;;;;;;;;;;;
Brain-Class111;9048111;U49;1930;1930;1930;1930;3;8;0;3;0;5;0;BETA;1930;2100;3100;x;;;;;;;;;;;;
Brain-Class112;9048112;U49;1930;1930;1930;1930;3;8;0;3;0;5;0;BETA;1930;2100;3100;x;;;;;;;;;;;;
Brain-Class113;9048113;U49;1930;1930;1930;1930;3;8;0;3;0;5;0;BETA;1930;2100;3100;x;;;;;;;;;;;;
Brain-Class114;9048114;U49;1930;1930;1930;1930;3;8;0;3;0;5;0;BETA;1930;2100;3100;x;;;;;;;;;;;;
Brain-Class115;9048115;U49;1930;1930;1930;1930;3;8;0;3;0;5;0;BETA;1930;2100;3100;x;;;;;;;;;;;;
Brain-Class116;9048116;U49;1930;1930;1930;1930;3;8;0;3;0;5;0;BETA;1930;2100;3100;x;;;;;;;;;;;;
Brain-Class117;9048117;U49;1930;1930;1930;1930;3;8;0;3;0;5;0;BETA;1930;2100;3100;x;;;;;;;;;;;;
Brain-Class118;9048118;U49;1930;1930;1930;1930;3;8;0;3;0;5;0;BETA;1930;2100;3100;x;;;;;;;;;;;;
Brain-Class119;9048119;U49;1930;1930;1930;1930;3;8;0;3;0;5;0;BETA;1930;2100;3100;x;;;;;;;;;;;;
Brain-Class120;9048120;U49;1930;1930;1930;1930;3;8;0;3;0;5;0;BETA;1930;2100;3100;x;;;;;;;;;;;;
Brain-Class121;9048121;U49;1930;1930;1930;1930;3;8;0;3;0;5;0;BETA;1930;2100;3100;x;;;;;;;;;;;;
Brain-Class122;9048122;U49;1930;1930;1930;1930;3;8;0;3;0;5;0;BETA;1930;2100;3100;x;;;;;;;;;;;;
Brain-Class123;9048123;U49;1930;1930;1930;1930;3;8;0;3;0;5;0;BETA;1930;2100;3100;x;;;;;;;;;;;;
Brain-Class124;9048124;U49;1930;1930;1930;1930;3;8;0;3;0;5;0;BETA;1930;2100;3100;x;;;;;;;;;;;;
Brain-Class125;9048125;U49;1930;1930;1930;1930;3;8;0;3;0;5;0;BETA;1930;2100;3100;x;;;;;;;;;;;;
Brain-Class126;9048126;U49;1930;1930;1930;1930;3;8;0;3;0;5;0;BETA;1930;2100;3100;x;;;;;;;;;;;;
Brain-Class127;9048127;U49;1930;1930;1930;1930;3;8;0;3;0;5;0;BETA;1930;2100;3100;x;;;;;;;;;;;;
Brain-Class128;9048128;U49;1930;1930;1930;1930;3;8;0;3;0;5;0;BETA;1930;2100;3100;x;;;;;;;;;;;;
Brain-Class129;9048129;U49;1930;1930;1930;1930;3;8;0;3;0;5;0;BETA;1930;2100;3100;x;;;;;;;;;;;;
Brain-Class130;9048130;U49;1930;1930;1930;1930;3;8;0;3;0;5;0;BETA;1930;2100;3100;x;;;;;;;;;;;;
Brain-Class131;9048131;U49;1930;1930;1930;1930;3;8;0;3;0;5;0;BETA;1930;2100;3100;x;;;;;;;;;;;;
Brain-Class132;9048132;U49;1930;1930;1930;1930;3;8;0;3;0;5;0;BETA;1930;2100;3100;x;;;;;;;;;;;;
Brain-Class133;9048133;U49;1930;1930;1930;1930;3;8;0;3;0;5;0;BETA;1930;2100;3100;x;;;;;;;;;;;;
Brain-Class134;9048134;U49;1930;1930;1930;1930;3;8;0;3;0;5;0;BETA;1930;2100;3100;x;;;;;;;;;;;;
Brain-Class135;9048135;U49;1930;1930;1930;1930;3;8;0;3;0;5;0;BETA;1930;2100;3100;x;;;;;;;;;;;;
Brain-Class136;9048136;U49;1930;1930;1930;1930;3;8;0;3;0;5;0;BETA;1930;2100;3100;x;;;;;;;;;;;;
Brain-Class137;9048137;U49;1930;1930;1930;1930;3;8;0;3;0;5;0;BETA;1930;2100;3100;x;;;;;;;;;;;;
Brain-Class138;9048138;U49;1930;1930;1930;1930;3;8;0;3;0;5;0;BETA;1930;2100;3100;x;;;;;;;;;;;;
Brain-Class139;9048139;U49;1930;1930;1930;1930;3;8;0;3;0;5;0;BETA;1930;2100;3100;x;;;;;;;;;;;;
Brain-Class140;9048140;U49;1930;1930;1930;1930;3;8;0;3;0;5;0;BETA;1930;2100;3100;x;;;;;;;;;;;;
Brain-Class141;9048141;U49;1930;1930;1930;1930;3;8;0;3;0;5;0;BETA;1930;2100;3100;x;;;;;;;;;;;;
Brain-Class142;9048142;U49;1930;1930;1930;1930;3;8;0;3;0;5;0;BETA;1930;2100;3100;x;;;;;;;;;;;;
Brain-Class143;9048143;U49;1930;1930;1930;1930;3;8;0;3;0;5;0;BETA;1930;2100;3100;x;;;;;;;;;;;;
Brain-Class144;9048144;U49;1930;1930;1930;1930;3;8;0;3;0;5;0;BETA;1930;2100;3100;x;;;;;;;;;;;;
Brain-Class145;9048145;U49;1930;1930;1930;1930;3;8;0;3;0;5;0;BETA;1930;2100;3100;x;;;;;;;;;;;;
Brain-Class146;9048146;U49;1930;1930;1930;1930;3;8;0;3;0;5;0;BETA;1930;2100;3100;x;;;;;;;;;;;;
Brain-Class147;9048147;U49;1930;1930;1930;1930;3;8;0;3;0;5;0;BETA;1930;2100;3100;x;;;;;;;;;;;;
Brain-Class148;9048148;U49;1930;1930;1930;1930;3;8;0;3;0;5;0;BETA;1930;2100;3100;x;;;;;;;;;;;;
Brain-Class149;9048149;U49;1930;1930;1930;1930;3;8;0;3;0;5;0;BETA;1930;2100;3100;x;;;;;;;;;;;;
Brain-Class150;9048150;U49;1930;1930;1930;1930;3;8;0;3;0;5;0;BETA;1930;2100;3100;x;;;;;;;;;;;;
Brain-Class151;9048151;U49;1930;1930;1930;1930;3;8;0;3;0;5;0;BETA;1930;2100;3100;x;;;;;;;;;;;;
Brain-Class152;9048152;U49;1930;1930;1930;1930;3;8;0;3;0;5;0;BETA;1930;2100;3100;x;;;;;;;;;;;;
Brain-Class153;9048153;U49;1930;1930;1930;1930;3;8;0;3;0;5;0;BETA;1930;2100;3100;x;;;;;;;;;;;;
Brain-Class154;9048154;U49;1930;1930;1930;1930;3;8;0;3;0;5;0;BETA;1930;2100;3100;x;;;;;;;;;;;;
Brain-Class155;9048155;U49;1930;1930;1930;1930;3;8;0;3;0;5;0;BETA;1930;2100;3100;x;;;;;;;;;;;;
Brain-Class156;9048156;U49;1930;1930;1930;1930;3;8;0;3;0;5;0;BETA;1930;2100;3100;x;;;;;;;;;;;;
Brain-Class157;9048157;U49;1930;1930;1930;1930;3;8;0;3;0;5;0;BETA;1930;2100;3100;x;;;;;;;;;;;;
Brain-Class158;9048158;U49;1930;1930;1930;1930;3;8;0;3;0;5;0;BETA;1930;2100;3100;x;;;;;;;;;;;;
Brain-Class159;9048159;U49;1930;1930;1930;1930;3;8;0;3;0;5;0;BETA;1930;2100;3100;x;;;;;;;;;;;;
Brain-Class160;9048160;U49;1930;1930;1930;1930;3;8;0;3;0;5;0;BETA;1930;2100;3100;x;;;;;;;;;;;;
Brain-Class161;9048161;U49;1930;1930;1930;1930;3;8;0;3;0;5;0;BETA;1930;2100;3100;x;;;;;;;;;;;;
Brain-Class162;9048162;U49;1930;1930;1930;1930;3;8;0;3;0;5;0;BETA;1930;2100;3100;x;;;;;;;;;;;;
Brain-Class163;9048163;U49;1930;1930;1930;1930;3;8;0;3;0;5;0;BETA;1930;2100;3100;x;;;;;;;;;;;;
Brain-Class164;9048164;U49;1930;1930;1930;1930;3;8;0;3;0;5;0;BETA;1930;2100;3100;x;;;;;;;;;;;;
Brain-Class165;9048165;U49;1930;1930;1930;1930;3;8;0;3;0;5;0;BETA;1930;2100;3100;x;;;;;;;;;;;;
Brain-Class166;9048166;U49;1930;1930;1930;1930;3;8;0;3;0;5;0;BETA;1930;2100;3100;x;;;;;;;;;;;;
Brain-Class167;9048167;U49;1930;1930;1930;1930;3;8;0;3;0;5;0;BETA;1930;2100;3100;x;;;;;;;;;;;;
Brain-Class168;9048168;U49;1930;1930;1930;1930;3;8;0;3;0;5;0;BETA;1930;2100;3100;x;;;;;;;;;;;;
Brain-Class169;9048169;U49;1930;1930;1930;1930;3;8;0;3;0;5;0;BETA;1930;2100;3100;x;;;;;;;;;;;;
Brain-Class170;9048170;U49;1930;1930;1930;1930;3;8;0;3;0;5;0;BETA;1930;2100;3100;x;;;;;;;;;;;;
Brain-Class171;9048171;U49;1930;1930;1930;1930;3;8;0;3;0;5;0;BETA;1930;2100;3100;x;;;;;;;;;;;;
Brain-Class172;9048172;U49;1930;1930;1930;1930;3;8;0;3;0;5;0;BETA;1930;2100;3100;x;;;;;;;;;;;;
Brain-Class173;9048173;U49;1930;1930;1930;1930;3;8;0;3;0;5;0;BETA;1930;2100;3100;x;;;;;;;;;;;;
Brain-Class174;9048174;U49;1930;1930;1930;1930;3;8;0;3;0;5;0;BETA;1930;2100;3100;x;;;;;;;;;;;;
Brain-Class175;9048175;U49;1930;1930;1930;1930;3;8;0;3;0;5;0;BETA;1930;2100;3100;x;;;;;;;;;;;;
Brain-Class176;9048176;U49;1930;1930;1930;1930;3;8;0;3;0;5;0;BETA;1930;2100;3100;x;;;;;;;;;;;;
Brain-Class177;9048177;U49;1930;1930;1930;1930;3;8;0;3;0;5;0;BETA;1930;2100;3100;x;;;;;;;;;;;;
Brain-Class178;9048178;U49;1930;1930;1930;1930;3;8;0;3;0;5;0;BETA;1930;2100;3100;x;;;;;;;;;;;;
Brain-Class179;9048179;U49;1930;1930;1930;1930;3;8;0;3;0;5;0;BETA;1930;2100;3100;x;;;;;;;;;;;;
Brain-Class180;9048180;U49;1930;1930;1930;1930;3;8;0;3;0;5;0;BETA;1930;2100;3100;x;;;;;;;;;;;;
Brain-Class181;9048181;U49;1930;1930;1930;1930;3;8;0;3;0;5;0;BETA;1930;2100;3100;x;;;;;;;;;;;;
Brain-Class182;9048182;U49;1930;1930;1930;1930;3;8;0;3;0;5;0;BETA;1930;2100;3100;x;;;;;;;;;;;;
Brain-Class183;9048183;U49;1930;1930;1930;1930;3;8;0;3;0;5;0;BETA;1930;2100;3100;x;;;;;;;;;;;;
Brain-Class184;9048184;U49;1930;1930;1930;1930;3;8;0;3;0;5;0;BETA;1930;2100;3100;x;;;;;;;;;;;;
Brain-Class185;9048185;U49;1930;1930;1930;1930;3;8;0;3;0;5;0;BETA;1930;2100;3100;x;;;;;;;;;;;;
Brain-Class186;9048186;U49;1930;1930;1930;1930;3;8;0;3;0;5;0;BETA;1930;2100;3100;x;;;;;;;;;;;;
Brain-Class187;9048187;U49;1930;1930;1930;1930;3;8;0;3;0;5;0;BETA;1930;2100;3100;x;;;;;;;;;;;;
Brain-Class188;9048188;U49;1930;1930;1930;1930;3;8;0;3;0;5;0;BETA;1930;2100;3100;x;;;;;;;;;;;;
Brain-Class189;9048189;U49;1930;1930;1930;1930;3;8;0;3;0;5;0;BETA;1930;2100;3100;x;;;;;;;;;;;;
Brain-Class190;9048190;U49;1930;1930;1930;1930;3;8;0;3;0;5;0;BETA;1930;2100;3100;x;;;;;;;;;;;;
Brain-Class191;9048191;U49;1930;1930;1930;1930;3;8;0;3;0;5;0;BETA;1930;2100;3100;x;;;;;;;;;;;;
Brain-Class192;9048192;U49;1930;1930;1930;1930;3;8;0;3;0;5;0;BETA;1930;2100;3100;x;;;;;;;;;;;;
Brain-Class193;9048193;U49;1930;1930;1930;1930;3;8;0;3;0;5;0;BETA;1930;2100;3100;x;;;;;;;;;;;;
Brain-Class194;9048194;U49;1930;1930;1930;1930;3;8;0;3;0;5;0;BETA;1930;2100;3100;x;;;;;;;;;;;;
Brain-Class195;9048195;U49;1930;1930;1930;1930;3;8;0;3;0;5;0;BETA;1930;2100;3100;x;;;;;;;;;;;;
Brain-Class196;9048196;U49;1930;1930;1930;1930;3;8;0;3;0;5;0;BETA;1930;2100;3100;x;;;;;;;;;;;;
Brain-Class197;9048197;U49;1930;1930;1930;1930;3;8;0;3;0;5;0;BETA;1930;2100;3100;x;;;;;;;;;;;;
Brain-Class198;9048198;U49;1930;1930;1930;1930;3;8;0;3;0;5;0;BETA;1930;2100;3100;x;;;;;;;;;;;;
Brain-Class199;9048199;U49;1930;1930;1930;1930;3;8;0;3;0;5;0;BETA;1930;2100;3100;x;;;;;;;;;;;;
Brain-Class200;9048200;U49;1930;1930;1930;1930;3;8;0;3;0;5;0;BETA;1930;2100;3100;x;;;;;;;;;;;;
Brain-Class201;9048201;U49;1930;1930;1930;1930;3;8;0;3;0;5;0;BETA;1930;2100;3100;x;;;;;;;;;;;;
Brain-Class202;9048202;U49;1930;1930;1930;1930;3;8;0;3;0;5;0;BETA;1930;2100;3100;x;;;;;;;;;;;;
Brain-Class203;9048203;U49;1930;1930;1930;1930;3;8;0;3;0;5;0;BETA;1930;2100;3100;x;;;;;;;;;;;;
Brain-Class204;9048204;U49;1930;1930;1930;1930;3;8;0;3;0;5;0;BETA;1930;2100;3100;x;;;;;;;;;;;;
Brain-Class205;9048205;U49;1930;1930;1930;1930;3;8;0;3;0;5;0;BETA;1930;2100;3100;x;;;;;;;;;;;;
Brain-Class206;9048206;U49;1930;1930;1930;1930;3;8;0;3;0;5;0;BETA;1930;2100;3100;x;;;;;;;;;;;;
Brain-Class207;9048207;U49;1930;1930;1930;1930;3;8;0;3;0;5;0;BETA;1930;2100;3100;x;;;;;;;;;;;;
Brain-Class208;9048208;U49;1930;1930;1930;1930;3;8;0;3;0;5;0;BETA;1930;2100;3100;x;;;;;;;;;;;;
Brain-Class209;9048209;U49;1930;1930;1930;1930;3;8;0;3;0;5;0;BETA;1930;2100;3100;x;;;;;;;;;;;;
Brain-Class210;9048210;U49;1930;1930;1930;1930;3;8;0;3;0;5;0;BETA;1930;2100;3100;x;;;;;;;;;;;;
Brain-Class211;9048211;U49;1930;1930;1930;1930;3;8;0;3;0;5;0;BETA;1930;2100;3100;x;;;;;;;;;;;;
Brain-Class212;9048212;U49;1930;1930;1930;1930;3;8;0;3;0;5;0;BETA;1930;2100;3100;x;;;;;;;;;;;;
Brain-Class213;9048213;U49;1930;1930;1930;1930;3;8;0;3;0;5;0;BETA;1930;2100;3100;x;;;;;;;;;;;;
Brain-Class214;9048214;U49;1930;1930;1930;1930;3;8;0;3;0;5;0;BETA;1930;2100;3100;x;;;;;;;;;;;;
Brain-Class215;9048215;U49;1930;1930;1930;1930;3;8;0;3;0;5;0;BETA;1930;2100;3100;x;;;;;;;;;;;;
Brain-Class216;9048216;U49;1930;1930;1930;1930;3;8;0;3;0;5;0;BETA;1930;2100;3100;x;;;;;;;;;;;;
Brain-Class217;9048217;U49;1930;1930;1930;1930;3;8;0;3;0;5;0;BETA;1930;2100;3100;x;;;;;;;;;;;;
Brain-Class218;9048218;U49;1930;1930;1930;1930;3;8;0;3;0;5;0;BETA;1930;2100;3100;x;;;;;;;;;;;;
Brain-Class219;9048219;U49;1930;1930;1930;1930;3;8;0;3;0;5;0;BETA;1930;2100;3100;x;;;;;;;;;;;;
Brain-Class220;9048220;U49;1930;1930;1930;1930;3;8;0;3;0;5;0;BETA;1930;2100;3100;x;;;;;;;;;;;;
Brain-Class221;9048221;U49;1930;1930;1930;1930;3;8;0;3;0;5;0;BETA;1930;2100;3100;x;;;;;;;;;;;;
Brain-Class222;9048222;U49;1930;1930;1930;1930;3;8;0;3;0;5;0;BETA;1930;2100;3100;x;;;;;;;;;;;;
Brain-Class223;9048223;U49;1930;1930;1930;1930;3;8;0;3;0;5;0;BETA;1930;2100;3100;x;;;;;;;;;;;;
Brain-Class224;9048224;U49;1930;1930;1930;1930;3;8;0;3;0;5;0;BETA;1930;2100;3100;x;;;;;;;;;;;;
Brain-Class225;9048225;U49;1930;1930;1930;1930;3;8;0;3;0;5;0;BETA;1930;2100;3100;x;;;;;;;;;;;;
Brain-Class226;9048226;U49;1930;1930;1930;1930;3;8;0;3;0;5;0;BETA;1930;2100;3100;x;;;;;;;;;;;;
Brain-Class227;9048227;U49;1930;1930;1930;1930;3;8;0;3;0;5;0;BETA;1930;2100;3100;x;;;;;;;;;;;;
Brain-Class228;9048228;U49;1930;1930;1930;1930;3;8;0;3;0;5;0;BETA;1930;2100;3100;x;;;;;;;;;;;;
Brain-Class229;9048229;U49;1930;1930;1930;1930;3;8;0;3;0;5;0;BETA;1930;2100;3100;x;;;;;;;;;;;;
Brain-Class230;9048230;U49;1930;1930;1930;1930;3;8;0;3;0;5;0;BETA;1930;2100;3100;x;;;;;;;;;;;;
Brain-Class231;9048231;U49;1930;1930;1930;1930;3;8;0;3;0;5;0;BETA;1930;2100;3100;x;;;;;;;;;;;;
Brain-Class232;9048232;U49;1930;1930;1930;1930;3;8;0;3;0;5;0;BETA;1930;2100;3100;x;;;;;;;;;;;;
Brain-Class233;9048233;U49;1930;1930;1930;1930;3;8;0;3;0;5;0;BETA;1930;2100;3100;x;;;;;;;;;;;;
Brain-Class234;9048234;U49;1930;1930;1930;1930;3;8;0;3;0;5;0;BETA;1930;2100;3100;x;;;;;;;;;;;;
Brain-Class235;9048235;U49;1930;1930;1930;1930;3;8;0;3;0;5;0;BETA;1930;2100;3100;x;;;;;;;;;;;;
Brain-Class236;9048236;U49;1930;1930;1930;1930;3;8;0;3;0;5;0;BETA;1930;2100;3100;x;;;;;;;;;;;;
Brain-Class237;9048237;U49;1930;1930;1930;1930;3;8;0;3;0;5;0;BETA;1930;2100;3100;x;;;;;;;;;;;;
Brain-Class238;9048238;U49;1930;1930;1930;1930;3;8;0;3;0;5;0;BETA;1930;2100;3100;x;;;;;;;;;;;;
Brain-Class239;9048239;U49;1930;1930;1930;1930;3;8;0;3;0;5;0;BETA;1930;2100;3100;x;;;;;;;;;;;;
Brain-Class240;9048240;U49;1930;1930;1930;1930;3;8;0;3;0;5;0;BETA;1930;2100;3100;x;;;;;;;;;;;;
Brain-Class241;9048241;U49;1930;1930;1930;1930;3;8;0;3;0;5;0;BETA;1930;2100;3100;x;;;;;;;;;;;;
Brain-Class242;9048242;U49;1930;1930;1930;1930;3;8;0;3;0;5;0;BETA;1930;2100;3100;x;;;;;;;;;;;;
Brain-Class243;9048243;U49;1930;1930;1930;1930;3;8;0;3;0;5;0;BETA;1930;2100;3100;x;;;;;;;;;;;;
Brain-Class244;9048244;U49;1930;1930;1930;1930;3;8;0;3;0;5;0;BETA;1930;2100;3100;x;;;;;;;;;;;;
Brain-Class245;9048245;U49;1930;1930;1930;1930;3;8;0;3;0;5;0;BETA;1930;2100;3100;x;;;;;;;;;;;;
Brain-Class246;9048246;U49;1930;1930;1930;1930;3;8;0;3;0;5;0;BETA;1930;2100;3100;x;;;;;;;;;;;;
Brain-Class247;9048247;U49;1930;1930;1930;1930;3;8;0;3;0;5;0;BETA;1930;2100;3100;x;;;;;;;;;;;;
Brain-Class248;9048248;U49;1930;1930;1930;1930;3;8;0;3;0;5;0;BETA;1930;2100;3100;x;;;;;;;;;;;;
Brain-Class249;9048249;U49;1930;1930;1930;1930;3;8;0;3;0;5;0;BETA;1930;2100;3100;x;;;;;;;;;;;;
Brain-Class250;9048250;U49;1930;1930;1930;1930;3;8;0;3;0;5;0;BETA;1930;2100;3100;x;;;;;;;;;;;;
Brain-Class251;9048251;U49;1930;1930;1930;1930;3;8;0;3;0;5;0;BETA;1930;2100;3100;x;;;;;;;;;;;;
Brain-Class252;9048252;U49;1930;1930;1930;1930;3;8;0;3;0;5;0;BETA;1930;2100;3100;x;;;;;;;;;;;;
Brain-Class253;9048253;U49;1930;1930;1930;1930;3;8;0;3;0;5;0;BETA;1930;2100;3100;x;;;;;;;;;;;;
Brain-Class254;9048254;U49;1930;1930;1930;1930;3;8;0;3;0;5;0;BETA;1930;2100;3100;x;;;;;;;;;;;;
Brain-Class255;9048255;U49;1930;1930;1930;1930;3;8;0;3;0;5;0;BETA;1930;2100;3100;x;;;;;;;;;;;;
Brain-Class256;9048256;U49;1930;1930;1930;1930;3;8;0;3;0;5;0;BETA;1930;2100;3100;x;;;;;;;;;;;;
Brain-Class257;9048257;U49;1930;1930;1930;1930;3;8;0;3;0;5;0;BETA;1930;2100;3100;x;;;;;;;;;;;;
Brain-Class258;9048258;U49;1930;1930;1930;1930;3;8;0;3;0;5;0;BETA;1930;2100;3100;x;;;;;;;;;;;;
Brain-Class259;9048259;U49;1930;1930;1930;1930;3;8;0;3;0;5;0;BETA;1930;2100;3100;x;;;;;;;;;;;;
Brain-Class260;9048260;U49;1930;1930;1930;1930;3;8;0;3;0;5;0;BETA;1930;2100;3100;x;;;;;;;;;;;;
Brain-Class261;9048261;U49;1930;1930;1930;1930;3;8;0;3;0;5;0;BETA;1930;2100;3100;x;;;;;;;;;;;;
Brain-Class262;9048262;U49;1930;1930;1930;1930;3;8;0;3;0;5;0;BETA;1930;2100;3100;x;;;;;;;;;;;;
Brain-Class263;9048263;U49;1930;1930;1930;1930;3;8;0;3;0;5;0;BETA;1930;2100;3100;x;;;;;;;;;;;;
Brain-Class264;9048264;U49;1930;1930;1930;1930;3;8;0;3;0;5;0;BETA;1930;2100;3100;x;;;;;;;;;;;;
Brain-Class265;9048265;U49;1930;1930;1930;1930;3;8;0;3;0;5;0;BETA;1930;2100;3100;x;;;;;;;;;;;;
Brain-Class266;9048266;U49;1930;1930;1930;1930;3;8;0;3;0;5;0;BETA;1930;2100;3100;x;;;;;;;;;;;;
Brain-Class267;9048267;U49;1930;1930;1930;1930;3;8;0;3;0;5;0;BETA;1930;2100;3100;x;;;;;;;;;;;;
Brain-Class268;9048268;U49;1930;1930;1930;1930;3;8;0;3;0;5;0;BETA;1930;2100;3100;x;;;;;;;;;;;;
Brain-Class269;9048269;U49;1930;1930;1930;1930;3;8;0;3;0;5;0;BETA;1930;2100;3100;x;;;;;;;;;;;;
Brain-Class270;9048270;U49;1930;1930;1930;1930;3;8;0;3;0;5;0;BETA;1930;2100;3100;x;;;;;;;;;;;;
Brain-Class271;9048271;U49;1930;1930;1930;1930;3;8;0;3;0;5;0;BETA;1930;2100;3100;x;;;;;;;;;;;;
Brain-Class272;9048272;U49;1930;1930;1930;1930;3;8;0;3;0;5;0;BETA;1930;2100;3100;x;;;;;;;;;;;;
Brain-Class273;9048273;U49;1930;1930;1930;1930;3;8;0;3;0;5;0;BETA;1930;2100;3100;x;;;;;;;;;;;;
Brain-Class274;9048274;U49;1930;1930;1930;1930;3;8;0;3;0;5;0;BETA;1930;2100;3100;x;;;;;;;;;;;;
Brain-Class275;9048275;U49;1930;1930;1930;1930;3;8;0;3;0;5;0;BETA;1930;2100;3100;x;;;;;;;;;;;;
Brain-Class276;9048276;U49;1930;1930;1930;1930;3;8;0;3;0;5;0;BETA;1930;2100;3100;x;;;;;;;;;;;;
Brain-Class277;9048277;U49;1930;1930;1930;1930;3;8;0;3;0;5;0;BETA;1930;2100;3100;x;;;;;;;;;;;;
Brain-Class278;9048278;U49;1930;1930;1930;1930;3;8;0;3;0;5;0;BETA;1930;2100;3100;x;;;;;;;;;;;;
Brain-Class279;9048279;U49;1930;1930;1930;1930;3;8;0;3;0;5;0;BETA;1930;2100;3100;x;;;;;;;;;;;;
Brain-Class280;9048280;U49;1930;1930;1930;1930;3;8;0;3;0;5;0;BETA;1930;2100;3100;x;;;;;;;;;;;;
Brain-Class281;9048281;U49;1930;1930;1930;1930;3;8;0;3;0;5;0;BETA;1930;2100;3100;x;;;;;;;;;;;;
Brain-Class282;9048282;U49;1930;1930;1930;1930;3;8;0;3;0;5;0;BETA;1930;2100;3100;x;;;;;;;;;;;;
Brain-Class283;9048283;U49;1930;1930;1930;1930;3;8;0;3;0;5;0;BETA;1930;2100;3100;x;;;;;;;;;;;;
Brain-Class284;9048284;U49;1930;1930;1930;1930;3;8;0;3;0;5;0;BETA;1930;2100;3100;x;;;;;;;;;;;;
Brain-Class285;9048285;U49;1930;1930;1930;1930;3;8;0;3;0;5;0;BETA;1930;2100;3100;x;;;;;;;;;;;;
Brain-Class286;9048286;U49;1930;1930;1930;1930;3;8;0;3;0;5;0;BETA;1930;2100;3100;x;;;;;;;;;;;;
Brain-Class287;9048287;U49;1930;1930;1930;1930;3;8;0;3;0;5;0;BETA;1930;2100;3100;x;;;;;;;;;;;;
Brain-Class288;9048288;U49;1930;1930;1930;1930;3;8;0;3;0;5;0;BETA;1930;2100;3100;x;;;;;;;;;;;;
Brain-Class289;9048289;U49;1930;1930;1930;1930;3;8;0;3;0;5;0;BETA;1930;2100;3100;x;;;;;;;;;;;;
Brain-Class290;9048290;U49;1930;1930;1930;1930;3;8;0;3;0;5;0;BETA;1930;2100;3100;x;;;;;;;;;;;;
Brain-Class291;9048291;U49;1930;1930;1930;1930;3;8;0;3;0;5;0;BETA;1930;2100;3100;x;;;;;;;;;;;;
Brain-Class292;9048292;U49;1930;1930;1930;1930;3;8;0;3;0;5;0;BETA;1930;2100;3100;x;;;;;;;;;;;;
Brain-Class293;9048293;U49;1930;1930;1930;1930;3;8;0;3;0;5;0;BETA;1930;2100;3100;x;;;;;;;;;;;;
Brain-Class294;9048294;U49;1930;1930;1930;1930;3;8;0;3;0;5;0;BETA;1930;2100;3100;x;;;;;;;;;;;;
Brain-Class295;9048295;U49;1930;1930;1930;1930;3;8;0;3;0;5;0;BETA;1930;2100;3100;x;;;;;;;;;;;;
Brain-Class296;9048296;U49;1930;1930;1930;1930;3;8;0;3;0;5;0;BETA;1930;2100;3100;x;;;;;;;;;;;;
Brain-Class297;9048297;U49;1930;1930;1930;1930;3;8;0;3;0;5;0;BETA;1930;2100;3100;x;;;;;;;;;;;;
Brain-Class298;9048298;U49;1930;1930;1930;1930;3;8;0;3;0;5;0;BETA;1930;2100;3100;x;;;;;;;;;;;;
Brain-Class299;9048299;U49;1930;1930;1930;1930;3;8;0;3;0;5;0;BETA;1930;2100;3100;x;;;;;;;;;;;;
Brain-Class300;9048300;U49;1930;1930;1930;1930;3;8;0;3;0;5;0;BETA;1930;2100;3100;x;;;;;;;;;;;;
Brain-Class301;9048301;U49;1930;1930;1930;1930;3;8;0;3;0;5;0;BETA;1930;2100;3100;x;;;;;;;;;;;;
Brain-Class302;9048302;U49;1930;1930;1930;1930;3;8;0;3;0;5;0;BETA;1930;2100;3100;x;;;;;;;;;;;;
Brain-Class303;9048303;U49;1930;1930;1930;1930;3;8;0;3;0;5;0;BETA;1930;2100;3100;x;;;;;;;;;;;;
Brain-Class304;9048304;U49;1930;1930;1930;1930;3;8;0;3;0;5;0;BETA;1930;2100;3100;x;;;;;;;;;;;;
Brain-Class305;9048305;U49;1930;1930;1930;1930;3;8;0;3;0;5;0;BETA;1930;2100;3100;x;;;;;;;;;;;;
Brain-Class306;9048306;U49;1930;1930;1930;1930;3;8;0;3;0;5;0;BETA;1930;2100;3100;x;;;;;;;;;;;;
Brain-Class307;9048307;U49;1930;1930;1930;1930;3;8;0;3;0;5;0;BETA;1930;2100;3100;x;;;;;;;;;;;;
Brain-Class308;9048308;U49;1930;1930;1930;1930;3;8;0;3;0;5;0;BETA;1930;2100;3100;x;;;;;;;;;;;;
Brain-Class309;9048309;U49;1930;1930;1930;1930;3;8;0;3;0;5;0;BETA;1930;2100;3100;x;;;;;;;;;;;;
Brain-Class310;9048310;U49;1930;1930;1930;1930;3;8;0;3;0;5;0;BETA;1930;2100;3100;x;;;;;;;;;;;;
Brain-Class311;9048311;U49;1930;1930;1930;1930;3;8;0;3;0;5;0;BETA;1930;2100;3100;x;;;;;;;;;;;;
Brain-Class312;9048312;U49;1930;1930;1930;1930;3;8;0;3;0;5;0;BETA;1930;2100;3100;x;;;;;;;;;;;;
Brain-Class313;9048313;U49;1930;1930;1930;1930;3;8;0;3;0;5;0;BETA;1930;2100;3100;x;;;;;;;;;;;;
Brain-Class314;9048314;U49;1930;1930;1930;1930;3;8;0;3;0;5;0;BETA;1930;2100;3100;x;;;;;;;;;;;;
Brain-Class315;9048315;U49;1930;1930;1930;1930;3;8;0;3;0;5;0;BETA;1930;2100;3100;x;;;;;;;;;;;;
Brain-Class316;9048316;U49;1930;1930;1930;1930;3;8;0;3;0;5;0;BETA;1930;2100;3100;x;;;;;;;;;;;;
Brain-Class317;9048317;U49;1930;1930;1930;1930;3;8;0;3;0;5;0;BETA;1930;2100;3100;x;;;;;;;;;;;;
Brain-Class318;9048318;U49;1930;1930;1930;1930;3;8;0;3;0;5;0;BETA;1930;2100;3100;x;;;;;;;;;;;;
Brain-Class319;9048319;U49;1930;1930;1930;1930;3;8;0;3;0;5;0;BETA;1930;2100;3100;x;;;;;;;;;;;;
Brain-Class320;9048320;U49;1930;1930;1930;1930;3;8;0;3;0;5;0;BETA;1930;2100;3100;x;;;;;;;;;;;;
Brain-Class321;9048321;U49;1930;1930;1930;1930;3;8;0;3;0;5;0;BETA;1930;2100;3100;x;;;;;;;;;;;;
Brain-Class322;9048322;U49;1930;1930;1930;1930;3;8;0;3;0;5;0;BETA;1930;2100;3100;x;;;;;;;;;;;;
Brain-Class323;9048323;U49;1930;1930;1930;1930;3;8;0;3;0;5;0;BETA;1930;2100;3100;x;;;;;;;;;;;;
Brain-Class324;9048324;U49;1930;1930;1930;1930;3;8;0;3;0;5;0;BETA;1930;2100;3100;x;;;;;;;;;;;;
Brain-Class325;9048325;U49;1930;1930;1930;1930;3;8;0;3;0;5;0;BETA;1930;2100;3100;x;;;;;;;;;;;;
Brain-Class326;9048326;U49;1930;1930;1930;1930;3;8;0;3;0;5;0;BETA;1930;2100;3100;x;;;;;;;;;;;;
Brain-Class327;9048327;U49;1930;1930;1930;1930;3;8;0;3;0;5;0;BETA;1930;2100;3100;x;;;;;;;;;;;;
Brain-Class328;9048328;U49;1930;1930;1930;1930;3;8;0;3;0;5;0;BETA;1930;2100;3100;x;;;;;;;;;;;;
Brain-Class329;9048329;U49;1930;1930;1930;1930;3;8;0;3;0;5;0;BETA;1930;2100;3100;x;;;;;;;;;;;;
Brain-Class330;9048330;U49;1930;1930;1930;1930;3;8;0;3;0;5;0;BETA;1930;2100;3100;x;;;;;;;;;;;;
Brain-Class331;9048331;U49;1930;1930;1930;1930;3;8;0;3;0;5;0;BETA;1930;2100;3100;x;;;;;;;;;;;;
Brain-Class332;9048332;U49;1930;1930;1930;1930;3;8;0;3;0;5;0;BETA;1930;2100;3100;x;;;;;;;;;;;;
Brain-Class333;9048333;U49;1930;1930;1930;1930;3;8;0;3;0;5;0;BETA;1930;2100;3100;x;;;;;;;;;;;;
Brain-Class334;9048334;U49;1930;1930;1930;1930;3;8;0;3;0;5;0;BETA;1930;2100;3100;x;;;;;;;;;;;;
Brain-Class335;9048335;U49;1930;1930;1930;1930;3;8;0;3;0;5;0;BETA;1930;2100;3100;x;;;;;;;;;;;;
Brain-Class336;9048336;U49;1930;1930;1930;1930;3;8;0;3;0;5;0;BETA;1930;2100;3100;x;;;;;;;;;;;;
Brain-Class337;9048337;U49;1930;1930;1930;1930;3;8;0;3;0;5;0;BETA;1930;2100;3100;x;;;;;;;;;;;;
Brain-Class338;9048338;U49;1930;1930;1930;1930;3;8;0;3;0;5;0;BETA;1930;2100;3100;x;;;;;;;;;;;;
Brain-Class339;9048339;U49;1930;1930;1930;1930;3;8;0;3;0;5;0;BETA;1930;2100;3100;x;;;;;;;;;;;;
Brain-Class340;9048340;U49;1930;1930;1930;1930;3;8;0;3;0;5;0;BETA;1930;2100;3100;x;;;;;;;;;;;;
Brain-Class341;9048341;U49;1930;1930;1930;1930;3;8;0;3;0;5;0;BETA;1930;2100;3100;x;;;;;;;;;;;;
Brain-Class342;9048342;U49;1930;1930;1930;1930;3;8;0;3;0;5;0;BETA;1930;2100;3100;x;;;;;;;;;;;;
Brain-Class343;9048343;U49;1930;1930;1930;1930;3;8;0;3;0;5;0;BETA;1930;2100;3100;x;;;;;;;;;;;;
Brain-Class344;9048344;U49;1930;1930;1930;1930;3;8;0;3;0;5;0;BETA;1930;2100;3100;x;;;;;;;;;;;;
Brain-Class345;9048345;U49;1930;1930;1930;1930;3;8;0;3;0;5;0;BETA;1930;2100;3100;x;;;;;;;;;;;;
Brain-Class346;9048346;U49;1930;1930;1930;1930;3;8;0;3;0;5;0;BETA;1930;2100;3100;x;;;;;;;;;;;;
Brain-Class347;9048347;U49;1930;1930;1930;1930;3;8;0;3;0;5;0;BETA;1930;2100;3100;x;;;;;;;;;;;;
Brain-Class348;9048348;U49;1930;1930;1930;1930;3;8;0;3;0;5;0;BETA;1930;2100;3100;x;;;;;;;;;;;;
Brain-Class349;9048349;U49;1930;1930;1930;1930;3;8;0;3;0;5;0;BETA;1930;2100;3100;x;;;;;;;;;;;;
Brain-Class350;9048350;U49;1930;1930;1930;1930;3;8;0;3;0;5;0;BETA;1930;2100;3100;x;;;;;;;;;;;;
Brain-Class351;9048351;U49;1930;1930;1930;1930;3;8;0;3;0;5;0;BETA;1930;2100;3100;x;;;;;;;;;;;;
Brain-Class352;9048352;U49;1930;1930;1930;1930;3;8;0;3;0;5;0;BETA;1930;2100;3100;x;;;;;;;;;;;;
Brain-Class353;9048353;U49;1930;1930;1930;1930;3;8;0;3;0;5;0;BETA;1930;2100;3100;x;;;;;;;;;;;;
Brain-Class354;9048354;U49;1930;1930;1930;1930;3;8;0;3;0;5;0;BETA;1930;2100;3100;x;;;;;;;;;;;;
Brain-Class355;9048355;U49;1930;1930;1930;1930;3;8;0;3;0;5;0;BETA;1930;2100;3100;x;;;;;;;;;;;;
Brain-Class356;9048356;U49;1930;1930;1930;1930;3;8;0;3;0;5;0;BETA;1930;2100;3100;x;;;;;;;;;;;;
Brain-Class357;9048357;U49;1930;1930;1930;1930;3;8;0;3;0;5;0;BETA;1930;2100;3100;x;;;;;;;;;;;;
Brain-Class358;9048358;U49;1930;1930;1930;1930;3;8;0;3;0;5;0;BETA;1930;2100;3100;x;;;;;;;;;;;;
Brain-Class359;9048359;U49;1930;1930;1930;1930;3;8;0;3;0;5;0;BETA;1930;2100;3100;x;;;;;;;;;;;;
Brain-Class360;9048360;U49;1930;1930;1930;1930;3;8;0;3;0;5;0;BETA;1930;2100;3100;x;;;;;;;;;;;;
Brain-Class361;9048361;U49;1930;1930;1930;1930;3;8;0;3;0;5;0;BETA;1930;2100;3100;x;;;;;;;;;;;;
Brain-Class362;9048362;U49;1930;1930;1930;1930;3;8;0;3;0;5;0;BETA;1930;2100;3100;x;;;;;;;;;;;;
Brain-Class363;9048363;U49;1930;1930;1930;1930;3;8;0;3;0;5;0;BETA;1930;2100;3100;x;;;;;;;;;;;;
Brain-Class364;9048364;U49;1930;1930;1930;1930;3;8;0;3;0;5;0;BETA;1930;2100;3100;x;;;;;;;;;;;;
Brain-Class365;9048365;U49;1930;1930;1930;1930;3;8;0;3;0;5;0;BETA;1930;2100;3100;x;;;;;;;;;;;;
Brain-Class366;9048366;U49;1930;1930;1930;1930;3;8;0;3;0;5;0;BETA;1930;2100;3100;x;;;;;;;;;;;;
Brain-Class367;9048367;U49;1930;1930;1930;1930;3;8;0;3;0;5;0;BETA;1930;2100;3100;x;;;;;;;;;;;;
Brain-Class368;9048368;U49;1930;1930;1930;1930;3;8;0;3;0;5;0;BETA;1930;2100;3100;x;;;;;;;;;;;;
Brain-Class369;9048369;U49;1930;1930;1930;1930;3;8;0;3;0;5;0;BETA;1930;2100;3100;x;;;;;;;;;;;;
Brain-Class370;9048370;U49;1930;1930;1930;1930;3;8;0;3;0;5;0;BETA;1930;2100;3100;x;;;;;;;;;;;;
Brain-Class371;9048371;U49;1930;1930;1930;1930;3;8;0;3;0;5;0;BETA;1930;2100;3100;x;;;;;;;;;;;;
Brain-Class372;9048372;U49;1930;1930;1930;1930;3;8;0;3;0;5;0;BETA;1930;2100;3100;x;;;;;;;;;;;;
Brain-Class373;9048373;U49;1930;1930;1930;1930;3;8;0;3;0;5;0;BETA;1930;2100;3100;x;;;;;;;;;;;;
Brain-Class374;9048374;U49;1930;1930;1930;1930;3;8;0;3;0;5;0;BETA;1930;2100;3100;x;;;;;;;;;;;;
Brain-Class375;9048375;U49;1930;1930;1930;1930;3;8;0;3;0;5;0;BETA;1930;2100;3100;x;;;;;;;;;;;;
Brain-Class376;9048376;U49;1930;1930;1930;1930;3;8;0;3;0;5;0;BETA;1930;2100;3100;x;;;;;;;;;;;;
Brain-Class377;9048377;U49;1930;1930;1930;1930;3;8;0;3;0;5;0;BETA;1930;2100;3100;x;;;;;;;;;;;;
Brain-Class378;9048378;U49;1930;1930;1930;1930;3;8;0;3;0;5;0;BETA;1930;2100;3100;x;;;;;;;;;;;;
Brain-Class379;9048379;U49;1930;1930;1930;1930;3;8;0;3;0;5;0;BETA;1930;2100;3100;x;;;;;;;;;;;;
Brain-Class380;9048380;U49;1930;1930;1930;1930;3;8;0;3;0;5;0;BETA;1930;2100;3100;x;;;;;;;;;;;;
Brain-Class381;9048381;U49;1930;1930;1930;1930;3;8;0;3;0;5;0;BETA;1930;2100;3100;x;;;;;;;;;;;;
Brain-Class382;9048382;U49;1930;1930;1930;1930;3;8;0;3;0;5;0;BETA;1930;2100;3100;x;;;;;;;;;;;;
Brain-Class383;9048383;U49;1930;1930;1930;1930;3;8;0;3;0;5;0;BETA;1930;2100;3100;x;;;;;;;;;;;;
Brain-Class384;9048384;U49;1930;1930;1930;1930;3;8;0;3;0;5;0;BETA;1930;2100;3100;x;;;;;;;;;;;;
Brain-Class385;9048385;U49;1930;1930;1930;1930;3;8;0;3;0;5;0;BETA;1930;2100;3100;x;;;;;;;;;;;;
Brain-Class386;9048386;U49;1930;1930;1930;1930;3;8;0;3;0;5;0;BETA;1930;2100;3100;x;;;;;;;;;;;;
Brain-Class387;9048387;U49;1930;1930;1930;1930;3;8;0;3;0;5;0;BETA;1930;2100;3100;x;;;;;;;;;;;;
Brain-Class388;9048388;U49;1930;1930;1930;1930;3;8;0;3;0;5;0;BETA;1930;2100;3100;x;;;;;;;;;;;;
Brain-Class389;9048389;U49;1930;1930;1930;1930;3;8;0;3;0;5;0;BETA;1930;2100;3100;x;;;;;;;;;;;;
Brain-Class390;9048390;U49;1930;1930;1930;1930;3;8;0;3;0;5;0;BETA;1930;2100;3100;x;;;;;;;;;;;;
Brain-Class391;9048391;U49;1930;1930;1930;1930;3;8;0;3;0;5;0;BETA;1930;2100;3100;x;;;;;;;;;;;;
Brain-Class392;9048392;U49;1930;1930;1930;1930;3;8;0;3;0;5;0;BETA;1930;2100;3100;x;;;;;;;;;;;;
Brain-Class393;9048393;U49;1930;1930;1930;1930;3;8;0;3;0;5;0;BETA;1930;2100;3100;x;;;;;;;;;;;;
Brain-Class394;9048394;U49;1930;1930;1930;1930;3;8;0;3;0;5;0;BETA;1930;2100;3100;x;;;;;;;;;;;;
Brain-Class395;9048395;U49;1930;1930;1930;1930;3;8;0;3;0;5;0;BETA;1930;2100;3100;x;;;;;;;;;;;;
Brain-Class396;9048396;U49;1930;1930;1930;1930;3;8;0;3;0;5;0;BETA;1930;2100;3100;x;;;;;;;;;;;;
Brain-Class397;9048397;U49;1930;1930;1930;1930;3;8;0;3;0;5;0;BETA;1930;2100;3100;x;;;;;;;;;;;;
Brain-Class398;9048398;U49;1930;1930;1930;1930;3;8;0;3;0;5;0;BETA;1930;2100;3100;x;;;;;;;;;;;;
Brain-Class399;9048399;U49;1930;1930;1930;1930;3;8;0;3;0;5;0;BETA;1930;2100;3100;x;;;;;;;;;;;;
Brain-Class400;9048400;U49;1930;1930;1930;1930;3;8;0;3;0;5;0;BETA;1930;2100;3100;x;;;;;;;;;;;;
Brain-Class401;9048401;U49;1930;1930;1930;1930;3;8;0;3;0;5;0;BETA;1930;2100;3100;x;;;;;;;;;;;;
Brain-Class402;9048402;U49;1930;1930;1930;1930;3;8;0;3;0;5;0;BETA;1930;2100;3100;x;;;;;;;;;;;;
Brain-Class403;9048403;U49;1930;1930;1930;1930;3;8;0;3;0;5;0;BETA;1930;2100;3100;x;;;;;;;;;;;;
Brain-Class404;9048404;U49;1930;1930;1930;1930;3;8;0;3;0;5;0;BETA;1930;2100;3100;x;;;;;;;;;;;;
Brain-Class405;9048405;U49;1930;1930;1930;1930;3;8;0;3;0;5;0;BETA;1930;2100;3100;x;;;;;;;;;;;;
Brain-Class406;9048406;U49;1930;1930;1930;1930;3;8;0;3;0;5;0;BETA;1930;2100;3100;x;;;;;;;;;;;;
Brain-Class407;9048407;U49;1930;1930;1930;1930;3;8;0;3;0;5;0;BETA;1930;2100;3100;x;;;;;;;;;;;;
Brain-Class408;9048408;U49;1930;1930;1930;1930;3;8;0;3;0;5;0;BETA;1930;2100;3100;x;;;;;;;;;;;;
Brain-Class409;9048409;U49;1930;1930;1930;1930;3;8;0;3;0;5;0;BETA;1930;2100;3100;x;;;;;;;;;;;;
Brain-Class410;9048410;U49;1930;1930;1930;1930;3;8;0;3;0;5;0;BETA;1930;2100;3100;x;;;;;;;;;;;;
Brain-Class411;9048411;U49;1930;1930;1930;1930;3;8;0;3;0;5;0;BETA;1930;2100;3100;x;;;;;;;;;;;;
Brain-Class412;9048412;U49;1930;1930;1930;1930;3;8;0;3;0;5;0;BETA;1930;2100;3100;x;;;;;;;;;;;;
Brain-Class413;9048413;U49;1930;1930;1930;1930;3;8;0;3;0;5;0;BETA;1930;2100;3100;x;;;;;;;;;;;;
Brain-Class414;9048414;U49;1930;1930;1930;1930;3;8;0;3;0;5;0;BETA;1930;2100;3100;x;;;;;;;;;;;;
Brain-Class415;9048415;U49;1930;1930;1930;1930;3;8;0;3;0;5;0;BETA;1930;2100;3100;x;;;;;;;;;;;;
Brain-Class416;9048416;U49;1930;1930;1930;1930;3;8;0;3;0;5;0;BETA;1930;2100;3100;x;;;;;;;;;;;;
Brain-Class417;9048417;U49;1930;1930;1930;1930;3;8;0;3;0;5;0;BETA;1930;2100;3100;x;;;;;;;;;;;;
Brain-Class418;9048418;U49;1930;1930;1930;1930;3;8;0;3;0;5;0;BETA;1930;2100;3100;x;;;;;;;;;;;;
Brain-Class419;9048419;U49;1930;1930;1930;1930;3;8;0;3;0;5;0;BETA;1930;2100;3100;x;;;;;;;;;;;;
Brain-Class420;9048420;U49;1930;1930;1930;1930;3;8;0;3;0;5;0;BETA;1930;2100;3100;x;;;;;;;;;;;;
Brain-Class421;9048421;U49;1930;1930;1930;1930;3;8;0;3;0;5;0;BETA;1930;2100;3100;x;;;;;;;;;;;;
Brain-Class422;9048422;U49;1930;1930;1930;1930;3;8;0;3;0;5;0;BETA;1930;2100;3100;x;;;;;;;;;;;;
Brain-Class423;9048423;U49;1930;1930;1930;1930;3;8;0;3;0;5;0;BETA;1930;2100;3100;x;;;;;;;;;;;;
Brain-Class424;9048424;U49;1930;1930;1930;1930;3;8;0;3;0;5;0;BETA;1930;2100;3100;x;;;;;;;;;;;;
Brain-Class425;9048425;U49;1930;1930;1930;1930;3;8;0;3;0;5;0;BETA;1930;2100;3100;x;;;;;;;;;;;;
Brain-Class426;9048426;U49;1930;1930;1930;1930;3;8;0;3;0;5;0;BETA;1930;2100;3100;x;;;;;;;;;;;;
Brain-Class427;9048427;U49;1930;1930;1930;1930;3;8;0;3;0;5;0;BETA;1930;2100;3100;x;;;;;;;;;;;;
Brain-Class428;9048428;U49;1930;1930;1930;1930;3;8;0;3;0;5;0;BETA;1930;2100;3100;x;;;;;;;;;;;;
Brain-Class429;9048429;U49;1930;1930;1930;1930;3;8;0;3;0;5;0;BETA;1930;2100;3100;x;;;;;;;;;;;;
Brain-Class430;9048430;U49;1930;1930;1930;1930;3;8;0;3;0;5;0;BETA;1930;2100;3100;x;;;;;;;;;;;;
Brain-Class431;9048431;U49;1930;1930;1930;1930;3;8;0;3;0;5;0;BETA;1930;2100;3100;x;;;;;;;;;;;;
Brain-Class432;9048432;U49;1930;1930;1930;1930;3;8;0;3;0;5;0;BETA;1930;2100;3100;x;;;;;;;;;;;;
Brain-Class433;9048433;U49;1930;1930;1930;1930;3;8;0;3;0;5;0;BETA;1930;2100;3100;x;;;;;;;;;;;;
Brain-Class434;9048434;U49;1930;1930;1930;1930;3;8;0;3;0;5;0;BETA;1930;2100;3100;x;;;;;;;;;;;;
Brain-Class435;9048435;U49;1930;1930;1930;1930;3;8;0;3;0;5;0;BETA;1930;2100;3100;x;;;;;;;;;;;;
Brain-Class436;9048436;U49;1930;1930;1930;1930;3;8;0;3;0;5;0;BETA;1930;2100;3100;x;;;;;;;;;;;;
Brain-Class437;9048437;U49;1930;1930;1930;1930;3;8;0;3;0;5;0;BETA;1930;2100;3100;x;;;;;;;;;;;;
Brain-Class438;9048438;U49;1930;1930;1930;1930;3;8;0;3;0;5;0;BETA;1930;2100;3100;x;;;;;;;;;;;;
Brain-Class439;9048439;U49;1930;1930;1930;1930;3;8;0;3;0;5;0;BETA;1930;2100;3100;x;;;;;;;;;;;;
Brain-Class440;9048440;U49;1930;1930;1930;1930;3;8;0;3;0;5;0;BETA;1930;2100;3100;x;;;;;;;;;;;;
Brain-Class441;9048441;U49;1930;1930;1930;1930;3;8;0;3;0;5;0;BETA;1930;2100;3100;x;;;;;;;;;;;;
Brain-Class442;9048442;U49;1930;1930;1930;1930;3;8;0;3;0;5;0;BETA;1930;2100;3100;x;;;;;;;;;;;;
Brain-Class443;9048443;U49;1930;1930;1930;1930;3;8;0;3;0;5;0;BETA;1930;2100;3100;x;;;;;;;;;;;;
Brain-Class444;9048444;U49;1930;1930;1930;1930;3;8;0;3;0;5;0;BETA;1930;2100;3100;x;;;;;;;;;;;;
Brain-Class445;9048445;U49;1930;1930;1930;1930;3;8;0;3;0;5;0;BETA;1930;2100;3100;x;;;;;;;;;;;;
Brain-Class446;9048446;U49;1930;1930;1930;1930;3;8;0;3;0;5;0;BETA;1930;2100;3100;x;;;;;;;;;;;;
Brain-Class447;9048447;U49;1930;1930;1930;1930;3;8;0;3;0;5;0;BETA;1930;2100;3100;x;;;;;;;;;;;;
Brain-Class448;9048448;U49;1930;1930;1930;1930;3;8;0;3;0;5;0;BETA;1930;2100;3100;x;;;;;;;;;;;;
Brain-Class449;9048449;U49;1930;1930;1930;1930;3;8;0;3;0;5;0;BETA;1930;2100;3100;x;;;;;;;;;;;;
Brain-Class450;9048450;U49;1930;1930;1930;1930;3;8;0;3;0;5;0;BETA;1930;2100;3100;x;;;;;;;;;;;;
Brain-Class451;9048451;U49;1930;1930;1930;1930;3;8;0;3;0;5;0;BETA;1930;2100;3100;x;;;;;;;;;;;;
Brain-Class452;9048452;U49;1930;1930;1930;1930;3;8;0;3;0;5;0;BETA;1930;2100;3100;x;;;;;;;;;;;;
Brain-Class453;9048453;U49;1930;1930;1930;1930;3;8;0;3;0;5;0;BETA;1930;2100;3100;x;;;;;;;;;;;;
Brain-Class454;9048454;U49;1930;1930;1930;1930;3;8;0;3;0;5;0;BETA;1930;2100;3100;x;;;;;;;;;;;;
Brain-Class455;9048455;U49;1930;1930;1930;1930;3;8;0;3;0;5;0;BETA;1930;2100;3100;x;;;;;;;;;;;;
Brain-Class456;9048456;U49;1930;1930;1930;1930;3;8;0;3;0;5;0;BETA;1930;2100;3100;x;;;;;;;;;;;;
Brain-Class457;9048457;U49;1930;1930;1930;1930;3;8;0;3;0;5;0;BETA;1930;2100;3100;x;;;;;;;;;;;;
Brain-Class458;9048458;U49;1930;1930;1930;1930;3;8;0;3;0;5;0;BETA;1930;2100;3100;x;;;;;;;;;;;;
Brain-Class459;9048459;U49;1930;1930;1930;1930;3;8;0;3;0;5;0;BETA;1930;2100;3100;x;;;;;;;;;;;;
Brain-Class460;9048460;U49;1930;1930;1930;1930;3;8;0;3;0;5;0;BETA;1930;2100;3100;x;;;;;;;;;;;;
Brain-Class461;9048461;U49;1930;1930;1930;1930;3;8;0;3;0;5;0;BETA;1930;2100;3100;x;;;;;;;;;;;;
Brain-Class462;9048462;U49;1930;1930;1930;1930;3;8;0;3;0;5;0;BETA;1930;2100;3100;x;;;;;;;;;;;;
Brain-Class463;9048463;U49;1930;1930;1930;1930;3;8;0;3;0;5;0;BETA;1930;2100;3100;x;;;;;;;;;;;;
Brain-Class464;9048464;U49;1930;1930;1930;1930;3;8;0;3;0;5;0;BETA;1930;2100;3100;x;;;;;;;;;;;;
Brain-Class465;9048465;U49;1930;1930;1930;1930;3;8;0;3;0;5;0;BETA;1930;2100;3100;x;;;;;;;;;;;;
Brain-Class466;9048466;U49;1930;1930;1930;1930;3;8;0;3;0;5;0;BETA;1930;2100;3100;x;;;;;;;;;;;;
Brain-Class467;9048467;U49;1930;1930;1930;1930;3;8;0;3;0;5;0;BETA;1930;2100;3100;x;;;;;;;;;;;;
Brain-Class468;9048468;U49;1930;1930;1930;1930;3;8;0;3;0;5;0;BETA;1930;2100;3100;x;;;;;;;;;;;;
Brain-Class469;9048469;U49;1930;1930;1930;1930;3;8;0;3;0;5;0;BETA;1930;2100;3100;x;;;;;;;;;;;;
Brain-Class470;9048470;U49;1930;1930;1930;1930;3;8;0;3;0;5;0;BETA;1930;2100;3100;x;;;;;;;;;;;;
Brain-Class471;9048471;U49;1930;1930;1930;1930;3;8;0;3;0;5;0;BETA;1930;2100;3100;x;;;;;;;;;;;;
Brain-Class472;9048472;U49;1930;1930;1930;1930;3;8;0;3;0;5;0;BETA;1930;2100;3100;x;;;;;;;;;;;;
Brain-Class473;9048473;U49;1930;1930;1930;1930;3;8;0;3;0;5;0;BETA;1930;2100;3100;x;;;;;;;;;;;;
Brain-Class474;9048474;U49;1930;1930;1930;1930;3;8;0;3;0;5;0;BETA;1930;2100;3100;x;;;;;;;;;;;;
Brain-Class475;9048475;U49;1930;1930;1930;1930;3;8;0;3;0;5;0;BETA;1930;2100;3100;x;;;;;;;;;;;;
Brain-Class476;9048476;U49;1930;1930;1930;1930;3;8;0;3;0;5;0;BETA;1930;2100;3100;x;;;;;;;;;;;;
Brain-Class477;9048477;U49;1930;1930;1930;1930;3;8;0;3;0;5;0;BETA;1930;2100;3100;x;;;;;;;;;;;;
Brain-Class478;9048478;U49;1930;1930;1930;1930;3;8;0;3;0;5;0;BETA;1930;2100;3100;x;;;;;;;;;;;;
Brain-Class479;9048479;U49;1930;1930;1930;1930;3;8;0;3;0;5;0;BETA;1930;2100;3100;x;;;;;;;;;;;;
Brain-Class480;9048480;U49;1930;1930;1930;1930;3;8;0;3;0;5;0;BETA;1930;2100;3100;x;;;;;;;;;;;;
Brain-Class481;9048481;U49;1930;1930;1930;1930;3;8;0;3;0;5;0;BETA;1930;2100;3100;x;;;;;;;;;;;;
Brain-Class482;9048482;U49;1930;1930;1930;1930;3;8;0;3;0;5;0;BETA;1930;2100;3100;x;;;;;;;;;;;;
Brain-Class483;9048483;U49;1930;1930;1930;1930;3;8;0;3;0;5;0;BETA;1930;2100;3100;x;;;;;;;;;;;;
Brain-Class484;9048484;U49;1930;1930;1930;1930;3;8;0;3;0;5;0;BETA;1930;2100;3100;x;;;;;;;;;;;;
Brain-Class485;9048485;U49;1930;1930;1930;1930;3;8;0;3;0;5;0;BETA;1930;2100;3100;x;;;;;;;;;;;;
Brain-Class486;9048486;U49;1930;1930;1930;1930;3;8;0;3;0;5;0;BETA;1930;2100;3100;x;;;;;;;;;;;;
Brain-Class487;9048487;U49;1930;1930;1930;1930;3;8;0;3;0;5;0;BETA;1930;2100;3100;x;;;;;;;;;;;;
Brain-Class488;9048488;U49;1930;1930;1930;1930;3;8;0;3;0;5;0;BETA;1930;2100;3100;x;;;;;;;;;;;;
Brain-Class489;9048489;U49;1930;1930;1930;1930;3;8;0;3;0;5;0;BETA;1930;2100;3100;x;;;;;;;;;;;;
Brain-Class490;9048490;U49;1930;1930;1930;1930;3;8;0;3;0;5;0;BETA;1930;2100;3100;x;;;;;;;;;;;;
Brain-Class491;9048491;U49;1930;1930;1930;1930;3;8;0;3;0;5;0;BETA;1930;2100;3100;x;;;;;;;;;;;;
Brain-Class492;9048492;U49;1930;1930;1930;1930;3;8;0;3;0;5;0;BETA;1930;2100;3100;x;;;;;;;;;;;;
Brain-Class493;9048493;U49;1930;1930;1930;1930;3;8;0;3;0;5;0;BETA;1930;2100;3100;x;;;;;;;;;;;;
Brain-Class494;9048494;U49;1930;1930;1930;1930;3;8;0;3;0;5;0;BETA;1930;2100;3100;x;;;;;;;;;;;;
Brain-Class495;9048495;U49;1930;1930;1930;1930;3;8;0;3;0;5;0;BETA;1930;2100;3100;x;;;;;;;;;;;;
Brain-Class496;9048496;U49;1930;1930;1930;1930;3;8;0;3;0;5;0;BETA;1930;2100;3100;x;;;;;;;;;;;;
Brain-Class497;9048497;U49;1930;1930;1930;1930;3;8;0;3;0;5;0;BETA;1930;2100;3100;x;;;;;;;;;;;;
Brain-Class498;9048498;U49;1930;1930;1930;1930;3;8;0;3;0;5;0;BETA;1930;2100;3100;x;;;;;;;;;;;;
Brain-Class499;9048499;U49;1930;1930;1930;1930;3;8;0;3;0;5;0;BETA;1930;2100;3100;x;;;;;;;;;;;;
Brain-Class500;9048500;U49;1930;1930;1930;1930;3;8;0;3;0;5;0;BETA;1930;2100;3100;x;;;;;;;;;;;;
Brain-Class501;9048501;U49;1930;1930;1930;1930;3;8;0;3;0;5;0;BETA;1930;2100;3100;x;;;;;;;;;;;;
Brain-Class502;9048502;U49;1930;1930;1930;1930;3;8;0;3;0;5;0;BETA;1930;2100;3100;x;;;;;;;;;;;;
Brain-Class503;9048503;U49;1930;1930;1930;1930;3;8;0;3;0;5;0;BETA;1930;2100;3100;x;;;;;;;;;;;;
Brain-Class504;9048504;U49;1930;1930;1930;1930;3;8;0;3;0;5;0;BETA;1930;2100;3100;x;;;;;;;;;;;;
Brain-Class505;9048505;U49;1930;1930;1930;1930;3;8;0;3;0;5;0;BETA;1930;2100;3100;x;;;;;;;;;;;;
Brain-Class506;9048506;U49;1930;1930;1930;1930;3;8;0;3;0;5;0;BETA;1930;2100;3100;x;;;;;;;;;;;;
Brain-Class507;9048507;U49;1930;1930;1930;1930;3;8;0;3;0;5;0;BETA;1930;2100;3100;x;;;;;;;;;;;;
Brain-Class508;9048508;U49;1930;1930;1930;1930;3;8;0;3;0;5;0;BETA;1930;2100;3100;x;;;;;;;;;;;;
Brain-Class509;9048509;U49;1930;1930;1930;1930;3;8;0;3;0;5;0;BETA;1930;2100;3100;x;;;;;;;;;;;;
Brain-Class510;9048510;U49;1930;1930;1930;1930;3;8;0;3;0;5;0;BETA;1930;2100;3100;x;;;;;;;;;;;;
Brain-Class511;9048511;U49;1930;1930;1930;1930;3;8;0;3;0;5;0;BETA;1930;2100;3100;x;;;;;;;;;;;;
Brain-Class512;9048512;U49;1930;1930;1930;1930;3;8;0;3;0;5;0;BETA;1930;2100;3100;x;;;;;;;;;;;;
Brain-Class513;9048513;U49;1930;1930;1930;1930;3;8;0;3;0;5;0;BETA;1930;2100;3100;x;;;;;;;;;;;;
Brain-Class514;9048514;U49;1930;1930;1930;1930;3;8;0;3;0;5;0;BETA;1930;2100;3100;x;;;;;;;;;;;;
Brain-Class515;9048515;U49;1930;1930;1930;1930;3;8;0;3;0;5;0;BETA;1930;2100;3100;x;;;;;;;;;;;;
Brain-Class516;9048516;U49;1930;1930;1930;1930;3;8;0;3;0;5;0;BETA;1930;2100;3100;x;;;;;;;;;;;;
Brain-Class517;9048517;U49;1930;1930;1930;1930;3;8;0;3;0;5;0;BETA;1930;2100;3100;x;;;;;;;;;;;;
Brain-Class518;9048518;U49;1930;1930;1930;1930;3;8;0;3;0;5;0;BETA;1930;2100;3100;x;;;;;;;;;;;;
Brain-Class519;9048519;U49;1930;1930;1930;1930;3;8;0;3;0;5;0;BETA;1930;2100;3100;x;;;;;;;;;;;;
Brain-Class520;9048520;U49;1930;1930;1930;1930;3;8;0;3;0;5;0;BETA;1930;2100;3100;x;;;;;;;;;;;;
Brain-Class521;9048521;U49;1930;1930;1930;1930;3;8;0;3;0;5;0;BETA;1930;2100;3100;x;;;;;;;;;;;;
Brain-Class522;9048522;U49;1930;1930;1930;1930;3;8;0;3;0;5;0;BETA;1930;2100;3100;x;;;;;;;;;;;;
Brain-Class523;9048523;U49;1930;1930;1930;1930;3;8;0;3;0;5;0;BETA;1930;2100;3100;x;;;;;;;;;;;;
Brain-Class524;9048524;U49;1930;1930;1930;1930;3;8;0;3;0;5;0;BETA;1930;2100;3100;x;;;;;;;;;;;;
Brain-Class525;9048525;U49;1930;1930;1930;1930;3;8;0;3;0;5;0;BETA;1930;2100;3100;x;;;;;;;;;;;;
Brain-Class526;9048526;U49;1930;1930;1930;1930;3;8;0;3;0;5;0;BETA;1930;2100;3100;x;;;;;;;;;;;;
Brain-Class527;9048527;U49;1930;1930;1930;1930;3;8;0;3;0;5;0;BETA;1930;2100;3100;x;;;;;;;;;;;;
Brain-Class528;9048528;U49;1930;1930;1930;1930;3;8;0;3;0;5;0;BETA;1930;2100;3100;x;;;;;;;;;;;;
Brain-Class529;9048529;U49;1930;1930;1930;1930;3;8;0;3;0;5;0;BETA;1930;2100;3100;x;;;;;;;;;;;;
Brain-Class530;9048530;U49;1930;1930;1930;1930;3;8;0;3;0;5;0;BETA;1930;2100;3100;x;;;;;;;;;;;;
Brain-Class531;9048531;U49;1930;1930;1930;1930;3;8;0;3;0;5;0;BETA;1930;2100;3100;x;;;;;;;;;;;;
Brain-Class532;9048532;U49;1930;1930;1930;1930;3;8;0;3;0;5;0;BETA;1930;2100;3100;x;;;;;;;;;;;;
Brain-Class533;9048533;U49;1930;1930;1930;1930;3;8;0;3;0;5;0;BETA;1930;2100;3100;x;;;;;;;;;;;;
Brain-Class534;9048534;U49;1930;1930;1930;1930;3;8;0;3;0;5;0;BETA;1930;2100;3100;x;;;;;;;;;;;;
Brain-Class535;9048535;U49;1930;1930;1930;1930;3;8;0;3;0;5;0;BETA;1930;2100;3100;x;;;;;;;;;;;;
Brain-Class536;9048536;U49;1930;1930;1930;1930;3;8;0;3;0;5;0;BETA;1930;2100;3100;x;;;;;;;;;;;;
Brain-Class537;9048537;U49;1930;1930;1930;1930;3;8;0;3;0;5;0;BETA;1930;2100;3100;x;;;;;;;;;;;;
Brain-Class538;9048538;U49;1930;1930;1930;1930;3;8;0;3;0;5;0;BETA;1930;2100;3100;x;;;;;;;;;;;;
Brain-Class539;9048539;U49;1930;1930;1930;1930;3;8;0;3;0;5;0;BETA;1930;2100;3100;x;;;;;;;;;;;;
Brain-Class540;9048540;U49;1930;1930;1930;1930;3;8;0;3;0;5;0;BETA;1930;2100;3100;x;;;;;;;;;;;;
Brain-Class541;9048541;U49;1930;1930;1930;1930;3;8;0;3;0;5;0;BETA;1930;2100;3100;x;;;;;;;;;;;;
Brain-Class542;9048542;U49;1930;1930;1930;1930;3;8;0;3;0;5;0;BETA;1930;2100;3100;x;;;;;;;;;;;;
Brain-Class543;9048543;U49;1930;1930;1930;1930;3;8;0;3;0;5;0;BETA;1930;2100;3100;x;;;;;;;;;;;;
Brain-Class544;9048544;U49;1930;1930;1930;1930;3;8;0;3;0;5;0;BETA;1930;2100;3100;x;;;;;;;;;;;;
Brain-Class545;9048545;U49;1930;1930;1930;1930;3;8;0;3;0;5;0;BETA;1930;2100;3100;x;;;;;;;;;;;;
Brain-Class546;9048546;U49;1930;1930;1930;1930;3;8;0;3;0;5;0;BETA;1930;2100;3100;x;;;;;;;;;;;;
Brain-Class547;9048547;U49;1930;1930;1930;1930;3;8;0;3;0;5;0;BETA;1930;2100;3100;x;;;;;;;;;;;;
Brain-Class548;9048548;U49;1930;1930;1930;1930;3;8;0;3;0;5;0;BETA;1930;2100;3100;x;;;;;;;;;;;;
Brain-Class549;9048549;U49;1930;1930;1930;1930;3;8;0;3;0;5;0;BETA;1930;2100;3100;x;;;;;;;;;;;;
Brain-Class550;9048550;U49;1930;1930;1930;1930;3;8;0;3;0;5;0;BETA;1930;2100;3100;x;;;;;;;;;;;;
Brain-Class551;9048551;U49;1930;1930;1930;1930;3;8;0;3;0;5;0;BETA;1930;2100;3100;x;;;;;;;;;;;;
Brain-Class552;9048552;U49;1930;1930;1930;1930;3;8;0;3;0;5;0;BETA;1930;2100;3100;x;;;;;;;;;;;;
Brain-Class553;9048553;U49;1930;1930;1930;1930;3;8;0;3;0;5;0;BETA;1930;2100;3100;x;;;;;;;;;;;;
Brain-Class554;9048554;U49;1930;1930;1930;1930;3;8;0;3;0;5;0;BETA;1930;2100;3100;x;;;;;;;;;;;;
Brain-Class555;9048555;U49;1930;1930;1930;1930;3;8;0;3;0;5;0;BETA;1930;2100;3100;x;;;;;;;;;;;;
Brain-Class556;9048556;U49;1930;1930;1930;1930;3;8;0;3;0;5;0;BETA;1930;2100;3100;x;;;;;;;;;;;;
Brain-Class557;9048557;U49;1930;1930;1930;1930;3;8;0;3;0;5;0;BETA;1930;2100;3100;x;;;;;;;;;;;;
Brain-Class558;9048558;U49;1930;1930;1930;1930;3;8;0;3;0;5;0;BETA;1930;2100;3100;x;;;;;;;;;;;;
Brain-Class559;9048559;U49;1930;1930;1930;1930;3;8;0;3;0;5;0;BETA;1930;2100;3100;x;;;;;;;;;;;;
Brain-Class560;9048560;U49;1930;1930;1930;1930;3;8;0;3;0;5;0;BETA;1930;2100;3100;x;;;;;;;;;;;;
Brain-Class561;9048561;U49;1930;1930;1930;1930;3;8;0;3;0;5;0;BETA;1930;2100;3100;x;;;;;;;;;;;;
Brain-Class562;9048562;U49;1930;1930;1930;1930;3;8;0;3;0;5;0;BETA;1930;2100;3100;x;;;;;;;;;;;;
Brain-Class563;9048563;U49;1930;1930;1930;1930;3;8;0;3;0;5;0;BETA;1930;2100;3100;x;;;;;;;;;;;;
Brain-Class564;9048564;U49;1930;1930;1930;1930;3;8;0;3;0;5;0;BETA;1930;2100;3100;x;;;;;;;;;;;;
Brain-Class565;9048565;U49;1930;1930;1930;1930;3;8;0;3;0;5;0;BETA;1930;2100;3100;x;;;;;;;;;;;;
Brain-Class566;9048566;U49;1930;1930;1930;1930;3;8;0;3;0;5;0;BETA;1930;2100;3100;x;;;;;;;;;;;;
Brain-Class567;9048567;U49;1930;1930;1930;1930;3;8;0;3;0;5;0;BETA;1930;2100;3100;x;;;;;;;;;;;;
Brain-Class568;9048568;U49;1930;1930;1930;1930;3;8;0;3;0;5;0;BETA;1930;2100;3100;x;;;;;;;;;;;;
Brain-Class569;9048569;U49;1930;1930;1930;1930;3;8;0;3;0;5;0;BETA;1930;2100;3100;x;;;;;;;;;;;;
Brain-Class570;9048570;U49;1930;1930;1930;1930;3;8;0;3;0;5;0;BETA;1930;2100;3100;x;;;;;;;;;;;;
Brain-Class571;9048571;U49;1930;1930;1930;1930;3;8;0;3;0;5;0;BETA;1930;2100;3100;x;;;;;;;;;;;;
Brain-Class572;9048572;U49;1930;1930;1930;1930;3;8;0;3;0;5;0;BETA;1930;2100;3100;x;;;;;;;;;;;;
Brain-Class573;9048573;U49;1930;1930;1930;1930;3;8;0;3;0;5;0;BETA;1930;2100;3100;x;;;;;;;;;;;;
Brain-Class574;9048574;U49;1930;1930;1930;1930;3;8;0;3;0;5;0;BETA;1930;2100;3100;x;;;;;;;;;;;;
Brain-Class575;9048575;U49;1930;1930;1930;1930;3;8;0;3;0;5;0;BETA;1930;2100;3100;x;;;;;;;;;;;;
Brain-Class576;9048576;U49;1930;1930;1930;1930;3;8;0;3;0;5;0;BETA;1930;2100;3100;x;;;;;;;;;;;;
Brain-Class577;9048577;U49;1930;1930;1930;1930;3;8;0;3;0;5;0;BETA;1930;2100;3100;x;;;;;;;;;;;;
Brain-Class578;9048578;U49;1930;1930;1930;1930;3;8;0;3;0;5;0;BETA;1930;2100;3100;x;;;;;;;;;;;;
Brain-Class579;9048579;U49;1930;1930;1930;1930;3;8;0;3;0;5;0;BETA;1930;2100;3100;x;;;;;;;;;;;;
Brain-Class580;9048580;U49;1930;1930;1930;1930;3;8;0;3;0;5;0;BETA;1930;2100;3100;x;;;;;;;;;;;;
Brain-Class581;9048581;U49;1930;1930;1930;1930;3;8;0;3;0;5;0;BETA;1930;2100;3100;x;;;;;;;;;;;;
Brain-Class582;9048582;U49;1930;1930;1930;1930;3;8;0;3;0;5;0;BETA;1930;2100;3100;x;;;;;;;;;;;;
Brain-Class583;9048583;U49;1930;1930;1930;1930;3;8;0;3;0;5;0;BETA;1930;2100;3100;x;;;;;;;;;;;;
Brain-Class584;9048584;U49;1930;1930;1930;1930;3;8;0;3;0;5;0;BETA;1930;2100;3100;x;;;;;;;;;;;;
Brain-Class585;9048585;U49;1930;1930;1930;1930;3;8;0;3;0;5;0;BETA;1930;2100;3100;x;;;;;;;;;;;;
Brain-Class586;9048586;U49;1930;1930;1930;1930;3;8;0;3;0;5;0;BETA;1930;2100;3100;x;;;;;;;;;;;;
Brain-Class587;9048587;U49;1930;1930;1930;1930;3;8;0;3;0;5;0;BETA;1930;2100;3100;x;;;;;;;;;;;;
Brain-Class588;9048588;U49;1930;1930;1930;1930;3;8;0;3;0;5;0;BETA;1930;2100;3100;x;;;;;;;;;;;;
Brain-Class589;9048589;U49;1930;1930;1930;1930;3;8;0;3;0;5;0;BETA;1930;2100;3100;x;;;;;;;;;;;;
Brain-Class590;9048590;U49;1930;1930;1930;1930;3;8;0;3;0;5;0;BETA;1930;2100;3100;x;;;;;;;;;;;;
Brain-Class591;9048591;U49;1930;1930;1930;1930;3;8;0;3;0;5;0;BETA;1930;2100;3100;x;;;;;;;;;;;;
Brain-Class592;9048592;U49;1930;1930;1930;1930;3;8;0;3;0;5;0;BETA;1930;2100;3100;x;;;;;;;;;;;;
Brain-Class593;9048593;U49;1930;1930;1930;1930;3;8;0;3;0;5;0;BETA;1930;2100;3100;x;;;;;;;;;;;;
Brain-Class594;9048594;U49;1930;1930;1930;1930;3;8;0;3;0;5;0;BETA;1930;2100;3100;x;;;;;;;;;;;;
Brain-Class595;9048595;U49;1930;1930;1930;1930;3;8;0;3;0;5;0;BETA;1930;2100;3100;x;;;;;;;;;;;;
Brain-Class596;9048596;U49;1930;1930;1930;1930;3;8;0;3;0;5;0;BETA;1930;2100;3100;x;;;;;;;;;;;;
Brain-Class597;9048597;U49;1930;1930;1930;1930;3;8;0;3;0;5;0;BETA;1930;2100;3100;x;;;;;;;;;;;;
Brain-Class598;9048598;U49;1930;1930;1930;1930;3;8;0;3;0;5;0;BETA;1930;2100;3100;x;;;;;;;;;;;;
Brain-Class599;9048599;U49;1930;1930;1930;1930;3;8;0;3;0;5;0;BETA;1930;2100;3100;x;;;;;;;;;;;;
Brain-Class600;9048600;U49;1930;1930;1930;1930;3;8;0;3;0;5;0;BETA;1930;2100;3100;x;;;;;;;;;;;;
Brain-Class601;9048601;U49;1930;1930;1930;1930;3;8;0;3;0;5;0;BETA;1930;2100;3100;x;;;;;;;;;;;;
Brain-Class602;9048602;U49;1930;1930;1930;1930;3;8;0;3;0;5;0;BETA;1930;2100;3100;x;;;;;;;;;;;;
Brain-Class603;9048603;U49;1930;1930;1930;1930;3;8;0;3;0;5;0;BETA;1930;2100;3100;x;;;;;;;;;;;;
Brain-Class604;9048604;U49;1930;1930;1930;1930;3;8;0;3;0;5;0;BETA;1930;2100;3100;x;;;;;;;;;;;;
Brain-Class605;9048605;U49;1930;1930;1930;1930;3;8;0;3;0;5;0;BETA;1930;2100;3100;x;;;;;;;;;;;;
Brain-Class606;9048606;U49;1930;1930;1930;1930;3;8;0;3;0;5;0;BETA;1930;2100;3100;x;;;;;;;;;;;;
Brain-Class607;9048607;U49;1930;1930;1930;1930;3;8;0;3;0;5;0;BETA;1930;2100;3100;x;;;;;;;;;;;;
Brain-Class608;9048608;U49;1930;1930;1930;1930;3;8;0;3;0;5;0;BETA;1930;2100;3100;x;;;;;;;;;;;;
Brain-Class609;9048609;U49;1930;1930;1930;1930;3;8;0;3;0;5;0;BETA;1930;2100;3100;x;;;;;;;;;;;;
Brain-Class610;9048610;U49;1930;1930;1930;1930;3;8;0;3;0;5;0;BETA;1930;2100;3100;x;;;;;;;;;;;;
Brain-Class611;9048611;U49;1930;1930;1930;1930;3;8;0;3;0;5;0;BETA;1930;2100;3100;x;;;;;;;;;;;;
Brain-Class612;9048612;U49;1930;1930;1930;1930;3;8;0;3;0;5;0;BETA;1930;2100;3100;x;;;;;;;;;;;;
Brain-Class613;9048613;U49;1930;1930;1930;1930;3;8;0;3;0;5;0;BETA;1930;2100;3100;x;;;;;;;;;;;;
Brain-Class614;9048614;U49;1930;1930;1930;1930;3;8;0;3;0;5;0;BETA;1930;2100;3100;x;;;;;;;;;;;;
Brain-Class615;9048615;U49;1930;1930;1930;1930;3;8;0;3;0;5;0;BETA;1930;2100;3100;x;;;;;;;;;;;;
Brain-Class616;9048616;U49;1930;1930;1930;1930;3;8;0;3;0;5;0;BETA;1930;2100;3100;x;;;;;;;;;;;;
Brain-Class617;9048617;U49;1930;1930;1930;1930;3;8;0;3;0;5;0;BETA;1930;2100;3100;x;;;;;;;;;;;;
Brain-Class618;9048618;U49;1930;1930;1930;1930;3;8;0;3;0;5;0;BETA;1930;2100;3100;x;;;;;;;;;;;;
Brain-Class619;9048619;U49;1930;1930;1930;1930;3;8;0;3;0;5;0;BETA;1930;2100;3100;x;;;;;;;;;;;;
Brain-Class620;9048620;U49;1930;1930;1930;1930;3;8;0;3;0;5;0;BETA;1930;2100;3100;x;;;;;;;;;;;;
Brain-Class621;9048621;U49;1930;1930;1930;1930;3;8;0;3;0;5;0;BETA;1930;2100;3100;x;;;;;;;;;;;;
Brain-Class622;9048622;U49;1930;1930;1930;1930;3;8;0;3;0;5;0;BETA;1930;2100;3100;x;;;;;;;;;;;;
Brain-Class623;9048623;U49;1930;1930;1930;1930;3;8;0;3;0;5;0;BETA;1930;2100;3100;x;;;;;;;;;;;;
Brain-Class624;9048624;U49;1930;1930;1930;1930;3;8;0;3;0;5;0;BETA;1930;2100;3100;x;;;;;;;;;;;;
Brain-Class625;9048625;U49;1930;1930;1930;1930;3;8;0;3;0;5;0;BETA;1930;2100;3100;x;;;;;;;;;;;;
Brain-Class626;9048626;U49;1930;1930;1930;1930;3;8;0;3;0;5;0;BETA;1930;2100;3100;x;;;;;;;;;;;;
Brain-Class627;9048627;U49;1930;1930;1930;1930;3;8;0;3;0;5;0;BETA;1930;2100;3100;x;;;;;;;;;;;;
Brain-Class628;9048628;U49;1930;1930;1930;1930;3;8;0;3;0;5;0;BETA;1930;2100;3100;x;;;;;;;;;;;;
Brain-Class629;9048629;U49;1930;1930;1930;1930;3;8;0;3;0;5;0;BETA;1930;2100;3100;x;;;;;;;;;;;;
Brain-Class630;9048630;U49;1930;1930;1930;1930;3;8;0;3;0;5;0;BETA;1930;2100;3100;x;;;;;;;;;;;;
Brain-Class631;9048631;U49;1930;1930;1930;1930;3;8;0;3;0;5;0;BETA;1930;2100;3100;x;;;;;;;;;;;;
Brain-Class632;9048632;U49;1930;1930;1930;1930;3;8;0;3;0;5;0;BETA;1930;2100;3100;x;;;;;;;;;;;;
Brain-Class633;9048633;U49;1930;1930;1930;1930;3;8;0;3;0;5;0;BETA;1930;2100;3100;x;;;;;;;;;;;;
Brain-Class634;9048634;U49;1930;1930;1930;1930;3;8;0;3;0;5;0;BETA;1930;2100;3100;x;;;;;;;;;;;;
Brain-Class635;9048635;U49;1930;1930;1930;1930;3;8;0;3;0;5;0;BETA;1930;2100;3100;x;;;;;;;;;;;;
Brain-Class636;9048636;U49;1930;1930;1930;1930;3;8;0;3;0;5;0;BETA;1930;2100;3100;x;;;;;;;;;;;;
Brain-Class637;9048637;U49;1930;1930;1930;1930;3;8;0;3;0;5;0;BETA;1930;2100;3100;x;;;;;;;;;;;;
Brain-Class638;9048638;U49;1930;1930;1930;1930;3;8;0;3;0;5;0;BETA;1930;2100;3100;x;;;;;;;;;;;;
Brain-Class639;9048639;U49;1930;1930;1930;1930;3;8;0;3;0;5;0;BETA;1930;2100;3100;x;;;;;;;;;;;;
Brain-Class640;9048640;U49;1930;1930;1930;1930;3;8;0;3;0;5;0;BETA;1930;2100;3100;x;;;;;;;;;;;;
Brain-Class641;9048641;U49;1930;1930;1930;1930;3;8;0;3;0;5;0;BETA;1930;2100;3100;x;;;;;;;;;;;;
Brain-Class642;9048642;U49;1930;1930;1930;1930;3;8;0;3;0;5;0;BETA;1930;2100;3100;x;;;;;;;;;;;;
Brain-Class643;9048643;U49;1930;1930;1930;1930;3;8;0;3;0;5;0;BETA;1930;2100;3100;x;;;;;;;;;;;;
Brain-Class644;9048644;U49;1930;1930;1930;1930;3;8;0;3;0;5;0;BETA;1930;2100;3100;x;;;;;;;;;;;;
Brain-Class645;9048645;U49;1930;1930;1930;1930;3;8;0;3;0;5;0;BETA;1930;2100;3100;x;;;;;;;;;;;;
Brain-Class646;9048646;U49;1930;1930;1930;1930;3;8;0;3;0;5;0;BETA;1930;2100;3100;x;;;;;;;;;;;;
Brain-Class647;9048647;U49;1930;1930;1930;1930;3;8;0;3;0;5;0;BETA;1930;2100;3100;x;;;;;;;;;;;;
Brain-Class648;9048648;U49;1930;1930;1930;1930;3;8;0;3;0;5;0;BETA;1930;2100;3100;x;;;;;;;;;;;;
Brain-Class649;9048649;U49;1930;1930;1930;1930;3;8;0;3;0;5;0;BETA;1930;2100;3100;x;;;;;;;;;;;;
Brain-Class650;9048650;U49;1930;1930;1930;1930;3;8;0;3;0;5;0;BETA;1930;2100;3100;x;;;;;;;;;;;;
Brain-Class651;9048651;U49;1930;1930;1930;1930;3;8;0;3;0;5;0;BETA;1930;2100;3100;x;;;;;;;;;;;;
Brain-Class652;9048652;U49;1930;1930;1930;1930;3;8;0;3;0;5;0;BETA;1930;2100;3100;x;;;;;;;;;;;;
Brain-Class653;9048653;U49;1930;1930;1930;1930;3;8;0;3;0;5;0;BETA;1930;2100;3100;x;;;;;;;;;;;;
Brain-Class654;9048654;U49;1930;1930;1930;1930;3;8;0;3;0;5;0;BETA;1930;2100;3100;x;;;;;;;;;;;;
Brain-Class655;9048655;U49;1930;1930;1930;1930;3;8;0;3;0;5;0;BETA;1930;2100;3100;x;;;;;;;;;;;;
Brain-Class656;9048656;U49;1930;1930;1930;1930;3;8;0;3;0;5;0;BETA;1930;2100;3100;x;;;;;;;;;;;;
Brain-Class657;9048657;U49;1930;1930;1930;1930;3;8;0;3;0;5;0;BETA;1930;2100;3100;x;;;;;;;;;;;;
Brain-Class658;9048658;U49;1930;1930;1930;1930;3;8;0;3;0;5;0;BETA;1930;2100;3100;x;;;;;;;;;;;;
Brain-Class659;9048659;U49;1930;1930;1930;1930;3;8;0;3;0;5;0;BETA;1930;2100;3100;x;;;;;;;;;;;;
Brain-Class660;9048660;U49;1930;1930;1930;1930;3;8;0;3;0;5;0;BETA;1930;2100;3100;x;;;;;;;;;;;;
Brain-Class661;9048661;U49;1930;1930;1930;1930;3;8;0;3;0;5;0;BETA;1930;2100;3100;x;;;;;;;;;;;;
Brain-Class662;9048662;U49;1930;1930;1930;1930;3;8;0;3;0;5;0;BETA;1930;2100;3100;x;;;;;;;;;;;;
Brain-Class663;9048663;U49;1930;1930;1930;1930;3;8;0;3;0;5;0;BETA;1930;2100;3100;x;;;;;;;;;;;;
Brain-Class664;9048664;U49;1930;1930;1930;1930;3;8;0;3;0;5;0;BETA;1930;2100;3100;x;;;;;;;;;;;;
Brain-Class665;9048665;U49;1930;1930;1930;1930;3;8;0;3;0;5;0;BETA;1930;2100;3100;x;;;;;;;;;;;;
Brain-Class666;9048666;U49;1930;1930;1930;1930;3;8;0;3;0;5;0;BETA;1930;2100;3100;x;;;;;;;;;;;;
Brain-Class667;9048667;U49;1930;1930;1930;1930;3;8;0;3;0;5;0;BETA;1930;2100;3100;x;;;;;;;;;;;;
Brain-Class668;9048668;U49;1930;1930;1930;1930;3;8;0;3;0;5;0;BETA;1930;2100;3100;x;;;;;;;;;;;;
Brain-Class669;9048669;U49;1930;1930;1930;1930;3;8;0;3;0;5;0;BETA;1930;2100;3100;x;;;;;;;;;;;;
Brain-Class670;9048670;U49;1930;1930;1930;1930;3;8;0;3;0;5;0;BETA;1930;2100;3100;x;;;;;;;;;;;;
Brain-Class671;9048671;U49;1930;1930;1930;1930;3;8;0;3;0;5;0;BETA;1930;2100;3100;x;;;;;;;;;;;;
Brain-Class672;9048672;U49;1930;1930;1930;1930;3;8;0;3;0;5;0;BETA;1930;2100;3100;x;;;;;;;;;;;;
Brain-Class673;9048673;U49;1930;1930;1930;1930;3;8;0;3;0;5;0;BETA;1930;2100;3100;x;;;;;;;;;;;;
Brain-Class674;9048674;U49;1930;1930;1930;1930;3;8;0;3;0;5;0;BETA;1930;2100;3100;x;;;;;;;;;;;;
Brain-Class675;9048675;U49;1930;1930;1930;1930;3;8;0;3;0;5;0;BETA;1930;2100;3100;x;;;;;;;;;;;;
Brain-Class676;9048676;U49;1930;1930;1930;1930;3;8;0;3;0;5;0;BETA;1930;2100;3100;x;;;;;;;;;;;;
Brain-Class677;9048677;U49;1930;1930;1930;1930;3;8;0;3;0;5;0;BETA;1930;2100;3100;x;;;;;;;;;;;;
Brain-Class678;9048678;U49;1930;1930;1930;1930;3;8;0;3;0;5;0;BETA;1930;2100;3100;x;;;;;;;;;;;;
Brain-Class679;9048679;U49;1930;1930;1930;1930;3;8;0;3;0;5;0;BETA;1930;2100;3100;x;;;;;;;;;;;;
Brain-Class680;9048680;U49;1930;1930;1930;1930;3;8;0;3;0;5;0;BETA;1930;2100;3100;x;;;;;;;;;;;;
Brain-Class681;9048681;U49;1930;1930;1930;1930;3;8;0;3;0;5;0;BETA;1930;2100;3100;x;;;;;;;;;;;;
Brain-Class682;9048682;U49;1930;1930;1930;1930;3;8;0;3;0;5;0;BETA;1930;2100;3100;x;;;;;;;;;;;;
Brain-Class683;9048683;U49;1930;1930;1930;1930;3;8;0;3;0;5;0;BETA;1930;2100;3100;x;;;;;;;;;;;;
Brain-Class684;9048684;U49;1930;1930;1930;1930;3;8;0;3;0;5;0;BETA;1930;2100;3100;x;;;;;;;;;;;;
Brain-Class685;9048685;U49;1930;1930;1930;1930;3;8;0;3;0;5;0;BETA;1930;2100;3100;x;;;;;;;;;;;;
Brain-Class686;9048686;U49;1930;1930;1930;1930;3;8;0;3;0;5;0;BETA;1930;2100;3100;x;;;;;;;;;;;;
Brain-Class687;9048687;U49;1930;1930;1930;1930;3;8;0;3;0;5;0;BETA;1930;2100;3100;x;;;;;;;;;;;;
Brain-Class688;9048688;U49;1930;1930;1930;1930;3;8;0;3;0;5;0;BETA;1930;2100;3100;x;;;;;;;;;;;;
Brain-Class689;9048689;U49;1930;1930;1930;1930;3;8;0;3;0;5;0;BETA;1930;2100;3100;x;;;;;;;;;;;;
Brain-Class690;9048690;U49;1930;1930;1930;1930;3;8;0;3;0;5;0;BETA;1930;2100;3100;x;;;;;;;;;;;;
Brain-Class691;9048691;U49;1930;1930;1930;1930;3;8;0;3;0;5;0;BETA;1930;2100;3100;x;;;;;;;;;;;;
Brain-Class692;9048692;U49;1930;1930;1930;1930;3;8;0;3;0;5;0;BETA;1930;2100;3100;x;;;;;;;;;;;;
Brain-Class693;9048693;U49;1930;1930;1930;1930;3;8;0;3;0;5;0;BETA;1930;2100;3100;x;;;;;;;;;;;;
Brain-Class694;9048694;U49;1930;1930;1930;1930;3;8;0;3;0;5;0;BETA;1930;2100;3100;x;;;;;;;;;;;;
Brain-Class695;9048695;U49;1930;1930;1930;1930;3;8;0;3;0;5;0;BETA;1930;2100;3100;x;;;;;;;;;;;;
Brain-Class696;9048696;U49;1930;1930;1930;1930;3;8;0;3;0;5;0;BETA;1930;2100;3100;x;;;;;;;;;;;;
Brain-Class697;9048697;U49;1930;1930;1930;1930;3;8;0;3;0;5;0;BETA;1930;2100;3100;x;;;;;;;;;;;;
Brain-Class698;9048698;U49;1930;1930;1930;1930;3;8;0;3;0;5;0;BETA;1930;2100;3100;x;;;;;;;;;;;;
Brain-Class699;9048699;U49;1930;1930;1930;1930;3;8;0;3;0;5;0;BETA;1930;2100;3100;x;;;;;;;;;;;;
Brain-Class700;9048700;U49;1930;1930;1930;1930;3;8;0;3;0;5;0;BETA;1930;2100;3100;x;;;;;;;;;;;;
Brain-Class701;9048701;U49;1930;1930;1930;1930;3;8;0;3;0;5;0;BETA;1930;2100;3100;x;;;;;;;;;;;;
Brain-Class702;9048702;U49;1930;1930;1930;1930;3;8;0;3;0;5;0;BETA;1930;2100;3100;x;;;;;;;;;;;;
Brain-Class703;9048703;U49;1930;1930;1930;1930;3;8;0;3;0;5;0;BETA;1930;2100;3100;x;;;;;;;;;;;;
Brain-Class704;9048704;U49;1930;1930;1930;1930;3;8;0;3;0;5;0;BETA;1930;2100;3100;x;;;;;;;;;;;;
Brain-Class705;9048705;U49;1930;1930;1930;1930;3;8;0;3;0;5;0;BETA;1930;2100;3100;x;;;;;;;;;;;;
Brain-Class706;9048706;U49;1930;1930;1930;1930;3;8;0;3;0;5;0;BETA;1930;2100;3100;x;;;;;;;;;;;;
Brain-Class707;9048707;U49;1930;1930;1930;1930;3;8;0;3;0;5;0;BETA;1930;2100;3100;x;;;;;;;;;;;;
Brain-Class708;9048708;U49;1930;1930;1930;1930;3;8;0;3;0;5;0;BETA;1930;2100;3100;x;;;;;;;;;;;;
Brain-Class709;9048709;U49;1930;1930;1930;1930;3;8;0;3;0;5;0;BETA;1930;2100;3100;x;;;;;;;;;;;;
Brain-Class710;9048710;U49;1930;1930;1930;1930;3;8;0;3;0;5;0;BETA;1930;2100;3100;x;;;;;;;;;;;;
Brain-Class711;9048711;U49;1930;1930;1930;1930;3;8;0;3;0;5;0;BETA;1930;2100;3100;x;;;;;;;;;;;;
Brain-Class712;9048712;U49;1930;1930;1930;1930;3;8;0;3;0;5;0;BETA;1930;2100;3100;x;;;;;;;;;;;;
Brain-Class713;9048713;U49;1930;1930;1930;1930;3;8;0;3;0;5;0;BETA;1930;2100;3100;x;;;;;;;;;;;;
Brain-Class714;9048714;U49;1930;1930;1930;1930;3;8;0;3;0;5;0;BETA;1930;2100;3100;x;;;;;;;;;;;;
Brain-Class715;9048715;U49;1930;1930;1930;1930;3;8;0;3;0;5;0;BETA;1930;2100;3100;x;;;;;;;;;;;;
Brain-Class716;9048716;U49;1930;1930;1930;1930;3;8;0;3;0;5;0;BETA;1930;2100;3100;x;;;;;;;;;;;;
Brain-Class717;9048717;U49;1930;1930;1930;1930;3;8;0;3;0;5;0;BETA;1930;2100;3100;x;;;;;;;;;;;;
Brain-Class718;9048718;U49;1930;1930;1930;1930;3;8;0;3;0;5;0;BETA;1930;2100;3100;x;;;;;;;;;;;;
Brain-Class719;9048719;U49;1930;1930;1930;1930;3;8;0;3;0;5;0;BETA;1930;2100;3100;x;;;;;;;;;;;;
Brain-Class720;9048720;U49;1930;1930;1930;1930;3;8;0;3;0;5;0;BETA;1930;2100;3100;x;;;;;;;;;;;;
Brain-Class721;9048721;U49;1930;1930;1930;1930;3;8;0;3;0;5;0;BETA;1930;2100;3100;x;;;;;;;;;;;;
Brain-Class722;9048722;U49;1930;1930;1930;1930;3;8;0;3;0;5;0;BETA;1930;2100;3100;x;;;;;;;;;;;;
Brain-Class723;9048723;U49;1930;1930;1930;1930;3;8;0;3;0;5;0;BETA;1930;2100;3100;x;;;;;;;;;;;;
Brain-Class724;9048724;U49;1930;1930;1930;1930;3;8;0;3;0;5;0;BETA;1930;2100;3100;x;;;;;;;;;;;;
Brain-Class725;9048725;U49;1930;1930;1930;1930;3;8;0;3;0;5;0;BETA;1930;2100;3100;x;;;;;;;;;;;;
Brain-Class726;9048726;U49;1930;1930;1930;1930;3;8;0;3;0;5;0;BETA;1930;2100;3100;x;;;;;;;;;;;;
Brain-Class727;9048727;U49;1930;1930;1930;1930;3;8;0;3;0;5;0;BETA;1930;2100;3100;x;;;;;;;;;;;;
Brain-Class728;9048728;U49;1930;1930;1930;1930;3;8;0;3;0;5;0;BETA;1930;2100;3100;x;;;;;;;;;;;;
Brain-Class729;9048729;U49;1930;1930;1930;1930;3;8;0;3;0;5;0;BETA;1930;2100;3100;x;;;;;;;;;;;;
Brain-Class730;9048730;U49;1930;1930;1930;1930;3;8;0;3;0;5;0;BETA;1930;2100;3100;x;;;;;;;;;;;;
Brain-Class731;9048731;U49;1930;1930;1930;1930;3;8;0;3;0;5;0;BETA;1930;2100;3100;x;;;;;;;;;;;;
Brain-Class732;9048732;U49;1930;1930;1930;1930;3;8;0;3;0;5;0;BETA;1930;2100;3100;x;;;;;;;;;;;;
Brain-Class733;9048733;U49;1930;1930;1930;1930;3;8;0;3;0;5;0;BETA;1930;2100;3100;x;;;;;;;;;;;;
Brain-Class734;9048734;U49;1930;1930;1930;1930;3;8;0;3;0;5;0;BETA;1930;2100;3100;x;;;;;;;;;;;;
Brain-Class735;9048735;U49;1930;1930;1930;1930;3;8;0;3;0;5;0;BETA;1930;2100;3100;x;;;;;;;;;;;;
Brain-Class736;9048736;U49;1930;1930;1930;1930;3;8;0;3;0;5;0;BETA;1930;2100;3100;x;;;;;;;;;;;;
Brain-Class737;9048737;U49;1930;1930;1930;1930;3;8;0;3;0;5;0;BETA;1930;2100;3100;x;;;;;;;;;;;;
Brain-Class738;9048738;U49;1930;1930;1930;1930;3;8;0;3;0;5;0;BETA;1930;2100;3100;x;;;;;;;;;;;;
Brain-Class739;9048739;U49;1930;1930;1930;1930;3;8;0;3;0;5;0;BETA;1930;2100;3100;x;;;;;;;;;;;;
Brain-Class740;9048740;U49;1930;1930;1930;1930;3;8;0;3;0;5;0;BETA;1930;2100;3100;x;;;;;;;;;;;;
Brain-Class741;9048741;U49;1930;1930;1930;1930;3;8;0;3;0;5;0;BETA;1930;2100;3100;x;;;;;;;;;;;;
Brain-Class742;9048742;U49;1930;1930;1930;1930;3;8;0;3;0;5;0;BETA;1930;2100;3100;x;;;;;;;;;;;;
Brain-Class743;9048743;U49;1930;1930;1930;1930;3;8;0;3;0;5;0;BETA;1930;2100;3100;x;;;;;;;;;;;;
Brain-Class744;9048744;U49;1930;1930;1930;1930;3;8;0;3;0;5;0;BETA;1930;2100;3100;x;;;;;;;;;;;;
Brain-Class745;9048745;U49;1930;1930;1930;1930;3;8;0;3;0;5;0;BETA;1930;2100;3100;x;;;;;;;;;;;;
Brain-Class746;9048746;U49;1930;1930;1930;1930;3;8;0;3;0;5;0;BETA;1930;2100;3100;x;;;;;;;;;;;;
Brain-Class747;9048747;U49;1930;1930;1930;1930;3;8;0;3;0;5;0;BETA;1930;2100;3100;x;;;;;;;;;;;;
Brain-Class748;9048748;U49;1930;1930;1930;1930;3;8;0;3;0;5;0;BETA;1930;2100;3100;x;;;;;;;;;;;;
Brain-Class749;9048749;U49;1930;1930;1930;1930;3;8;0;3;0;5;0;BETA;1930;2100;3100;x;;;;;;;;;;;;
Brain-Class750;9048750;U49;1930;1930;1930;1930;3;8;0;3;0;5;0;BETA;1930;2100;3100;x;;;;;;;;;;;;
Brain-Class751;9048751;U49;1930;1930;1930;1930;3;8;0;3;0;5;0;BETA;1930;2100;3100;x;;;;;;;;;;;;
Brain-Class752;9048752;U49;1930;1930;1930;1930;3;8;0;3;0;5;0;BETA;1930;2100;3100;x;;;;;;;;;;;;
Brain-Class753;9048753;U49;1930;1930;1930;1930;3;8;0;3;0;5;0;BETA;1930;2100;3100;x;;;;;;;;;;;;
Brain-Class754;9048754;U49;1930;1930;1930;1930;3;8;0;3;0;5;0;BETA;1930;2100;3100;x;;;;;;;;;;;;
Brain-Class755;9048755;U49;1930;1930;1930;1930;3;8;0;3;0;5;0;BETA;1930;2100;3100;x;;;;;;;;;;;;
Brain-Class756;9048756;U49;1930;1930;1930;1930;3;8;0;3;0;5;0;BETA;1930;2100;3100;x;;;;;;;;;;;;
Brain-Class757;9048757;U49;1930;1930;1930;1930;3;8;0;3;0;5;0;BETA;1930;2100;3100;x;;;;;;;;;;;;
Brain-Class758;9048758;U49;1930;1930;1930;1930;3;8;0;3;0;5;0;BETA;1930;2100;3100;x;;;;;;;;;;;;
Brain-Class759;9048759;U49;1930;1930;1930;1930;3;8;0;3;0;5;0;BETA;1930;2100;3100;x;;;;;;;;;;;;
Brain-Class760;9048760;U49;1930;1930;1930;1930;3;8;0;3;0;5;0;BETA;1930;2100;3100;x;;;;;;;;;;;;
Brain-Class761;9048761;U49;1930;1930;1930;1930;3;8;0;3;0;5;0;BETA;1930;2100;3100;x;;;;;;;;;;;;
Brain-Class762;9048762;U49;1930;1930;1930;1930;3;8;0;3;0;5;0;BETA;1930;2100;3100;x;;;;;;;;;;;;
Brain-Class763;9048763;U49;1930;1930;1930;1930;3;8;0;3;0;5;0;BETA;1930;2100;3100;x;;;;;;;;;;;;
Brain-Class764;9048764;U49;1930;1930;1930;1930;3;8;0;3;0;5;0;BETA;1930;2100;3100;x;;;;;;;;;;;;
Brain-Class765;9048765;U49;1930;1930;1930;1930;3;8;0;3;0;5;0;BETA;1930;2100;3100;x;;;;;;;;;;;;
Brain-Class766;9048766;U49;1930;1930;1930;1930;3;8;0;3;0;5;0;BETA;1930;2100;3100;x;;;;;;;;;;;;
Brain-Class767;9048767;U49;1930;1930;1930;1930;3;8;0;3;0;5;0;BETA;1930;2100;3100;x;;;;;;;;;;;;
Brain-Class768;9048768;U49;1930;1930;1930;1930;3;8;0;3;0;5;0;BETA;1930;2100;3100;x;;;;;;;;;;;;
Brain-Class769;9048769;U49;1930;1930;1930;1930;3;8;0;3;0;5;0;BETA;1930;2100;3100;x;;;;;;;;;;;;
Brain-Class770;9048770;U49;1930;1930;1930;1930;3;8;0;3;0;5;0;BETA;1930;2100;3100;x;;;;;;;;;;;;
Brain-Class771;9048771;U49;1930;1930;1930;1930;3;8;0;3;0;5;0;BETA;1930;2100;3100;x;;;;;;;;;;;;
Brain-Class772;9048772;U49;1930;1930;1930;1930;3;8;0;3;0;5;0;BETA;1930;2100;3100;x;;;;;;;;;;;;
Brain-Class773;9048773;U49;1930;1930;1930;1930;3;8;0;3;0;5;0;BETA;1930;2100;3100;x;;;;;;;;;;;;
Brain-Class774;9048774;U49;1930;1930;1930;1930;3;8;0;3;0;5;0;BETA;1930;2100;3100;x;;;;;;;;;;;;
Brain-Class775;9048775;U49;1930;1930;1930;1930;3;8;0;3;0;5;0;BETA;1930;2100;3100;x;;;;;;;;;;;;
Brain-Class776;9048776;U49;1930;1930;1930;1930;3;8;0;3;0;5;0;BETA;1930;2100;3100;x;;;;;;;;;;;;
Brain-Class777;9048777;U49;1930;1930;1930;1930;3;8;0;3;0;5;0;BETA;1930;2100;3100;x;;;;;;;;;;;;
Brain-Class778;9048778;U49;1930;1930;1930;1930;3;8;0;3;0;5;0;BETA;1930;2100;3100;x;;;;;;;;;;;;
Brain-Class779;9048779;U49;1930;1930;1930;1930;3;8;0;3;0;5;0;BETA;1930;2100;3100;x;;;;;;;;;;;;
Brain-Class780;9048780;U49;1930;1930;1930;1930;3;8;0;3;0;5;0;BETA;1930;2100;3100;x;;;;;;;;;;;;
Brain-Class781;9048781;U49;1930;1930;1930;1930;3;8;0;3;0;5;0;BETA;1930;2100;3100;x;;;;;;;;;;;;
Brain-Class782;9048782;U49;1930;1930;1930;1930;3;8;0;3;0;5;0;BETA;1930;2100;3100;x;;;;;;;;;;;;
Brain-Class783;9048783;U49;1930;1930;1930;1930;3;8;0;3;0;5;0;BETA;1930;2100;3100;x;;;;;;;;;;;;
Brain-Class784;9048784;U49;1930;1930;1930;1930;3;8;0;3;0;5;0;BETA;1930;2100;3100;x;;;;;;;;;;;;
Brain-Class785;9048785;U49;1930;1930;1930;1930;3;8;0;3;0;5;0;BETA;1930;2100;3100;x;;;;;;;;;;;;
Brain-Class786;9048786;U49;1930;1930;1930;1930;3;8;0;3;0;5;0;BETA;1930;2100;3100;x;;;;;;;;;;;;
Brain-Class787;9048787;U49;1930;1930;1930;1930;3;8;0;3;0;5;0;BETA;1930;2100;3100;x;;;;;;;;;;;;
Brain-Class788;9048788;U49;1930;1930;1930;1930;3;8;0;3;0;5;0;BETA;1930;2100;3100;x;;;;;;;;;;;;
Brain-Class789;9048789;U49;1930;1930;1930;1930;3;8;0;3;0;5;0;BETA;1930;2100;3100;x;;;;;;;;;;;;
Brain-Class790;9048790;U49;1930;1930;1930;1930;3;8;0;3;0;5;0;BETA;1930;2100;3100;x;;;;;;;;;;;;
Brain-Class791;9048791;U49;1930;1930;1930;1930;3;8;0;3;0;5;0;BETA;1930;2100;3100;x;;;;;;;;;;;;
Brain-Class792;9048792;U49;1930;1930;1930;1930;3;8;0;3;0;5;0;BETA;1930;2100;3100;x;;;;;;;;;;;;
Brain-Class793;9048793;U49;1930;1930;1930;1930;3;8;0;3;0;5;0;BETA;1930;2100;3100;x;;;;;;;;;;;;
Brain-Class794;9048794;U49;1930;1930;1930;1930;3;8;0;3;0;5;0;BETA;1930;2100;3100;x;;;;;;;;;;;;
Brain-Class795;9048795;U49;1930;1930;1930;1930;3;8;0;3;0;5;0;BETA;1930;2100;3100;x;;;;;;;;;;;;
Brain-Class796;9048796;U49;1930;1930;1930;1930;3;8;0;3;0;5;0;BETA;1930;2100;3100;x;;;;;;;;;;;;
Brain-Class797;9048797;U49;1930;1930;1930;1930;3;8;0;3;0;5;0;BETA;1930;2100;3100;x;;;;;;;;;;;;
Brain-Class798;9048798;U49;1930;1930;1930;1930;3;8;0;3;0;5;0;BETA;1930;2100;3100;x;;;;;;;;;;;;
Brain-Class799;9048799;U49;1930;1930;1930;1930;3;8;0;3;0;5;0;BETA;1930;2100;3100;x;;;;;;;;;;;;
Brain-Class800;9048800;U49;1930;1930;1930;1930;3;8;0;3;0;5;0;BETA;1930;2100;3100;x;;;;;;;;;;;;
Brain-Class801;9048801;U49;1930;1930;1930;1930;3;8;0;3;0;5;0;BETA;1930;2100;3100;x;;;;;;;;;;;;
Brain-Class802;9048802;U49;1930;1930;1930;1930;3;8;0;3;0;5;0;BETA;1930;2100;3100;x;;;;;;;;;;;;
Brain-Class803;9048803;U49;1930;1930;1930;1930;3;8;0;3;0;5;0;BETA;1930;2100;3100;x;;;;;;;;;;;;
Brain-Class804;9048804;U49;1930;1930;1930;1930;3;8;0;3;0;5;0;BETA;1930;2100;3100;x;;;;;;;;;;;;
Brain-Class805;9048805;U49;1930;1930;1930;1930;3;8;0;3;0;5;0;BETA;1930;2100;3100;x;;;;;;;;;;;;
Brain-Class806;9048806;U49;1930;1930;1930;1930;3;8;0;3;0;5;0;BETA;1930;2100;3100;x;;;;;;;;;;;;
Brain-Class807;9048807;U49;1930;1930;1930;1930;3;8;0;3;0;5;0;BETA;1930;2100;3100;x;;;;;;;;;;;;
Brain-Class808;9048808;U49;1930;1930;1930;1930;3;8;0;3;0;5;0;BETA;1930;2100;3100;x;;;;;;;;;;;;
Brain-Class809;9048809;U49;1930;1930;1930;1930;3;8;0;3;0;5;0;BETA;1930;2100;3100;x;;;;;;;;;;;;
Brain-Class810;9048810;U49;1930;1930;1930;1930;3;8;0;3;0;5;0;BETA;1930;2100;3100;x;;;;;;;;;;;;
Brain-Class811;9048811;U49;1930;1930;1930;1930;3;8;0;3;0;5;0;BETA;1930;2100;3100;x;;;;;;;;;;;;
Brain-Class812;9048812;U49;1930;1930;1930;1930;3;8;0;3;0;5;0;BETA;1930;2100;3100;x;;;;;;;;;;;;
Brain-Class813;9048813;U49;1930;1930;1930;1930;3;8;0;3;0;5;0;BETA;1930;2100;3100;x;;;;;;;;;;;;
Brain-Class814;9048814;U49;1930;1930;1930;1930;3;8;0;3;0;5;0;BETA;1930;2100;3100;x;;;;;;;;;;;;
Brain-Class815;9048815;U49;1930;1930;1930;1930;3;8;0;3;0;5;0;BETA;1930;2100;3100;x;;;;;;;;;;;;
Brain-Class816;9048816;U49;1930;1930;1930;1930;3;8;0;3;0;5;0;BETA;1930;2100;3100;x;;;;;;;;;;;;
Brain-Class817;9048817;U49;1930;1930;1930;1930;3;8;0;3;0;5;0;BETA;1930;2100;3100;x;;;;;;;;;;;;
Brain-Class818;9048818;U49;1930;1930;1930;1930;3;8;0;3;0;5;0;BETA;1930;2100;3100;x;;;;;;;;;;;;
Brain-Class819;9048819;U49;1930;1930;1930;1930;3;8;0;3;0;5;0;BETA;1930;2100;3100;x;;;;;;;;;;;;
Brain-Class820;9048820;U49;1930;1930;1930;1930;3;8;0;3;0;5;0;BETA;1930;2100;3100;x;;;;;;;;;;;;
Brain-Class821;9048821;U49;1930;1930;1930;1930;3;8;0;3;0;5;0;BETA;1930;2100;3100;x;;;;;;;;;;;;
Brain-Class822;9048822;U49;1930;1930;1930;1930;3;8;0;3;0;5;0;BETA;1930;2100;3100;x;;;;;;;;;;;;
Brain-Class823;9048823;U49;1930;1930;1930;1930;3;8;0;3;0;5;0;BETA;1930;2100;3100;x;;;;;;;;;;;;
Brain-Class824;9048824;U49;1930;1930;1930;1930;3;8;0;3;0;5;0;BETA;1930;2100;3100;x;;;;;;;;;;;;
Brain-Class825;9048825;U49;1930;1930;1930;1930;3;8;0;3;0;5;0;BETA;1930;2100;3100;x;;;;;;;;;;;;
Brain-Class826;9048826;U49;1930;1930;1930;1930;3;8;0;3;0;5;0;BETA;1930;2100;3100;x;;;;;;;;;;;;
Brain-Class827;9048827;U49;1930;1930;1930;1930;3;8;0;3;0;5;0;BETA;1930;2100;3100;x;;;;;;;;;;;;
Brain-Class828;9048828;U49;1930;1930;1930;1930;3;8;0;3;0;5;0;BETA;1930;2100;3100;x;;;;;;;;;;;;
Brain-Class829;9048829;U49;1930;1930;1930;1930;3;8;0;3;0;5;0;BETA;1930;2100;3100;x;;;;;;;;;;;;
Brain-Class830;9048830;U49;1930;1930;1930;1930;3;8;0;3;0;5;0;BETA;1930;2100;3100;x;;;;;;;;;;;;
Brain-Class831;9048831;U49;1930;1930;1930;1930;3;8;0;3;0;5;0;BETA;1930;2100;3100;x;;;;;;;;;;;;
Brain-Class832;9048832;U49;1930;1930;1930;1930;3;8;0;3;0;5;0;BETA;1930;2100;3100;x;;;;;;;;;;;;
Brain-Class833;9048833;U49;1930;1930;1930;1930;3;8;0;3;0;5;0;BETA;1930;2100;3100;x;;;;;;;;;;;;
Brain-Class834;9048834;U49;1930;1930;1930;1930;3;8;0;3;0;5;0;BETA;1930;2100;3100;x;;;;;;;;;;;;
Brain-Class835;9048835;U49;1930;1930;1930;1930;3;8;0;3;0;5;0;BETA;1930;2100;3100;x;;;;;;;;;;;;
Brain-Class836;9048836;U49;1930;1930;1930;1930;3;8;0;3;0;5;0;BETA;1930;2100;3100;x;;;;;;;;;;;;
Brain-Class837;9048837;U49;1930;1930;1930;1930;3;8;0;3;0;5;0;BETA;1930;2100;3100;x;;;;;;;;;;;;
Brain-Class838;9048838;U49;1930;1930;1930;1930;3;8;0;3;0;5;0;BETA;1930;2100;3100;x;;;;;;;;;;;;
Brain-Class839;9048839;U49;1930;1930;1930;1930;3;8;0;3;0;5;0;BETA;1930;2100;3100;x;;;;;;;;;;;;
Brain-Class840;9048840;U49;1930;1930;1930;1930;3;8;0;3;0;5;0;BETA;1930;2100;3100;x;;;;;;;;;;;;
Brain-Class841;9048841;U49;1930;1930;1930;1930;3;8;0;3;0;5;0;BETA;1930;2100;3100;x;;;;;;;;;;;;
Brain-Class842;9048842;U49;1930;1930;1930;1930;3;8;0;3;0;5;0;BETA;1930;2100;3100;x;;;;;;;;;;;;
Brain-Class843;9048843;U49;1930;1930;1930;1930;3;8;0;3;0;5;0;BETA;1930;2100;3100;x;;;;;;;;;;;;
Brain-Class844;9048844;U49;1930;1930;1930;1930;3;8;0;3;0;5;0;BETA;1930;2100;3100;x;;;;;;;;;;;;
Brain-Class845;9048845;U49;1930;1930;1930;1930;3;8;0;3;0;5;0;BETA;1930;2100;3100;x;;;;;;;;;;;;
Brain-Class846;9048846;U49;1930;1930;1930;1930;3;8;0;3;0;5;0;BETA;1930;2100;3100;x;;;;;;;;;;;;
Brain-Class847;9048847;U49;1930;1930;1930;1930;3;8;0;3;0;5;0;BETA;1930;2100;3100;x;;;;;;;;;;;;
Brain-Class848;9048848;U49;1930;1930;1930;1930;3;8;0;3;0;5;0;BETA;1930;2100;3100;x;;;;;;;;;;;;
Brain-Class849;9048849;U49;1930;1930;1930;1930;3;8;0;3;0;5;0;BETA;1930;2100;3100;x;;;;;;;;;;;;
Brain-Class850;9048850;U49;1930;1930;1930;1930;3;8;0;3;0;5;0;BETA;1930;2100;3100;x;;;;;;;;;;;;
Brain-Class851;9048851;U49;1930;1930;1930;1930;3;8;0;3;0;5;0;BETA;1930;2100;3100;x;;;;;;;;;;;;
Brain-Class852;9048852;U49;1930;1930;1930;1930;3;8;0;3;0;5;0;BETA;1930;2100;3100;x;;;;;;;;;;;;
Brain-Class853;9048853;U49;1930;1930;1930;1930;3;8;0;3;0;5;0;BETA;1930;2100;3100;x;;;;;;;;;;;;
Brain-Class854;9048854;U49;1930;1930;1930;1930;3;8;0;3;0;5;0;BETA;1930;2100;3100;x;;;;;;;;;;;;
Brain-Class855;9048855;U49;1930;1930;1930;1930;3;8;0;3;0;5;0;BETA;1930;2100;3100;x;;;;;;;;;;;;
Brain-Class856;9048856;U49;1930;1930;1930;1930;3;8;0;3;0;5;0;BETA;1930;2100;3100;x;;;;;;;;;;;;
Brain-Class857;9048857;U49;1930;1930;1930;1930;3;8;0;3;0;5;0;BETA;1930;2100;3100;x;;;;;;;;;;;;
Brain-Class858;9048858;U49;1930;1930;1930;1930;3;8;0;3;0;5;0;BETA;1930;2100;3100;x;;;;;;;;;;;;
Brain-Class859;9048859;U49;1930;1930;1930;1930;3;8;0;3;0;5;0;BETA;1930;2100;3100;x;;;;;;;;;;;;
Brain-Class860;9048860;U49;1930;1930;1930;1930;3;8;0;3;0;5;0;BETA;1930;2100;3100;x;;;;;;;;;;;;
Brain-Class861;9048861;U49;1930;1930;1930;1930;3;8;0;3;0;5;0;BETA;1930;2100;3100;x;;;;;;;;;;;;
Brain-Class862;9048862;U49;1930;1930;1930;1930;3;8;0;3;0;5;0;BETA;1930;2100;3100;x;;;;;;;;;;;;
Brain-Class863;9048863;U49;1930;1930;1930;1930;3;8;0;3;0;5;0;BETA;1930;2100;3100;x;;;;;;;;;;;;
Brain-Class864;9048864;U49;1930;1930;1930;1930;3;8;0;3;0;5;0;BETA;1930;2100;3100;x;;;;;;;;;;;;
Brain-Class865;9048865;U49;1930;1930;1930;1930;3;8;0;3;0;5;0;BETA;1930;2100;3100;x;;;;;;;;;;;;
Brain-Class866;9048866;U49;1930;1930;1930;1930;3;8;0;3;0;5;0;BETA;1930;2100;3100;x;;;;;;;;;;;;
Brain-Class867;9048867;U49;1930;1930;1930;1930;3;8;0;3;0;5;0;BETA;1930;2100;3100;x;;;;;;;;;;;;
Brain-Class868;9048868;U49;1930;1930;1930;1930;3;8;0;3;0;5;0;BETA;1930;2100;3100;x;;;;;;;;;;;;
Brain-Class869;9048869;U49;1930;1930;1930;1930;3;8;0;3;0;5;0;BETA;1930;2100;3100;x;;;;;;;;;;;;
Brain-Class870;9048870;U49;1930;1930;1930;1930;3;8;0;3;0;5;0;BETA;1930;2100;3100;x;;;;;;;;;;;;
Brain-Class871;9048871;U49;1930;1930;1930;1930;3;8;0;3;0;5;0;BETA;1930;2100;3100;x;;;;;;;;;;;;
Brain-Class872;9048872;U49;1930;1930;1930;1930;3;8;0;3;0;5;0;BETA;1930;2100;3100;x;;;;;;;;;;;;
Brain-Class873;9048873;U49;1930;1930;1930;1930;3;8;0;3;0;5;0;BETA;1930;2100;3100;x;;;;;;;;;;;;
Brain-Class874;9048874;U49;1930;1930;1930;1930;3;8;0;3;0;5;0;BETA;1930;2100;3100;x;;;;;;;;;;;;
Brain-Class875;9048875;U49;1930;1930;1930;1930;3;8;0;3;0;5;0;BETA;1930;2100;3100;x;;;;;;;;;;;;
Brain-Class876;9048876;U49;1930;1930;1930;1930;3;8;0;3;0;5;0;BETA;1930;2100;3100;x;;;;;;;;;;;;
Brain-Class877;9048877;U49;1930;1930;1930;1930;3;8;0;3;0;5;0;BETA;1930;2100;3100;x;;;;;;;;;;;;
Brain-Class878;9048878;U49;1930;1930;1930;1930;3;8;0;3;0;5;0;BETA;1930;2100;3100;x;;;;;;;;;;;;
Brain-Class879;9048879;U49;1930;1930;1930;1930;3;8;0;3;0;5;0;BETA;1930;2100;3100;x;;;;;;;;;;;;
Brain-Class880;9048880;U49;1930;1930;1930;1930;3;8;0;3;0;5;0;BETA;1930;2100;3100;x;;;;;;;;;;;;
Brain-Class881;9048881;U49;1930;1930;1930;1930;3;8;0;3;0;5;0;BETA;1930;2100;3100;x;;;;;;;;;;;;
Brain-Class882;9048882;U49;1930;1930;1930;1930;3;8;0;3;0;5;0;BETA;1930;2100;3100;x;;;;;;;;;;;;
Brain-Class883;9048883;U49;1930;1930;1930;1930;3;8;0;3;0;5;0;BETA;1930;2100;3100;x;;;;;;;;;;;;
Brain-Class884;9048884;U49;1930;1930;1930;1930;3;8;0;3;0;5;0;BETA;1930;2100;3100;x;;;;;;;;;;;;
Brain-Class885;9048885;U49;1930;1930;1930;1930;3;8;0;3;0;5;0;BETA;1930;2100;3100;x;;;;;;;;;;;;
Brain-Class886;9048886;U49;1930;1930;1930;1930;3;8;0;3;0;5;0;BETA;1930;2100;3100;x;;;;;;;;;;;;
Brain-Class887;9048887;U49;1930;1930;1930;1930;3;8;0;3;0;5;0;BETA;1930;2100;3100;x;;;;;;;;;;;;
Brain-Class888;9048888;U49;1930;1930;1930;1930;3;8;0;3;0;5;0;BETA;1930;2100;3100;x;;;;;;;;;;;;
Brain-Class889;9048889;U49;1930;1930;1930;1930;3;8;0;3;0;5;0;BETA;1930;2100;3100;x;;;;;;;;;;;;
Brain-Class890;9048890;U49;1930;1930;1930;1930;3;8;0;3;0;5;0;BETA;1930;2100;3100;x;;;;;;;;;;;;
Brain-Class891;9048891;U49;1930;1930;1930;1930;3;8;0;3;0;5;0;BETA;1930;2100;3100;x;;;;;;;;;;;;
Brain-Class892;9048892;U49;1930;1930;1930;1930;3;8;0;3;0;5;0;BETA;1930;2100;3100;x;;;;;;;;;;;;
Brain-Class893;9048893;U49;1930;1930;1930;1930;3;8;0;3;0;5;0;BETA;1930;2100;3100;x;;;;;;;;;;;;
Brain-Class894;9048894;U49;1930;1930;1930;1930;3;8;0;3;0;5;0;BETA;1930;2100;3100;x;;;;;;;;;;;;
Brain-Class895;9048895;U49;1930;1930;1930;1930;3;8;0;3;0;5;0;BETA;1930;2100;3100;x;;;;;;;;;;;;
Brain-Class896;9048896;U49;1930;1930;1930;1930;3;8;0;3;0;5;0;BETA;1930;2100;3100;x;;;;;;;;;;;;
Brain-Class897;9048897;U49;1930;1930;1930;1930;3;8;0;3;0;5;0;BETA;1930;2100;3100;x;;;;;;;;;;;;
Brain-Class898;9048898;U49;1930;1930;1930;1930;3;8;0;3;0;5;0;BETA;1930;2100;3100;x;;;;;;;;;;;;
Brain-Class899;9048899;U49;1930;1930;1930;1930;3;8;0;3;0;5;0;BETA;1930;2100;3100;x;;;;;;;;;;;;
Brain-Class900;9048900;U49;1930;1930;1930;1930;3;8;0;3;0;5;0;BETA;1930;2100;3100;x;;;;;;;;;;;;
Brain-Class901;9048901;U49;1930;1930;1930;1930;3;8;0;3;0;5;0;BETA;1930;2100;3100;x;;;;;;;;;;;;
Brain-Class902;9048902;U49;1930;1930;1930;1930;3;8;0;3;0;5;0;BETA;1930;2100;3100;x;;;;;;;;;;;;
Brain-Class903;9048903;U49;1930;1930;1930;1930;3;8;0;3;0;5;0;BETA;1930;2100;3100;x;;;;;;;;;;;;
Brain-Class904;9048904;U49;1930;1930;1930;1930;3;8;0;3;0;5;0;BETA;1930;2100;3100;x;;;;;;;;;;;;
Brain-Class905;9048905;U49;1930;1930;1930;1930;3;8;0;3;0;5;0;BETA;1930;2100;3100;x;;;;;;;;;;;;
Brain-Class906;9048906;U49;1930;1930;1930;1930;3;8;0;3;0;5;0;BETA;1930;2100;3100;x;;;;;;;;;;;;
Brain-Class907;9048907;U49;1930;1930;1930;1930;3;8;0;3;0;5;0;BETA;1930;2100;3100;x;;;;;;;;;;;;
Brain-Class908;9048908;U49;1930;1930;1930;1930;3;8;0;3;0;5;0;BETA;1930;2100;3100;x;;;;;;;;;;;;
Brain-Class909;9048909;U49;1930;1930;1930;1930;3;8;0;3;0;5;0;BETA;1930;2100;3100;x;;;;;;;;;;;;
Brain-Class910;9048910;U49;1930;1930;1930;1930;3;8;0;3;0;5;0;BETA;1930;2100;3100;x;;;;;;;;;;;;
Brain-Class911;9048911;U49;1930;1930;1930;1930;3;8;0;3;0;5;0;BETA;1930;2100;3100;x;;;;;;;;;;;;
Brain-Class912;9048912;U49;1930;1930;1930;1930;3;8;0;3;0;5;0;BETA;1930;2100;3100;x;;;;;;;;;;;;
Brain-Class913;9048913;U49;1930;1930;1930;1930;3;8;0;3;0;5;0;BETA;1930;2100;3100;x;;;;;;;;;;;;
Brain-Class914;9048914;U49;1930;1930;1930;1930;3;8;0;3;0;5;0;BETA;1930;2100;3100;x;;;;;;;;;;;;
Brain-Class915;9048915;U49;1930;1930;1930;1930;3;8;0;3;0;5;0;BETA;1930;2100;3100;x;;;;;;;;;;;;
Brain-Class916;9048916;U49;1930;1930;1930;1930;3;8;0;3;0;5;0;BETA;1930;2100;3100;x;;;;;;;;;;;;
Brain-Class917;9048917;U49;1930;1930;1930;1930;3;8;0;3;0;5;0;BETA;1930;2100;3100;x;;;;;;;;;;;;
Brain-Class918;9048918;U49;1930;1930;1930;1930;3;8;0;3;0;5;0;BETA;1930;2100;3100;x;;;;;;;;;;;;
Brain-Class919;9048919;U49;1930;1930;1930;1930;3;8;0;3;0;5;0;BETA;1930;2100;3100;x;;;;;;;;;;;;
Brain-Class920;9048920;U49;1930;1930;1930;1930;3;8;0;3;0;5;0;BETA;1930;2100;3100;x;;;;;;;;;;;;
Brain-Class921;9048921;U49;1930;1930;1930;1930;3;8;0;3;0;5;0;BETA;1930;2100;3100;x;;;;;;;;;;;;
Brain-Class922;9048922;U49;1930;1930;1930;1930;3;8;0;3;0;5;0;BETA;1930;2100;3100;x;;;;;;;;;;;;
Brain-Class923;9048923;U49;1930;1930;1930;1930;3;8;0;3;0;5;0;BETA;1930;2100;3100;x;;;;;;;;;;;;
Brain-Class924;9048924;U49;1930;1930;1930;1930;3;8;0;3;0;5;0;BETA;1930;2100;3100;x;;;;;;;;;;;;
Brain-Class925;9048925;U49;1930;1930;1930;1930;3;8;0;3;0;5;0;BETA;1930;2100;3100;x;;;;;;;;;;;;
Brain-Class926;9048926;U49;1930;1930;1930;1930;3;8;0;3;0;5;0;BETA;1930;2100;3100;x;;;;;;;;;;;;
Brain-Class927;9048927;U49;1930;1930;1930;1930;3;8;0;3;0;5;0;BETA;1930;2100;3100;x;;;;;;;;;;;;
Brain-Class928;9048928;U49;1930;1930;1930;1930;3;8;0;3;0;5;0;BETA;1930;2100;3100;x;;;;;;;;;;;;
Brain-Class929;9048929;U49;1930;1930;1930;1930;3;8;0;3;0;5;0;BETA;1930;2100;3100;x;;;;;;;;;;;;
Brain-Class930;9048930;U49;1930;1930;1930;1930;3;8;0;3;0;5;0;BETA;1930;2100;3100;x;;;;;;;;;;;;
Brain-Class931;9048931;U49;1930;1930;1930;1930;3;8;0;3;0;5;0;BETA;1930;2100;3100;x;;;;;;;;;;;;
Brain-Class932;9048932;U49;1930;1930;1930;1930;3;8;0;3;0;5;0;BETA;1930;2100;3100;x;;;;;;;;;;;;
Brain-Class933;9048933;U49;1930;1930;1930;1930;3;8;0;3;0;5;0;BETA;1930;2100;3100;x;;;;;;;;;;;;
Brain-Class934;9048934;U49;1930;1930;1930;1930;3;8;0;3;0;5;0;BETA;1930;2100;3100;x;;;;;;;;;;;;
Brain-Class935;9048935;U49;1930;1930;1930;1930;3;8;0;3;0;5;0;BETA;1930;2100;3100;x;;;;;;;;;;;;
Brain-Class936;9048936;U49;1930;1930;1930;1930;3;8;0;3;0;5;0;BETA;1930;2100;3100;x;;;;;;;;;;;;
Brain-Class937;9048937;U49;1930;1930;1930;1930;3;8;0;3;0;5;0;BETA;1930;2100;3100;x;;;;;;;;;;;;
Brain-Class938;9048938;U49;1930;1930;1930;1930;3;8;0;3;0;5;0;BETA;1930;2100;3100;x;;;;;;;;;;;;
Brain-Class939;9048939;U49;1930;1930;1930;1930;3;8;0;3;0;5;0;BETA;1930;2100;3100;x;;;;;;;;;;;;
Brain-Class940;9048940;U49;1930;1930;1930;1930;3;8;0;3;0;5;0;BETA;1930;2100;3100;x;;;;;;;;;;;;
Brain-Class941;9048941;U49;1930;1930;1930;1930;3;8;0;3;0;5;0;BETA;1930;2100;3100;x;;;;;;;;;;;;
Brain-Class942;9048942;U49;1930;1930;1930;1930;3;8;0;3;0;5;0;BETA;1930;2100;3100;x;;;;;;;;;;;;
Brain-Class943;9048943;U49;1930;1930;1930;1930;3;8;0;3;0;5;0;BETA;1930;2100;3100;x;;;;;;;;;;;;
Brain-Class944;9048944;U49;1930;1930;1930;1930;3;8;0;3;0;5;0;BETA;1930;2100;3100;x;;;;;;;;;;;;
Brain-Class945;9048945;U49;1930;1930;1930;1930;3;8;0;3;0;5;0;BETA;1930;2100;3100;x;;;;;;;;;;;;
Brain-Class946;9048946;U49;1930;1930;1930;1930;3;8;0;3;0;5;0;BETA;1930;2100;3100;x;;;;;;;;;;;;
Brain-Class947;9048947;U49;1930;1930;1930;1930;3;8;0;3;0;5;0;BETA;1930;2100;3100;x;;;;;;;;;;;;
Brain-Class948;9048948;U49;1930;1930;1930;1930;3;8;0;3;0;5;0;BETA;1930;2100;3100;x;;;;;;;;;;;;
Brain-Class949;9048949;U49;1930;1930;1930;1930;3;8;0;3;0;5;0;BETA;1930;2100;3100;x;;;;;;;;;;;;
Brain-Class950;9048950;U49;1930;1930;1930;1930;3;8;0;3;0;5;0;BETA;1930;2100;3100;x;;;;;;;;;;;;
Brain-Class951;9048951;U49;1930;1930;1930;1930;3;8;0;3;0;5;0;BETA;1930;2100;3100;x;;;;;;;;;;;;
Brain-Class952;9048952;U49;1930;1930;1930;1930;3;8;0;3;0;5;0;BETA;1930;2100;3100;x;;;;;;;;;;;;
Brain-Class953;9048953;U49;1930;1930;1930;1930;3;8;0;3;0;5;0;BETA;1930;2100;3100;x;;;;;;;;;;;;
Brain-Class954;9048954;U49;1930;1930;1930;1930;3;8;0;3;0;5;0;BETA;1930;2100;3100;x;;;;;;;;;;;;
Brain-Class955;9048955;U49;1930;1930;1930;1930;3;8;0;3;0;5;0;BETA;1930;2100;3100;x;;;;;;;;;;;;
Brain-Class956;9048956;U49;1930;1930;1930;1930;3;8;0;3;0;5;0;BETA;1930;2100;3100;x;;;;;;;;;;;;
Brain-Class957;9048957;U49;1930;1930;1930;1930;3;8;0;3;0;5;0;BETA;1930;2100;3100;x;;;;;;;;;;;;
Brain-Class958;9048958;U49;1930;1930;1930;1930;3;8;0;3;0;5;0;BETA;1930;2100;3100;x;;;;;;;;;;;;
Brain-Class959;9048959;U49;1930;1930;1930;1930;3;8;0;3;0;5;0;BETA;1930;2100;3100;x;;;;;;;;;;;;
Brain-Class960;9048960;U49;1930;1930;1930;1930;3;8;0;3;0;5;0;BETA;1930;2100;3100;x;;;;;;;;;;;;
Brain-Class961;9048961;U49;1930;1930;1930;1930;3;8;0;3;0;5;0;BETA;1930;2100;3100;x;;;;;;;;;;;;
Brain-Class962;9048962;U49;1930;1930;1930;1930;3;8;0;3;0;5;0;BETA;1930;2100;3100;x;;;;;;;;;;;;
Brain-Class963;9048963;U49;1930;1930;1930;1930;3;8;0;3;0;5;0;BETA;1930;2100;3100;x;;;;;;;;;;;;
Brain-Class964;9048964;U49;1930;1930;1930;1930;3;8;0;3;0;5;0;BETA;1930;2100;3100;x;;;;;;;;;;;;
Brain-Class965;9048965;U49;1930;1930;1930;1930;3;8;0;3;0;5;0;BETA;1930;2100;3100;x;;;;;;;;;;;;
Brain-Class966;9048966;U49;1930;1930;1930;1930;3;8;0;3;0;5;0;BETA;1930;2100;3100;x;;;;;;;;;;;;
Brain-Class967;9048967;U49;1930;1930;1930;1930;3;8;0;3;0;5;0;BETA;1930;2100;3100;x;;;;;;;;;;;;
Brain-Class968;9048968;U49;1930;1930;1930;1930;3;8;0;3;0;5;0;BETA;1930;2100;3100;x;;;;;;;;;;;;
Brain-Class969;9048969;U49;1930;1930;1930;1930;3;8;0;3;0;5;0;BETA;1930;2100;3100;x;;;;;;;;;;;;
Brain-Class970;9048970;U49;1930;1930;1930;1930;3;8;0;3;0;5;0;BETA;1930;2100;3100;x;;;;;;;;;;;;
Brain-Class971;9048971;U49;1930;1930;1930;1930;3;8;0;3;0;5;0;BETA;1930;2100;3100;x;;;;;;;;;;;;
Brain-Class972;9048972;U49;1930;1930;1930;1930;3;8;0;3;0;5;0;BETA;1930;2100;3100;x;;;;;;;;;;;;
Brain-Class973;9048973;U49;1930;1930;1930;1930;3;8;0;3;0;5;0;BETA;1930;2100;3100;x;;;;;;;;;;;;
Brain-Class974;9048974;U49;1930;1930;1930;1930;3;8;0;3;0;5;0;BETA;1930;2100;3100;x;;;;;;;;;;;;
Brain-Class975;9048975;U49;1930;1930;1930;1930;3;8;0;3;0;5;0;BETA;1930;2100;3100;x;;;;;;;;;;;;
Brain-Class976;9048976;U49;1930;1930;1930;1930;3;8;0;3;0;5;0;BETA;1930;2100;3100;x;;;;;;;;;;;;
Brain-Class977;9048977;U49;1930;1930;1930;1930;3;8;0;3;0;5;0;BETA;1930;2100;3100;x;;;;;;;;;;;;
Brain-Class978;9048978;U49;1930;1930;1930;1930;3;8;0;3;0;5;0;BETA;1930;2100;3100;x;;;;;;;;;;;;
Brain-Class979;9048979;U49;1930;1930;1930;1930;3;8;0;3;0;5;0;BETA;1930;2100;3100;x;;;;;;;;;;;;
Brain-Class980;9048980;U49;1930;1930;1930;1930;3;8;0;3;0;5;0;BETA;1930;2100;3100;x;;;;;;;;;;;;
Brain-Class981;9048981;U49;1930;1930;1930;1930;3;8;0;3;0;5;0;BETA;1930;2100;3100;x;;;;;;;;;;;;
Brain-Class982;9048982;U49;1930;1930;1930;1930;3;8;0;3;0;5;0;BETA;1930;2100;3100;x;;;;;;;;;;;;
Brain-Class983;9048983;U49;1930;1930;1930;1930;3;8;0;3;0;5;0;BETA;1930;2100;3100;x;;;;;;;;;;;;
Brain-Class984;9048984;U49;1930;1930;1930;1930;3;8;0;3;0;5;0;BETA;1930;2100;3100;x;;;;;;;;;;;;
Brain-Class985;9048985;U49;1930;1930;1930;1930;3;8;0;3;0;5;0;BETA;1930;2100;3100;x;;;;;;;;;;;;
Brain-Class986;9048986;U49;1930;1930;1930;1930;3;8;0;3;0;5;0;BETA;1930;2100;3100;x;;;;;;;;;;;;
Brain-Class987;9048987;U49;1930;1930;1930;1930;3;8;0;3;0;5;0;BETA;1930;2100;3100;x;;;;;;;;;;;;
Brain-Class988;9048988;U49;1930;1930;1930;1930;3;8;0;3;0;5;0;BETA;1930;2100;3100;x;;;;;;;;;;;;
Brain-Class989;9048989;U49;1930;1930;1930;1930;3;8;0;3;0;5;0;BETA;1930;2100;3100;x;;;;;;;;;;;;
Brain-Class990;9048990;U49;1930;1930;1930;1930;3;8;0;3;0;5;0;BETA;1930;2100;3100;x;;;;;;;;;;;;
Brain-Class991;9048991;U49;1930;1930;1930;1930;3;8;0;3;0;5;0;BETA;1930;2100;3100;x;;;;;;;;;;;;
Brain-Class992;9048992;U49;1930;1930;1930;1930;3;8;0;3;0;5;0;BETA;1930;2100;3100;x;;;;;;;;;;;;
Brain-Class993;9048993;U49;1930;1930;1930;1930;3;8;0;3;0;5;0;BETA;1930;2100;3100;x;;;;;;;;;;;;
Brain-Class994;9048994;U49;1930;1930;1930;1930;3;8;0;3;0;5;0;BETA;1930;2100;3100;x;;;;;;;;;;;;
Brain-Class995;9048995;U49;1930;1930;1930;1930;3;8;0;3;0;5;0;BETA;1930;2100;3100;x;;;;;;;;;;;;
Brain-Class996;9048996;U49;1930;1930;1930;1930;3;8;0;3;0;5;0;BETA;1930;2100;3100;x;;;;;;;;;;;;
Brain-Class997;9048997;U49;1930;1930;1930;1930;3;8;0;3;0;5;0;BETA;1930;2100;3100;x;;;;;;;;;;;;
Brain-Class998;9048998;U49;1930;1930;1930;1930;3;8;0;3;0;5;0;BETA;1930;2100;3100;x;;;;;;;;;;;;
Brain-Class999;9048999;U49;1930;1930;1930;1930;3;8;0;3;0;5;0;BETA;1930;2100;3100;x;;;;;;;;;;;;
Brain-Class1000;9049000;U49;1930;1930;1930;1930;3;8;0;3;0;5;0;BETA;1930;2100;3100;x;;;;;;;;;;;;
