Name;ID;Country;Rank;3;Year;Rank;2;Year;Rank;1;Year;Rank;0;Year;Ideal;Rank;;Max;Skill;Traits;Skill;Experience;Loyalty;Type;Picture;Start;Year;End;Year;x
Brain-Class001;9050001;U51;1930;1930;1930;1930;3;8;0;3;0;5;0;BETA;1930;2100;3100;x;;;;;;;;;;;;
Brain-Class002;9050002;U51;1930;1930;1930;1930;3;8;0;3;0;5;0;BETA;1930;2100;3100;x;;;;;;;;;;;;
Brain-Class003;9050003;U51;1930;1930;1930;1930;3;8;0;3;0;5;0;BETA;1930;2100;3100;x;;;;;;;;;;;;
Brain-Class004;9050004;U51;1930;1930;1930;1930;3;8;0;3;0;5;0;BETA;1930;2100;3100;x;;;;;;;;;;;;
Brain-Class005;9050005;U51;1930;1930;1930;1930;3;8;0;3;0;5;0;BETA;1930;2100;3100;x;;;;;;;;;;;;
Brain-Class006;9050006;U51;1930;1930;1930;1930;3;8;0;3;0;5;0;BETA;1930;2100;3100;x;;;;;;;;;;;;
Brain-Class007;9050007;U51;1930;1930;1930;1930;3;8;0;3;0;5;0;BETA;1930;2100;3100;x;;;;;;;;;;;;
Brain-Class008;9050008;U51;1930;1930;1930;1930;3;8;0;3;0;5;0;BETA;1930;2100;3100;x;;;;;;;;;;;;
Brain-Class009;9050009;U51;1930;1930;1930;1930;3;8;0;3;0;5;0;BETA;1930;2100;3100;x;;;;;;;;;;;;
Brain-Class010;9050010;U51;1930;1930;1930;1930;3;8;0;3;0;5;0;BETA;1930;2100;3100;x;;;;;;;;;;;;
Brain-Class011;9050011;U51;1930;1930;1930;1930;3;8;0;3;0;5;0;BETA;1930;2100;3100;x;;;;;;;;;;;;
Brain-Class012;9050012;U51;1930;1930;1930;1930;3;8;0;3;0;5;0;BETA;1930;2100;3100;x;;;;;;;;;;;;
Brain-Class013;9050013;U51;1930;1930;1930;1930;3;8;0;3;0;5;0;BETA;1930;2100;3100;x;;;;;;;;;;;;
Brain-Class014;9050014;U51;1930;1930;1930;1930;3;8;0;3;0;5;0;BETA;1930;2100;3100;x;;;;;;;;;;;;
Brain-Class015;9050015;U51;1930;1930;1930;1930;3;8;0;3;0;5;0;BETA;1930;2100;3100;x;;;;;;;;;;;;
Brain-Class016;9050016;U51;1930;1930;1930;1930;3;8;0;3;0;5;0;BETA;1930;2100;3100;x;;;;;;;;;;;;
Brain-Class017;9050017;U51;1930;1930;1930;1930;3;8;0;3;0;5;0;BETA;1930;2100;3100;x;;;;;;;;;;;;
Brain-Class018;9050018;U51;1930;1930;1930;1930;3;8;0;3;0;5;0;BETA;1930;2100;3100;x;;;;;;;;;;;;
Brain-Class019;9050019;U51;1930;1930;1930;1930;3;8;0;3;0;5;0;BETA;1930;2100;3100;x;;;;;;;;;;;;
Brain-Class020;9050020;U51;1930;1930;1930;1930;3;8;0;3;0;5;0;BETA;1930;2100;3100;x;;;;;;;;;;;;
Brain-Class021;9050021;U51;1930;1930;1930;1930;3;8;0;3;0;5;0;BETA;1930;2100;3100;x;;;;;;;;;;;;
Brain-Class022;9050022;U51;1930;1930;1930;1930;3;8;0;3;0;5;0;BETA;1930;2100;3100;x;;;;;;;;;;;;
Brain-Class023;9050023;U51;1930;1930;1930;1930;3;8;0;3;0;5;0;BETA;1930;2100;3100;x;;;;;;;;;;;;
Brain-Class024;9050024;U51;1930;1930;1930;1930;3;8;0;3;0;5;0;BETA;1930;2100;3100;x;;;;;;;;;;;;
Brain-Class025;9050025;U51;1930;1930;1930;1930;3;8;0;3;0;5;0;BETA;1930;2100;3100;x;;;;;;;;;;;;
Brain-Class026;9050026;U51;1930;1930;1930;1930;3;8;0;3;0;5;0;BETA;1930;2100;3100;x;;;;;;;;;;;;
Brain-Class027;9050027;U51;1930;1930;1930;1930;3;8;0;3;0;5;0;BETA;1930;2100;3100;x;;;;;;;;;;;;
Brain-Class028;9050028;U51;1930;1930;1930;1930;3;8;0;3;0;5;0;BETA;1930;2100;3100;x;;;;;;;;;;;;
Brain-Class029;9050029;U51;1930;1930;1930;1930;3;8;0;3;0;5;0;BETA;1930;2100;3100;x;;;;;;;;;;;;
Brain-Class030;9050030;U51;1930;1930;1930;1930;3;8;0;3;0;5;0;BETA;1930;2100;3100;x;;;;;;;;;;;;
Brain-Class031;9050031;U51;1930;1930;1930;1930;3;8;0;3;0;5;0;BETA;1930;2100;3100;x;;;;;;;;;;;;
Brain-Class032;9050032;U51;1930;1930;1930;1930;3;8;0;3;0;5;0;BETA;1930;2100;3100;x;;;;;;;;;;;;
Brain-Class033;9050033;U51;1930;1930;1930;1930;3;8;0;3;0;5;0;BETA;1930;2100;3100;x;;;;;;;;;;;;
Brain-Class034;9050034;U51;1930;1930;1930;1930;3;8;0;3;0;5;0;BETA;1930;2100;3100;x;;;;;;;;;;;;
Brain-Class035;9050035;U51;1930;1930;1930;1930;3;8;0;3;0;5;0;BETA;1930;2100;3100;x;;;;;;;;;;;;
Brain-Class036;9050036;U51;1930;1930;1930;1930;3;8;0;3;0;5;0;BETA;1930;2100;3100;x;;;;;;;;;;;;
Brain-Class037;9050037;U51;1930;1930;1930;1930;3;8;0;3;0;5;0;BETA;1930;2100;3100;x;;;;;;;;;;;;
Brain-Class038;9050038;U51;1930;1930;1930;1930;3;8;0;3;0;5;0;BETA;1930;2100;3100;x;;;;;;;;;;;;
Brain-Class039;9050039;U51;1930;1930;1930;1930;3;8;0;3;0;5;0;BETA;1930;2100;3100;x;;;;;;;;;;;;
Brain-Class040;9050040;U51;1930;1930;1930;1930;3;8;0;3;0;5;0;BETA;1930;2100;3100;x;;;;;;;;;;;;
Brain-Class041;9050041;U51;1930;1930;1930;1930;3;8;0;3;0;5;0;BETA;1930;2100;3100;x;;;;;;;;;;;;
Brain-Class042;9050042;U51;1930;1930;1930;1930;3;8;0;3;0;5;0;BETA;1930;2100;3100;x;;;;;;;;;;;;
Brain-Class043;9050043;U51;1930;1930;1930;1930;3;8;0;3;0;5;0;BETA;1930;2100;3100;x;;;;;;;;;;;;
Brain-Class044;9050044;U51;1930;1930;1930;1930;3;8;0;3;0;5;0;BETA;1930;2100;3100;x;;;;;;;;;;;;
Brain-Class045;9050045;U51;1930;1930;1930;1930;3;8;0;3;0;5;0;BETA;1930;2100;3100;x;;;;;;;;;;;;
Brain-Class046;9050046;U51;1930;1930;1930;1930;3;8;0;3;0;5;0;BETA;1930;2100;3100;x;;;;;;;;;;;;
Brain-Class047;9050047;U51;1930;1930;1930;1930;3;8;0;3;0;5;0;BETA;1930;2100;3100;x;;;;;;;;;;;;
Brain-Class048;9050048;U51;1930;1930;1930;1930;3;8;0;3;0;5;0;BETA;1930;2100;3100;x;;;;;;;;;;;;
Brain-Class049;9050049;U51;1930;1930;1930;1930;3;8;0;3;0;5;0;BETA;1930;2100;3100;x;;;;;;;;;;;;
Brain-Class050;9050050;U51;1930;1930;1930;1930;3;8;0;3;0;5;0;BETA;1930;2100;3100;x;;;;;;;;;;;;
Brain-Class051;9050051;U51;1930;1930;1930;1930;3;8;0;3;0;5;0;BETA;1930;2100;3100;x;;;;;;;;;;;;
Brain-Class052;9050052;U51;1930;1930;1930;1930;3;8;0;3;0;5;0;BETA;1930;2100;3100;x;;;;;;;;;;;;
Brain-Class053;9050053;U51;1930;1930;1930;1930;3;8;0;3;0;5;0;BETA;1930;2100;3100;x;;;;;;;;;;;;
Brain-Class054;9050054;U51;1930;1930;1930;1930;3;8;0;3;0;5;0;BETA;1930;2100;3100;x;;;;;;;;;;;;
Brain-Class055;9050055;U51;1930;1930;1930;1930;3;8;0;3;0;5;0;BETA;1930;2100;3100;x;;;;;;;;;;;;
Brain-Class056;9050056;U51;1930;1930;1930;1930;3;8;0;3;0;5;0;BETA;1930;2100;3100;x;;;;;;;;;;;;
Brain-Class057;9050057;U51;1930;1930;1930;1930;3;8;0;3;0;5;0;BETA;1930;2100;3100;x;;;;;;;;;;;;
Brain-Class058;9050058;U51;1930;1930;1930;1930;3;8;0;3;0;5;0;BETA;1930;2100;3100;x;;;;;;;;;;;;
Brain-Class059;9050059;U51;1930;1930;1930;1930;3;8;0;3;0;5;0;BETA;1930;2100;3100;x;;;;;;;;;;;;
Brain-Class060;9050060;U51;1930;1930;1930;1930;3;8;0;3;0;5;0;BETA;1930;2100;3100;x;;;;;;;;;;;;
Brain-Class061;9050061;U51;1930;1930;1930;1930;3;8;0;3;0;5;0;BETA;1930;2100;3100;x;;;;;;;;;;;;
Brain-Class062;9050062;U51;1930;1930;1930;1930;3;8;0;3;0;5;0;BETA;1930;2100;3100;x;;;;;;;;;;;;
Brain-Class063;9050063;U51;1930;1930;1930;1930;3;8;0;3;0;5;0;BETA;1930;2100;3100;x;;;;;;;;;;;;
Brain-Class064;9050064;U51;1930;1930;1930;1930;3;8;0;3;0;5;0;BETA;1930;2100;3100;x;;;;;;;;;;;;
Brain-Class065;9050065;U51;1930;1930;1930;1930;3;8;0;3;0;5;0;BETA;1930;2100;3100;x;;;;;;;;;;;;
Brain-Class066;9050066;U51;1930;1930;1930;1930;3;8;0;3;0;5;0;BETA;1930;2100;3100;x;;;;;;;;;;;;
Brain-Class067;9050067;U51;1930;1930;1930;1930;3;8;0;3;0;5;0;BETA;1930;2100;3100;x;;;;;;;;;;;;
Brain-Class068;9050068;U51;1930;1930;1930;1930;3;8;0;3;0;5;0;BETA;1930;2100;3100;x;;;;;;;;;;;;
Brain-Class069;9050069;U51;1930;1930;1930;1930;3;8;0;3;0;5;0;BETA;1930;2100;3100;x;;;;;;;;;;;;
Brain-Class070;9050070;U51;1930;1930;1930;1930;3;8;0;3;0;5;0;BETA;1930;2100;3100;x;;;;;;;;;;;;
Brain-Class071;9050071;U51;1930;1930;1930;1930;3;8;0;3;0;5;0;BETA;1930;2100;3100;x;;;;;;;;;;;;
Brain-Class072;9050072;U51;1930;1930;1930;1930;3;8;0;3;0;5;0;BETA;1930;2100;3100;x;;;;;;;;;;;;
Brain-Class073;9050073;U51;1930;1930;1930;1930;3;8;0;3;0;5;0;BETA;1930;2100;3100;x;;;;;;;;;;;;
Brain-Class074;9050074;U51;1930;1930;1930;1930;3;8;0;3;0;5;0;BETA;1930;2100;3100;x;;;;;;;;;;;;
Brain-Class075;9050075;U51;1930;1930;1930;1930;3;8;0;3;0;5;0;BETA;1930;2100;3100;x;;;;;;;;;;;;
Brain-Class076;9050076;U51;1930;1930;1930;1930;3;8;0;3;0;5;0;BETA;1930;2100;3100;x;;;;;;;;;;;;
Brain-Class077;9050077;U51;1930;1930;1930;1930;3;8;0;3;0;5;0;BETA;1930;2100;3100;x;;;;;;;;;;;;
Brain-Class078;9050078;U51;1930;1930;1930;1930;3;8;0;3;0;5;0;BETA;1930;2100;3100;x;;;;;;;;;;;;
Brain-Class079;9050079;U51;1930;1930;1930;1930;3;8;0;3;0;5;0;BETA;1930;2100;3100;x;;;;;;;;;;;;
Brain-Class080;9050080;U51;1930;1930;1930;1930;3;8;0;3;0;5;0;BETA;1930;2100;3100;x;;;;;;;;;;;;
Brain-Class081;9050081;U51;1930;1930;1930;1930;3;8;0;3;0;5;0;BETA;1930;2100;3100;x;;;;;;;;;;;;
Brain-Class082;9050082;U51;1930;1930;1930;1930;3;8;0;3;0;5;0;BETA;1930;2100;3100;x;;;;;;;;;;;;
Brain-Class083;9050083;U51;1930;1930;1930;1930;3;8;0;3;0;5;0;BETA;1930;2100;3100;x;;;;;;;;;;;;
Brain-Class084;9050084;U51;1930;1930;1930;1930;3;8;0;3;0;5;0;BETA;1930;2100;3100;x;;;;;;;;;;;;
Brain-Class085;9050085;U51;1930;1930;1930;1930;3;8;0;3;0;5;0;BETA;1930;2100;3100;x;;;;;;;;;;;;
Brain-Class086;9050086;U51;1930;1930;1930;1930;3;8;0;3;0;5;0;BETA;1930;2100;3100;x;;;;;;;;;;;;
Brain-Class087;9050087;U51;1930;1930;1930;1930;3;8;0;3;0;5;0;BETA;1930;2100;3100;x;;;;;;;;;;;;
Brain-Class088;9050088;U51;1930;1930;1930;1930;3;8;0;3;0;5;0;BETA;1930;2100;3100;x;;;;;;;;;;;;
Brain-Class089;9050089;U51;1930;1930;1930;1930;3;8;0;3;0;5;0;BETA;1930;2100;3100;x;;;;;;;;;;;;
Brain-Class090;9050090;U51;1930;1930;1930;1930;3;8;0;3;0;5;0;BETA;1930;2100;3100;x;;;;;;;;;;;;
Brain-Class091;9050091;U51;1930;1930;1930;1930;3;8;0;3;0;5;0;BETA;1930;2100;3100;x;;;;;;;;;;;;
Brain-Class092;9050092;U51;1930;1930;1930;1930;3;8;0;3;0;5;0;BETA;1930;2100;3100;x;;;;;;;;;;;;
Brain-Class093;9050093;U51;1930;1930;1930;1930;3;8;0;3;0;5;0;BETA;1930;2100;3100;x;;;;;;;;;;;;
Brain-Class094;9050094;U51;1930;1930;1930;1930;3;8;0;3;0;5;0;BETA;1930;2100;3100;x;;;;;;;;;;;;
Brain-Class095;9050095;U51;1930;1930;1930;1930;3;8;0;3;0;5;0;BETA;1930;2100;3100;x;;;;;;;;;;;;
Brain-Class096;9050096;U51;1930;1930;1930;1930;3;8;0;3;0;5;0;BETA;1930;2100;3100;x;;;;;;;;;;;;
Brain-Class097;9050097;U51;1930;1930;1930;1930;3;8;0;3;0;5;0;BETA;1930;2100;3100;x;;;;;;;;;;;;
Brain-Class098;9050098;U51;1930;1930;1930;1930;3;8;0;3;0;5;0;BETA;1930;2100;3100;x;;;;;;;;;;;;
Brain-Class099;9050099;U51;1930;1930;1930;1930;3;8;0;3;0;5;0;BETA;1930;2100;3100;x;;;;;;;;;;;;
Brain-Class100;9050100;U51;1930;1930;1930;1930;3;8;0;3;0;5;0;BETA;1930;2100;3100;x;;;;;;;;;;;;
Brain-Class101;9050101;U51;1930;1930;1930;1930;3;8;0;3;0;5;0;BETA;1930;2100;3100;x;;;;;;;;;;;;
Brain-Class102;9050102;U51;1930;1930;1930;1930;3;8;0;3;0;5;0;BETA;1930;2100;3100;x;;;;;;;;;;;;
Brain-Class103;9050103;U51;1930;1930;1930;1930;3;8;0;3;0;5;0;BETA;1930;2100;3100;x;;;;;;;;;;;;
Brain-Class104;9050104;U51;1930;1930;1930;1930;3;8;0;3;0;5;0;BETA;1930;2100;3100;x;;;;;;;;;;;;
Brain-Class105;9050105;U51;1930;1930;1930;1930;3;8;0;3;0;5;0;BETA;1930;2100;3100;x;;;;;;;;;;;;
Brain-Class106;9050106;U51;1930;1930;1930;1930;3;8;0;3;0;5;0;BETA;1930;2100;3100;x;;;;;;;;;;;;
Brain-Class107;9050107;U51;1930;1930;1930;1930;3;8;0;3;0;5;0;BETA;1930;2100;3100;x;;;;;;;;;;;;
Brain-Class108;9050108;U51;1930;1930;1930;1930;3;8;0;3;0;5;0;BETA;1930;2100;3100;x;;;;;;;;;;;;
Brain-Class109;9050109;U51;1930;1930;1930;1930;3;8;0;3;0;5;0;BETA;1930;2100;3100;x;;;;;;;;;;;;
Brain-Class110;9050110;U51;1930;1930;1930;1930;3;8;0;3;0;5;0;BETA;1930;2100;3100;x;;;;;;;;;;;;
Brain-Class111;9050111;U51;1930;1930;1930;1930;3;8;0;3;0;5;0;BETA;1930;2100;3100;x;;;;;;;;;;;;
Brain-Class112;9050112;U51;1930;1930;1930;1930;3;8;0;3;0;5;0;BETA;1930;2100;3100;x;;;;;;;;;;;;
Brain-Class113;9050113;U51;1930;1930;1930;1930;3;8;0;3;0;5;0;BETA;1930;2100;3100;x;;;;;;;;;;;;
Brain-Class114;9050114;U51;1930;1930;1930;1930;3;8;0;3;0;5;0;BETA;1930;2100;3100;x;;;;;;;;;;;;
Brain-Class115;9050115;U51;1930;1930;1930;1930;3;8;0;3;0;5;0;BETA;1930;2100;3100;x;;;;;;;;;;;;
Brain-Class116;9050116;U51;1930;1930;1930;1930;3;8;0;3;0;5;0;BETA;1930;2100;3100;x;;;;;;;;;;;;
Brain-Class117;9050117;U51;1930;1930;1930;1930;3;8;0;3;0;5;0;BETA;1930;2100;3100;x;;;;;;;;;;;;
Brain-Class118;9050118;U51;1930;1930;1930;1930;3;8;0;3;0;5;0;BETA;1930;2100;3100;x;;;;;;;;;;;;
Brain-Class119;9050119;U51;1930;1930;1930;1930;3;8;0;3;0;5;0;BETA;1930;2100;3100;x;;;;;;;;;;;;
Brain-Class120;9050120;U51;1930;1930;1930;1930;3;8;0;3;0;5;0;BETA;1930;2100;3100;x;;;;;;;;;;;;
Brain-Class121;9050121;U51;1930;1930;1930;1930;3;8;0;3;0;5;0;BETA;1930;2100;3100;x;;;;;;;;;;;;
Brain-Class122;9050122;U51;1930;1930;1930;1930;3;8;0;3;0;5;0;BETA;1930;2100;3100;x;;;;;;;;;;;;
Brain-Class123;9050123;U51;1930;1930;1930;1930;3;8;0;3;0;5;0;BETA;1930;2100;3100;x;;;;;;;;;;;;
Brain-Class124;9050124;U51;1930;1930;1930;1930;3;8;0;3;0;5;0;BETA;1930;2100;3100;x;;;;;;;;;;;;
Brain-Class125;9050125;U51;1930;1930;1930;1930;3;8;0;3;0;5;0;BETA;1930;2100;3100;x;;;;;;;;;;;;
Brain-Class126;9050126;U51;1930;1930;1930;1930;3;8;0;3;0;5;0;BETA;1930;2100;3100;x;;;;;;;;;;;;
Brain-Class127;9050127;U51;1930;1930;1930;1930;3;8;0;3;0;5;0;BETA;1930;2100;3100;x;;;;;;;;;;;;
Brain-Class128;9050128;U51;1930;1930;1930;1930;3;8;0;3;0;5;0;BETA;1930;2100;3100;x;;;;;;;;;;;;
Brain-Class129;9050129;U51;1930;1930;1930;1930;3;8;0;3;0;5;0;BETA;1930;2100;3100;x;;;;;;;;;;;;
Brain-Class130;9050130;U51;1930;1930;1930;1930;3;8;0;3;0;5;0;BETA;1930;2100;3100;x;;;;;;;;;;;;
Brain-Class131;9050131;U51;1930;1930;1930;1930;3;8;0;3;0;5;0;BETA;1930;2100;3100;x;;;;;;;;;;;;
Brain-Class132;9050132;U51;1930;1930;1930;1930;3;8;0;3;0;5;0;BETA;1930;2100;3100;x;;;;;;;;;;;;
Brain-Class133;9050133;U51;1930;1930;1930;1930;3;8;0;3;0;5;0;BETA;1930;2100;3100;x;;;;;;;;;;;;
Brain-Class134;9050134;U51;1930;1930;1930;1930;3;8;0;3;0;5;0;BETA;1930;2100;3100;x;;;;;;;;;;;;
Brain-Class135;9050135;U51;1930;1930;1930;1930;3;8;0;3;0;5;0;BETA;1930;2100;3100;x;;;;;;;;;;;;
Brain-Class136;9050136;U51;1930;1930;1930;1930;3;8;0;3;0;5;0;BETA;1930;2100;3100;x;;;;;;;;;;;;
Brain-Class137;9050137;U51;1930;1930;1930;1930;3;8;0;3;0;5;0;BETA;1930;2100;3100;x;;;;;;;;;;;;
Brain-Class138;9050138;U51;1930;1930;1930;1930;3;8;0;3;0;5;0;BETA;1930;2100;3100;x;;;;;;;;;;;;
Brain-Class139;9050139;U51;1930;1930;1930;1930;3;8;0;3;0;5;0;BETA;1930;2100;3100;x;;;;;;;;;;;;
Brain-Class140;9050140;U51;1930;1930;1930;1930;3;8;0;3;0;5;0;BETA;1930;2100;3100;x;;;;;;;;;;;;
Brain-Class141;9050141;U51;1930;1930;1930;1930;3;8;0;3;0;5;0;BETA;1930;2100;3100;x;;;;;;;;;;;;
Brain-Class142;9050142;U51;1930;1930;1930;1930;3;8;0;3;0;5;0;BETA;1930;2100;3100;x;;;;;;;;;;;;
Brain-Class143;9050143;U51;1930;1930;1930;1930;3;8;0;3;0;5;0;BETA;1930;2100;3100;x;;;;;;;;;;;;
Brain-Class144;9050144;U51;1930;1930;1930;1930;3;8;0;3;0;5;0;BETA;1930;2100;3100;x;;;;;;;;;;;;
Brain-Class145;9050145;U51;1930;1930;1930;1930;3;8;0;3;0;5;0;BETA;1930;2100;3100;x;;;;;;;;;;;;
Brain-Class146;9050146;U51;1930;1930;1930;1930;3;8;0;3;0;5;0;BETA;1930;2100;3100;x;;;;;;;;;;;;
Brain-Class147;9050147;U51;1930;1930;1930;1930;3;8;0;3;0;5;0;BETA;1930;2100;3100;x;;;;;;;;;;;;
Brain-Class148;9050148;U51;1930;1930;1930;1930;3;8;0;3;0;5;0;BETA;1930;2100;3100;x;;;;;;;;;;;;
Brain-Class149;9050149;U51;1930;1930;1930;1930;3;8;0;3;0;5;0;BETA;1930;2100;3100;x;;;;;;;;;;;;
Brain-Class150;9050150;U51;1930;1930;1930;1930;3;8;0;3;0;5;0;BETA;1930;2100;3100;x;;;;;;;;;;;;
Brain-Class151;9050151;U51;1930;1930;1930;1930;3;8;0;3;0;5;0;BETA;1930;2100;3100;x;;;;;;;;;;;;
Brain-Class152;9050152;U51;1930;1930;1930;1930;3;8;0;3;0;5;0;BETA;1930;2100;3100;x;;;;;;;;;;;;
Brain-Class153;9050153;U51;1930;1930;1930;1930;3;8;0;3;0;5;0;BETA;1930;2100;3100;x;;;;;;;;;;;;
Brain-Class154;9050154;U51;1930;1930;1930;1930;3;8;0;3;0;5;0;BETA;1930;2100;3100;x;;;;;;;;;;;;
Brain-Class155;9050155;U51;1930;1930;1930;1930;3;8;0;3;0;5;0;BETA;1930;2100;3100;x;;;;;;;;;;;;
Brain-Class156;9050156;U51;1930;1930;1930;1930;3;8;0;3;0;5;0;BETA;1930;2100;3100;x;;;;;;;;;;;;
Brain-Class157;9050157;U51;1930;1930;1930;1930;3;8;0;3;0;5;0;BETA;1930;2100;3100;x;;;;;;;;;;;;
Brain-Class158;9050158;U51;1930;1930;1930;1930;3;8;0;3;0;5;0;BETA;1930;2100;3100;x;;;;;;;;;;;;
Brain-Class159;9050159;U51;1930;1930;1930;1930;3;8;0;3;0;5;0;BETA;1930;2100;3100;x;;;;;;;;;;;;
Brain-Class160;9050160;U51;1930;1930;1930;1930;3;8;0;3;0;5;0;BETA;1930;2100;3100;x;;;;;;;;;;;;
Brain-Class161;9050161;U51;1930;1930;1930;1930;3;8;0;3;0;5;0;BETA;1930;2100;3100;x;;;;;;;;;;;;
Brain-Class162;9050162;U51;1930;1930;1930;1930;3;8;0;3;0;5;0;BETA;1930;2100;3100;x;;;;;;;;;;;;
Brain-Class163;9050163;U51;1930;1930;1930;1930;3;8;0;3;0;5;0;BETA;1930;2100;3100;x;;;;;;;;;;;;
Brain-Class164;9050164;U51;1930;1930;1930;1930;3;8;0;3;0;5;0;BETA;1930;2100;3100;x;;;;;;;;;;;;
Brain-Class165;9050165;U51;1930;1930;1930;1930;3;8;0;3;0;5;0;BETA;1930;2100;3100;x;;;;;;;;;;;;
Brain-Class166;9050166;U51;1930;1930;1930;1930;3;8;0;3;0;5;0;BETA;1930;2100;3100;x;;;;;;;;;;;;
Brain-Class167;9050167;U51;1930;1930;1930;1930;3;8;0;3;0;5;0;BETA;1930;2100;3100;x;;;;;;;;;;;;
Brain-Class168;9050168;U51;1930;1930;1930;1930;3;8;0;3;0;5;0;BETA;1930;2100;3100;x;;;;;;;;;;;;
Brain-Class169;9050169;U51;1930;1930;1930;1930;3;8;0;3;0;5;0;BETA;1930;2100;3100;x;;;;;;;;;;;;
Brain-Class170;9050170;U51;1930;1930;1930;1930;3;8;0;3;0;5;0;BETA;1930;2100;3100;x;;;;;;;;;;;;
Brain-Class171;9050171;U51;1930;1930;1930;1930;3;8;0;3;0;5;0;BETA;1930;2100;3100;x;;;;;;;;;;;;
Brain-Class172;9050172;U51;1930;1930;1930;1930;3;8;0;3;0;5;0;BETA;1930;2100;3100;x;;;;;;;;;;;;
Brain-Class173;9050173;U51;1930;1930;1930;1930;3;8;0;3;0;5;0;BETA;1930;2100;3100;x;;;;;;;;;;;;
Brain-Class174;9050174;U51;1930;1930;1930;1930;3;8;0;3;0;5;0;BETA;1930;2100;3100;x;;;;;;;;;;;;
Brain-Class175;9050175;U51;1930;1930;1930;1930;3;8;0;3;0;5;0;BETA;1930;2100;3100;x;;;;;;;;;;;;
Brain-Class176;9050176;U51;1930;1930;1930;1930;3;8;0;3;0;5;0;BETA;1930;2100;3100;x;;;;;;;;;;;;
Brain-Class177;9050177;U51;1930;1930;1930;1930;3;8;0;3;0;5;0;BETA;1930;2100;3100;x;;;;;;;;;;;;
Brain-Class178;9050178;U51;1930;1930;1930;1930;3;8;0;3;0;5;0;BETA;1930;2100;3100;x;;;;;;;;;;;;
Brain-Class179;9050179;U51;1930;1930;1930;1930;3;8;0;3;0;5;0;BETA;1930;2100;3100;x;;;;;;;;;;;;
Brain-Class180;9050180;U51;1930;1930;1930;1930;3;8;0;3;0;5;0;BETA;1930;2100;3100;x;;;;;;;;;;;;
Brain-Class181;9050181;U51;1930;1930;1930;1930;3;8;0;3;0;5;0;BETA;1930;2100;3100;x;;;;;;;;;;;;
Brain-Class182;9050182;U51;1930;1930;1930;1930;3;8;0;3;0;5;0;BETA;1930;2100;3100;x;;;;;;;;;;;;
Brain-Class183;9050183;U51;1930;1930;1930;1930;3;8;0;3;0;5;0;BETA;1930;2100;3100;x;;;;;;;;;;;;
Brain-Class184;9050184;U51;1930;1930;1930;1930;3;8;0;3;0;5;0;BETA;1930;2100;3100;x;;;;;;;;;;;;
Brain-Class185;9050185;U51;1930;1930;1930;1930;3;8;0;3;0;5;0;BETA;1930;2100;3100;x;;;;;;;;;;;;
Brain-Class186;9050186;U51;1930;1930;1930;1930;3;8;0;3;0;5;0;BETA;1930;2100;3100;x;;;;;;;;;;;;
Brain-Class187;9050187;U51;1930;1930;1930;1930;3;8;0;3;0;5;0;BETA;1930;2100;3100;x;;;;;;;;;;;;
Brain-Class188;9050188;U51;1930;1930;1930;1930;3;8;0;3;0;5;0;BETA;1930;2100;3100;x;;;;;;;;;;;;
Brain-Class189;9050189;U51;1930;1930;1930;1930;3;8;0;3;0;5;0;BETA;1930;2100;3100;x;;;;;;;;;;;;
Brain-Class190;9050190;U51;1930;1930;1930;1930;3;8;0;3;0;5;0;BETA;1930;2100;3100;x;;;;;;;;;;;;
Brain-Class191;9050191;U51;1930;1930;1930;1930;3;8;0;3;0;5;0;BETA;1930;2100;3100;x;;;;;;;;;;;;
Brain-Class192;9050192;U51;1930;1930;1930;1930;3;8;0;3;0;5;0;BETA;1930;2100;3100;x;;;;;;;;;;;;
Brain-Class193;9050193;U51;1930;1930;1930;1930;3;8;0;3;0;5;0;BETA;1930;2100;3100;x;;;;;;;;;;;;
Brain-Class194;9050194;U51;1930;1930;1930;1930;3;8;0;3;0;5;0;BETA;1930;2100;3100;x;;;;;;;;;;;;
Brain-Class195;9050195;U51;1930;1930;1930;1930;3;8;0;3;0;5;0;BETA;1930;2100;3100;x;;;;;;;;;;;;
Brain-Class196;9050196;U51;1930;1930;1930;1930;3;8;0;3;0;5;0;BETA;1930;2100;3100;x;;;;;;;;;;;;
Brain-Class197;9050197;U51;1930;1930;1930;1930;3;8;0;3;0;5;0;BETA;1930;2100;3100;x;;;;;;;;;;;;
Brain-Class198;9050198;U51;1930;1930;1930;1930;3;8;0;3;0;5;0;BETA;1930;2100;3100;x;;;;;;;;;;;;
Brain-Class199;9050199;U51;1930;1930;1930;1930;3;8;0;3;0;5;0;BETA;1930;2100;3100;x;;;;;;;;;;;;
Brain-Class200;9050200;U51;1930;1930;1930;1930;3;8;0;3;0;5;0;BETA;1930;2100;3100;x;;;;;;;;;;;;
Brain-Class201;9050201;U51;1930;1930;1930;1930;3;8;0;3;0;5;0;BETA;1930;2100;3100;x;;;;;;;;;;;;
Brain-Class202;9050202;U51;1930;1930;1930;1930;3;8;0;3;0;5;0;BETA;1930;2100;3100;x;;;;;;;;;;;;
Brain-Class203;9050203;U51;1930;1930;1930;1930;3;8;0;3;0;5;0;BETA;1930;2100;3100;x;;;;;;;;;;;;
Brain-Class204;9050204;U51;1930;1930;1930;1930;3;8;0;3;0;5;0;BETA;1930;2100;3100;x;;;;;;;;;;;;
Brain-Class205;9050205;U51;1930;1930;1930;1930;3;8;0;3;0;5;0;BETA;1930;2100;3100;x;;;;;;;;;;;;
Brain-Class206;9050206;U51;1930;1930;1930;1930;3;8;0;3;0;5;0;BETA;1930;2100;3100;x;;;;;;;;;;;;
Brain-Class207;9050207;U51;1930;1930;1930;1930;3;8;0;3;0;5;0;BETA;1930;2100;3100;x;;;;;;;;;;;;
Brain-Class208;9050208;U51;1930;1930;1930;1930;3;8;0;3;0;5;0;BETA;1930;2100;3100;x;;;;;;;;;;;;
Brain-Class209;9050209;U51;1930;1930;1930;1930;3;8;0;3;0;5;0;BETA;1930;2100;3100;x;;;;;;;;;;;;
Brain-Class210;9050210;U51;1930;1930;1930;1930;3;8;0;3;0;5;0;BETA;1930;2100;3100;x;;;;;;;;;;;;
Brain-Class211;9050211;U51;1930;1930;1930;1930;3;8;0;3;0;5;0;BETA;1930;2100;3100;x;;;;;;;;;;;;
Brain-Class212;9050212;U51;1930;1930;1930;1930;3;8;0;3;0;5;0;BETA;1930;2100;3100;x;;;;;;;;;;;;
Brain-Class213;9050213;U51;1930;1930;1930;1930;3;8;0;3;0;5;0;BETA;1930;2100;3100;x;;;;;;;;;;;;
Brain-Class214;9050214;U51;1930;1930;1930;1930;3;8;0;3;0;5;0;BETA;1930;2100;3100;x;;;;;;;;;;;;
Brain-Class215;9050215;U51;1930;1930;1930;1930;3;8;0;3;0;5;0;BETA;1930;2100;3100;x;;;;;;;;;;;;
Brain-Class216;9050216;U51;1930;1930;1930;1930;3;8;0;3;0;5;0;BETA;1930;2100;3100;x;;;;;;;;;;;;
Brain-Class217;9050217;U51;1930;1930;1930;1930;3;8;0;3;0;5;0;BETA;1930;2100;3100;x;;;;;;;;;;;;
Brain-Class218;9050218;U51;1930;1930;1930;1930;3;8;0;3;0;5;0;BETA;1930;2100;3100;x;;;;;;;;;;;;
Brain-Class219;9050219;U51;1930;1930;1930;1930;3;8;0;3;0;5;0;BETA;1930;2100;3100;x;;;;;;;;;;;;
Brain-Class220;9050220;U51;1930;1930;1930;1930;3;8;0;3;0;5;0;BETA;1930;2100;3100;x;;;;;;;;;;;;
Brain-Class221;9050221;U51;1930;1930;1930;1930;3;8;0;3;0;5;0;BETA;1930;2100;3100;x;;;;;;;;;;;;
Brain-Class222;9050222;U51;1930;1930;1930;1930;3;8;0;3;0;5;0;BETA;1930;2100;3100;x;;;;;;;;;;;;
Brain-Class223;9050223;U51;1930;1930;1930;1930;3;8;0;3;0;5;0;BETA;1930;2100;3100;x;;;;;;;;;;;;
Brain-Class224;9050224;U51;1930;1930;1930;1930;3;8;0;3;0;5;0;BETA;1930;2100;3100;x;;;;;;;;;;;;
Brain-Class225;9050225;U51;1930;1930;1930;1930;3;8;0;3;0;5;0;BETA;1930;2100;3100;x;;;;;;;;;;;;
Brain-Class226;9050226;U51;1930;1930;1930;1930;3;8;0;3;0;5;0;BETA;1930;2100;3100;x;;;;;;;;;;;;
Brain-Class227;9050227;U51;1930;1930;1930;1930;3;8;0;3;0;5;0;BETA;1930;2100;3100;x;;;;;;;;;;;;
Brain-Class228;9050228;U51;1930;1930;1930;1930;3;8;0;3;0;5;0;BETA;1930;2100;3100;x;;;;;;;;;;;;
Brain-Class229;9050229;U51;1930;1930;1930;1930;3;8;0;3;0;5;0;BETA;1930;2100;3100;x;;;;;;;;;;;;
Brain-Class230;9050230;U51;1930;1930;1930;1930;3;8;0;3;0;5;0;BETA;1930;2100;3100;x;;;;;;;;;;;;
Brain-Class231;9050231;U51;1930;1930;1930;1930;3;8;0;3;0;5;0;BETA;1930;2100;3100;x;;;;;;;;;;;;
Brain-Class232;9050232;U51;1930;1930;1930;1930;3;8;0;3;0;5;0;BETA;1930;2100;3100;x;;;;;;;;;;;;
Brain-Class233;9050233;U51;1930;1930;1930;1930;3;8;0;3;0;5;0;BETA;1930;2100;3100;x;;;;;;;;;;;;
Brain-Class234;9050234;U51;1930;1930;1930;1930;3;8;0;3;0;5;0;BETA;1930;2100;3100;x;;;;;;;;;;;;
Brain-Class235;9050235;U51;1930;1930;1930;1930;3;8;0;3;0;5;0;BETA;1930;2100;3100;x;;;;;;;;;;;;
Brain-Class236;9050236;U51;1930;1930;1930;1930;3;8;0;3;0;5;0;BETA;1930;2100;3100;x;;;;;;;;;;;;
Brain-Class237;9050237;U51;1930;1930;1930;1930;3;8;0;3;0;5;0;BETA;1930;2100;3100;x;;;;;;;;;;;;
Brain-Class238;9050238;U51;1930;1930;1930;1930;3;8;0;3;0;5;0;BETA;1930;2100;3100;x;;;;;;;;;;;;
Brain-Class239;9050239;U51;1930;1930;1930;1930;3;8;0;3;0;5;0;BETA;1930;2100;3100;x;;;;;;;;;;;;
Brain-Class240;9050240;U51;1930;1930;1930;1930;3;8;0;3;0;5;0;BETA;1930;2100;3100;x;;;;;;;;;;;;
Brain-Class241;9050241;U51;1930;1930;1930;1930;3;8;0;3;0;5;0;BETA;1930;2100;3100;x;;;;;;;;;;;;
Brain-Class242;9050242;U51;1930;1930;1930;1930;3;8;0;3;0;5;0;BETA;1930;2100;3100;x;;;;;;;;;;;;
Brain-Class243;9050243;U51;1930;1930;1930;1930;3;8;0;3;0;5;0;BETA;1930;2100;3100;x;;;;;;;;;;;;
Brain-Class244;9050244;U51;1930;1930;1930;1930;3;8;0;3;0;5;0;BETA;1930;2100;3100;x;;;;;;;;;;;;
Brain-Class245;9050245;U51;1930;1930;1930;1930;3;8;0;3;0;5;0;BETA;1930;2100;3100;x;;;;;;;;;;;;
Brain-Class246;9050246;U51;1930;1930;1930;1930;3;8;0;3;0;5;0;BETA;1930;2100;3100;x;;;;;;;;;;;;
Brain-Class247;9050247;U51;1930;1930;1930;1930;3;8;0;3;0;5;0;BETA;1930;2100;3100;x;;;;;;;;;;;;
Brain-Class248;9050248;U51;1930;1930;1930;1930;3;8;0;3;0;5;0;BETA;1930;2100;3100;x;;;;;;;;;;;;
Brain-Class249;9050249;U51;1930;1930;1930;1930;3;8;0;3;0;5;0;BETA;1930;2100;3100;x;;;;;;;;;;;;
Brain-Class250;9050250;U51;1930;1930;1930;1930;3;8;0;3;0;5;0;BETA;1930;2100;3100;x;;;;;;;;;;;;
Brain-Class251;9050251;U51;1930;1930;1930;1930;3;8;0;3;0;5;0;BETA;1930;2100;3100;x;;;;;;;;;;;;
Brain-Class252;9050252;U51;1930;1930;1930;1930;3;8;0;3;0;5;0;BETA;1930;2100;3100;x;;;;;;;;;;;;
Brain-Class253;9050253;U51;1930;1930;1930;1930;3;8;0;3;0;5;0;BETA;1930;2100;3100;x;;;;;;;;;;;;
Brain-Class254;9050254;U51;1930;1930;1930;1930;3;8;0;3;0;5;0;BETA;1930;2100;3100;x;;;;;;;;;;;;
Brain-Class255;9050255;U51;1930;1930;1930;1930;3;8;0;3;0;5;0;BETA;1930;2100;3100;x;;;;;;;;;;;;
Brain-Class256;9050256;U51;1930;1930;1930;1930;3;8;0;3;0;5;0;BETA;1930;2100;3100;x;;;;;;;;;;;;
Brain-Class257;9050257;U51;1930;1930;1930;1930;3;8;0;3;0;5;0;BETA;1930;2100;3100;x;;;;;;;;;;;;
Brain-Class258;9050258;U51;1930;1930;1930;1930;3;8;0;3;0;5;0;BETA;1930;2100;3100;x;;;;;;;;;;;;
Brain-Class259;9050259;U51;1930;1930;1930;1930;3;8;0;3;0;5;0;BETA;1930;2100;3100;x;;;;;;;;;;;;
Brain-Class260;9050260;U51;1930;1930;1930;1930;3;8;0;3;0;5;0;BETA;1930;2100;3100;x;;;;;;;;;;;;
Brain-Class261;9050261;U51;1930;1930;1930;1930;3;8;0;3;0;5;0;BETA;1930;2100;3100;x;;;;;;;;;;;;
Brain-Class262;9050262;U51;1930;1930;1930;1930;3;8;0;3;0;5;0;BETA;1930;2100;3100;x;;;;;;;;;;;;
Brain-Class263;9050263;U51;1930;1930;1930;1930;3;8;0;3;0;5;0;BETA;1930;2100;3100;x;;;;;;;;;;;;
Brain-Class264;9050264;U51;1930;1930;1930;1930;3;8;0;3;0;5;0;BETA;1930;2100;3100;x;;;;;;;;;;;;
Brain-Class265;9050265;U51;1930;1930;1930;1930;3;8;0;3;0;5;0;BETA;1930;2100;3100;x;;;;;;;;;;;;
Brain-Class266;9050266;U51;1930;1930;1930;1930;3;8;0;3;0;5;0;BETA;1930;2100;3100;x;;;;;;;;;;;;
Brain-Class267;9050267;U51;1930;1930;1930;1930;3;8;0;3;0;5;0;BETA;1930;2100;3100;x;;;;;;;;;;;;
Brain-Class268;9050268;U51;1930;1930;1930;1930;3;8;0;3;0;5;0;BETA;1930;2100;3100;x;;;;;;;;;;;;
Brain-Class269;9050269;U51;1930;1930;1930;1930;3;8;0;3;0;5;0;BETA;1930;2100;3100;x;;;;;;;;;;;;
Brain-Class270;9050270;U51;1930;1930;1930;1930;3;8;0;3;0;5;0;BETA;1930;2100;3100;x;;;;;;;;;;;;
Brain-Class271;9050271;U51;1930;1930;1930;1930;3;8;0;3;0;5;0;BETA;1930;2100;3100;x;;;;;;;;;;;;
Brain-Class272;9050272;U51;1930;1930;1930;1930;3;8;0;3;0;5;0;BETA;1930;2100;3100;x;;;;;;;;;;;;
Brain-Class273;9050273;U51;1930;1930;1930;1930;3;8;0;3;0;5;0;BETA;1930;2100;3100;x;;;;;;;;;;;;
Brain-Class274;9050274;U51;1930;1930;1930;1930;3;8;0;3;0;5;0;BETA;1930;2100;3100;x;;;;;;;;;;;;
Brain-Class275;9050275;U51;1930;1930;1930;1930;3;8;0;3;0;5;0;BETA;1930;2100;3100;x;;;;;;;;;;;;
Brain-Class276;9050276;U51;1930;1930;1930;1930;3;8;0;3;0;5;0;BETA;1930;2100;3100;x;;;;;;;;;;;;
Brain-Class277;9050277;U51;1930;1930;1930;1930;3;8;0;3;0;5;0;BETA;1930;2100;3100;x;;;;;;;;;;;;
Brain-Class278;9050278;U51;1930;1930;1930;1930;3;8;0;3;0;5;0;BETA;1930;2100;3100;x;;;;;;;;;;;;
Brain-Class279;9050279;U51;1930;1930;1930;1930;3;8;0;3;0;5;0;BETA;1930;2100;3100;x;;;;;;;;;;;;
Brain-Class280;9050280;U51;1930;1930;1930;1930;3;8;0;3;0;5;0;BETA;1930;2100;3100;x;;;;;;;;;;;;
Brain-Class281;9050281;U51;1930;1930;1930;1930;3;8;0;3;0;5;0;BETA;1930;2100;3100;x;;;;;;;;;;;;
Brain-Class282;9050282;U51;1930;1930;1930;1930;3;8;0;3;0;5;0;BETA;1930;2100;3100;x;;;;;;;;;;;;
Brain-Class283;9050283;U51;1930;1930;1930;1930;3;8;0;3;0;5;0;BETA;1930;2100;3100;x;;;;;;;;;;;;
Brain-Class284;9050284;U51;1930;1930;1930;1930;3;8;0;3;0;5;0;BETA;1930;2100;3100;x;;;;;;;;;;;;
Brain-Class285;9050285;U51;1930;1930;1930;1930;3;8;0;3;0;5;0;BETA;1930;2100;3100;x;;;;;;;;;;;;
Brain-Class286;9050286;U51;1930;1930;1930;1930;3;8;0;3;0;5;0;BETA;1930;2100;3100;x;;;;;;;;;;;;
Brain-Class287;9050287;U51;1930;1930;1930;1930;3;8;0;3;0;5;0;BETA;1930;2100;3100;x;;;;;;;;;;;;
Brain-Class288;9050288;U51;1930;1930;1930;1930;3;8;0;3;0;5;0;BETA;1930;2100;3100;x;;;;;;;;;;;;
Brain-Class289;9050289;U51;1930;1930;1930;1930;3;8;0;3;0;5;0;BETA;1930;2100;3100;x;;;;;;;;;;;;
Brain-Class290;9050290;U51;1930;1930;1930;1930;3;8;0;3;0;5;0;BETA;1930;2100;3100;x;;;;;;;;;;;;
Brain-Class291;9050291;U51;1930;1930;1930;1930;3;8;0;3;0;5;0;BETA;1930;2100;3100;x;;;;;;;;;;;;
Brain-Class292;9050292;U51;1930;1930;1930;1930;3;8;0;3;0;5;0;BETA;1930;2100;3100;x;;;;;;;;;;;;
Brain-Class293;9050293;U51;1930;1930;1930;1930;3;8;0;3;0;5;0;BETA;1930;2100;3100;x;;;;;;;;;;;;
Brain-Class294;9050294;U51;1930;1930;1930;1930;3;8;0;3;0;5;0;BETA;1930;2100;3100;x;;;;;;;;;;;;
Brain-Class295;9050295;U51;1930;1930;1930;1930;3;8;0;3;0;5;0;BETA;1930;2100;3100;x;;;;;;;;;;;;
Brain-Class296;9050296;U51;1930;1930;1930;1930;3;8;0;3;0;5;0;BETA;1930;2100;3100;x;;;;;;;;;;;;
Brain-Class297;9050297;U51;1930;1930;1930;1930;3;8;0;3;0;5;0;BETA;1930;2100;3100;x;;;;;;;;;;;;
Brain-Class298;9050298;U51;1930;1930;1930;1930;3;8;0;3;0;5;0;BETA;1930;2100;3100;x;;;;;;;;;;;;
Brain-Class299;9050299;U51;1930;1930;1930;1930;3;8;0;3;0;5;0;BETA;1930;2100;3100;x;;;;;;;;;;;;
Brain-Class300;9050300;U51;1930;1930;1930;1930;3;8;0;3;0;5;0;BETA;1930;2100;3100;x;;;;;;;;;;;;
Brain-Class301;9050301;U51;1930;1930;1930;1930;3;8;0;3;0;5;0;BETA;1930;2100;3100;x;;;;;;;;;;;;
Brain-Class302;9050302;U51;1930;1930;1930;1930;3;8;0;3;0;5;0;BETA;1930;2100;3100;x;;;;;;;;;;;;
Brain-Class303;9050303;U51;1930;1930;1930;1930;3;8;0;3;0;5;0;BETA;1930;2100;3100;x;;;;;;;;;;;;
Brain-Class304;9050304;U51;1930;1930;1930;1930;3;8;0;3;0;5;0;BETA;1930;2100;3100;x;;;;;;;;;;;;
Brain-Class305;9050305;U51;1930;1930;1930;1930;3;8;0;3;0;5;0;BETA;1930;2100;3100;x;;;;;;;;;;;;
Brain-Class306;9050306;U51;1930;1930;1930;1930;3;8;0;3;0;5;0;BETA;1930;2100;3100;x;;;;;;;;;;;;
Brain-Class307;9050307;U51;1930;1930;1930;1930;3;8;0;3;0;5;0;BETA;1930;2100;3100;x;;;;;;;;;;;;
Brain-Class308;9050308;U51;1930;1930;1930;1930;3;8;0;3;0;5;0;BETA;1930;2100;3100;x;;;;;;;;;;;;
Brain-Class309;9050309;U51;1930;1930;1930;1930;3;8;0;3;0;5;0;BETA;1930;2100;3100;x;;;;;;;;;;;;
Brain-Class310;9050310;U51;1930;1930;1930;1930;3;8;0;3;0;5;0;BETA;1930;2100;3100;x;;;;;;;;;;;;
Brain-Class311;9050311;U51;1930;1930;1930;1930;3;8;0;3;0;5;0;BETA;1930;2100;3100;x;;;;;;;;;;;;
Brain-Class312;9050312;U51;1930;1930;1930;1930;3;8;0;3;0;5;0;BETA;1930;2100;3100;x;;;;;;;;;;;;
Brain-Class313;9050313;U51;1930;1930;1930;1930;3;8;0;3;0;5;0;BETA;1930;2100;3100;x;;;;;;;;;;;;
Brain-Class314;9050314;U51;1930;1930;1930;1930;3;8;0;3;0;5;0;BETA;1930;2100;3100;x;;;;;;;;;;;;
Brain-Class315;9050315;U51;1930;1930;1930;1930;3;8;0;3;0;5;0;BETA;1930;2100;3100;x;;;;;;;;;;;;
Brain-Class316;9050316;U51;1930;1930;1930;1930;3;8;0;3;0;5;0;BETA;1930;2100;3100;x;;;;;;;;;;;;
Brain-Class317;9050317;U51;1930;1930;1930;1930;3;8;0;3;0;5;0;BETA;1930;2100;3100;x;;;;;;;;;;;;
Brain-Class318;9050318;U51;1930;1930;1930;1930;3;8;0;3;0;5;0;BETA;1930;2100;3100;x;;;;;;;;;;;;
Brain-Class319;9050319;U51;1930;1930;1930;1930;3;8;0;3;0;5;0;BETA;1930;2100;3100;x;;;;;;;;;;;;
Brain-Class320;9050320;U51;1930;1930;1930;1930;3;8;0;3;0;5;0;BETA;1930;2100;3100;x;;;;;;;;;;;;
Brain-Class321;9050321;U51;1930;1930;1930;1930;3;8;0;3;0;5;0;BETA;1930;2100;3100;x;;;;;;;;;;;;
Brain-Class322;9050322;U51;1930;1930;1930;1930;3;8;0;3;0;5;0;BETA;1930;2100;3100;x;;;;;;;;;;;;
Brain-Class323;9050323;U51;1930;1930;1930;1930;3;8;0;3;0;5;0;BETA;1930;2100;3100;x;;;;;;;;;;;;
Brain-Class324;9050324;U51;1930;1930;1930;1930;3;8;0;3;0;5;0;BETA;1930;2100;3100;x;;;;;;;;;;;;
Brain-Class325;9050325;U51;1930;1930;1930;1930;3;8;0;3;0;5;0;BETA;1930;2100;3100;x;;;;;;;;;;;;
Brain-Class326;9050326;U51;1930;1930;1930;1930;3;8;0;3;0;5;0;BETA;1930;2100;3100;x;;;;;;;;;;;;
Brain-Class327;9050327;U51;1930;1930;1930;1930;3;8;0;3;0;5;0;BETA;1930;2100;3100;x;;;;;;;;;;;;
Brain-Class328;9050328;U51;1930;1930;1930;1930;3;8;0;3;0;5;0;BETA;1930;2100;3100;x;;;;;;;;;;;;
Brain-Class329;9050329;U51;1930;1930;1930;1930;3;8;0;3;0;5;0;BETA;1930;2100;3100;x;;;;;;;;;;;;
Brain-Class330;9050330;U51;1930;1930;1930;1930;3;8;0;3;0;5;0;BETA;1930;2100;3100;x;;;;;;;;;;;;
Brain-Class331;9050331;U51;1930;1930;1930;1930;3;8;0;3;0;5;0;BETA;1930;2100;3100;x;;;;;;;;;;;;
Brain-Class332;9050332;U51;1930;1930;1930;1930;3;8;0;3;0;5;0;BETA;1930;2100;3100;x;;;;;;;;;;;;
Brain-Class333;9050333;U51;1930;1930;1930;1930;3;8;0;3;0;5;0;BETA;1930;2100;3100;x;;;;;;;;;;;;
Brain-Class334;9050334;U51;1930;1930;1930;1930;3;8;0;3;0;5;0;BETA;1930;2100;3100;x;;;;;;;;;;;;
Brain-Class335;9050335;U51;1930;1930;1930;1930;3;8;0;3;0;5;0;BETA;1930;2100;3100;x;;;;;;;;;;;;
Brain-Class336;9050336;U51;1930;1930;1930;1930;3;8;0;3;0;5;0;BETA;1930;2100;3100;x;;;;;;;;;;;;
Brain-Class337;9050337;U51;1930;1930;1930;1930;3;8;0;3;0;5;0;BETA;1930;2100;3100;x;;;;;;;;;;;;
Brain-Class338;9050338;U51;1930;1930;1930;1930;3;8;0;3;0;5;0;BETA;1930;2100;3100;x;;;;;;;;;;;;
Brain-Class339;9050339;U51;1930;1930;1930;1930;3;8;0;3;0;5;0;BETA;1930;2100;3100;x;;;;;;;;;;;;
Brain-Class340;9050340;U51;1930;1930;1930;1930;3;8;0;3;0;5;0;BETA;1930;2100;3100;x;;;;;;;;;;;;
Brain-Class341;9050341;U51;1930;1930;1930;1930;3;8;0;3;0;5;0;BETA;1930;2100;3100;x;;;;;;;;;;;;
Brain-Class342;9050342;U51;1930;1930;1930;1930;3;8;0;3;0;5;0;BETA;1930;2100;3100;x;;;;;;;;;;;;
Brain-Class343;9050343;U51;1930;1930;1930;1930;3;8;0;3;0;5;0;BETA;1930;2100;3100;x;;;;;;;;;;;;
Brain-Class344;9050344;U51;1930;1930;1930;1930;3;8;0;3;0;5;0;BETA;1930;2100;3100;x;;;;;;;;;;;;
Brain-Class345;9050345;U51;1930;1930;1930;1930;3;8;0;3;0;5;0;BETA;1930;2100;3100;x;;;;;;;;;;;;
Brain-Class346;9050346;U51;1930;1930;1930;1930;3;8;0;3;0;5;0;BETA;1930;2100;3100;x;;;;;;;;;;;;
Brain-Class347;9050347;U51;1930;1930;1930;1930;3;8;0;3;0;5;0;BETA;1930;2100;3100;x;;;;;;;;;;;;
Brain-Class348;9050348;U51;1930;1930;1930;1930;3;8;0;3;0;5;0;BETA;1930;2100;3100;x;;;;;;;;;;;;
Brain-Class349;9050349;U51;1930;1930;1930;1930;3;8;0;3;0;5;0;BETA;1930;2100;3100;x;;;;;;;;;;;;
Brain-Class350;9050350;U51;1930;1930;1930;1930;3;8;0;3;0;5;0;BETA;1930;2100;3100;x;;;;;;;;;;;;
Brain-Class351;9050351;U51;1930;1930;1930;1930;3;8;0;3;0;5;0;BETA;1930;2100;3100;x;;;;;;;;;;;;
Brain-Class352;9050352;U51;1930;1930;1930;1930;3;8;0;3;0;5;0;BETA;1930;2100;3100;x;;;;;;;;;;;;
Brain-Class353;9050353;U51;1930;1930;1930;1930;3;8;0;3;0;5;0;BETA;1930;2100;3100;x;;;;;;;;;;;;
Brain-Class354;9050354;U51;1930;1930;1930;1930;3;8;0;3;0;5;0;BETA;1930;2100;3100;x;;;;;;;;;;;;
Brain-Class355;9050355;U51;1930;1930;1930;1930;3;8;0;3;0;5;0;BETA;1930;2100;3100;x;;;;;;;;;;;;
Brain-Class356;9050356;U51;1930;1930;1930;1930;3;8;0;3;0;5;0;BETA;1930;2100;3100;x;;;;;;;;;;;;
Brain-Class357;9050357;U51;1930;1930;1930;1930;3;8;0;3;0;5;0;BETA;1930;2100;3100;x;;;;;;;;;;;;
Brain-Class358;9050358;U51;1930;1930;1930;1930;3;8;0;3;0;5;0;BETA;1930;2100;3100;x;;;;;;;;;;;;
Brain-Class359;9050359;U51;1930;1930;1930;1930;3;8;0;3;0;5;0;BETA;1930;2100;3100;x;;;;;;;;;;;;
Brain-Class360;9050360;U51;1930;1930;1930;1930;3;8;0;3;0;5;0;BETA;1930;2100;3100;x;;;;;;;;;;;;
Brain-Class361;9050361;U51;1930;1930;1930;1930;3;8;0;3;0;5;0;BETA;1930;2100;3100;x;;;;;;;;;;;;
Brain-Class362;9050362;U51;1930;1930;1930;1930;3;8;0;3;0;5;0;BETA;1930;2100;3100;x;;;;;;;;;;;;
Brain-Class363;9050363;U51;1930;1930;1930;1930;3;8;0;3;0;5;0;BETA;1930;2100;3100;x;;;;;;;;;;;;
Brain-Class364;9050364;U51;1930;1930;1930;1930;3;8;0;3;0;5;0;BETA;1930;2100;3100;x;;;;;;;;;;;;
Brain-Class365;9050365;U51;1930;1930;1930;1930;3;8;0;3;0;5;0;BETA;1930;2100;3100;x;;;;;;;;;;;;
Brain-Class366;9050366;U51;1930;1930;1930;1930;3;8;0;3;0;5;0;BETA;1930;2100;3100;x;;;;;;;;;;;;
Brain-Class367;9050367;U51;1930;1930;1930;1930;3;8;0;3;0;5;0;BETA;1930;2100;3100;x;;;;;;;;;;;;
Brain-Class368;9050368;U51;1930;1930;1930;1930;3;8;0;3;0;5;0;BETA;1930;2100;3100;x;;;;;;;;;;;;
Brain-Class369;9050369;U51;1930;1930;1930;1930;3;8;0;3;0;5;0;BETA;1930;2100;3100;x;;;;;;;;;;;;
Brain-Class370;9050370;U51;1930;1930;1930;1930;3;8;0;3;0;5;0;BETA;1930;2100;3100;x;;;;;;;;;;;;
Brain-Class371;9050371;U51;1930;1930;1930;1930;3;8;0;3;0;5;0;BETA;1930;2100;3100;x;;;;;;;;;;;;
Brain-Class372;9050372;U51;1930;1930;1930;1930;3;8;0;3;0;5;0;BETA;1930;2100;3100;x;;;;;;;;;;;;
Brain-Class373;9050373;U51;1930;1930;1930;1930;3;8;0;3;0;5;0;BETA;1930;2100;3100;x;;;;;;;;;;;;
Brain-Class374;9050374;U51;1930;1930;1930;1930;3;8;0;3;0;5;0;BETA;1930;2100;3100;x;;;;;;;;;;;;
Brain-Class375;9050375;U51;1930;1930;1930;1930;3;8;0;3;0;5;0;BETA;1930;2100;3100;x;;;;;;;;;;;;
Brain-Class376;9050376;U51;1930;1930;1930;1930;3;8;0;3;0;5;0;BETA;1930;2100;3100;x;;;;;;;;;;;;
Brain-Class377;9050377;U51;1930;1930;1930;1930;3;8;0;3;0;5;0;BETA;1930;2100;3100;x;;;;;;;;;;;;
Brain-Class378;9050378;U51;1930;1930;1930;1930;3;8;0;3;0;5;0;BETA;1930;2100;3100;x;;;;;;;;;;;;
Brain-Class379;9050379;U51;1930;1930;1930;1930;3;8;0;3;0;5;0;BETA;1930;2100;3100;x;;;;;;;;;;;;
Brain-Class380;9050380;U51;1930;1930;1930;1930;3;8;0;3;0;5;0;BETA;1930;2100;3100;x;;;;;;;;;;;;
Brain-Class381;9050381;U51;1930;1930;1930;1930;3;8;0;3;0;5;0;BETA;1930;2100;3100;x;;;;;;;;;;;;
Brain-Class382;9050382;U51;1930;1930;1930;1930;3;8;0;3;0;5;0;BETA;1930;2100;3100;x;;;;;;;;;;;;
Brain-Class383;9050383;U51;1930;1930;1930;1930;3;8;0;3;0;5;0;BETA;1930;2100;3100;x;;;;;;;;;;;;
Brain-Class384;9050384;U51;1930;1930;1930;1930;3;8;0;3;0;5;0;BETA;1930;2100;3100;x;;;;;;;;;;;;
Brain-Class385;9050385;U51;1930;1930;1930;1930;3;8;0;3;0;5;0;BETA;1930;2100;3100;x;;;;;;;;;;;;
Brain-Class386;9050386;U51;1930;1930;1930;1930;3;8;0;3;0;5;0;BETA;1930;2100;3100;x;;;;;;;;;;;;
Brain-Class387;9050387;U51;1930;1930;1930;1930;3;8;0;3;0;5;0;BETA;1930;2100;3100;x;;;;;;;;;;;;
Brain-Class388;9050388;U51;1930;1930;1930;1930;3;8;0;3;0;5;0;BETA;1930;2100;3100;x;;;;;;;;;;;;
Brain-Class389;9050389;U51;1930;1930;1930;1930;3;8;0;3;0;5;0;BETA;1930;2100;3100;x;;;;;;;;;;;;
Brain-Class390;9050390;U51;1930;1930;1930;1930;3;8;0;3;0;5;0;BETA;1930;2100;3100;x;;;;;;;;;;;;
Brain-Class391;9050391;U51;1930;1930;1930;1930;3;8;0;3;0;5;0;BETA;1930;2100;3100;x;;;;;;;;;;;;
Brain-Class392;9050392;U51;1930;1930;1930;1930;3;8;0;3;0;5;0;BETA;1930;2100;3100;x;;;;;;;;;;;;
Brain-Class393;9050393;U51;1930;1930;1930;1930;3;8;0;3;0;5;0;BETA;1930;2100;3100;x;;;;;;;;;;;;
Brain-Class394;9050394;U51;1930;1930;1930;1930;3;8;0;3;0;5;0;BETA;1930;2100;3100;x;;;;;;;;;;;;
Brain-Class395;9050395;U51;1930;1930;1930;1930;3;8;0;3;0;5;0;BETA;1930;2100;3100;x;;;;;;;;;;;;
Brain-Class396;9050396;U51;1930;1930;1930;1930;3;8;0;3;0;5;0;BETA;1930;2100;3100;x;;;;;;;;;;;;
Brain-Class397;9050397;U51;1930;1930;1930;1930;3;8;0;3;0;5;0;BETA;1930;2100;3100;x;;;;;;;;;;;;
Brain-Class398;9050398;U51;1930;1930;1930;1930;3;8;0;3;0;5;0;BETA;1930;2100;3100;x;;;;;;;;;;;;
Brain-Class399;9050399;U51;1930;1930;1930;1930;3;8;0;3;0;5;0;BETA;1930;2100;3100;x;;;;;;;;;;;;
Brain-Class400;9050400;U51;1930;1930;1930;1930;3;8;0;3;0;5;0;BETA;1930;2100;3100;x;;;;;;;;;;;;
Brain-Class401;9050401;U51;1930;1930;1930;1930;3;8;0;3;0;5;0;BETA;1930;2100;3100;x;;;;;;;;;;;;
Brain-Class402;9050402;U51;1930;1930;1930;1930;3;8;0;3;0;5;0;BETA;1930;2100;3100;x;;;;;;;;;;;;
Brain-Class403;9050403;U51;1930;1930;1930;1930;3;8;0;3;0;5;0;BETA;1930;2100;3100;x;;;;;;;;;;;;
Brain-Class404;9050404;U51;1930;1930;1930;1930;3;8;0;3;0;5;0;BETA;1930;2100;3100;x;;;;;;;;;;;;
Brain-Class405;9050405;U51;1930;1930;1930;1930;3;8;0;3;0;5;0;BETA;1930;2100;3100;x;;;;;;;;;;;;
Brain-Class406;9050406;U51;1930;1930;1930;1930;3;8;0;3;0;5;0;BETA;1930;2100;3100;x;;;;;;;;;;;;
Brain-Class407;9050407;U51;1930;1930;1930;1930;3;8;0;3;0;5;0;BETA;1930;2100;3100;x;;;;;;;;;;;;
Brain-Class408;9050408;U51;1930;1930;1930;1930;3;8;0;3;0;5;0;BETA;1930;2100;3100;x;;;;;;;;;;;;
Brain-Class409;9050409;U51;1930;1930;1930;1930;3;8;0;3;0;5;0;BETA;1930;2100;3100;x;;;;;;;;;;;;
Brain-Class410;9050410;U51;1930;1930;1930;1930;3;8;0;3;0;5;0;BETA;1930;2100;3100;x;;;;;;;;;;;;
Brain-Class411;9050411;U51;1930;1930;1930;1930;3;8;0;3;0;5;0;BETA;1930;2100;3100;x;;;;;;;;;;;;
Brain-Class412;9050412;U51;1930;1930;1930;1930;3;8;0;3;0;5;0;BETA;1930;2100;3100;x;;;;;;;;;;;;
Brain-Class413;9050413;U51;1930;1930;1930;1930;3;8;0;3;0;5;0;BETA;1930;2100;3100;x;;;;;;;;;;;;
Brain-Class414;9050414;U51;1930;1930;1930;1930;3;8;0;3;0;5;0;BETA;1930;2100;3100;x;;;;;;;;;;;;
Brain-Class415;9050415;U51;1930;1930;1930;1930;3;8;0;3;0;5;0;BETA;1930;2100;3100;x;;;;;;;;;;;;
Brain-Class416;9050416;U51;1930;1930;1930;1930;3;8;0;3;0;5;0;BETA;1930;2100;3100;x;;;;;;;;;;;;
Brain-Class417;9050417;U51;1930;1930;1930;1930;3;8;0;3;0;5;0;BETA;1930;2100;3100;x;;;;;;;;;;;;
Brain-Class418;9050418;U51;1930;1930;1930;1930;3;8;0;3;0;5;0;BETA;1930;2100;3100;x;;;;;;;;;;;;
Brain-Class419;9050419;U51;1930;1930;1930;1930;3;8;0;3;0;5;0;BETA;1930;2100;3100;x;;;;;;;;;;;;
Brain-Class420;9050420;U51;1930;1930;1930;1930;3;8;0;3;0;5;0;BETA;1930;2100;3100;x;;;;;;;;;;;;
Brain-Class421;9050421;U51;1930;1930;1930;1930;3;8;0;3;0;5;0;BETA;1930;2100;3100;x;;;;;;;;;;;;
Brain-Class422;9050422;U51;1930;1930;1930;1930;3;8;0;3;0;5;0;BETA;1930;2100;3100;x;;;;;;;;;;;;
Brain-Class423;9050423;U51;1930;1930;1930;1930;3;8;0;3;0;5;0;BETA;1930;2100;3100;x;;;;;;;;;;;;
Brain-Class424;9050424;U51;1930;1930;1930;1930;3;8;0;3;0;5;0;BETA;1930;2100;3100;x;;;;;;;;;;;;
Brain-Class425;9050425;U51;1930;1930;1930;1930;3;8;0;3;0;5;0;BETA;1930;2100;3100;x;;;;;;;;;;;;
Brain-Class426;9050426;U51;1930;1930;1930;1930;3;8;0;3;0;5;0;BETA;1930;2100;3100;x;;;;;;;;;;;;
Brain-Class427;9050427;U51;1930;1930;1930;1930;3;8;0;3;0;5;0;BETA;1930;2100;3100;x;;;;;;;;;;;;
Brain-Class428;9050428;U51;1930;1930;1930;1930;3;8;0;3;0;5;0;BETA;1930;2100;3100;x;;;;;;;;;;;;
Brain-Class429;9050429;U51;1930;1930;1930;1930;3;8;0;3;0;5;0;BETA;1930;2100;3100;x;;;;;;;;;;;;
Brain-Class430;9050430;U51;1930;1930;1930;1930;3;8;0;3;0;5;0;BETA;1930;2100;3100;x;;;;;;;;;;;;
Brain-Class431;9050431;U51;1930;1930;1930;1930;3;8;0;3;0;5;0;BETA;1930;2100;3100;x;;;;;;;;;;;;
Brain-Class432;9050432;U51;1930;1930;1930;1930;3;8;0;3;0;5;0;BETA;1930;2100;3100;x;;;;;;;;;;;;
Brain-Class433;9050433;U51;1930;1930;1930;1930;3;8;0;3;0;5;0;BETA;1930;2100;3100;x;;;;;;;;;;;;
Brain-Class434;9050434;U51;1930;1930;1930;1930;3;8;0;3;0;5;0;BETA;1930;2100;3100;x;;;;;;;;;;;;
Brain-Class435;9050435;U51;1930;1930;1930;1930;3;8;0;3;0;5;0;BETA;1930;2100;3100;x;;;;;;;;;;;;
Brain-Class436;9050436;U51;1930;1930;1930;1930;3;8;0;3;0;5;0;BETA;1930;2100;3100;x;;;;;;;;;;;;
Brain-Class437;9050437;U51;1930;1930;1930;1930;3;8;0;3;0;5;0;BETA;1930;2100;3100;x;;;;;;;;;;;;
Brain-Class438;9050438;U51;1930;1930;1930;1930;3;8;0;3;0;5;0;BETA;1930;2100;3100;x;;;;;;;;;;;;
Brain-Class439;9050439;U51;1930;1930;1930;1930;3;8;0;3;0;5;0;BETA;1930;2100;3100;x;;;;;;;;;;;;
Brain-Class440;9050440;U51;1930;1930;1930;1930;3;8;0;3;0;5;0;BETA;1930;2100;3100;x;;;;;;;;;;;;
Brain-Class441;9050441;U51;1930;1930;1930;1930;3;8;0;3;0;5;0;BETA;1930;2100;3100;x;;;;;;;;;;;;
Brain-Class442;9050442;U51;1930;1930;1930;1930;3;8;0;3;0;5;0;BETA;1930;2100;3100;x;;;;;;;;;;;;
Brain-Class443;9050443;U51;1930;1930;1930;1930;3;8;0;3;0;5;0;BETA;1930;2100;3100;x;;;;;;;;;;;;
Brain-Class444;9050444;U51;1930;1930;1930;1930;3;8;0;3;0;5;0;BETA;1930;2100;3100;x;;;;;;;;;;;;
Brain-Class445;9050445;U51;1930;1930;1930;1930;3;8;0;3;0;5;0;BETA;1930;2100;3100;x;;;;;;;;;;;;
Brain-Class446;9050446;U51;1930;1930;1930;1930;3;8;0;3;0;5;0;BETA;1930;2100;3100;x;;;;;;;;;;;;
Brain-Class447;9050447;U51;1930;1930;1930;1930;3;8;0;3;0;5;0;BETA;1930;2100;3100;x;;;;;;;;;;;;
Brain-Class448;9050448;U51;1930;1930;1930;1930;3;8;0;3;0;5;0;BETA;1930;2100;3100;x;;;;;;;;;;;;
Brain-Class449;9050449;U51;1930;1930;1930;1930;3;8;0;3;0;5;0;BETA;1930;2100;3100;x;;;;;;;;;;;;
Brain-Class450;9050450;U51;1930;1930;1930;1930;3;8;0;3;0;5;0;BETA;1930;2100;3100;x;;;;;;;;;;;;
Brain-Class451;9050451;U51;1930;1930;1930;1930;3;8;0;3;0;5;0;BETA;1930;2100;3100;x;;;;;;;;;;;;
Brain-Class452;9050452;U51;1930;1930;1930;1930;3;8;0;3;0;5;0;BETA;1930;2100;3100;x;;;;;;;;;;;;
Brain-Class453;9050453;U51;1930;1930;1930;1930;3;8;0;3;0;5;0;BETA;1930;2100;3100;x;;;;;;;;;;;;
Brain-Class454;9050454;U51;1930;1930;1930;1930;3;8;0;3;0;5;0;BETA;1930;2100;3100;x;;;;;;;;;;;;
Brain-Class455;9050455;U51;1930;1930;1930;1930;3;8;0;3;0;5;0;BETA;1930;2100;3100;x;;;;;;;;;;;;
Brain-Class456;9050456;U51;1930;1930;1930;1930;3;8;0;3;0;5;0;BETA;1930;2100;3100;x;;;;;;;;;;;;
Brain-Class457;9050457;U51;1930;1930;1930;1930;3;8;0;3;0;5;0;BETA;1930;2100;3100;x;;;;;;;;;;;;
Brain-Class458;9050458;U51;1930;1930;1930;1930;3;8;0;3;0;5;0;BETA;1930;2100;3100;x;;;;;;;;;;;;
Brain-Class459;9050459;U51;1930;1930;1930;1930;3;8;0;3;0;5;0;BETA;1930;2100;3100;x;;;;;;;;;;;;
Brain-Class460;9050460;U51;1930;1930;1930;1930;3;8;0;3;0;5;0;BETA;1930;2100;3100;x;;;;;;;;;;;;
Brain-Class461;9050461;U51;1930;1930;1930;1930;3;8;0;3;0;5;0;BETA;1930;2100;3100;x;;;;;;;;;;;;
Brain-Class462;9050462;U51;1930;1930;1930;1930;3;8;0;3;0;5;0;BETA;1930;2100;3100;x;;;;;;;;;;;;
Brain-Class463;9050463;U51;1930;1930;1930;1930;3;8;0;3;0;5;0;BETA;1930;2100;3100;x;;;;;;;;;;;;
Brain-Class464;9050464;U51;1930;1930;1930;1930;3;8;0;3;0;5;0;BETA;1930;2100;3100;x;;;;;;;;;;;;
Brain-Class465;9050465;U51;1930;1930;1930;1930;3;8;0;3;0;5;0;BETA;1930;2100;3100;x;;;;;;;;;;;;
Brain-Class466;9050466;U51;1930;1930;1930;1930;3;8;0;3;0;5;0;BETA;1930;2100;3100;x;;;;;;;;;;;;
Brain-Class467;9050467;U51;1930;1930;1930;1930;3;8;0;3;0;5;0;BETA;1930;2100;3100;x;;;;;;;;;;;;
Brain-Class468;9050468;U51;1930;1930;1930;1930;3;8;0;3;0;5;0;BETA;1930;2100;3100;x;;;;;;;;;;;;
Brain-Class469;9050469;U51;1930;1930;1930;1930;3;8;0;3;0;5;0;BETA;1930;2100;3100;x;;;;;;;;;;;;
Brain-Class470;9050470;U51;1930;1930;1930;1930;3;8;0;3;0;5;0;BETA;1930;2100;3100;x;;;;;;;;;;;;
Brain-Class471;9050471;U51;1930;1930;1930;1930;3;8;0;3;0;5;0;BETA;1930;2100;3100;x;;;;;;;;;;;;
Brain-Class472;9050472;U51;1930;1930;1930;1930;3;8;0;3;0;5;0;BETA;1930;2100;3100;x;;;;;;;;;;;;
Brain-Class473;9050473;U51;1930;1930;1930;1930;3;8;0;3;0;5;0;BETA;1930;2100;3100;x;;;;;;;;;;;;
Brain-Class474;9050474;U51;1930;1930;1930;1930;3;8;0;3;0;5;0;BETA;1930;2100;3100;x;;;;;;;;;;;;
Brain-Class475;9050475;U51;1930;1930;1930;1930;3;8;0;3;0;5;0;BETA;1930;2100;3100;x;;;;;;;;;;;;
Brain-Class476;9050476;U51;1930;1930;1930;1930;3;8;0;3;0;5;0;BETA;1930;2100;3100;x;;;;;;;;;;;;
Brain-Class477;9050477;U51;1930;1930;1930;1930;3;8;0;3;0;5;0;BETA;1930;2100;3100;x;;;;;;;;;;;;
Brain-Class478;9050478;U51;1930;1930;1930;1930;3;8;0;3;0;5;0;BETA;1930;2100;3100;x;;;;;;;;;;;;
Brain-Class479;9050479;U51;1930;1930;1930;1930;3;8;0;3;0;5;0;BETA;1930;2100;3100;x;;;;;;;;;;;;
Brain-Class480;9050480;U51;1930;1930;1930;1930;3;8;0;3;0;5;0;BETA;1930;2100;3100;x;;;;;;;;;;;;
Brain-Class481;9050481;U51;1930;1930;1930;1930;3;8;0;3;0;5;0;BETA;1930;2100;3100;x;;;;;;;;;;;;
Brain-Class482;9050482;U51;1930;1930;1930;1930;3;8;0;3;0;5;0;BETA;1930;2100;3100;x;;;;;;;;;;;;
Brain-Class483;9050483;U51;1930;1930;1930;1930;3;8;0;3;0;5;0;BETA;1930;2100;3100;x;;;;;;;;;;;;
Brain-Class484;9050484;U51;1930;1930;1930;1930;3;8;0;3;0;5;0;BETA;1930;2100;3100;x;;;;;;;;;;;;
Brain-Class485;9050485;U51;1930;1930;1930;1930;3;8;0;3;0;5;0;BETA;1930;2100;3100;x;;;;;;;;;;;;
Brain-Class486;9050486;U51;1930;1930;1930;1930;3;8;0;3;0;5;0;BETA;1930;2100;3100;x;;;;;;;;;;;;
Brain-Class487;9050487;U51;1930;1930;1930;1930;3;8;0;3;0;5;0;BETA;1930;2100;3100;x;;;;;;;;;;;;
Brain-Class488;9050488;U51;1930;1930;1930;1930;3;8;0;3;0;5;0;BETA;1930;2100;3100;x;;;;;;;;;;;;
Brain-Class489;9050489;U51;1930;1930;1930;1930;3;8;0;3;0;5;0;BETA;1930;2100;3100;x;;;;;;;;;;;;
Brain-Class490;9050490;U51;1930;1930;1930;1930;3;8;0;3;0;5;0;BETA;1930;2100;3100;x;;;;;;;;;;;;
Brain-Class491;9050491;U51;1930;1930;1930;1930;3;8;0;3;0;5;0;BETA;1930;2100;3100;x;;;;;;;;;;;;
Brain-Class492;9050492;U51;1930;1930;1930;1930;3;8;0;3;0;5;0;BETA;1930;2100;3100;x;;;;;;;;;;;;
Brain-Class493;9050493;U51;1930;1930;1930;1930;3;8;0;3;0;5;0;BETA;1930;2100;3100;x;;;;;;;;;;;;
Brain-Class494;9050494;U51;1930;1930;1930;1930;3;8;0;3;0;5;0;BETA;1930;2100;3100;x;;;;;;;;;;;;
Brain-Class495;9050495;U51;1930;1930;1930;1930;3;8;0;3;0;5;0;BETA;1930;2100;3100;x;;;;;;;;;;;;
Brain-Class496;9050496;U51;1930;1930;1930;1930;3;8;0;3;0;5;0;BETA;1930;2100;3100;x;;;;;;;;;;;;
Brain-Class497;9050497;U51;1930;1930;1930;1930;3;8;0;3;0;5;0;BETA;1930;2100;3100;x;;;;;;;;;;;;
Brain-Class498;9050498;U51;1930;1930;1930;1930;3;8;0;3;0;5;0;BETA;1930;2100;3100;x;;;;;;;;;;;;
Brain-Class499;9050499;U51;1930;1930;1930;1930;3;8;0;3;0;5;0;BETA;1930;2100;3100;x;;;;;;;;;;;;
Brain-Class500;9050500;U51;1930;1930;1930;1930;3;8;0;3;0;5;0;BETA;1930;2100;3100;x;;;;;;;;;;;;
Brain-Class501;9050501;U51;1930;1930;1930;1930;3;8;0;3;0;5;0;BETA;1930;2100;3100;x;;;;;;;;;;;;
Brain-Class502;9050502;U51;1930;1930;1930;1930;3;8;0;3;0;5;0;BETA;1930;2100;3100;x;;;;;;;;;;;;
Brain-Class503;9050503;U51;1930;1930;1930;1930;3;8;0;3;0;5;0;BETA;1930;2100;3100;x;;;;;;;;;;;;
Brain-Class504;9050504;U51;1930;1930;1930;1930;3;8;0;3;0;5;0;BETA;1930;2100;3100;x;;;;;;;;;;;;
Brain-Class505;9050505;U51;1930;1930;1930;1930;3;8;0;3;0;5;0;BETA;1930;2100;3100;x;;;;;;;;;;;;
Brain-Class506;9050506;U51;1930;1930;1930;1930;3;8;0;3;0;5;0;BETA;1930;2100;3100;x;;;;;;;;;;;;
Brain-Class507;9050507;U51;1930;1930;1930;1930;3;8;0;3;0;5;0;BETA;1930;2100;3100;x;;;;;;;;;;;;
Brain-Class508;9050508;U51;1930;1930;1930;1930;3;8;0;3;0;5;0;BETA;1930;2100;3100;x;;;;;;;;;;;;
Brain-Class509;9050509;U51;1930;1930;1930;1930;3;8;0;3;0;5;0;BETA;1930;2100;3100;x;;;;;;;;;;;;
Brain-Class510;9050510;U51;1930;1930;1930;1930;3;8;0;3;0;5;0;BETA;1930;2100;3100;x;;;;;;;;;;;;
Brain-Class511;9050511;U51;1930;1930;1930;1930;3;8;0;3;0;5;0;BETA;1930;2100;3100;x;;;;;;;;;;;;
Brain-Class512;9050512;U51;1930;1930;1930;1930;3;8;0;3;0;5;0;BETA;1930;2100;3100;x;;;;;;;;;;;;
Brain-Class513;9050513;U51;1930;1930;1930;1930;3;8;0;3;0;5;0;BETA;1930;2100;3100;x;;;;;;;;;;;;
Brain-Class514;9050514;U51;1930;1930;1930;1930;3;8;0;3;0;5;0;BETA;1930;2100;3100;x;;;;;;;;;;;;
Brain-Class515;9050515;U51;1930;1930;1930;1930;3;8;0;3;0;5;0;BETA;1930;2100;3100;x;;;;;;;;;;;;
Brain-Class516;9050516;U51;1930;1930;1930;1930;3;8;0;3;0;5;0;BETA;1930;2100;3100;x;;;;;;;;;;;;
Brain-Class517;9050517;U51;1930;1930;1930;1930;3;8;0;3;0;5;0;BETA;1930;2100;3100;x;;;;;;;;;;;;
Brain-Class518;9050518;U51;1930;1930;1930;1930;3;8;0;3;0;5;0;BETA;1930;2100;3100;x;;;;;;;;;;;;
Brain-Class519;9050519;U51;1930;1930;1930;1930;3;8;0;3;0;5;0;BETA;1930;2100;3100;x;;;;;;;;;;;;
Brain-Class520;9050520;U51;1930;1930;1930;1930;3;8;0;3;0;5;0;BETA;1930;2100;3100;x;;;;;;;;;;;;
Brain-Class521;9050521;U51;1930;1930;1930;1930;3;8;0;3;0;5;0;BETA;1930;2100;3100;x;;;;;;;;;;;;
Brain-Class522;9050522;U51;1930;1930;1930;1930;3;8;0;3;0;5;0;BETA;1930;2100;3100;x;;;;;;;;;;;;
Brain-Class523;9050523;U51;1930;1930;1930;1930;3;8;0;3;0;5;0;BETA;1930;2100;3100;x;;;;;;;;;;;;
Brain-Class524;9050524;U51;1930;1930;1930;1930;3;8;0;3;0;5;0;BETA;1930;2100;3100;x;;;;;;;;;;;;
Brain-Class525;9050525;U51;1930;1930;1930;1930;3;8;0;3;0;5;0;BETA;1930;2100;3100;x;;;;;;;;;;;;
Brain-Class526;9050526;U51;1930;1930;1930;1930;3;8;0;3;0;5;0;BETA;1930;2100;3100;x;;;;;;;;;;;;
Brain-Class527;9050527;U51;1930;1930;1930;1930;3;8;0;3;0;5;0;BETA;1930;2100;3100;x;;;;;;;;;;;;
Brain-Class528;9050528;U51;1930;1930;1930;1930;3;8;0;3;0;5;0;BETA;1930;2100;3100;x;;;;;;;;;;;;
Brain-Class529;9050529;U51;1930;1930;1930;1930;3;8;0;3;0;5;0;BETA;1930;2100;3100;x;;;;;;;;;;;;
Brain-Class530;9050530;U51;1930;1930;1930;1930;3;8;0;3;0;5;0;BETA;1930;2100;3100;x;;;;;;;;;;;;
Brain-Class531;9050531;U51;1930;1930;1930;1930;3;8;0;3;0;5;0;BETA;1930;2100;3100;x;;;;;;;;;;;;
Brain-Class532;9050532;U51;1930;1930;1930;1930;3;8;0;3;0;5;0;BETA;1930;2100;3100;x;;;;;;;;;;;;
Brain-Class533;9050533;U51;1930;1930;1930;1930;3;8;0;3;0;5;0;BETA;1930;2100;3100;x;;;;;;;;;;;;
Brain-Class534;9050534;U51;1930;1930;1930;1930;3;8;0;3;0;5;0;BETA;1930;2100;3100;x;;;;;;;;;;;;
Brain-Class535;9050535;U51;1930;1930;1930;1930;3;8;0;3;0;5;0;BETA;1930;2100;3100;x;;;;;;;;;;;;
Brain-Class536;9050536;U51;1930;1930;1930;1930;3;8;0;3;0;5;0;BETA;1930;2100;3100;x;;;;;;;;;;;;
Brain-Class537;9050537;U51;1930;1930;1930;1930;3;8;0;3;0;5;0;BETA;1930;2100;3100;x;;;;;;;;;;;;
Brain-Class538;9050538;U51;1930;1930;1930;1930;3;8;0;3;0;5;0;BETA;1930;2100;3100;x;;;;;;;;;;;;
Brain-Class539;9050539;U51;1930;1930;1930;1930;3;8;0;3;0;5;0;BETA;1930;2100;3100;x;;;;;;;;;;;;
Brain-Class540;9050540;U51;1930;1930;1930;1930;3;8;0;3;0;5;0;BETA;1930;2100;3100;x;;;;;;;;;;;;
Brain-Class541;9050541;U51;1930;1930;1930;1930;3;8;0;3;0;5;0;BETA;1930;2100;3100;x;;;;;;;;;;;;
Brain-Class542;9050542;U51;1930;1930;1930;1930;3;8;0;3;0;5;0;BETA;1930;2100;3100;x;;;;;;;;;;;;
Brain-Class543;9050543;U51;1930;1930;1930;1930;3;8;0;3;0;5;0;BETA;1930;2100;3100;x;;;;;;;;;;;;
Brain-Class544;9050544;U51;1930;1930;1930;1930;3;8;0;3;0;5;0;BETA;1930;2100;3100;x;;;;;;;;;;;;
Brain-Class545;9050545;U51;1930;1930;1930;1930;3;8;0;3;0;5;0;BETA;1930;2100;3100;x;;;;;;;;;;;;
Brain-Class546;9050546;U51;1930;1930;1930;1930;3;8;0;3;0;5;0;BETA;1930;2100;3100;x;;;;;;;;;;;;
Brain-Class547;9050547;U51;1930;1930;1930;1930;3;8;0;3;0;5;0;BETA;1930;2100;3100;x;;;;;;;;;;;;
Brain-Class548;9050548;U51;1930;1930;1930;1930;3;8;0;3;0;5;0;BETA;1930;2100;3100;x;;;;;;;;;;;;
Brain-Class549;9050549;U51;1930;1930;1930;1930;3;8;0;3;0;5;0;BETA;1930;2100;3100;x;;;;;;;;;;;;
Brain-Class550;9050550;U51;1930;1930;1930;1930;3;8;0;3;0;5;0;BETA;1930;2100;3100;x;;;;;;;;;;;;
Brain-Class551;9050551;U51;1930;1930;1930;1930;3;8;0;3;0;5;0;BETA;1930;2100;3100;x;;;;;;;;;;;;
Brain-Class552;9050552;U51;1930;1930;1930;1930;3;8;0;3;0;5;0;BETA;1930;2100;3100;x;;;;;;;;;;;;
Brain-Class553;9050553;U51;1930;1930;1930;1930;3;8;0;3;0;5;0;BETA;1930;2100;3100;x;;;;;;;;;;;;
Brain-Class554;9050554;U51;1930;1930;1930;1930;3;8;0;3;0;5;0;BETA;1930;2100;3100;x;;;;;;;;;;;;
Brain-Class555;9050555;U51;1930;1930;1930;1930;3;8;0;3;0;5;0;BETA;1930;2100;3100;x;;;;;;;;;;;;
Brain-Class556;9050556;U51;1930;1930;1930;1930;3;8;0;3;0;5;0;BETA;1930;2100;3100;x;;;;;;;;;;;;
Brain-Class557;9050557;U51;1930;1930;1930;1930;3;8;0;3;0;5;0;BETA;1930;2100;3100;x;;;;;;;;;;;;
Brain-Class558;9050558;U51;1930;1930;1930;1930;3;8;0;3;0;5;0;BETA;1930;2100;3100;x;;;;;;;;;;;;
Brain-Class559;9050559;U51;1930;1930;1930;1930;3;8;0;3;0;5;0;BETA;1930;2100;3100;x;;;;;;;;;;;;
Brain-Class560;9050560;U51;1930;1930;1930;1930;3;8;0;3;0;5;0;BETA;1930;2100;3100;x;;;;;;;;;;;;
Brain-Class561;9050561;U51;1930;1930;1930;1930;3;8;0;3;0;5;0;BETA;1930;2100;3100;x;;;;;;;;;;;;
Brain-Class562;9050562;U51;1930;1930;1930;1930;3;8;0;3;0;5;0;BETA;1930;2100;3100;x;;;;;;;;;;;;
Brain-Class563;9050563;U51;1930;1930;1930;1930;3;8;0;3;0;5;0;BETA;1930;2100;3100;x;;;;;;;;;;;;
Brain-Class564;9050564;U51;1930;1930;1930;1930;3;8;0;3;0;5;0;BETA;1930;2100;3100;x;;;;;;;;;;;;
Brain-Class565;9050565;U51;1930;1930;1930;1930;3;8;0;3;0;5;0;BETA;1930;2100;3100;x;;;;;;;;;;;;
Brain-Class566;9050566;U51;1930;1930;1930;1930;3;8;0;3;0;5;0;BETA;1930;2100;3100;x;;;;;;;;;;;;
Brain-Class567;9050567;U51;1930;1930;1930;1930;3;8;0;3;0;5;0;BETA;1930;2100;3100;x;;;;;;;;;;;;
Brain-Class568;9050568;U51;1930;1930;1930;1930;3;8;0;3;0;5;0;BETA;1930;2100;3100;x;;;;;;;;;;;;
Brain-Class569;9050569;U51;1930;1930;1930;1930;3;8;0;3;0;5;0;BETA;1930;2100;3100;x;;;;;;;;;;;;
Brain-Class570;9050570;U51;1930;1930;1930;1930;3;8;0;3;0;5;0;BETA;1930;2100;3100;x;;;;;;;;;;;;
Brain-Class571;9050571;U51;1930;1930;1930;1930;3;8;0;3;0;5;0;BETA;1930;2100;3100;x;;;;;;;;;;;;
Brain-Class572;9050572;U51;1930;1930;1930;1930;3;8;0;3;0;5;0;BETA;1930;2100;3100;x;;;;;;;;;;;;
Brain-Class573;9050573;U51;1930;1930;1930;1930;3;8;0;3;0;5;0;BETA;1930;2100;3100;x;;;;;;;;;;;;
Brain-Class574;9050574;U51;1930;1930;1930;1930;3;8;0;3;0;5;0;BETA;1930;2100;3100;x;;;;;;;;;;;;
Brain-Class575;9050575;U51;1930;1930;1930;1930;3;8;0;3;0;5;0;BETA;1930;2100;3100;x;;;;;;;;;;;;
Brain-Class576;9050576;U51;1930;1930;1930;1930;3;8;0;3;0;5;0;BETA;1930;2100;3100;x;;;;;;;;;;;;
Brain-Class577;9050577;U51;1930;1930;1930;1930;3;8;0;3;0;5;0;BETA;1930;2100;3100;x;;;;;;;;;;;;
Brain-Class578;9050578;U51;1930;1930;1930;1930;3;8;0;3;0;5;0;BETA;1930;2100;3100;x;;;;;;;;;;;;
Brain-Class579;9050579;U51;1930;1930;1930;1930;3;8;0;3;0;5;0;BETA;1930;2100;3100;x;;;;;;;;;;;;
Brain-Class580;9050580;U51;1930;1930;1930;1930;3;8;0;3;0;5;0;BETA;1930;2100;3100;x;;;;;;;;;;;;
Brain-Class581;9050581;U51;1930;1930;1930;1930;3;8;0;3;0;5;0;BETA;1930;2100;3100;x;;;;;;;;;;;;
Brain-Class582;9050582;U51;1930;1930;1930;1930;3;8;0;3;0;5;0;BETA;1930;2100;3100;x;;;;;;;;;;;;
Brain-Class583;9050583;U51;1930;1930;1930;1930;3;8;0;3;0;5;0;BETA;1930;2100;3100;x;;;;;;;;;;;;
Brain-Class584;9050584;U51;1930;1930;1930;1930;3;8;0;3;0;5;0;BETA;1930;2100;3100;x;;;;;;;;;;;;
Brain-Class585;9050585;U51;1930;1930;1930;1930;3;8;0;3;0;5;0;BETA;1930;2100;3100;x;;;;;;;;;;;;
Brain-Class586;9050586;U51;1930;1930;1930;1930;3;8;0;3;0;5;0;BETA;1930;2100;3100;x;;;;;;;;;;;;
Brain-Class587;9050587;U51;1930;1930;1930;1930;3;8;0;3;0;5;0;BETA;1930;2100;3100;x;;;;;;;;;;;;
Brain-Class588;9050588;U51;1930;1930;1930;1930;3;8;0;3;0;5;0;BETA;1930;2100;3100;x;;;;;;;;;;;;
Brain-Class589;9050589;U51;1930;1930;1930;1930;3;8;0;3;0;5;0;BETA;1930;2100;3100;x;;;;;;;;;;;;
Brain-Class590;9050590;U51;1930;1930;1930;1930;3;8;0;3;0;5;0;BETA;1930;2100;3100;x;;;;;;;;;;;;
Brain-Class591;9050591;U51;1930;1930;1930;1930;3;8;0;3;0;5;0;BETA;1930;2100;3100;x;;;;;;;;;;;;
Brain-Class592;9050592;U51;1930;1930;1930;1930;3;8;0;3;0;5;0;BETA;1930;2100;3100;x;;;;;;;;;;;;
Brain-Class593;9050593;U51;1930;1930;1930;1930;3;8;0;3;0;5;0;BETA;1930;2100;3100;x;;;;;;;;;;;;
Brain-Class594;9050594;U51;1930;1930;1930;1930;3;8;0;3;0;5;0;BETA;1930;2100;3100;x;;;;;;;;;;;;
Brain-Class595;9050595;U51;1930;1930;1930;1930;3;8;0;3;0;5;0;BETA;1930;2100;3100;x;;;;;;;;;;;;
Brain-Class596;9050596;U51;1930;1930;1930;1930;3;8;0;3;0;5;0;BETA;1930;2100;3100;x;;;;;;;;;;;;
Brain-Class597;9050597;U51;1930;1930;1930;1930;3;8;0;3;0;5;0;BETA;1930;2100;3100;x;;;;;;;;;;;;
Brain-Class598;9050598;U51;1930;1930;1930;1930;3;8;0;3;0;5;0;BETA;1930;2100;3100;x;;;;;;;;;;;;
Brain-Class599;9050599;U51;1930;1930;1930;1930;3;8;0;3;0;5;0;BETA;1930;2100;3100;x;;;;;;;;;;;;
Brain-Class600;9050600;U51;1930;1930;1930;1930;3;8;0;3;0;5;0;BETA;1930;2100;3100;x;;;;;;;;;;;;
Brain-Class601;9050601;U51;1930;1930;1930;1930;3;8;0;3;0;5;0;BETA;1930;2100;3100;x;;;;;;;;;;;;
Brain-Class602;9050602;U51;1930;1930;1930;1930;3;8;0;3;0;5;0;BETA;1930;2100;3100;x;;;;;;;;;;;;
Brain-Class603;9050603;U51;1930;1930;1930;1930;3;8;0;3;0;5;0;BETA;1930;2100;3100;x;;;;;;;;;;;;
Brain-Class604;9050604;U51;1930;1930;1930;1930;3;8;0;3;0;5;0;BETA;1930;2100;3100;x;;;;;;;;;;;;
Brain-Class605;9050605;U51;1930;1930;1930;1930;3;8;0;3;0;5;0;BETA;1930;2100;3100;x;;;;;;;;;;;;
Brain-Class606;9050606;U51;1930;1930;1930;1930;3;8;0;3;0;5;0;BETA;1930;2100;3100;x;;;;;;;;;;;;
Brain-Class607;9050607;U51;1930;1930;1930;1930;3;8;0;3;0;5;0;BETA;1930;2100;3100;x;;;;;;;;;;;;
Brain-Class608;9050608;U51;1930;1930;1930;1930;3;8;0;3;0;5;0;BETA;1930;2100;3100;x;;;;;;;;;;;;
Brain-Class609;9050609;U51;1930;1930;1930;1930;3;8;0;3;0;5;0;BETA;1930;2100;3100;x;;;;;;;;;;;;
Brain-Class610;9050610;U51;1930;1930;1930;1930;3;8;0;3;0;5;0;BETA;1930;2100;3100;x;;;;;;;;;;;;
Brain-Class611;9050611;U51;1930;1930;1930;1930;3;8;0;3;0;5;0;BETA;1930;2100;3100;x;;;;;;;;;;;;
Brain-Class612;9050612;U51;1930;1930;1930;1930;3;8;0;3;0;5;0;BETA;1930;2100;3100;x;;;;;;;;;;;;
Brain-Class613;9050613;U51;1930;1930;1930;1930;3;8;0;3;0;5;0;BETA;1930;2100;3100;x;;;;;;;;;;;;
Brain-Class614;9050614;U51;1930;1930;1930;1930;3;8;0;3;0;5;0;BETA;1930;2100;3100;x;;;;;;;;;;;;
Brain-Class615;9050615;U51;1930;1930;1930;1930;3;8;0;3;0;5;0;BETA;1930;2100;3100;x;;;;;;;;;;;;
Brain-Class616;9050616;U51;1930;1930;1930;1930;3;8;0;3;0;5;0;BETA;1930;2100;3100;x;;;;;;;;;;;;
Brain-Class617;9050617;U51;1930;1930;1930;1930;3;8;0;3;0;5;0;BETA;1930;2100;3100;x;;;;;;;;;;;;
Brain-Class618;9050618;U51;1930;1930;1930;1930;3;8;0;3;0;5;0;BETA;1930;2100;3100;x;;;;;;;;;;;;
Brain-Class619;9050619;U51;1930;1930;1930;1930;3;8;0;3;0;5;0;BETA;1930;2100;3100;x;;;;;;;;;;;;
Brain-Class620;9050620;U51;1930;1930;1930;1930;3;8;0;3;0;5;0;BETA;1930;2100;3100;x;;;;;;;;;;;;
Brain-Class621;9050621;U51;1930;1930;1930;1930;3;8;0;3;0;5;0;BETA;1930;2100;3100;x;;;;;;;;;;;;
Brain-Class622;9050622;U51;1930;1930;1930;1930;3;8;0;3;0;5;0;BETA;1930;2100;3100;x;;;;;;;;;;;;
Brain-Class623;9050623;U51;1930;1930;1930;1930;3;8;0;3;0;5;0;BETA;1930;2100;3100;x;;;;;;;;;;;;
Brain-Class624;9050624;U51;1930;1930;1930;1930;3;8;0;3;0;5;0;BETA;1930;2100;3100;x;;;;;;;;;;;;
Brain-Class625;9050625;U51;1930;1930;1930;1930;3;8;0;3;0;5;0;BETA;1930;2100;3100;x;;;;;;;;;;;;
Brain-Class626;9050626;U51;1930;1930;1930;1930;3;8;0;3;0;5;0;BETA;1930;2100;3100;x;;;;;;;;;;;;
Brain-Class627;9050627;U51;1930;1930;1930;1930;3;8;0;3;0;5;0;BETA;1930;2100;3100;x;;;;;;;;;;;;
Brain-Class628;9050628;U51;1930;1930;1930;1930;3;8;0;3;0;5;0;BETA;1930;2100;3100;x;;;;;;;;;;;;
Brain-Class629;9050629;U51;1930;1930;1930;1930;3;8;0;3;0;5;0;BETA;1930;2100;3100;x;;;;;;;;;;;;
Brain-Class630;9050630;U51;1930;1930;1930;1930;3;8;0;3;0;5;0;BETA;1930;2100;3100;x;;;;;;;;;;;;
Brain-Class631;9050631;U51;1930;1930;1930;1930;3;8;0;3;0;5;0;BETA;1930;2100;3100;x;;;;;;;;;;;;
Brain-Class632;9050632;U51;1930;1930;1930;1930;3;8;0;3;0;5;0;BETA;1930;2100;3100;x;;;;;;;;;;;;
Brain-Class633;9050633;U51;1930;1930;1930;1930;3;8;0;3;0;5;0;BETA;1930;2100;3100;x;;;;;;;;;;;;
Brain-Class634;9050634;U51;1930;1930;1930;1930;3;8;0;3;0;5;0;BETA;1930;2100;3100;x;;;;;;;;;;;;
Brain-Class635;9050635;U51;1930;1930;1930;1930;3;8;0;3;0;5;0;BETA;1930;2100;3100;x;;;;;;;;;;;;
Brain-Class636;9050636;U51;1930;1930;1930;1930;3;8;0;3;0;5;0;BETA;1930;2100;3100;x;;;;;;;;;;;;
Brain-Class637;9050637;U51;1930;1930;1930;1930;3;8;0;3;0;5;0;BETA;1930;2100;3100;x;;;;;;;;;;;;
Brain-Class638;9050638;U51;1930;1930;1930;1930;3;8;0;3;0;5;0;BETA;1930;2100;3100;x;;;;;;;;;;;;
Brain-Class639;9050639;U51;1930;1930;1930;1930;3;8;0;3;0;5;0;BETA;1930;2100;3100;x;;;;;;;;;;;;
Brain-Class640;9050640;U51;1930;1930;1930;1930;3;8;0;3;0;5;0;BETA;1930;2100;3100;x;;;;;;;;;;;;
Brain-Class641;9050641;U51;1930;1930;1930;1930;3;8;0;3;0;5;0;BETA;1930;2100;3100;x;;;;;;;;;;;;
Brain-Class642;9050642;U51;1930;1930;1930;1930;3;8;0;3;0;5;0;BETA;1930;2100;3100;x;;;;;;;;;;;;
Brain-Class643;9050643;U51;1930;1930;1930;1930;3;8;0;3;0;5;0;BETA;1930;2100;3100;x;;;;;;;;;;;;
Brain-Class644;9050644;U51;1930;1930;1930;1930;3;8;0;3;0;5;0;BETA;1930;2100;3100;x;;;;;;;;;;;;
Brain-Class645;9050645;U51;1930;1930;1930;1930;3;8;0;3;0;5;0;BETA;1930;2100;3100;x;;;;;;;;;;;;
Brain-Class646;9050646;U51;1930;1930;1930;1930;3;8;0;3;0;5;0;BETA;1930;2100;3100;x;;;;;;;;;;;;
Brain-Class647;9050647;U51;1930;1930;1930;1930;3;8;0;3;0;5;0;BETA;1930;2100;3100;x;;;;;;;;;;;;
Brain-Class648;9050648;U51;1930;1930;1930;1930;3;8;0;3;0;5;0;BETA;1930;2100;3100;x;;;;;;;;;;;;
Brain-Class649;9050649;U51;1930;1930;1930;1930;3;8;0;3;0;5;0;BETA;1930;2100;3100;x;;;;;;;;;;;;
Brain-Class650;9050650;U51;1930;1930;1930;1930;3;8;0;3;0;5;0;BETA;1930;2100;3100;x;;;;;;;;;;;;
Brain-Class651;9050651;U51;1930;1930;1930;1930;3;8;0;3;0;5;0;BETA;1930;2100;3100;x;;;;;;;;;;;;
Brain-Class652;9050652;U51;1930;1930;1930;1930;3;8;0;3;0;5;0;BETA;1930;2100;3100;x;;;;;;;;;;;;
Brain-Class653;9050653;U51;1930;1930;1930;1930;3;8;0;3;0;5;0;BETA;1930;2100;3100;x;;;;;;;;;;;;
Brain-Class654;9050654;U51;1930;1930;1930;1930;3;8;0;3;0;5;0;BETA;1930;2100;3100;x;;;;;;;;;;;;
Brain-Class655;9050655;U51;1930;1930;1930;1930;3;8;0;3;0;5;0;BETA;1930;2100;3100;x;;;;;;;;;;;;
Brain-Class656;9050656;U51;1930;1930;1930;1930;3;8;0;3;0;5;0;BETA;1930;2100;3100;x;;;;;;;;;;;;
Brain-Class657;9050657;U51;1930;1930;1930;1930;3;8;0;3;0;5;0;BETA;1930;2100;3100;x;;;;;;;;;;;;
Brain-Class658;9050658;U51;1930;1930;1930;1930;3;8;0;3;0;5;0;BETA;1930;2100;3100;x;;;;;;;;;;;;
Brain-Class659;9050659;U51;1930;1930;1930;1930;3;8;0;3;0;5;0;BETA;1930;2100;3100;x;;;;;;;;;;;;
Brain-Class660;9050660;U51;1930;1930;1930;1930;3;8;0;3;0;5;0;BETA;1930;2100;3100;x;;;;;;;;;;;;
Brain-Class661;9050661;U51;1930;1930;1930;1930;3;8;0;3;0;5;0;BETA;1930;2100;3100;x;;;;;;;;;;;;
Brain-Class662;9050662;U51;1930;1930;1930;1930;3;8;0;3;0;5;0;BETA;1930;2100;3100;x;;;;;;;;;;;;
Brain-Class663;9050663;U51;1930;1930;1930;1930;3;8;0;3;0;5;0;BETA;1930;2100;3100;x;;;;;;;;;;;;
Brain-Class664;9050664;U51;1930;1930;1930;1930;3;8;0;3;0;5;0;BETA;1930;2100;3100;x;;;;;;;;;;;;
Brain-Class665;9050665;U51;1930;1930;1930;1930;3;8;0;3;0;5;0;BETA;1930;2100;3100;x;;;;;;;;;;;;
Brain-Class666;9050666;U51;1930;1930;1930;1930;3;8;0;3;0;5;0;BETA;1930;2100;3100;x;;;;;;;;;;;;
Brain-Class667;9050667;U51;1930;1930;1930;1930;3;8;0;3;0;5;0;BETA;1930;2100;3100;x;;;;;;;;;;;;
Brain-Class668;9050668;U51;1930;1930;1930;1930;3;8;0;3;0;5;0;BETA;1930;2100;3100;x;;;;;;;;;;;;
Brain-Class669;9050669;U51;1930;1930;1930;1930;3;8;0;3;0;5;0;BETA;1930;2100;3100;x;;;;;;;;;;;;
Brain-Class670;9050670;U51;1930;1930;1930;1930;3;8;0;3;0;5;0;BETA;1930;2100;3100;x;;;;;;;;;;;;
Brain-Class671;9050671;U51;1930;1930;1930;1930;3;8;0;3;0;5;0;BETA;1930;2100;3100;x;;;;;;;;;;;;
Brain-Class672;9050672;U51;1930;1930;1930;1930;3;8;0;3;0;5;0;BETA;1930;2100;3100;x;;;;;;;;;;;;
Brain-Class673;9050673;U51;1930;1930;1930;1930;3;8;0;3;0;5;0;BETA;1930;2100;3100;x;;;;;;;;;;;;
Brain-Class674;9050674;U51;1930;1930;1930;1930;3;8;0;3;0;5;0;BETA;1930;2100;3100;x;;;;;;;;;;;;
Brain-Class675;9050675;U51;1930;1930;1930;1930;3;8;0;3;0;5;0;BETA;1930;2100;3100;x;;;;;;;;;;;;
Brain-Class676;9050676;U51;1930;1930;1930;1930;3;8;0;3;0;5;0;BETA;1930;2100;3100;x;;;;;;;;;;;;
Brain-Class677;9050677;U51;1930;1930;1930;1930;3;8;0;3;0;5;0;BETA;1930;2100;3100;x;;;;;;;;;;;;
Brain-Class678;9050678;U51;1930;1930;1930;1930;3;8;0;3;0;5;0;BETA;1930;2100;3100;x;;;;;;;;;;;;
Brain-Class679;9050679;U51;1930;1930;1930;1930;3;8;0;3;0;5;0;BETA;1930;2100;3100;x;;;;;;;;;;;;
Brain-Class680;9050680;U51;1930;1930;1930;1930;3;8;0;3;0;5;0;BETA;1930;2100;3100;x;;;;;;;;;;;;
Brain-Class681;9050681;U51;1930;1930;1930;1930;3;8;0;3;0;5;0;BETA;1930;2100;3100;x;;;;;;;;;;;;
Brain-Class682;9050682;U51;1930;1930;1930;1930;3;8;0;3;0;5;0;BETA;1930;2100;3100;x;;;;;;;;;;;;
Brain-Class683;9050683;U51;1930;1930;1930;1930;3;8;0;3;0;5;0;BETA;1930;2100;3100;x;;;;;;;;;;;;
Brain-Class684;9050684;U51;1930;1930;1930;1930;3;8;0;3;0;5;0;BETA;1930;2100;3100;x;;;;;;;;;;;;
Brain-Class685;9050685;U51;1930;1930;1930;1930;3;8;0;3;0;5;0;BETA;1930;2100;3100;x;;;;;;;;;;;;
Brain-Class686;9050686;U51;1930;1930;1930;1930;3;8;0;3;0;5;0;BETA;1930;2100;3100;x;;;;;;;;;;;;
Brain-Class687;9050687;U51;1930;1930;1930;1930;3;8;0;3;0;5;0;BETA;1930;2100;3100;x;;;;;;;;;;;;
Brain-Class688;9050688;U51;1930;1930;1930;1930;3;8;0;3;0;5;0;BETA;1930;2100;3100;x;;;;;;;;;;;;
Brain-Class689;9050689;U51;1930;1930;1930;1930;3;8;0;3;0;5;0;BETA;1930;2100;3100;x;;;;;;;;;;;;
Brain-Class690;9050690;U51;1930;1930;1930;1930;3;8;0;3;0;5;0;BETA;1930;2100;3100;x;;;;;;;;;;;;
Brain-Class691;9050691;U51;1930;1930;1930;1930;3;8;0;3;0;5;0;BETA;1930;2100;3100;x;;;;;;;;;;;;
Brain-Class692;9050692;U51;1930;1930;1930;1930;3;8;0;3;0;5;0;BETA;1930;2100;3100;x;;;;;;;;;;;;
Brain-Class693;9050693;U51;1930;1930;1930;1930;3;8;0;3;0;5;0;BETA;1930;2100;3100;x;;;;;;;;;;;;
Brain-Class694;9050694;U51;1930;1930;1930;1930;3;8;0;3;0;5;0;BETA;1930;2100;3100;x;;;;;;;;;;;;
Brain-Class695;9050695;U51;1930;1930;1930;1930;3;8;0;3;0;5;0;BETA;1930;2100;3100;x;;;;;;;;;;;;
Brain-Class696;9050696;U51;1930;1930;1930;1930;3;8;0;3;0;5;0;BETA;1930;2100;3100;x;;;;;;;;;;;;
Brain-Class697;9050697;U51;1930;1930;1930;1930;3;8;0;3;0;5;0;BETA;1930;2100;3100;x;;;;;;;;;;;;
Brain-Class698;9050698;U51;1930;1930;1930;1930;3;8;0;3;0;5;0;BETA;1930;2100;3100;x;;;;;;;;;;;;
Brain-Class699;9050699;U51;1930;1930;1930;1930;3;8;0;3;0;5;0;BETA;1930;2100;3100;x;;;;;;;;;;;;
Brain-Class700;9050700;U51;1930;1930;1930;1930;3;8;0;3;0;5;0;BETA;1930;2100;3100;x;;;;;;;;;;;;
Brain-Class701;9050701;U51;1930;1930;1930;1930;3;8;0;3;0;5;0;BETA;1930;2100;3100;x;;;;;;;;;;;;
Brain-Class702;9050702;U51;1930;1930;1930;1930;3;8;0;3;0;5;0;BETA;1930;2100;3100;x;;;;;;;;;;;;
Brain-Class703;9050703;U51;1930;1930;1930;1930;3;8;0;3;0;5;0;BETA;1930;2100;3100;x;;;;;;;;;;;;
Brain-Class704;9050704;U51;1930;1930;1930;1930;3;8;0;3;0;5;0;BETA;1930;2100;3100;x;;;;;;;;;;;;
Brain-Class705;9050705;U51;1930;1930;1930;1930;3;8;0;3;0;5;0;BETA;1930;2100;3100;x;;;;;;;;;;;;
Brain-Class706;9050706;U51;1930;1930;1930;1930;3;8;0;3;0;5;0;BETA;1930;2100;3100;x;;;;;;;;;;;;
Brain-Class707;9050707;U51;1930;1930;1930;1930;3;8;0;3;0;5;0;BETA;1930;2100;3100;x;;;;;;;;;;;;
Brain-Class708;9050708;U51;1930;1930;1930;1930;3;8;0;3;0;5;0;BETA;1930;2100;3100;x;;;;;;;;;;;;
Brain-Class709;9050709;U51;1930;1930;1930;1930;3;8;0;3;0;5;0;BETA;1930;2100;3100;x;;;;;;;;;;;;
Brain-Class710;9050710;U51;1930;1930;1930;1930;3;8;0;3;0;5;0;BETA;1930;2100;3100;x;;;;;;;;;;;;
Brain-Class711;9050711;U51;1930;1930;1930;1930;3;8;0;3;0;5;0;BETA;1930;2100;3100;x;;;;;;;;;;;;
Brain-Class712;9050712;U51;1930;1930;1930;1930;3;8;0;3;0;5;0;BETA;1930;2100;3100;x;;;;;;;;;;;;
Brain-Class713;9050713;U51;1930;1930;1930;1930;3;8;0;3;0;5;0;BETA;1930;2100;3100;x;;;;;;;;;;;;
Brain-Class714;9050714;U51;1930;1930;1930;1930;3;8;0;3;0;5;0;BETA;1930;2100;3100;x;;;;;;;;;;;;
Brain-Class715;9050715;U51;1930;1930;1930;1930;3;8;0;3;0;5;0;BETA;1930;2100;3100;x;;;;;;;;;;;;
Brain-Class716;9050716;U51;1930;1930;1930;1930;3;8;0;3;0;5;0;BETA;1930;2100;3100;x;;;;;;;;;;;;
Brain-Class717;9050717;U51;1930;1930;1930;1930;3;8;0;3;0;5;0;BETA;1930;2100;3100;x;;;;;;;;;;;;
Brain-Class718;9050718;U51;1930;1930;1930;1930;3;8;0;3;0;5;0;BETA;1930;2100;3100;x;;;;;;;;;;;;
Brain-Class719;9050719;U51;1930;1930;1930;1930;3;8;0;3;0;5;0;BETA;1930;2100;3100;x;;;;;;;;;;;;
Brain-Class720;9050720;U51;1930;1930;1930;1930;3;8;0;3;0;5;0;BETA;1930;2100;3100;x;;;;;;;;;;;;
Brain-Class721;9050721;U51;1930;1930;1930;1930;3;8;0;3;0;5;0;BETA;1930;2100;3100;x;;;;;;;;;;;;
Brain-Class722;9050722;U51;1930;1930;1930;1930;3;8;0;3;0;5;0;BETA;1930;2100;3100;x;;;;;;;;;;;;
Brain-Class723;9050723;U51;1930;1930;1930;1930;3;8;0;3;0;5;0;BETA;1930;2100;3100;x;;;;;;;;;;;;
Brain-Class724;9050724;U51;1930;1930;1930;1930;3;8;0;3;0;5;0;BETA;1930;2100;3100;x;;;;;;;;;;;;
Brain-Class725;9050725;U51;1930;1930;1930;1930;3;8;0;3;0;5;0;BETA;1930;2100;3100;x;;;;;;;;;;;;
Brain-Class726;9050726;U51;1930;1930;1930;1930;3;8;0;3;0;5;0;BETA;1930;2100;3100;x;;;;;;;;;;;;
Brain-Class727;9050727;U51;1930;1930;1930;1930;3;8;0;3;0;5;0;BETA;1930;2100;3100;x;;;;;;;;;;;;
Brain-Class728;9050728;U51;1930;1930;1930;1930;3;8;0;3;0;5;0;BETA;1930;2100;3100;x;;;;;;;;;;;;
Brain-Class729;9050729;U51;1930;1930;1930;1930;3;8;0;3;0;5;0;BETA;1930;2100;3100;x;;;;;;;;;;;;
Brain-Class730;9050730;U51;1930;1930;1930;1930;3;8;0;3;0;5;0;BETA;1930;2100;3100;x;;;;;;;;;;;;
Brain-Class731;9050731;U51;1930;1930;1930;1930;3;8;0;3;0;5;0;BETA;1930;2100;3100;x;;;;;;;;;;;;
Brain-Class732;9050732;U51;1930;1930;1930;1930;3;8;0;3;0;5;0;BETA;1930;2100;3100;x;;;;;;;;;;;;
Brain-Class733;9050733;U51;1930;1930;1930;1930;3;8;0;3;0;5;0;BETA;1930;2100;3100;x;;;;;;;;;;;;
Brain-Class734;9050734;U51;1930;1930;1930;1930;3;8;0;3;0;5;0;BETA;1930;2100;3100;x;;;;;;;;;;;;
Brain-Class735;9050735;U51;1930;1930;1930;1930;3;8;0;3;0;5;0;BETA;1930;2100;3100;x;;;;;;;;;;;;
Brain-Class736;9050736;U51;1930;1930;1930;1930;3;8;0;3;0;5;0;BETA;1930;2100;3100;x;;;;;;;;;;;;
Brain-Class737;9050737;U51;1930;1930;1930;1930;3;8;0;3;0;5;0;BETA;1930;2100;3100;x;;;;;;;;;;;;
Brain-Class738;9050738;U51;1930;1930;1930;1930;3;8;0;3;0;5;0;BETA;1930;2100;3100;x;;;;;;;;;;;;
Brain-Class739;9050739;U51;1930;1930;1930;1930;3;8;0;3;0;5;0;BETA;1930;2100;3100;x;;;;;;;;;;;;
Brain-Class740;9050740;U51;1930;1930;1930;1930;3;8;0;3;0;5;0;BETA;1930;2100;3100;x;;;;;;;;;;;;
Brain-Class741;9050741;U51;1930;1930;1930;1930;3;8;0;3;0;5;0;BETA;1930;2100;3100;x;;;;;;;;;;;;
Brain-Class742;9050742;U51;1930;1930;1930;1930;3;8;0;3;0;5;0;BETA;1930;2100;3100;x;;;;;;;;;;;;
Brain-Class743;9050743;U51;1930;1930;1930;1930;3;8;0;3;0;5;0;BETA;1930;2100;3100;x;;;;;;;;;;;;
Brain-Class744;9050744;U51;1930;1930;1930;1930;3;8;0;3;0;5;0;BETA;1930;2100;3100;x;;;;;;;;;;;;
Brain-Class745;9050745;U51;1930;1930;1930;1930;3;8;0;3;0;5;0;BETA;1930;2100;3100;x;;;;;;;;;;;;
Brain-Class746;9050746;U51;1930;1930;1930;1930;3;8;0;3;0;5;0;BETA;1930;2100;3100;x;;;;;;;;;;;;
Brain-Class747;9050747;U51;1930;1930;1930;1930;3;8;0;3;0;5;0;BETA;1930;2100;3100;x;;;;;;;;;;;;
Brain-Class748;9050748;U51;1930;1930;1930;1930;3;8;0;3;0;5;0;BETA;1930;2100;3100;x;;;;;;;;;;;;
Brain-Class749;9050749;U51;1930;1930;1930;1930;3;8;0;3;0;5;0;BETA;1930;2100;3100;x;;;;;;;;;;;;
Brain-Class750;9050750;U51;1930;1930;1930;1930;3;8;0;3;0;5;0;BETA;1930;2100;3100;x;;;;;;;;;;;;
Brain-Class751;9050751;U51;1930;1930;1930;1930;3;8;0;3;0;5;0;BETA;1930;2100;3100;x;;;;;;;;;;;;
Brain-Class752;9050752;U51;1930;1930;1930;1930;3;8;0;3;0;5;0;BETA;1930;2100;3100;x;;;;;;;;;;;;
Brain-Class753;9050753;U51;1930;1930;1930;1930;3;8;0;3;0;5;0;BETA;1930;2100;3100;x;;;;;;;;;;;;
Brain-Class754;9050754;U51;1930;1930;1930;1930;3;8;0;3;0;5;0;BETA;1930;2100;3100;x;;;;;;;;;;;;
Brain-Class755;9050755;U51;1930;1930;1930;1930;3;8;0;3;0;5;0;BETA;1930;2100;3100;x;;;;;;;;;;;;
Brain-Class756;9050756;U51;1930;1930;1930;1930;3;8;0;3;0;5;0;BETA;1930;2100;3100;x;;;;;;;;;;;;
Brain-Class757;9050757;U51;1930;1930;1930;1930;3;8;0;3;0;5;0;BETA;1930;2100;3100;x;;;;;;;;;;;;
Brain-Class758;9050758;U51;1930;1930;1930;1930;3;8;0;3;0;5;0;BETA;1930;2100;3100;x;;;;;;;;;;;;
Brain-Class759;9050759;U51;1930;1930;1930;1930;3;8;0;3;0;5;0;BETA;1930;2100;3100;x;;;;;;;;;;;;
Brain-Class760;9050760;U51;1930;1930;1930;1930;3;8;0;3;0;5;0;BETA;1930;2100;3100;x;;;;;;;;;;;;
Brain-Class761;9050761;U51;1930;1930;1930;1930;3;8;0;3;0;5;0;BETA;1930;2100;3100;x;;;;;;;;;;;;
Brain-Class762;9050762;U51;1930;1930;1930;1930;3;8;0;3;0;5;0;BETA;1930;2100;3100;x;;;;;;;;;;;;
Brain-Class763;9050763;U51;1930;1930;1930;1930;3;8;0;3;0;5;0;BETA;1930;2100;3100;x;;;;;;;;;;;;
Brain-Class764;9050764;U51;1930;1930;1930;1930;3;8;0;3;0;5;0;BETA;1930;2100;3100;x;;;;;;;;;;;;
Brain-Class765;9050765;U51;1930;1930;1930;1930;3;8;0;3;0;5;0;BETA;1930;2100;3100;x;;;;;;;;;;;;
Brain-Class766;9050766;U51;1930;1930;1930;1930;3;8;0;3;0;5;0;BETA;1930;2100;3100;x;;;;;;;;;;;;
Brain-Class767;9050767;U51;1930;1930;1930;1930;3;8;0;3;0;5;0;BETA;1930;2100;3100;x;;;;;;;;;;;;
Brain-Class768;9050768;U51;1930;1930;1930;1930;3;8;0;3;0;5;0;BETA;1930;2100;3100;x;;;;;;;;;;;;
Brain-Class769;9050769;U51;1930;1930;1930;1930;3;8;0;3;0;5;0;BETA;1930;2100;3100;x;;;;;;;;;;;;
Brain-Class770;9050770;U51;1930;1930;1930;1930;3;8;0;3;0;5;0;BETA;1930;2100;3100;x;;;;;;;;;;;;
Brain-Class771;9050771;U51;1930;1930;1930;1930;3;8;0;3;0;5;0;BETA;1930;2100;3100;x;;;;;;;;;;;;
Brain-Class772;9050772;U51;1930;1930;1930;1930;3;8;0;3;0;5;0;BETA;1930;2100;3100;x;;;;;;;;;;;;
Brain-Class773;9050773;U51;1930;1930;1930;1930;3;8;0;3;0;5;0;BETA;1930;2100;3100;x;;;;;;;;;;;;
Brain-Class774;9050774;U51;1930;1930;1930;1930;3;8;0;3;0;5;0;BETA;1930;2100;3100;x;;;;;;;;;;;;
Brain-Class775;9050775;U51;1930;1930;1930;1930;3;8;0;3;0;5;0;BETA;1930;2100;3100;x;;;;;;;;;;;;
Brain-Class776;9050776;U51;1930;1930;1930;1930;3;8;0;3;0;5;0;BETA;1930;2100;3100;x;;;;;;;;;;;;
Brain-Class777;9050777;U51;1930;1930;1930;1930;3;8;0;3;0;5;0;BETA;1930;2100;3100;x;;;;;;;;;;;;
Brain-Class778;9050778;U51;1930;1930;1930;1930;3;8;0;3;0;5;0;BETA;1930;2100;3100;x;;;;;;;;;;;;
Brain-Class779;9050779;U51;1930;1930;1930;1930;3;8;0;3;0;5;0;BETA;1930;2100;3100;x;;;;;;;;;;;;
Brain-Class780;9050780;U51;1930;1930;1930;1930;3;8;0;3;0;5;0;BETA;1930;2100;3100;x;;;;;;;;;;;;
Brain-Class781;9050781;U51;1930;1930;1930;1930;3;8;0;3;0;5;0;BETA;1930;2100;3100;x;;;;;;;;;;;;
Brain-Class782;9050782;U51;1930;1930;1930;1930;3;8;0;3;0;5;0;BETA;1930;2100;3100;x;;;;;;;;;;;;
Brain-Class783;9050783;U51;1930;1930;1930;1930;3;8;0;3;0;5;0;BETA;1930;2100;3100;x;;;;;;;;;;;;
Brain-Class784;9050784;U51;1930;1930;1930;1930;3;8;0;3;0;5;0;BETA;1930;2100;3100;x;;;;;;;;;;;;
Brain-Class785;9050785;U51;1930;1930;1930;1930;3;8;0;3;0;5;0;BETA;1930;2100;3100;x;;;;;;;;;;;;
Brain-Class786;9050786;U51;1930;1930;1930;1930;3;8;0;3;0;5;0;BETA;1930;2100;3100;x;;;;;;;;;;;;
Brain-Class787;9050787;U51;1930;1930;1930;1930;3;8;0;3;0;5;0;BETA;1930;2100;3100;x;;;;;;;;;;;;
Brain-Class788;9050788;U51;1930;1930;1930;1930;3;8;0;3;0;5;0;BETA;1930;2100;3100;x;;;;;;;;;;;;
Brain-Class789;9050789;U51;1930;1930;1930;1930;3;8;0;3;0;5;0;BETA;1930;2100;3100;x;;;;;;;;;;;;
Brain-Class790;9050790;U51;1930;1930;1930;1930;3;8;0;3;0;5;0;BETA;1930;2100;3100;x;;;;;;;;;;;;
Brain-Class791;9050791;U51;1930;1930;1930;1930;3;8;0;3;0;5;0;BETA;1930;2100;3100;x;;;;;;;;;;;;
Brain-Class792;9050792;U51;1930;1930;1930;1930;3;8;0;3;0;5;0;BETA;1930;2100;3100;x;;;;;;;;;;;;
Brain-Class793;9050793;U51;1930;1930;1930;1930;3;8;0;3;0;5;0;BETA;1930;2100;3100;x;;;;;;;;;;;;
Brain-Class794;9050794;U51;1930;1930;1930;1930;3;8;0;3;0;5;0;BETA;1930;2100;3100;x;;;;;;;;;;;;
Brain-Class795;9050795;U51;1930;1930;1930;1930;3;8;0;3;0;5;0;BETA;1930;2100;3100;x;;;;;;;;;;;;
Brain-Class796;9050796;U51;1930;1930;1930;1930;3;8;0;3;0;5;0;BETA;1930;2100;3100;x;;;;;;;;;;;;
Brain-Class797;9050797;U51;1930;1930;1930;1930;3;8;0;3;0;5;0;BETA;1930;2100;3100;x;;;;;;;;;;;;
Brain-Class798;9050798;U51;1930;1930;1930;1930;3;8;0;3;0;5;0;BETA;1930;2100;3100;x;;;;;;;;;;;;
Brain-Class799;9050799;U51;1930;1930;1930;1930;3;8;0;3;0;5;0;BETA;1930;2100;3100;x;;;;;;;;;;;;
Brain-Class800;9050800;U51;1930;1930;1930;1930;3;8;0;3;0;5;0;BETA;1930;2100;3100;x;;;;;;;;;;;;
Brain-Class801;9050801;U51;1930;1930;1930;1930;3;8;0;3;0;5;0;BETA;1930;2100;3100;x;;;;;;;;;;;;
Brain-Class802;9050802;U51;1930;1930;1930;1930;3;8;0;3;0;5;0;BETA;1930;2100;3100;x;;;;;;;;;;;;
Brain-Class803;9050803;U51;1930;1930;1930;1930;3;8;0;3;0;5;0;BETA;1930;2100;3100;x;;;;;;;;;;;;
Brain-Class804;9050804;U51;1930;1930;1930;1930;3;8;0;3;0;5;0;BETA;1930;2100;3100;x;;;;;;;;;;;;
Brain-Class805;9050805;U51;1930;1930;1930;1930;3;8;0;3;0;5;0;BETA;1930;2100;3100;x;;;;;;;;;;;;
Brain-Class806;9050806;U51;1930;1930;1930;1930;3;8;0;3;0;5;0;BETA;1930;2100;3100;x;;;;;;;;;;;;
Brain-Class807;9050807;U51;1930;1930;1930;1930;3;8;0;3;0;5;0;BETA;1930;2100;3100;x;;;;;;;;;;;;
Brain-Class808;9050808;U51;1930;1930;1930;1930;3;8;0;3;0;5;0;BETA;1930;2100;3100;x;;;;;;;;;;;;
Brain-Class809;9050809;U51;1930;1930;1930;1930;3;8;0;3;0;5;0;BETA;1930;2100;3100;x;;;;;;;;;;;;
Brain-Class810;9050810;U51;1930;1930;1930;1930;3;8;0;3;0;5;0;BETA;1930;2100;3100;x;;;;;;;;;;;;
Brain-Class811;9050811;U51;1930;1930;1930;1930;3;8;0;3;0;5;0;BETA;1930;2100;3100;x;;;;;;;;;;;;
Brain-Class812;9050812;U51;1930;1930;1930;1930;3;8;0;3;0;5;0;BETA;1930;2100;3100;x;;;;;;;;;;;;
Brain-Class813;9050813;U51;1930;1930;1930;1930;3;8;0;3;0;5;0;BETA;1930;2100;3100;x;;;;;;;;;;;;
Brain-Class814;9050814;U51;1930;1930;1930;1930;3;8;0;3;0;5;0;BETA;1930;2100;3100;x;;;;;;;;;;;;
Brain-Class815;9050815;U51;1930;1930;1930;1930;3;8;0;3;0;5;0;BETA;1930;2100;3100;x;;;;;;;;;;;;
Brain-Class816;9050816;U51;1930;1930;1930;1930;3;8;0;3;0;5;0;BETA;1930;2100;3100;x;;;;;;;;;;;;
Brain-Class817;9050817;U51;1930;1930;1930;1930;3;8;0;3;0;5;0;BETA;1930;2100;3100;x;;;;;;;;;;;;
Brain-Class818;9050818;U51;1930;1930;1930;1930;3;8;0;3;0;5;0;BETA;1930;2100;3100;x;;;;;;;;;;;;
Brain-Class819;9050819;U51;1930;1930;1930;1930;3;8;0;3;0;5;0;BETA;1930;2100;3100;x;;;;;;;;;;;;
Brain-Class820;9050820;U51;1930;1930;1930;1930;3;8;0;3;0;5;0;BETA;1930;2100;3100;x;;;;;;;;;;;;
Brain-Class821;9050821;U51;1930;1930;1930;1930;3;8;0;3;0;5;0;BETA;1930;2100;3100;x;;;;;;;;;;;;
Brain-Class822;9050822;U51;1930;1930;1930;1930;3;8;0;3;0;5;0;BETA;1930;2100;3100;x;;;;;;;;;;;;
Brain-Class823;9050823;U51;1930;1930;1930;1930;3;8;0;3;0;5;0;BETA;1930;2100;3100;x;;;;;;;;;;;;
Brain-Class824;9050824;U51;1930;1930;1930;1930;3;8;0;3;0;5;0;BETA;1930;2100;3100;x;;;;;;;;;;;;
Brain-Class825;9050825;U51;1930;1930;1930;1930;3;8;0;3;0;5;0;BETA;1930;2100;3100;x;;;;;;;;;;;;
Brain-Class826;9050826;U51;1930;1930;1930;1930;3;8;0;3;0;5;0;BETA;1930;2100;3100;x;;;;;;;;;;;;
Brain-Class827;9050827;U51;1930;1930;1930;1930;3;8;0;3;0;5;0;BETA;1930;2100;3100;x;;;;;;;;;;;;
Brain-Class828;9050828;U51;1930;1930;1930;1930;3;8;0;3;0;5;0;BETA;1930;2100;3100;x;;;;;;;;;;;;
Brain-Class829;9050829;U51;1930;1930;1930;1930;3;8;0;3;0;5;0;BETA;1930;2100;3100;x;;;;;;;;;;;;
Brain-Class830;9050830;U51;1930;1930;1930;1930;3;8;0;3;0;5;0;BETA;1930;2100;3100;x;;;;;;;;;;;;
Brain-Class831;9050831;U51;1930;1930;1930;1930;3;8;0;3;0;5;0;BETA;1930;2100;3100;x;;;;;;;;;;;;
Brain-Class832;9050832;U51;1930;1930;1930;1930;3;8;0;3;0;5;0;BETA;1930;2100;3100;x;;;;;;;;;;;;
Brain-Class833;9050833;U51;1930;1930;1930;1930;3;8;0;3;0;5;0;BETA;1930;2100;3100;x;;;;;;;;;;;;
Brain-Class834;9050834;U51;1930;1930;1930;1930;3;8;0;3;0;5;0;BETA;1930;2100;3100;x;;;;;;;;;;;;
Brain-Class835;9050835;U51;1930;1930;1930;1930;3;8;0;3;0;5;0;BETA;1930;2100;3100;x;;;;;;;;;;;;
Brain-Class836;9050836;U51;1930;1930;1930;1930;3;8;0;3;0;5;0;BETA;1930;2100;3100;x;;;;;;;;;;;;
Brain-Class837;9050837;U51;1930;1930;1930;1930;3;8;0;3;0;5;0;BETA;1930;2100;3100;x;;;;;;;;;;;;
Brain-Class838;9050838;U51;1930;1930;1930;1930;3;8;0;3;0;5;0;BETA;1930;2100;3100;x;;;;;;;;;;;;
Brain-Class839;9050839;U51;1930;1930;1930;1930;3;8;0;3;0;5;0;BETA;1930;2100;3100;x;;;;;;;;;;;;
Brain-Class840;9050840;U51;1930;1930;1930;1930;3;8;0;3;0;5;0;BETA;1930;2100;3100;x;;;;;;;;;;;;
Brain-Class841;9050841;U51;1930;1930;1930;1930;3;8;0;3;0;5;0;BETA;1930;2100;3100;x;;;;;;;;;;;;
Brain-Class842;9050842;U51;1930;1930;1930;1930;3;8;0;3;0;5;0;BETA;1930;2100;3100;x;;;;;;;;;;;;
Brain-Class843;9050843;U51;1930;1930;1930;1930;3;8;0;3;0;5;0;BETA;1930;2100;3100;x;;;;;;;;;;;;
Brain-Class844;9050844;U51;1930;1930;1930;1930;3;8;0;3;0;5;0;BETA;1930;2100;3100;x;;;;;;;;;;;;
Brain-Class845;9050845;U51;1930;1930;1930;1930;3;8;0;3;0;5;0;BETA;1930;2100;3100;x;;;;;;;;;;;;
Brain-Class846;9050846;U51;1930;1930;1930;1930;3;8;0;3;0;5;0;BETA;1930;2100;3100;x;;;;;;;;;;;;
Brain-Class847;9050847;U51;1930;1930;1930;1930;3;8;0;3;0;5;0;BETA;1930;2100;3100;x;;;;;;;;;;;;
Brain-Class848;9050848;U51;1930;1930;1930;1930;3;8;0;3;0;5;0;BETA;1930;2100;3100;x;;;;;;;;;;;;
Brain-Class849;9050849;U51;1930;1930;1930;1930;3;8;0;3;0;5;0;BETA;1930;2100;3100;x;;;;;;;;;;;;
Brain-Class850;9050850;U51;1930;1930;1930;1930;3;8;0;3;0;5;0;BETA;1930;2100;3100;x;;;;;;;;;;;;
Brain-Class851;9050851;U51;1930;1930;1930;1930;3;8;0;3;0;5;0;BETA;1930;2100;3100;x;;;;;;;;;;;;
Brain-Class852;9050852;U51;1930;1930;1930;1930;3;8;0;3;0;5;0;BETA;1930;2100;3100;x;;;;;;;;;;;;
Brain-Class853;9050853;U51;1930;1930;1930;1930;3;8;0;3;0;5;0;BETA;1930;2100;3100;x;;;;;;;;;;;;
Brain-Class854;9050854;U51;1930;1930;1930;1930;3;8;0;3;0;5;0;BETA;1930;2100;3100;x;;;;;;;;;;;;
Brain-Class855;9050855;U51;1930;1930;1930;1930;3;8;0;3;0;5;0;BETA;1930;2100;3100;x;;;;;;;;;;;;
Brain-Class856;9050856;U51;1930;1930;1930;1930;3;8;0;3;0;5;0;BETA;1930;2100;3100;x;;;;;;;;;;;;
Brain-Class857;9050857;U51;1930;1930;1930;1930;3;8;0;3;0;5;0;BETA;1930;2100;3100;x;;;;;;;;;;;;
Brain-Class858;9050858;U51;1930;1930;1930;1930;3;8;0;3;0;5;0;BETA;1930;2100;3100;x;;;;;;;;;;;;
Brain-Class859;9050859;U51;1930;1930;1930;1930;3;8;0;3;0;5;0;BETA;1930;2100;3100;x;;;;;;;;;;;;
Brain-Class860;9050860;U51;1930;1930;1930;1930;3;8;0;3;0;5;0;BETA;1930;2100;3100;x;;;;;;;;;;;;
Brain-Class861;9050861;U51;1930;1930;1930;1930;3;8;0;3;0;5;0;BETA;1930;2100;3100;x;;;;;;;;;;;;
Brain-Class862;9050862;U51;1930;1930;1930;1930;3;8;0;3;0;5;0;BETA;1930;2100;3100;x;;;;;;;;;;;;
Brain-Class863;9050863;U51;1930;1930;1930;1930;3;8;0;3;0;5;0;BETA;1930;2100;3100;x;;;;;;;;;;;;
Brain-Class864;9050864;U51;1930;1930;1930;1930;3;8;0;3;0;5;0;BETA;1930;2100;3100;x;;;;;;;;;;;;
Brain-Class865;9050865;U51;1930;1930;1930;1930;3;8;0;3;0;5;0;BETA;1930;2100;3100;x;;;;;;;;;;;;
Brain-Class866;9050866;U51;1930;1930;1930;1930;3;8;0;3;0;5;0;BETA;1930;2100;3100;x;;;;;;;;;;;;
Brain-Class867;9050867;U51;1930;1930;1930;1930;3;8;0;3;0;5;0;BETA;1930;2100;3100;x;;;;;;;;;;;;
Brain-Class868;9050868;U51;1930;1930;1930;1930;3;8;0;3;0;5;0;BETA;1930;2100;3100;x;;;;;;;;;;;;
Brain-Class869;9050869;U51;1930;1930;1930;1930;3;8;0;3;0;5;0;BETA;1930;2100;3100;x;;;;;;;;;;;;
Brain-Class870;9050870;U51;1930;1930;1930;1930;3;8;0;3;0;5;0;BETA;1930;2100;3100;x;;;;;;;;;;;;
Brain-Class871;9050871;U51;1930;1930;1930;1930;3;8;0;3;0;5;0;BETA;1930;2100;3100;x;;;;;;;;;;;;
Brain-Class872;9050872;U51;1930;1930;1930;1930;3;8;0;3;0;5;0;BETA;1930;2100;3100;x;;;;;;;;;;;;
Brain-Class873;9050873;U51;1930;1930;1930;1930;3;8;0;3;0;5;0;BETA;1930;2100;3100;x;;;;;;;;;;;;
Brain-Class874;9050874;U51;1930;1930;1930;1930;3;8;0;3;0;5;0;BETA;1930;2100;3100;x;;;;;;;;;;;;
Brain-Class875;9050875;U51;1930;1930;1930;1930;3;8;0;3;0;5;0;BETA;1930;2100;3100;x;;;;;;;;;;;;
Brain-Class876;9050876;U51;1930;1930;1930;1930;3;8;0;3;0;5;0;BETA;1930;2100;3100;x;;;;;;;;;;;;
Brain-Class877;9050877;U51;1930;1930;1930;1930;3;8;0;3;0;5;0;BETA;1930;2100;3100;x;;;;;;;;;;;;
Brain-Class878;9050878;U51;1930;1930;1930;1930;3;8;0;3;0;5;0;BETA;1930;2100;3100;x;;;;;;;;;;;;
Brain-Class879;9050879;U51;1930;1930;1930;1930;3;8;0;3;0;5;0;BETA;1930;2100;3100;x;;;;;;;;;;;;
Brain-Class880;9050880;U51;1930;1930;1930;1930;3;8;0;3;0;5;0;BETA;1930;2100;3100;x;;;;;;;;;;;;
Brain-Class881;9050881;U51;1930;1930;1930;1930;3;8;0;3;0;5;0;BETA;1930;2100;3100;x;;;;;;;;;;;;
Brain-Class882;9050882;U51;1930;1930;1930;1930;3;8;0;3;0;5;0;BETA;1930;2100;3100;x;;;;;;;;;;;;
Brain-Class883;9050883;U51;1930;1930;1930;1930;3;8;0;3;0;5;0;BETA;1930;2100;3100;x;;;;;;;;;;;;
Brain-Class884;9050884;U51;1930;1930;1930;1930;3;8;0;3;0;5;0;BETA;1930;2100;3100;x;;;;;;;;;;;;
Brain-Class885;9050885;U51;1930;1930;1930;1930;3;8;0;3;0;5;0;BETA;1930;2100;3100;x;;;;;;;;;;;;
Brain-Class886;9050886;U51;1930;1930;1930;1930;3;8;0;3;0;5;0;BETA;1930;2100;3100;x;;;;;;;;;;;;
Brain-Class887;9050887;U51;1930;1930;1930;1930;3;8;0;3;0;5;0;BETA;1930;2100;3100;x;;;;;;;;;;;;
Brain-Class888;9050888;U51;1930;1930;1930;1930;3;8;0;3;0;5;0;BETA;1930;2100;3100;x;;;;;;;;;;;;
Brain-Class889;9050889;U51;1930;1930;1930;1930;3;8;0;3;0;5;0;BETA;1930;2100;3100;x;;;;;;;;;;;;
Brain-Class890;9050890;U51;1930;1930;1930;1930;3;8;0;3;0;5;0;BETA;1930;2100;3100;x;;;;;;;;;;;;
Brain-Class891;9050891;U51;1930;1930;1930;1930;3;8;0;3;0;5;0;BETA;1930;2100;3100;x;;;;;;;;;;;;
Brain-Class892;9050892;U51;1930;1930;1930;1930;3;8;0;3;0;5;0;BETA;1930;2100;3100;x;;;;;;;;;;;;
Brain-Class893;9050893;U51;1930;1930;1930;1930;3;8;0;3;0;5;0;BETA;1930;2100;3100;x;;;;;;;;;;;;
Brain-Class894;9050894;U51;1930;1930;1930;1930;3;8;0;3;0;5;0;BETA;1930;2100;3100;x;;;;;;;;;;;;
Brain-Class895;9050895;U51;1930;1930;1930;1930;3;8;0;3;0;5;0;BETA;1930;2100;3100;x;;;;;;;;;;;;
Brain-Class896;9050896;U51;1930;1930;1930;1930;3;8;0;3;0;5;0;BETA;1930;2100;3100;x;;;;;;;;;;;;
Brain-Class897;9050897;U51;1930;1930;1930;1930;3;8;0;3;0;5;0;BETA;1930;2100;3100;x;;;;;;;;;;;;
Brain-Class898;9050898;U51;1930;1930;1930;1930;3;8;0;3;0;5;0;BETA;1930;2100;3100;x;;;;;;;;;;;;
Brain-Class899;9050899;U51;1930;1930;1930;1930;3;8;0;3;0;5;0;BETA;1930;2100;3100;x;;;;;;;;;;;;
Brain-Class900;9050900;U51;1930;1930;1930;1930;3;8;0;3;0;5;0;BETA;1930;2100;3100;x;;;;;;;;;;;;
Brain-Class901;9050901;U51;1930;1930;1930;1930;3;8;0;3;0;5;0;BETA;1930;2100;3100;x;;;;;;;;;;;;
Brain-Class902;9050902;U51;1930;1930;1930;1930;3;8;0;3;0;5;0;BETA;1930;2100;3100;x;;;;;;;;;;;;
Brain-Class903;9050903;U51;1930;1930;1930;1930;3;8;0;3;0;5;0;BETA;1930;2100;3100;x;;;;;;;;;;;;
Brain-Class904;9050904;U51;1930;1930;1930;1930;3;8;0;3;0;5;0;BETA;1930;2100;3100;x;;;;;;;;;;;;
Brain-Class905;9050905;U51;1930;1930;1930;1930;3;8;0;3;0;5;0;BETA;1930;2100;3100;x;;;;;;;;;;;;
Brain-Class906;9050906;U51;1930;1930;1930;1930;3;8;0;3;0;5;0;BETA;1930;2100;3100;x;;;;;;;;;;;;
Brain-Class907;9050907;U51;1930;1930;1930;1930;3;8;0;3;0;5;0;BETA;1930;2100;3100;x;;;;;;;;;;;;
Brain-Class908;9050908;U51;1930;1930;1930;1930;3;8;0;3;0;5;0;BETA;1930;2100;3100;x;;;;;;;;;;;;
Brain-Class909;9050909;U51;1930;1930;1930;1930;3;8;0;3;0;5;0;BETA;1930;2100;3100;x;;;;;;;;;;;;
Brain-Class910;9050910;U51;1930;1930;1930;1930;3;8;0;3;0;5;0;BETA;1930;2100;3100;x;;;;;;;;;;;;
Brain-Class911;9050911;U51;1930;1930;1930;1930;3;8;0;3;0;5;0;BETA;1930;2100;3100;x;;;;;;;;;;;;
Brain-Class912;9050912;U51;1930;1930;1930;1930;3;8;0;3;0;5;0;BETA;1930;2100;3100;x;;;;;;;;;;;;
Brain-Class913;9050913;U51;1930;1930;1930;1930;3;8;0;3;0;5;0;BETA;1930;2100;3100;x;;;;;;;;;;;;
Brain-Class914;9050914;U51;1930;1930;1930;1930;3;8;0;3;0;5;0;BETA;1930;2100;3100;x;;;;;;;;;;;;
Brain-Class915;9050915;U51;1930;1930;1930;1930;3;8;0;3;0;5;0;BETA;1930;2100;3100;x;;;;;;;;;;;;
Brain-Class916;9050916;U51;1930;1930;1930;1930;3;8;0;3;0;5;0;BETA;1930;2100;3100;x;;;;;;;;;;;;
Brain-Class917;9050917;U51;1930;1930;1930;1930;3;8;0;3;0;5;0;BETA;1930;2100;3100;x;;;;;;;;;;;;
Brain-Class918;9050918;U51;1930;1930;1930;1930;3;8;0;3;0;5;0;BETA;1930;2100;3100;x;;;;;;;;;;;;
Brain-Class919;9050919;U51;1930;1930;1930;1930;3;8;0;3;0;5;0;BETA;1930;2100;3100;x;;;;;;;;;;;;
Brain-Class920;9050920;U51;1930;1930;1930;1930;3;8;0;3;0;5;0;BETA;1930;2100;3100;x;;;;;;;;;;;;
Brain-Class921;9050921;U51;1930;1930;1930;1930;3;8;0;3;0;5;0;BETA;1930;2100;3100;x;;;;;;;;;;;;
Brain-Class922;9050922;U51;1930;1930;1930;1930;3;8;0;3;0;5;0;BETA;1930;2100;3100;x;;;;;;;;;;;;
Brain-Class923;9050923;U51;1930;1930;1930;1930;3;8;0;3;0;5;0;BETA;1930;2100;3100;x;;;;;;;;;;;;
Brain-Class924;9050924;U51;1930;1930;1930;1930;3;8;0;3;0;5;0;BETA;1930;2100;3100;x;;;;;;;;;;;;
Brain-Class925;9050925;U51;1930;1930;1930;1930;3;8;0;3;0;5;0;BETA;1930;2100;3100;x;;;;;;;;;;;;
Brain-Class926;9050926;U51;1930;1930;1930;1930;3;8;0;3;0;5;0;BETA;1930;2100;3100;x;;;;;;;;;;;;
Brain-Class927;9050927;U51;1930;1930;1930;1930;3;8;0;3;0;5;0;BETA;1930;2100;3100;x;;;;;;;;;;;;
Brain-Class928;9050928;U51;1930;1930;1930;1930;3;8;0;3;0;5;0;BETA;1930;2100;3100;x;;;;;;;;;;;;
Brain-Class929;9050929;U51;1930;1930;1930;1930;3;8;0;3;0;5;0;BETA;1930;2100;3100;x;;;;;;;;;;;;
Brain-Class930;9050930;U51;1930;1930;1930;1930;3;8;0;3;0;5;0;BETA;1930;2100;3100;x;;;;;;;;;;;;
Brain-Class931;9050931;U51;1930;1930;1930;1930;3;8;0;3;0;5;0;BETA;1930;2100;3100;x;;;;;;;;;;;;
Brain-Class932;9050932;U51;1930;1930;1930;1930;3;8;0;3;0;5;0;BETA;1930;2100;3100;x;;;;;;;;;;;;
Brain-Class933;9050933;U51;1930;1930;1930;1930;3;8;0;3;0;5;0;BETA;1930;2100;3100;x;;;;;;;;;;;;
Brain-Class934;9050934;U51;1930;1930;1930;1930;3;8;0;3;0;5;0;BETA;1930;2100;3100;x;;;;;;;;;;;;
Brain-Class935;9050935;U51;1930;1930;1930;1930;3;8;0;3;0;5;0;BETA;1930;2100;3100;x;;;;;;;;;;;;
Brain-Class936;9050936;U51;1930;1930;1930;1930;3;8;0;3;0;5;0;BETA;1930;2100;3100;x;;;;;;;;;;;;
Brain-Class937;9050937;U51;1930;1930;1930;1930;3;8;0;3;0;5;0;BETA;1930;2100;3100;x;;;;;;;;;;;;
Brain-Class938;9050938;U51;1930;1930;1930;1930;3;8;0;3;0;5;0;BETA;1930;2100;3100;x;;;;;;;;;;;;
Brain-Class939;9050939;U51;1930;1930;1930;1930;3;8;0;3;0;5;0;BETA;1930;2100;3100;x;;;;;;;;;;;;
Brain-Class940;9050940;U51;1930;1930;1930;1930;3;8;0;3;0;5;0;BETA;1930;2100;3100;x;;;;;;;;;;;;
Brain-Class941;9050941;U51;1930;1930;1930;1930;3;8;0;3;0;5;0;BETA;1930;2100;3100;x;;;;;;;;;;;;
Brain-Class942;9050942;U51;1930;1930;1930;1930;3;8;0;3;0;5;0;BETA;1930;2100;3100;x;;;;;;;;;;;;
Brain-Class943;9050943;U51;1930;1930;1930;1930;3;8;0;3;0;5;0;BETA;1930;2100;3100;x;;;;;;;;;;;;
Brain-Class944;9050944;U51;1930;1930;1930;1930;3;8;0;3;0;5;0;BETA;1930;2100;3100;x;;;;;;;;;;;;
Brain-Class945;9050945;U51;1930;1930;1930;1930;3;8;0;3;0;5;0;BETA;1930;2100;3100;x;;;;;;;;;;;;
Brain-Class946;9050946;U51;1930;1930;1930;1930;3;8;0;3;0;5;0;BETA;1930;2100;3100;x;;;;;;;;;;;;
Brain-Class947;9050947;U51;1930;1930;1930;1930;3;8;0;3;0;5;0;BETA;1930;2100;3100;x;;;;;;;;;;;;
Brain-Class948;9050948;U51;1930;1930;1930;1930;3;8;0;3;0;5;0;BETA;1930;2100;3100;x;;;;;;;;;;;;
Brain-Class949;9050949;U51;1930;1930;1930;1930;3;8;0;3;0;5;0;BETA;1930;2100;3100;x;;;;;;;;;;;;
Brain-Class950;9050950;U51;1930;1930;1930;1930;3;8;0;3;0;5;0;BETA;1930;2100;3100;x;;;;;;;;;;;;
Brain-Class951;9050951;U51;1930;1930;1930;1930;3;8;0;3;0;5;0;BETA;1930;2100;3100;x;;;;;;;;;;;;
Brain-Class952;9050952;U51;1930;1930;1930;1930;3;8;0;3;0;5;0;BETA;1930;2100;3100;x;;;;;;;;;;;;
Brain-Class953;9050953;U51;1930;1930;1930;1930;3;8;0;3;0;5;0;BETA;1930;2100;3100;x;;;;;;;;;;;;
Brain-Class954;9050954;U51;1930;1930;1930;1930;3;8;0;3;0;5;0;BETA;1930;2100;3100;x;;;;;;;;;;;;
Brain-Class955;9050955;U51;1930;1930;1930;1930;3;8;0;3;0;5;0;BETA;1930;2100;3100;x;;;;;;;;;;;;
Brain-Class956;9050956;U51;1930;1930;1930;1930;3;8;0;3;0;5;0;BETA;1930;2100;3100;x;;;;;;;;;;;;
Brain-Class957;9050957;U51;1930;1930;1930;1930;3;8;0;3;0;5;0;BETA;1930;2100;3100;x;;;;;;;;;;;;
Brain-Class958;9050958;U51;1930;1930;1930;1930;3;8;0;3;0;5;0;BETA;1930;2100;3100;x;;;;;;;;;;;;
Brain-Class959;9050959;U51;1930;1930;1930;1930;3;8;0;3;0;5;0;BETA;1930;2100;3100;x;;;;;;;;;;;;
Brain-Class960;9050960;U51;1930;1930;1930;1930;3;8;0;3;0;5;0;BETA;1930;2100;3100;x;;;;;;;;;;;;
Brain-Class961;9050961;U51;1930;1930;1930;1930;3;8;0;3;0;5;0;BETA;1930;2100;3100;x;;;;;;;;;;;;
Brain-Class962;9050962;U51;1930;1930;1930;1930;3;8;0;3;0;5;0;BETA;1930;2100;3100;x;;;;;;;;;;;;
Brain-Class963;9050963;U51;1930;1930;1930;1930;3;8;0;3;0;5;0;BETA;1930;2100;3100;x;;;;;;;;;;;;
Brain-Class964;9050964;U51;1930;1930;1930;1930;3;8;0;3;0;5;0;BETA;1930;2100;3100;x;;;;;;;;;;;;
Brain-Class965;9050965;U51;1930;1930;1930;1930;3;8;0;3;0;5;0;BETA;1930;2100;3100;x;;;;;;;;;;;;
Brain-Class966;9050966;U51;1930;1930;1930;1930;3;8;0;3;0;5;0;BETA;1930;2100;3100;x;;;;;;;;;;;;
Brain-Class967;9050967;U51;1930;1930;1930;1930;3;8;0;3;0;5;0;BETA;1930;2100;3100;x;;;;;;;;;;;;
Brain-Class968;9050968;U51;1930;1930;1930;1930;3;8;0;3;0;5;0;BETA;1930;2100;3100;x;;;;;;;;;;;;
Brain-Class969;9050969;U51;1930;1930;1930;1930;3;8;0;3;0;5;0;BETA;1930;2100;3100;x;;;;;;;;;;;;
Brain-Class970;9050970;U51;1930;1930;1930;1930;3;8;0;3;0;5;0;BETA;1930;2100;3100;x;;;;;;;;;;;;
Brain-Class971;9050971;U51;1930;1930;1930;1930;3;8;0;3;0;5;0;BETA;1930;2100;3100;x;;;;;;;;;;;;
Brain-Class972;9050972;U51;1930;1930;1930;1930;3;8;0;3;0;5;0;BETA;1930;2100;3100;x;;;;;;;;;;;;
Brain-Class973;9050973;U51;1930;1930;1930;1930;3;8;0;3;0;5;0;BETA;1930;2100;3100;x;;;;;;;;;;;;
Brain-Class974;9050974;U51;1930;1930;1930;1930;3;8;0;3;0;5;0;BETA;1930;2100;3100;x;;;;;;;;;;;;
Brain-Class975;9050975;U51;1930;1930;1930;1930;3;8;0;3;0;5;0;BETA;1930;2100;3100;x;;;;;;;;;;;;
Brain-Class976;9050976;U51;1930;1930;1930;1930;3;8;0;3;0;5;0;BETA;1930;2100;3100;x;;;;;;;;;;;;
Brain-Class977;9050977;U51;1930;1930;1930;1930;3;8;0;3;0;5;0;BETA;1930;2100;3100;x;;;;;;;;;;;;
Brain-Class978;9050978;U51;1930;1930;1930;1930;3;8;0;3;0;5;0;BETA;1930;2100;3100;x;;;;;;;;;;;;
Brain-Class979;9050979;U51;1930;1930;1930;1930;3;8;0;3;0;5;0;BETA;1930;2100;3100;x;;;;;;;;;;;;
Brain-Class980;9050980;U51;1930;1930;1930;1930;3;8;0;3;0;5;0;BETA;1930;2100;3100;x;;;;;;;;;;;;
Brain-Class981;9050981;U51;1930;1930;1930;1930;3;8;0;3;0;5;0;BETA;1930;2100;3100;x;;;;;;;;;;;;
Brain-Class982;9050982;U51;1930;1930;1930;1930;3;8;0;3;0;5;0;BETA;1930;2100;3100;x;;;;;;;;;;;;
Brain-Class983;9050983;U51;1930;1930;1930;1930;3;8;0;3;0;5;0;BETA;1930;2100;3100;x;;;;;;;;;;;;
Brain-Class984;9050984;U51;1930;1930;1930;1930;3;8;0;3;0;5;0;BETA;1930;2100;3100;x;;;;;;;;;;;;
Brain-Class985;9050985;U51;1930;1930;1930;1930;3;8;0;3;0;5;0;BETA;1930;2100;3100;x;;;;;;;;;;;;
Brain-Class986;9050986;U51;1930;1930;1930;1930;3;8;0;3;0;5;0;BETA;1930;2100;3100;x;;;;;;;;;;;;
Brain-Class987;9050987;U51;1930;1930;1930;1930;3;8;0;3;0;5;0;BETA;1930;2100;3100;x;;;;;;;;;;;;
Brain-Class988;9050988;U51;1930;1930;1930;1930;3;8;0;3;0;5;0;BETA;1930;2100;3100;x;;;;;;;;;;;;
Brain-Class989;9050989;U51;1930;1930;1930;1930;3;8;0;3;0;5;0;BETA;1930;2100;3100;x;;;;;;;;;;;;
Brain-Class990;9050990;U51;1930;1930;1930;1930;3;8;0;3;0;5;0;BETA;1930;2100;3100;x;;;;;;;;;;;;
Brain-Class991;9050991;U51;1930;1930;1930;1930;3;8;0;3;0;5;0;BETA;1930;2100;3100;x;;;;;;;;;;;;
Brain-Class992;9050992;U51;1930;1930;1930;1930;3;8;0;3;0;5;0;BETA;1930;2100;3100;x;;;;;;;;;;;;
Brain-Class993;9050993;U51;1930;1930;1930;1930;3;8;0;3;0;5;0;BETA;1930;2100;3100;x;;;;;;;;;;;;
Brain-Class994;9050994;U51;1930;1930;1930;1930;3;8;0;3;0;5;0;BETA;1930;2100;3100;x;;;;;;;;;;;;
Brain-Class995;9050995;U51;1930;1930;1930;1930;3;8;0;3;0;5;0;BETA;1930;2100;3100;x;;;;;;;;;;;;
Brain-Class996;9050996;U51;1930;1930;1930;1930;3;8;0;3;0;5;0;BETA;1930;2100;3100;x;;;;;;;;;;;;
Brain-Class997;9050997;U51;1930;1930;1930;1930;3;8;0;3;0;5;0;BETA;1930;2100;3100;x;;;;;;;;;;;;
Brain-Class998;9050998;U51;1930;1930;1930;1930;3;8;0;3;0;5;0;BETA;1930;2100;3100;x;;;;;;;;;;;;
Brain-Class999;9050999;U51;1930;1930;1930;1930;3;8;0;3;0;5;0;BETA;1930;2100;3100;x;;;;;;;;;;;;
Brain-Class1000;9051000;U51;1930;1930;1930;1930;3;8;0;3;0;5;0;BETA;1930;2100;3100;x;;;;;;;;;;;;
