Name;ID;Country;Rank;3;Year;Rank;2;Year;Rank;1;Year;Rank;0;Year;Ideal;Rank;;Max;Skill;Traits;Skill;Experience;Loyalty;Type;Picture;Start;Year;End;Year;x
Brain-Class001;9060001;U61;1930;1930;1930;1930;3;8;0;3;0;5;0;BETA;1930;2100;3100;x;;;;;;;;;;;;
Brain-Class002;9060002;U61;1930;1930;1930;1930;3;8;0;3;0;5;0;BETA;1930;2100;3100;x;;;;;;;;;;;;
Brain-Class003;9060003;U61;1930;1930;1930;1930;3;8;0;3;0;5;0;BETA;1930;2100;3100;x;;;;;;;;;;;;
Brain-Class004;9060004;U61;1930;1930;1930;1930;3;8;0;3;0;5;0;BETA;1930;2100;3100;x;;;;;;;;;;;;
Brain-Class005;9060005;U61;1930;1930;1930;1930;3;8;0;3;0;5;0;BETA;1930;2100;3100;x;;;;;;;;;;;;
Brain-Class006;9060006;U61;1930;1930;1930;1930;3;8;0;3;0;5;0;BETA;1930;2100;3100;x;;;;;;;;;;;;
Brain-Class007;9060007;U61;1930;1930;1930;1930;3;8;0;3;0;5;0;BETA;1930;2100;3100;x;;;;;;;;;;;;
Brain-Class008;9060008;U61;1930;1930;1930;1930;3;8;0;3;0;5;0;BETA;1930;2100;3100;x;;;;;;;;;;;;
Brain-Class009;9060009;U61;1930;1930;1930;1930;3;8;0;3;0;5;0;BETA;1930;2100;3100;x;;;;;;;;;;;;
Brain-Class010;9060010;U61;1930;1930;1930;1930;3;8;0;3;0;5;0;BETA;1930;2100;3100;x;;;;;;;;;;;;
Brain-Class011;9060011;U61;1930;1930;1930;1930;3;8;0;3;0;5;0;BETA;1930;2100;3100;x;;;;;;;;;;;;
Brain-Class012;9060012;U61;1930;1930;1930;1930;3;8;0;3;0;5;0;BETA;1930;2100;3100;x;;;;;;;;;;;;
Brain-Class013;9060013;U61;1930;1930;1930;1930;3;8;0;3;0;5;0;BETA;1930;2100;3100;x;;;;;;;;;;;;
Brain-Class014;9060014;U61;1930;1930;1930;1930;3;8;0;3;0;5;0;BETA;1930;2100;3100;x;;;;;;;;;;;;
Brain-Class015;9060015;U61;1930;1930;1930;1930;3;8;0;3;0;5;0;BETA;1930;2100;3100;x;;;;;;;;;;;;
Brain-Class016;9060016;U61;1930;1930;1930;1930;3;8;0;3;0;5;0;BETA;1930;2100;3100;x;;;;;;;;;;;;
Brain-Class017;9060017;U61;1930;1930;1930;1930;3;8;0;3;0;5;0;BETA;1930;2100;3100;x;;;;;;;;;;;;
Brain-Class018;9060018;U61;1930;1930;1930;1930;3;8;0;3;0;5;0;BETA;1930;2100;3100;x;;;;;;;;;;;;
Brain-Class019;9060019;U61;1930;1930;1930;1930;3;8;0;3;0;5;0;BETA;1930;2100;3100;x;;;;;;;;;;;;
Brain-Class020;9060020;U61;1930;1930;1930;1930;3;8;0;3;0;5;0;BETA;1930;2100;3100;x;;;;;;;;;;;;
Brain-Class021;9060021;U61;1930;1930;1930;1930;3;8;0;3;0;5;0;BETA;1930;2100;3100;x;;;;;;;;;;;;
Brain-Class022;9060022;U61;1930;1930;1930;1930;3;8;0;3;0;5;0;BETA;1930;2100;3100;x;;;;;;;;;;;;
Brain-Class023;9060023;U61;1930;1930;1930;1930;3;8;0;3;0;5;0;BETA;1930;2100;3100;x;;;;;;;;;;;;
Brain-Class024;9060024;U61;1930;1930;1930;1930;3;8;0;3;0;5;0;BETA;1930;2100;3100;x;;;;;;;;;;;;
Brain-Class025;9060025;U61;1930;1930;1930;1930;3;8;0;3;0;5;0;BETA;1930;2100;3100;x;;;;;;;;;;;;
Brain-Class026;9060026;U61;1930;1930;1930;1930;3;8;0;3;0;5;0;BETA;1930;2100;3100;x;;;;;;;;;;;;
Brain-Class027;9060027;U61;1930;1930;1930;1930;3;8;0;3;0;5;0;BETA;1930;2100;3100;x;;;;;;;;;;;;
Brain-Class028;9060028;U61;1930;1930;1930;1930;3;8;0;3;0;5;0;BETA;1930;2100;3100;x;;;;;;;;;;;;
Brain-Class029;9060029;U61;1930;1930;1930;1930;3;8;0;3;0;5;0;BETA;1930;2100;3100;x;;;;;;;;;;;;
Brain-Class030;9060030;U61;1930;1930;1930;1930;3;8;0;3;0;5;0;BETA;1930;2100;3100;x;;;;;;;;;;;;
Brain-Class031;9060031;U61;1930;1930;1930;1930;3;8;0;3;0;5;0;BETA;1930;2100;3100;x;;;;;;;;;;;;
Brain-Class032;9060032;U61;1930;1930;1930;1930;3;8;0;3;0;5;0;BETA;1930;2100;3100;x;;;;;;;;;;;;
Brain-Class033;9060033;U61;1930;1930;1930;1930;3;8;0;3;0;5;0;BETA;1930;2100;3100;x;;;;;;;;;;;;
Brain-Class034;9060034;U61;1930;1930;1930;1930;3;8;0;3;0;5;0;BETA;1930;2100;3100;x;;;;;;;;;;;;
Brain-Class035;9060035;U61;1930;1930;1930;1930;3;8;0;3;0;5;0;BETA;1930;2100;3100;x;;;;;;;;;;;;
Brain-Class036;9060036;U61;1930;1930;1930;1930;3;8;0;3;0;5;0;BETA;1930;2100;3100;x;;;;;;;;;;;;
Brain-Class037;9060037;U61;1930;1930;1930;1930;3;8;0;3;0;5;0;BETA;1930;2100;3100;x;;;;;;;;;;;;
Brain-Class038;9060038;U61;1930;1930;1930;1930;3;8;0;3;0;5;0;BETA;1930;2100;3100;x;;;;;;;;;;;;
Brain-Class039;9060039;U61;1930;1930;1930;1930;3;8;0;3;0;5;0;BETA;1930;2100;3100;x;;;;;;;;;;;;
Brain-Class040;9060040;U61;1930;1930;1930;1930;3;8;0;3;0;5;0;BETA;1930;2100;3100;x;;;;;;;;;;;;
Brain-Class041;9060041;U61;1930;1930;1930;1930;3;8;0;3;0;5;0;BETA;1930;2100;3100;x;;;;;;;;;;;;
Brain-Class042;9060042;U61;1930;1930;1930;1930;3;8;0;3;0;5;0;BETA;1930;2100;3100;x;;;;;;;;;;;;
Brain-Class043;9060043;U61;1930;1930;1930;1930;3;8;0;3;0;5;0;BETA;1930;2100;3100;x;;;;;;;;;;;;
Brain-Class044;9060044;U61;1930;1930;1930;1930;3;8;0;3;0;5;0;BETA;1930;2100;3100;x;;;;;;;;;;;;
Brain-Class045;9060045;U61;1930;1930;1930;1930;3;8;0;3;0;5;0;BETA;1930;2100;3100;x;;;;;;;;;;;;
Brain-Class046;9060046;U61;1930;1930;1930;1930;3;8;0;3;0;5;0;BETA;1930;2100;3100;x;;;;;;;;;;;;
Brain-Class047;9060047;U61;1930;1930;1930;1930;3;8;0;3;0;5;0;BETA;1930;2100;3100;x;;;;;;;;;;;;
Brain-Class048;9060048;U61;1930;1930;1930;1930;3;8;0;3;0;5;0;BETA;1930;2100;3100;x;;;;;;;;;;;;
Brain-Class049;9060049;U61;1930;1930;1930;1930;3;8;0;3;0;5;0;BETA;1930;2100;3100;x;;;;;;;;;;;;
Brain-Class050;9060050;U61;1930;1930;1930;1930;3;8;0;3;0;5;0;BETA;1930;2100;3100;x;;;;;;;;;;;;
Brain-Class051;9060051;U61;1930;1930;1930;1930;3;8;0;3;0;5;0;BETA;1930;2100;3100;x;;;;;;;;;;;;
Brain-Class052;9060052;U61;1930;1930;1930;1930;3;8;0;3;0;5;0;BETA;1930;2100;3100;x;;;;;;;;;;;;
Brain-Class053;9060053;U61;1930;1930;1930;1930;3;8;0;3;0;5;0;BETA;1930;2100;3100;x;;;;;;;;;;;;
Brain-Class054;9060054;U61;1930;1930;1930;1930;3;8;0;3;0;5;0;BETA;1930;2100;3100;x;;;;;;;;;;;;
Brain-Class055;9060055;U61;1930;1930;1930;1930;3;8;0;3;0;5;0;BETA;1930;2100;3100;x;;;;;;;;;;;;
Brain-Class056;9060056;U61;1930;1930;1930;1930;3;8;0;3;0;5;0;BETA;1930;2100;3100;x;;;;;;;;;;;;
Brain-Class057;9060057;U61;1930;1930;1930;1930;3;8;0;3;0;5;0;BETA;1930;2100;3100;x;;;;;;;;;;;;
Brain-Class058;9060058;U61;1930;1930;1930;1930;3;8;0;3;0;5;0;BETA;1930;2100;3100;x;;;;;;;;;;;;
Brain-Class059;9060059;U61;1930;1930;1930;1930;3;8;0;3;0;5;0;BETA;1930;2100;3100;x;;;;;;;;;;;;
Brain-Class060;9060060;U61;1930;1930;1930;1930;3;8;0;3;0;5;0;BETA;1930;2100;3100;x;;;;;;;;;;;;
Brain-Class061;9060061;U61;1930;1930;1930;1930;3;8;0;3;0;5;0;BETA;1930;2100;3100;x;;;;;;;;;;;;
Brain-Class062;9060062;U61;1930;1930;1930;1930;3;8;0;3;0;5;0;BETA;1930;2100;3100;x;;;;;;;;;;;;
Brain-Class063;9060063;U61;1930;1930;1930;1930;3;8;0;3;0;5;0;BETA;1930;2100;3100;x;;;;;;;;;;;;
Brain-Class064;9060064;U61;1930;1930;1930;1930;3;8;0;3;0;5;0;BETA;1930;2100;3100;x;;;;;;;;;;;;
Brain-Class065;9060065;U61;1930;1930;1930;1930;3;8;0;3;0;5;0;BETA;1930;2100;3100;x;;;;;;;;;;;;
Brain-Class066;9060066;U61;1930;1930;1930;1930;3;8;0;3;0;5;0;BETA;1930;2100;3100;x;;;;;;;;;;;;
Brain-Class067;9060067;U61;1930;1930;1930;1930;3;8;0;3;0;5;0;BETA;1930;2100;3100;x;;;;;;;;;;;;
Brain-Class068;9060068;U61;1930;1930;1930;1930;3;8;0;3;0;5;0;BETA;1930;2100;3100;x;;;;;;;;;;;;
Brain-Class069;9060069;U61;1930;1930;1930;1930;3;8;0;3;0;5;0;BETA;1930;2100;3100;x;;;;;;;;;;;;
Brain-Class070;9060070;U61;1930;1930;1930;1930;3;8;0;3;0;5;0;BETA;1930;2100;3100;x;;;;;;;;;;;;
Brain-Class071;9060071;U61;1930;1930;1930;1930;3;8;0;3;0;5;0;BETA;1930;2100;3100;x;;;;;;;;;;;;
Brain-Class072;9060072;U61;1930;1930;1930;1930;3;8;0;3;0;5;0;BETA;1930;2100;3100;x;;;;;;;;;;;;
Brain-Class073;9060073;U61;1930;1930;1930;1930;3;8;0;3;0;5;0;BETA;1930;2100;3100;x;;;;;;;;;;;;
Brain-Class074;9060074;U61;1930;1930;1930;1930;3;8;0;3;0;5;0;BETA;1930;2100;3100;x;;;;;;;;;;;;
Brain-Class075;9060075;U61;1930;1930;1930;1930;3;8;0;3;0;5;0;BETA;1930;2100;3100;x;;;;;;;;;;;;
Brain-Class076;9060076;U61;1930;1930;1930;1930;3;8;0;3;0;5;0;BETA;1930;2100;3100;x;;;;;;;;;;;;
Brain-Class077;9060077;U61;1930;1930;1930;1930;3;8;0;3;0;5;0;BETA;1930;2100;3100;x;;;;;;;;;;;;
Brain-Class078;9060078;U61;1930;1930;1930;1930;3;8;0;3;0;5;0;BETA;1930;2100;3100;x;;;;;;;;;;;;
Brain-Class079;9060079;U61;1930;1930;1930;1930;3;8;0;3;0;5;0;BETA;1930;2100;3100;x;;;;;;;;;;;;
Brain-Class080;9060080;U61;1930;1930;1930;1930;3;8;0;3;0;5;0;BETA;1930;2100;3100;x;;;;;;;;;;;;
Brain-Class081;9060081;U61;1930;1930;1930;1930;3;8;0;3;0;5;0;BETA;1930;2100;3100;x;;;;;;;;;;;;
Brain-Class082;9060082;U61;1930;1930;1930;1930;3;8;0;3;0;5;0;BETA;1930;2100;3100;x;;;;;;;;;;;;
Brain-Class083;9060083;U61;1930;1930;1930;1930;3;8;0;3;0;5;0;BETA;1930;2100;3100;x;;;;;;;;;;;;
Brain-Class084;9060084;U61;1930;1930;1930;1930;3;8;0;3;0;5;0;BETA;1930;2100;3100;x;;;;;;;;;;;;
Brain-Class085;9060085;U61;1930;1930;1930;1930;3;8;0;3;0;5;0;BETA;1930;2100;3100;x;;;;;;;;;;;;
Brain-Class086;9060086;U61;1930;1930;1930;1930;3;8;0;3;0;5;0;BETA;1930;2100;3100;x;;;;;;;;;;;;
Brain-Class087;9060087;U61;1930;1930;1930;1930;3;8;0;3;0;5;0;BETA;1930;2100;3100;x;;;;;;;;;;;;
Brain-Class088;9060088;U61;1930;1930;1930;1930;3;8;0;3;0;5;0;BETA;1930;2100;3100;x;;;;;;;;;;;;
Brain-Class089;9060089;U61;1930;1930;1930;1930;3;8;0;3;0;5;0;BETA;1930;2100;3100;x;;;;;;;;;;;;
Brain-Class090;9060090;U61;1930;1930;1930;1930;3;8;0;3;0;5;0;BETA;1930;2100;3100;x;;;;;;;;;;;;
Brain-Class091;9060091;U61;1930;1930;1930;1930;3;8;0;3;0;5;0;BETA;1930;2100;3100;x;;;;;;;;;;;;
Brain-Class092;9060092;U61;1930;1930;1930;1930;3;8;0;3;0;5;0;BETA;1930;2100;3100;x;;;;;;;;;;;;
Brain-Class093;9060093;U61;1930;1930;1930;1930;3;8;0;3;0;5;0;BETA;1930;2100;3100;x;;;;;;;;;;;;
Brain-Class094;9060094;U61;1930;1930;1930;1930;3;8;0;3;0;5;0;BETA;1930;2100;3100;x;;;;;;;;;;;;
Brain-Class095;9060095;U61;1930;1930;1930;1930;3;8;0;3;0;5;0;BETA;1930;2100;3100;x;;;;;;;;;;;;
Brain-Class096;9060096;U61;1930;1930;1930;1930;3;8;0;3;0;5;0;BETA;1930;2100;3100;x;;;;;;;;;;;;
Brain-Class097;9060097;U61;1930;1930;1930;1930;3;8;0;3;0;5;0;BETA;1930;2100;3100;x;;;;;;;;;;;;
Brain-Class098;9060098;U61;1930;1930;1930;1930;3;8;0;3;0;5;0;BETA;1930;2100;3100;x;;;;;;;;;;;;
Brain-Class099;9060099;U61;1930;1930;1930;1930;3;8;0;3;0;5;0;BETA;1930;2100;3100;x;;;;;;;;;;;;
Brain-Class100;9060100;U61;1930;1930;1930;1930;3;8;0;3;0;5;0;BETA;1930;2100;3100;x;;;;;;;;;;;;
Brain-Class101;9060101;U61;1930;1930;1930;1930;3;8;0;3;0;5;0;BETA;1930;2100;3100;x;;;;;;;;;;;;
Brain-Class102;9060102;U61;1930;1930;1930;1930;3;8;0;3;0;5;0;BETA;1930;2100;3100;x;;;;;;;;;;;;
Brain-Class103;9060103;U61;1930;1930;1930;1930;3;8;0;3;0;5;0;BETA;1930;2100;3100;x;;;;;;;;;;;;
Brain-Class104;9060104;U61;1930;1930;1930;1930;3;8;0;3;0;5;0;BETA;1930;2100;3100;x;;;;;;;;;;;;
Brain-Class105;9060105;U61;1930;1930;1930;1930;3;8;0;3;0;5;0;BETA;1930;2100;3100;x;;;;;;;;;;;;
Brain-Class106;9060106;U61;1930;1930;1930;1930;3;8;0;3;0;5;0;BETA;1930;2100;3100;x;;;;;;;;;;;;
Brain-Class107;9060107;U61;1930;1930;1930;1930;3;8;0;3;0;5;0;BETA;1930;2100;3100;x;;;;;;;;;;;;
Brain-Class108;9060108;U61;1930;1930;1930;1930;3;8;0;3;0;5;0;BETA;1930;2100;3100;x;;;;;;;;;;;;
Brain-Class109;9060109;U61;1930;1930;1930;1930;3;8;0;3;0;5;0;BETA;1930;2100;3100;x;;;;;;;;;;;;
Brain-Class110;9060110;U61;1930;1930;1930;1930;3;8;0;3;0;5;0;BETA;1930;2100;3100;x;;;;;;;;;;;;
Brain-Class111;9060111;U61;1930;1930;1930;1930;3;8;0;3;0;5;0;BETA;1930;2100;3100;x;;;;;;;;;;;;
Brain-Class112;9060112;U61;1930;1930;1930;1930;3;8;0;3;0;5;0;BETA;1930;2100;3100;x;;;;;;;;;;;;
Brain-Class113;9060113;U61;1930;1930;1930;1930;3;8;0;3;0;5;0;BETA;1930;2100;3100;x;;;;;;;;;;;;
Brain-Class114;9060114;U61;1930;1930;1930;1930;3;8;0;3;0;5;0;BETA;1930;2100;3100;x;;;;;;;;;;;;
Brain-Class115;9060115;U61;1930;1930;1930;1930;3;8;0;3;0;5;0;BETA;1930;2100;3100;x;;;;;;;;;;;;
Brain-Class116;9060116;U61;1930;1930;1930;1930;3;8;0;3;0;5;0;BETA;1930;2100;3100;x;;;;;;;;;;;;
Brain-Class117;9060117;U61;1930;1930;1930;1930;3;8;0;3;0;5;0;BETA;1930;2100;3100;x;;;;;;;;;;;;
Brain-Class118;9060118;U61;1930;1930;1930;1930;3;8;0;3;0;5;0;BETA;1930;2100;3100;x;;;;;;;;;;;;
Brain-Class119;9060119;U61;1930;1930;1930;1930;3;8;0;3;0;5;0;BETA;1930;2100;3100;x;;;;;;;;;;;;
Brain-Class120;9060120;U61;1930;1930;1930;1930;3;8;0;3;0;5;0;BETA;1930;2100;3100;x;;;;;;;;;;;;
Brain-Class121;9060121;U61;1930;1930;1930;1930;3;8;0;3;0;5;0;BETA;1930;2100;3100;x;;;;;;;;;;;;
Brain-Class122;9060122;U61;1930;1930;1930;1930;3;8;0;3;0;5;0;BETA;1930;2100;3100;x;;;;;;;;;;;;
Brain-Class123;9060123;U61;1930;1930;1930;1930;3;8;0;3;0;5;0;BETA;1930;2100;3100;x;;;;;;;;;;;;
Brain-Class124;9060124;U61;1930;1930;1930;1930;3;8;0;3;0;5;0;BETA;1930;2100;3100;x;;;;;;;;;;;;
Brain-Class125;9060125;U61;1930;1930;1930;1930;3;8;0;3;0;5;0;BETA;1930;2100;3100;x;;;;;;;;;;;;
Brain-Class126;9060126;U61;1930;1930;1930;1930;3;8;0;3;0;5;0;BETA;1930;2100;3100;x;;;;;;;;;;;;
Brain-Class127;9060127;U61;1930;1930;1930;1930;3;8;0;3;0;5;0;BETA;1930;2100;3100;x;;;;;;;;;;;;
Brain-Class128;9060128;U61;1930;1930;1930;1930;3;8;0;3;0;5;0;BETA;1930;2100;3100;x;;;;;;;;;;;;
Brain-Class129;9060129;U61;1930;1930;1930;1930;3;8;0;3;0;5;0;BETA;1930;2100;3100;x;;;;;;;;;;;;
Brain-Class130;9060130;U61;1930;1930;1930;1930;3;8;0;3;0;5;0;BETA;1930;2100;3100;x;;;;;;;;;;;;
Brain-Class131;9060131;U61;1930;1930;1930;1930;3;8;0;3;0;5;0;BETA;1930;2100;3100;x;;;;;;;;;;;;
Brain-Class132;9060132;U61;1930;1930;1930;1930;3;8;0;3;0;5;0;BETA;1930;2100;3100;x;;;;;;;;;;;;
Brain-Class133;9060133;U61;1930;1930;1930;1930;3;8;0;3;0;5;0;BETA;1930;2100;3100;x;;;;;;;;;;;;
Brain-Class134;9060134;U61;1930;1930;1930;1930;3;8;0;3;0;5;0;BETA;1930;2100;3100;x;;;;;;;;;;;;
Brain-Class135;9060135;U61;1930;1930;1930;1930;3;8;0;3;0;5;0;BETA;1930;2100;3100;x;;;;;;;;;;;;
Brain-Class136;9060136;U61;1930;1930;1930;1930;3;8;0;3;0;5;0;BETA;1930;2100;3100;x;;;;;;;;;;;;
Brain-Class137;9060137;U61;1930;1930;1930;1930;3;8;0;3;0;5;0;BETA;1930;2100;3100;x;;;;;;;;;;;;
Brain-Class138;9060138;U61;1930;1930;1930;1930;3;8;0;3;0;5;0;BETA;1930;2100;3100;x;;;;;;;;;;;;
Brain-Class139;9060139;U61;1930;1930;1930;1930;3;8;0;3;0;5;0;BETA;1930;2100;3100;x;;;;;;;;;;;;
Brain-Class140;9060140;U61;1930;1930;1930;1930;3;8;0;3;0;5;0;BETA;1930;2100;3100;x;;;;;;;;;;;;
Brain-Class141;9060141;U61;1930;1930;1930;1930;3;8;0;3;0;5;0;BETA;1930;2100;3100;x;;;;;;;;;;;;
Brain-Class142;9060142;U61;1930;1930;1930;1930;3;8;0;3;0;5;0;BETA;1930;2100;3100;x;;;;;;;;;;;;
Brain-Class143;9060143;U61;1930;1930;1930;1930;3;8;0;3;0;5;0;BETA;1930;2100;3100;x;;;;;;;;;;;;
Brain-Class144;9060144;U61;1930;1930;1930;1930;3;8;0;3;0;5;0;BETA;1930;2100;3100;x;;;;;;;;;;;;
Brain-Class145;9060145;U61;1930;1930;1930;1930;3;8;0;3;0;5;0;BETA;1930;2100;3100;x;;;;;;;;;;;;
Brain-Class146;9060146;U61;1930;1930;1930;1930;3;8;0;3;0;5;0;BETA;1930;2100;3100;x;;;;;;;;;;;;
Brain-Class147;9060147;U61;1930;1930;1930;1930;3;8;0;3;0;5;0;BETA;1930;2100;3100;x;;;;;;;;;;;;
Brain-Class148;9060148;U61;1930;1930;1930;1930;3;8;0;3;0;5;0;BETA;1930;2100;3100;x;;;;;;;;;;;;
Brain-Class149;9060149;U61;1930;1930;1930;1930;3;8;0;3;0;5;0;BETA;1930;2100;3100;x;;;;;;;;;;;;
Brain-Class150;9060150;U61;1930;1930;1930;1930;3;8;0;3;0;5;0;BETA;1930;2100;3100;x;;;;;;;;;;;;
Brain-Class151;9060151;U61;1930;1930;1930;1930;3;8;0;3;0;5;0;BETA;1930;2100;3100;x;;;;;;;;;;;;
Brain-Class152;9060152;U61;1930;1930;1930;1930;3;8;0;3;0;5;0;BETA;1930;2100;3100;x;;;;;;;;;;;;
Brain-Class153;9060153;U61;1930;1930;1930;1930;3;8;0;3;0;5;0;BETA;1930;2100;3100;x;;;;;;;;;;;;
Brain-Class154;9060154;U61;1930;1930;1930;1930;3;8;0;3;0;5;0;BETA;1930;2100;3100;x;;;;;;;;;;;;
Brain-Class155;9060155;U61;1930;1930;1930;1930;3;8;0;3;0;5;0;BETA;1930;2100;3100;x;;;;;;;;;;;;
Brain-Class156;9060156;U61;1930;1930;1930;1930;3;8;0;3;0;5;0;BETA;1930;2100;3100;x;;;;;;;;;;;;
Brain-Class157;9060157;U61;1930;1930;1930;1930;3;8;0;3;0;5;0;BETA;1930;2100;3100;x;;;;;;;;;;;;
Brain-Class158;9060158;U61;1930;1930;1930;1930;3;8;0;3;0;5;0;BETA;1930;2100;3100;x;;;;;;;;;;;;
Brain-Class159;9060159;U61;1930;1930;1930;1930;3;8;0;3;0;5;0;BETA;1930;2100;3100;x;;;;;;;;;;;;
Brain-Class160;9060160;U61;1930;1930;1930;1930;3;8;0;3;0;5;0;BETA;1930;2100;3100;x;;;;;;;;;;;;
Brain-Class161;9060161;U61;1930;1930;1930;1930;3;8;0;3;0;5;0;BETA;1930;2100;3100;x;;;;;;;;;;;;
Brain-Class162;9060162;U61;1930;1930;1930;1930;3;8;0;3;0;5;0;BETA;1930;2100;3100;x;;;;;;;;;;;;
Brain-Class163;9060163;U61;1930;1930;1930;1930;3;8;0;3;0;5;0;BETA;1930;2100;3100;x;;;;;;;;;;;;
Brain-Class164;9060164;U61;1930;1930;1930;1930;3;8;0;3;0;5;0;BETA;1930;2100;3100;x;;;;;;;;;;;;
Brain-Class165;9060165;U61;1930;1930;1930;1930;3;8;0;3;0;5;0;BETA;1930;2100;3100;x;;;;;;;;;;;;
Brain-Class166;9060166;U61;1930;1930;1930;1930;3;8;0;3;0;5;0;BETA;1930;2100;3100;x;;;;;;;;;;;;
Brain-Class167;9060167;U61;1930;1930;1930;1930;3;8;0;3;0;5;0;BETA;1930;2100;3100;x;;;;;;;;;;;;
Brain-Class168;9060168;U61;1930;1930;1930;1930;3;8;0;3;0;5;0;BETA;1930;2100;3100;x;;;;;;;;;;;;
Brain-Class169;9060169;U61;1930;1930;1930;1930;3;8;0;3;0;5;0;BETA;1930;2100;3100;x;;;;;;;;;;;;
Brain-Class170;9060170;U61;1930;1930;1930;1930;3;8;0;3;0;5;0;BETA;1930;2100;3100;x;;;;;;;;;;;;
Brain-Class171;9060171;U61;1930;1930;1930;1930;3;8;0;3;0;5;0;BETA;1930;2100;3100;x;;;;;;;;;;;;
Brain-Class172;9060172;U61;1930;1930;1930;1930;3;8;0;3;0;5;0;BETA;1930;2100;3100;x;;;;;;;;;;;;
Brain-Class173;9060173;U61;1930;1930;1930;1930;3;8;0;3;0;5;0;BETA;1930;2100;3100;x;;;;;;;;;;;;
Brain-Class174;9060174;U61;1930;1930;1930;1930;3;8;0;3;0;5;0;BETA;1930;2100;3100;x;;;;;;;;;;;;
Brain-Class175;9060175;U61;1930;1930;1930;1930;3;8;0;3;0;5;0;BETA;1930;2100;3100;x;;;;;;;;;;;;
Brain-Class176;9060176;U61;1930;1930;1930;1930;3;8;0;3;0;5;0;BETA;1930;2100;3100;x;;;;;;;;;;;;
Brain-Class177;9060177;U61;1930;1930;1930;1930;3;8;0;3;0;5;0;BETA;1930;2100;3100;x;;;;;;;;;;;;
Brain-Class178;9060178;U61;1930;1930;1930;1930;3;8;0;3;0;5;0;BETA;1930;2100;3100;x;;;;;;;;;;;;
Brain-Class179;9060179;U61;1930;1930;1930;1930;3;8;0;3;0;5;0;BETA;1930;2100;3100;x;;;;;;;;;;;;
Brain-Class180;9060180;U61;1930;1930;1930;1930;3;8;0;3;0;5;0;BETA;1930;2100;3100;x;;;;;;;;;;;;
Brain-Class181;9060181;U61;1930;1930;1930;1930;3;8;0;3;0;5;0;BETA;1930;2100;3100;x;;;;;;;;;;;;
Brain-Class182;9060182;U61;1930;1930;1930;1930;3;8;0;3;0;5;0;BETA;1930;2100;3100;x;;;;;;;;;;;;
Brain-Class183;9060183;U61;1930;1930;1930;1930;3;8;0;3;0;5;0;BETA;1930;2100;3100;x;;;;;;;;;;;;
Brain-Class184;9060184;U61;1930;1930;1930;1930;3;8;0;3;0;5;0;BETA;1930;2100;3100;x;;;;;;;;;;;;
Brain-Class185;9060185;U61;1930;1930;1930;1930;3;8;0;3;0;5;0;BETA;1930;2100;3100;x;;;;;;;;;;;;
Brain-Class186;9060186;U61;1930;1930;1930;1930;3;8;0;3;0;5;0;BETA;1930;2100;3100;x;;;;;;;;;;;;
Brain-Class187;9060187;U61;1930;1930;1930;1930;3;8;0;3;0;5;0;BETA;1930;2100;3100;x;;;;;;;;;;;;
Brain-Class188;9060188;U61;1930;1930;1930;1930;3;8;0;3;0;5;0;BETA;1930;2100;3100;x;;;;;;;;;;;;
Brain-Class189;9060189;U61;1930;1930;1930;1930;3;8;0;3;0;5;0;BETA;1930;2100;3100;x;;;;;;;;;;;;
Brain-Class190;9060190;U61;1930;1930;1930;1930;3;8;0;3;0;5;0;BETA;1930;2100;3100;x;;;;;;;;;;;;
Brain-Class191;9060191;U61;1930;1930;1930;1930;3;8;0;3;0;5;0;BETA;1930;2100;3100;x;;;;;;;;;;;;
Brain-Class192;9060192;U61;1930;1930;1930;1930;3;8;0;3;0;5;0;BETA;1930;2100;3100;x;;;;;;;;;;;;
Brain-Class193;9060193;U61;1930;1930;1930;1930;3;8;0;3;0;5;0;BETA;1930;2100;3100;x;;;;;;;;;;;;
Brain-Class194;9060194;U61;1930;1930;1930;1930;3;8;0;3;0;5;0;BETA;1930;2100;3100;x;;;;;;;;;;;;
Brain-Class195;9060195;U61;1930;1930;1930;1930;3;8;0;3;0;5;0;BETA;1930;2100;3100;x;;;;;;;;;;;;
Brain-Class196;9060196;U61;1930;1930;1930;1930;3;8;0;3;0;5;0;BETA;1930;2100;3100;x;;;;;;;;;;;;
Brain-Class197;9060197;U61;1930;1930;1930;1930;3;8;0;3;0;5;0;BETA;1930;2100;3100;x;;;;;;;;;;;;
Brain-Class198;9060198;U61;1930;1930;1930;1930;3;8;0;3;0;5;0;BETA;1930;2100;3100;x;;;;;;;;;;;;
Brain-Class199;9060199;U61;1930;1930;1930;1930;3;8;0;3;0;5;0;BETA;1930;2100;3100;x;;;;;;;;;;;;
Brain-Class200;9060200;U61;1930;1930;1930;1930;3;8;0;3;0;5;0;BETA;1930;2100;3100;x;;;;;;;;;;;;
Brain-Class201;9060201;U61;1930;1930;1930;1930;3;8;0;3;0;5;0;BETA;1930;2100;3100;x;;;;;;;;;;;;
Brain-Class202;9060202;U61;1930;1930;1930;1930;3;8;0;3;0;5;0;BETA;1930;2100;3100;x;;;;;;;;;;;;
Brain-Class203;9060203;U61;1930;1930;1930;1930;3;8;0;3;0;5;0;BETA;1930;2100;3100;x;;;;;;;;;;;;
Brain-Class204;9060204;U61;1930;1930;1930;1930;3;8;0;3;0;5;0;BETA;1930;2100;3100;x;;;;;;;;;;;;
Brain-Class205;9060205;U61;1930;1930;1930;1930;3;8;0;3;0;5;0;BETA;1930;2100;3100;x;;;;;;;;;;;;
Brain-Class206;9060206;U61;1930;1930;1930;1930;3;8;0;3;0;5;0;BETA;1930;2100;3100;x;;;;;;;;;;;;
Brain-Class207;9060207;U61;1930;1930;1930;1930;3;8;0;3;0;5;0;BETA;1930;2100;3100;x;;;;;;;;;;;;
Brain-Class208;9060208;U61;1930;1930;1930;1930;3;8;0;3;0;5;0;BETA;1930;2100;3100;x;;;;;;;;;;;;
Brain-Class209;9060209;U61;1930;1930;1930;1930;3;8;0;3;0;5;0;BETA;1930;2100;3100;x;;;;;;;;;;;;
Brain-Class210;9060210;U61;1930;1930;1930;1930;3;8;0;3;0;5;0;BETA;1930;2100;3100;x;;;;;;;;;;;;
Brain-Class211;9060211;U61;1930;1930;1930;1930;3;8;0;3;0;5;0;BETA;1930;2100;3100;x;;;;;;;;;;;;
Brain-Class212;9060212;U61;1930;1930;1930;1930;3;8;0;3;0;5;0;BETA;1930;2100;3100;x;;;;;;;;;;;;
Brain-Class213;9060213;U61;1930;1930;1930;1930;3;8;0;3;0;5;0;BETA;1930;2100;3100;x;;;;;;;;;;;;
Brain-Class214;9060214;U61;1930;1930;1930;1930;3;8;0;3;0;5;0;BETA;1930;2100;3100;x;;;;;;;;;;;;
Brain-Class215;9060215;U61;1930;1930;1930;1930;3;8;0;3;0;5;0;BETA;1930;2100;3100;x;;;;;;;;;;;;
Brain-Class216;9060216;U61;1930;1930;1930;1930;3;8;0;3;0;5;0;BETA;1930;2100;3100;x;;;;;;;;;;;;
Brain-Class217;9060217;U61;1930;1930;1930;1930;3;8;0;3;0;5;0;BETA;1930;2100;3100;x;;;;;;;;;;;;
Brain-Class218;9060218;U61;1930;1930;1930;1930;3;8;0;3;0;5;0;BETA;1930;2100;3100;x;;;;;;;;;;;;
Brain-Class219;9060219;U61;1930;1930;1930;1930;3;8;0;3;0;5;0;BETA;1930;2100;3100;x;;;;;;;;;;;;
Brain-Class220;9060220;U61;1930;1930;1930;1930;3;8;0;3;0;5;0;BETA;1930;2100;3100;x;;;;;;;;;;;;
Brain-Class221;9060221;U61;1930;1930;1930;1930;3;8;0;3;0;5;0;BETA;1930;2100;3100;x;;;;;;;;;;;;
Brain-Class222;9060222;U61;1930;1930;1930;1930;3;8;0;3;0;5;0;BETA;1930;2100;3100;x;;;;;;;;;;;;
Brain-Class223;9060223;U61;1930;1930;1930;1930;3;8;0;3;0;5;0;BETA;1930;2100;3100;x;;;;;;;;;;;;
Brain-Class224;9060224;U61;1930;1930;1930;1930;3;8;0;3;0;5;0;BETA;1930;2100;3100;x;;;;;;;;;;;;
Brain-Class225;9060225;U61;1930;1930;1930;1930;3;8;0;3;0;5;0;BETA;1930;2100;3100;x;;;;;;;;;;;;
Brain-Class226;9060226;U61;1930;1930;1930;1930;3;8;0;3;0;5;0;BETA;1930;2100;3100;x;;;;;;;;;;;;
Brain-Class227;9060227;U61;1930;1930;1930;1930;3;8;0;3;0;5;0;BETA;1930;2100;3100;x;;;;;;;;;;;;
Brain-Class228;9060228;U61;1930;1930;1930;1930;3;8;0;3;0;5;0;BETA;1930;2100;3100;x;;;;;;;;;;;;
Brain-Class229;9060229;U61;1930;1930;1930;1930;3;8;0;3;0;5;0;BETA;1930;2100;3100;x;;;;;;;;;;;;
Brain-Class230;9060230;U61;1930;1930;1930;1930;3;8;0;3;0;5;0;BETA;1930;2100;3100;x;;;;;;;;;;;;
Brain-Class231;9060231;U61;1930;1930;1930;1930;3;8;0;3;0;5;0;BETA;1930;2100;3100;x;;;;;;;;;;;;
Brain-Class232;9060232;U61;1930;1930;1930;1930;3;8;0;3;0;5;0;BETA;1930;2100;3100;x;;;;;;;;;;;;
Brain-Class233;9060233;U61;1930;1930;1930;1930;3;8;0;3;0;5;0;BETA;1930;2100;3100;x;;;;;;;;;;;;
Brain-Class234;9060234;U61;1930;1930;1930;1930;3;8;0;3;0;5;0;BETA;1930;2100;3100;x;;;;;;;;;;;;
Brain-Class235;9060235;U61;1930;1930;1930;1930;3;8;0;3;0;5;0;BETA;1930;2100;3100;x;;;;;;;;;;;;
Brain-Class236;9060236;U61;1930;1930;1930;1930;3;8;0;3;0;5;0;BETA;1930;2100;3100;x;;;;;;;;;;;;
Brain-Class237;9060237;U61;1930;1930;1930;1930;3;8;0;3;0;5;0;BETA;1930;2100;3100;x;;;;;;;;;;;;
Brain-Class238;9060238;U61;1930;1930;1930;1930;3;8;0;3;0;5;0;BETA;1930;2100;3100;x;;;;;;;;;;;;
Brain-Class239;9060239;U61;1930;1930;1930;1930;3;8;0;3;0;5;0;BETA;1930;2100;3100;x;;;;;;;;;;;;
Brain-Class240;9060240;U61;1930;1930;1930;1930;3;8;0;3;0;5;0;BETA;1930;2100;3100;x;;;;;;;;;;;;
Brain-Class241;9060241;U61;1930;1930;1930;1930;3;8;0;3;0;5;0;BETA;1930;2100;3100;x;;;;;;;;;;;;
Brain-Class242;9060242;U61;1930;1930;1930;1930;3;8;0;3;0;5;0;BETA;1930;2100;3100;x;;;;;;;;;;;;
Brain-Class243;9060243;U61;1930;1930;1930;1930;3;8;0;3;0;5;0;BETA;1930;2100;3100;x;;;;;;;;;;;;
Brain-Class244;9060244;U61;1930;1930;1930;1930;3;8;0;3;0;5;0;BETA;1930;2100;3100;x;;;;;;;;;;;;
Brain-Class245;9060245;U61;1930;1930;1930;1930;3;8;0;3;0;5;0;BETA;1930;2100;3100;x;;;;;;;;;;;;
Brain-Class246;9060246;U61;1930;1930;1930;1930;3;8;0;3;0;5;0;BETA;1930;2100;3100;x;;;;;;;;;;;;
Brain-Class247;9060247;U61;1930;1930;1930;1930;3;8;0;3;0;5;0;BETA;1930;2100;3100;x;;;;;;;;;;;;
Brain-Class248;9060248;U61;1930;1930;1930;1930;3;8;0;3;0;5;0;BETA;1930;2100;3100;x;;;;;;;;;;;;
Brain-Class249;9060249;U61;1930;1930;1930;1930;3;8;0;3;0;5;0;BETA;1930;2100;3100;x;;;;;;;;;;;;
Brain-Class250;9060250;U61;1930;1930;1930;1930;3;8;0;3;0;5;0;BETA;1930;2100;3100;x;;;;;;;;;;;;
Brain-Class251;9060251;U61;1930;1930;1930;1930;3;8;0;3;0;5;0;BETA;1930;2100;3100;x;;;;;;;;;;;;
Brain-Class252;9060252;U61;1930;1930;1930;1930;3;8;0;3;0;5;0;BETA;1930;2100;3100;x;;;;;;;;;;;;
Brain-Class253;9060253;U61;1930;1930;1930;1930;3;8;0;3;0;5;0;BETA;1930;2100;3100;x;;;;;;;;;;;;
Brain-Class254;9060254;U61;1930;1930;1930;1930;3;8;0;3;0;5;0;BETA;1930;2100;3100;x;;;;;;;;;;;;
Brain-Class255;9060255;U61;1930;1930;1930;1930;3;8;0;3;0;5;0;BETA;1930;2100;3100;x;;;;;;;;;;;;
Brain-Class256;9060256;U61;1930;1930;1930;1930;3;8;0;3;0;5;0;BETA;1930;2100;3100;x;;;;;;;;;;;;
Brain-Class257;9060257;U61;1930;1930;1930;1930;3;8;0;3;0;5;0;BETA;1930;2100;3100;x;;;;;;;;;;;;
Brain-Class258;9060258;U61;1930;1930;1930;1930;3;8;0;3;0;5;0;BETA;1930;2100;3100;x;;;;;;;;;;;;
Brain-Class259;9060259;U61;1930;1930;1930;1930;3;8;0;3;0;5;0;BETA;1930;2100;3100;x;;;;;;;;;;;;
Brain-Class260;9060260;U61;1930;1930;1930;1930;3;8;0;3;0;5;0;BETA;1930;2100;3100;x;;;;;;;;;;;;
Brain-Class261;9060261;U61;1930;1930;1930;1930;3;8;0;3;0;5;0;BETA;1930;2100;3100;x;;;;;;;;;;;;
Brain-Class262;9060262;U61;1930;1930;1930;1930;3;8;0;3;0;5;0;BETA;1930;2100;3100;x;;;;;;;;;;;;
Brain-Class263;9060263;U61;1930;1930;1930;1930;3;8;0;3;0;5;0;BETA;1930;2100;3100;x;;;;;;;;;;;;
Brain-Class264;9060264;U61;1930;1930;1930;1930;3;8;0;3;0;5;0;BETA;1930;2100;3100;x;;;;;;;;;;;;
Brain-Class265;9060265;U61;1930;1930;1930;1930;3;8;0;3;0;5;0;BETA;1930;2100;3100;x;;;;;;;;;;;;
Brain-Class266;9060266;U61;1930;1930;1930;1930;3;8;0;3;0;5;0;BETA;1930;2100;3100;x;;;;;;;;;;;;
Brain-Class267;9060267;U61;1930;1930;1930;1930;3;8;0;3;0;5;0;BETA;1930;2100;3100;x;;;;;;;;;;;;
Brain-Class268;9060268;U61;1930;1930;1930;1930;3;8;0;3;0;5;0;BETA;1930;2100;3100;x;;;;;;;;;;;;
Brain-Class269;9060269;U61;1930;1930;1930;1930;3;8;0;3;0;5;0;BETA;1930;2100;3100;x;;;;;;;;;;;;
Brain-Class270;9060270;U61;1930;1930;1930;1930;3;8;0;3;0;5;0;BETA;1930;2100;3100;x;;;;;;;;;;;;
Brain-Class271;9060271;U61;1930;1930;1930;1930;3;8;0;3;0;5;0;BETA;1930;2100;3100;x;;;;;;;;;;;;
Brain-Class272;9060272;U61;1930;1930;1930;1930;3;8;0;3;0;5;0;BETA;1930;2100;3100;x;;;;;;;;;;;;
Brain-Class273;9060273;U61;1930;1930;1930;1930;3;8;0;3;0;5;0;BETA;1930;2100;3100;x;;;;;;;;;;;;
Brain-Class274;9060274;U61;1930;1930;1930;1930;3;8;0;3;0;5;0;BETA;1930;2100;3100;x;;;;;;;;;;;;
Brain-Class275;9060275;U61;1930;1930;1930;1930;3;8;0;3;0;5;0;BETA;1930;2100;3100;x;;;;;;;;;;;;
Brain-Class276;9060276;U61;1930;1930;1930;1930;3;8;0;3;0;5;0;BETA;1930;2100;3100;x;;;;;;;;;;;;
Brain-Class277;9060277;U61;1930;1930;1930;1930;3;8;0;3;0;5;0;BETA;1930;2100;3100;x;;;;;;;;;;;;
Brain-Class278;9060278;U61;1930;1930;1930;1930;3;8;0;3;0;5;0;BETA;1930;2100;3100;x;;;;;;;;;;;;
Brain-Class279;9060279;U61;1930;1930;1930;1930;3;8;0;3;0;5;0;BETA;1930;2100;3100;x;;;;;;;;;;;;
Brain-Class280;9060280;U61;1930;1930;1930;1930;3;8;0;3;0;5;0;BETA;1930;2100;3100;x;;;;;;;;;;;;
Brain-Class281;9060281;U61;1930;1930;1930;1930;3;8;0;3;0;5;0;BETA;1930;2100;3100;x;;;;;;;;;;;;
Brain-Class282;9060282;U61;1930;1930;1930;1930;3;8;0;3;0;5;0;BETA;1930;2100;3100;x;;;;;;;;;;;;
Brain-Class283;9060283;U61;1930;1930;1930;1930;3;8;0;3;0;5;0;BETA;1930;2100;3100;x;;;;;;;;;;;;
Brain-Class284;9060284;U61;1930;1930;1930;1930;3;8;0;3;0;5;0;BETA;1930;2100;3100;x;;;;;;;;;;;;
Brain-Class285;9060285;U61;1930;1930;1930;1930;3;8;0;3;0;5;0;BETA;1930;2100;3100;x;;;;;;;;;;;;
Brain-Class286;9060286;U61;1930;1930;1930;1930;3;8;0;3;0;5;0;BETA;1930;2100;3100;x;;;;;;;;;;;;
Brain-Class287;9060287;U61;1930;1930;1930;1930;3;8;0;3;0;5;0;BETA;1930;2100;3100;x;;;;;;;;;;;;
Brain-Class288;9060288;U61;1930;1930;1930;1930;3;8;0;3;0;5;0;BETA;1930;2100;3100;x;;;;;;;;;;;;
Brain-Class289;9060289;U61;1930;1930;1930;1930;3;8;0;3;0;5;0;BETA;1930;2100;3100;x;;;;;;;;;;;;
Brain-Class290;9060290;U61;1930;1930;1930;1930;3;8;0;3;0;5;0;BETA;1930;2100;3100;x;;;;;;;;;;;;
Brain-Class291;9060291;U61;1930;1930;1930;1930;3;8;0;3;0;5;0;BETA;1930;2100;3100;x;;;;;;;;;;;;
Brain-Class292;9060292;U61;1930;1930;1930;1930;3;8;0;3;0;5;0;BETA;1930;2100;3100;x;;;;;;;;;;;;
Brain-Class293;9060293;U61;1930;1930;1930;1930;3;8;0;3;0;5;0;BETA;1930;2100;3100;x;;;;;;;;;;;;
Brain-Class294;9060294;U61;1930;1930;1930;1930;3;8;0;3;0;5;0;BETA;1930;2100;3100;x;;;;;;;;;;;;
Brain-Class295;9060295;U61;1930;1930;1930;1930;3;8;0;3;0;5;0;BETA;1930;2100;3100;x;;;;;;;;;;;;
Brain-Class296;9060296;U61;1930;1930;1930;1930;3;8;0;3;0;5;0;BETA;1930;2100;3100;x;;;;;;;;;;;;
Brain-Class297;9060297;U61;1930;1930;1930;1930;3;8;0;3;0;5;0;BETA;1930;2100;3100;x;;;;;;;;;;;;
Brain-Class298;9060298;U61;1930;1930;1930;1930;3;8;0;3;0;5;0;BETA;1930;2100;3100;x;;;;;;;;;;;;
Brain-Class299;9060299;U61;1930;1930;1930;1930;3;8;0;3;0;5;0;BETA;1930;2100;3100;x;;;;;;;;;;;;
Brain-Class300;9060300;U61;1930;1930;1930;1930;3;8;0;3;0;5;0;BETA;1930;2100;3100;x;;;;;;;;;;;;
Brain-Class301;9060301;U61;1930;1930;1930;1930;3;8;0;3;0;5;0;BETA;1930;2100;3100;x;;;;;;;;;;;;
Brain-Class302;9060302;U61;1930;1930;1930;1930;3;8;0;3;0;5;0;BETA;1930;2100;3100;x;;;;;;;;;;;;
Brain-Class303;9060303;U61;1930;1930;1930;1930;3;8;0;3;0;5;0;BETA;1930;2100;3100;x;;;;;;;;;;;;
Brain-Class304;9060304;U61;1930;1930;1930;1930;3;8;0;3;0;5;0;BETA;1930;2100;3100;x;;;;;;;;;;;;
Brain-Class305;9060305;U61;1930;1930;1930;1930;3;8;0;3;0;5;0;BETA;1930;2100;3100;x;;;;;;;;;;;;
Brain-Class306;9060306;U61;1930;1930;1930;1930;3;8;0;3;0;5;0;BETA;1930;2100;3100;x;;;;;;;;;;;;
Brain-Class307;9060307;U61;1930;1930;1930;1930;3;8;0;3;0;5;0;BETA;1930;2100;3100;x;;;;;;;;;;;;
Brain-Class308;9060308;U61;1930;1930;1930;1930;3;8;0;3;0;5;0;BETA;1930;2100;3100;x;;;;;;;;;;;;
Brain-Class309;9060309;U61;1930;1930;1930;1930;3;8;0;3;0;5;0;BETA;1930;2100;3100;x;;;;;;;;;;;;
Brain-Class310;9060310;U61;1930;1930;1930;1930;3;8;0;3;0;5;0;BETA;1930;2100;3100;x;;;;;;;;;;;;
Brain-Class311;9060311;U61;1930;1930;1930;1930;3;8;0;3;0;5;0;BETA;1930;2100;3100;x;;;;;;;;;;;;
Brain-Class312;9060312;U61;1930;1930;1930;1930;3;8;0;3;0;5;0;BETA;1930;2100;3100;x;;;;;;;;;;;;
Brain-Class313;9060313;U61;1930;1930;1930;1930;3;8;0;3;0;5;0;BETA;1930;2100;3100;x;;;;;;;;;;;;
Brain-Class314;9060314;U61;1930;1930;1930;1930;3;8;0;3;0;5;0;BETA;1930;2100;3100;x;;;;;;;;;;;;
Brain-Class315;9060315;U61;1930;1930;1930;1930;3;8;0;3;0;5;0;BETA;1930;2100;3100;x;;;;;;;;;;;;
Brain-Class316;9060316;U61;1930;1930;1930;1930;3;8;0;3;0;5;0;BETA;1930;2100;3100;x;;;;;;;;;;;;
Brain-Class317;9060317;U61;1930;1930;1930;1930;3;8;0;3;0;5;0;BETA;1930;2100;3100;x;;;;;;;;;;;;
Brain-Class318;9060318;U61;1930;1930;1930;1930;3;8;0;3;0;5;0;BETA;1930;2100;3100;x;;;;;;;;;;;;
Brain-Class319;9060319;U61;1930;1930;1930;1930;3;8;0;3;0;5;0;BETA;1930;2100;3100;x;;;;;;;;;;;;
Brain-Class320;9060320;U61;1930;1930;1930;1930;3;8;0;3;0;5;0;BETA;1930;2100;3100;x;;;;;;;;;;;;
Brain-Class321;9060321;U61;1930;1930;1930;1930;3;8;0;3;0;5;0;BETA;1930;2100;3100;x;;;;;;;;;;;;
Brain-Class322;9060322;U61;1930;1930;1930;1930;3;8;0;3;0;5;0;BETA;1930;2100;3100;x;;;;;;;;;;;;
Brain-Class323;9060323;U61;1930;1930;1930;1930;3;8;0;3;0;5;0;BETA;1930;2100;3100;x;;;;;;;;;;;;
Brain-Class324;9060324;U61;1930;1930;1930;1930;3;8;0;3;0;5;0;BETA;1930;2100;3100;x;;;;;;;;;;;;
Brain-Class325;9060325;U61;1930;1930;1930;1930;3;8;0;3;0;5;0;BETA;1930;2100;3100;x;;;;;;;;;;;;
Brain-Class326;9060326;U61;1930;1930;1930;1930;3;8;0;3;0;5;0;BETA;1930;2100;3100;x;;;;;;;;;;;;
Brain-Class327;9060327;U61;1930;1930;1930;1930;3;8;0;3;0;5;0;BETA;1930;2100;3100;x;;;;;;;;;;;;
Brain-Class328;9060328;U61;1930;1930;1930;1930;3;8;0;3;0;5;0;BETA;1930;2100;3100;x;;;;;;;;;;;;
Brain-Class329;9060329;U61;1930;1930;1930;1930;3;8;0;3;0;5;0;BETA;1930;2100;3100;x;;;;;;;;;;;;
Brain-Class330;9060330;U61;1930;1930;1930;1930;3;8;0;3;0;5;0;BETA;1930;2100;3100;x;;;;;;;;;;;;
Brain-Class331;9060331;U61;1930;1930;1930;1930;3;8;0;3;0;5;0;BETA;1930;2100;3100;x;;;;;;;;;;;;
Brain-Class332;9060332;U61;1930;1930;1930;1930;3;8;0;3;0;5;0;BETA;1930;2100;3100;x;;;;;;;;;;;;
Brain-Class333;9060333;U61;1930;1930;1930;1930;3;8;0;3;0;5;0;BETA;1930;2100;3100;x;;;;;;;;;;;;
Brain-Class334;9060334;U61;1930;1930;1930;1930;3;8;0;3;0;5;0;BETA;1930;2100;3100;x;;;;;;;;;;;;
Brain-Class335;9060335;U61;1930;1930;1930;1930;3;8;0;3;0;5;0;BETA;1930;2100;3100;x;;;;;;;;;;;;
Brain-Class336;9060336;U61;1930;1930;1930;1930;3;8;0;3;0;5;0;BETA;1930;2100;3100;x;;;;;;;;;;;;
Brain-Class337;9060337;U61;1930;1930;1930;1930;3;8;0;3;0;5;0;BETA;1930;2100;3100;x;;;;;;;;;;;;
Brain-Class338;9060338;U61;1930;1930;1930;1930;3;8;0;3;0;5;0;BETA;1930;2100;3100;x;;;;;;;;;;;;
Brain-Class339;9060339;U61;1930;1930;1930;1930;3;8;0;3;0;5;0;BETA;1930;2100;3100;x;;;;;;;;;;;;
Brain-Class340;9060340;U61;1930;1930;1930;1930;3;8;0;3;0;5;0;BETA;1930;2100;3100;x;;;;;;;;;;;;
Brain-Class341;9060341;U61;1930;1930;1930;1930;3;8;0;3;0;5;0;BETA;1930;2100;3100;x;;;;;;;;;;;;
Brain-Class342;9060342;U61;1930;1930;1930;1930;3;8;0;3;0;5;0;BETA;1930;2100;3100;x;;;;;;;;;;;;
Brain-Class343;9060343;U61;1930;1930;1930;1930;3;8;0;3;0;5;0;BETA;1930;2100;3100;x;;;;;;;;;;;;
Brain-Class344;9060344;U61;1930;1930;1930;1930;3;8;0;3;0;5;0;BETA;1930;2100;3100;x;;;;;;;;;;;;
Brain-Class345;9060345;U61;1930;1930;1930;1930;3;8;0;3;0;5;0;BETA;1930;2100;3100;x;;;;;;;;;;;;
Brain-Class346;9060346;U61;1930;1930;1930;1930;3;8;0;3;0;5;0;BETA;1930;2100;3100;x;;;;;;;;;;;;
Brain-Class347;9060347;U61;1930;1930;1930;1930;3;8;0;3;0;5;0;BETA;1930;2100;3100;x;;;;;;;;;;;;
Brain-Class348;9060348;U61;1930;1930;1930;1930;3;8;0;3;0;5;0;BETA;1930;2100;3100;x;;;;;;;;;;;;
Brain-Class349;9060349;U61;1930;1930;1930;1930;3;8;0;3;0;5;0;BETA;1930;2100;3100;x;;;;;;;;;;;;
Brain-Class350;9060350;U61;1930;1930;1930;1930;3;8;0;3;0;5;0;BETA;1930;2100;3100;x;;;;;;;;;;;;
Brain-Class351;9060351;U61;1930;1930;1930;1930;3;8;0;3;0;5;0;BETA;1930;2100;3100;x;;;;;;;;;;;;
Brain-Class352;9060352;U61;1930;1930;1930;1930;3;8;0;3;0;5;0;BETA;1930;2100;3100;x;;;;;;;;;;;;
Brain-Class353;9060353;U61;1930;1930;1930;1930;3;8;0;3;0;5;0;BETA;1930;2100;3100;x;;;;;;;;;;;;
Brain-Class354;9060354;U61;1930;1930;1930;1930;3;8;0;3;0;5;0;BETA;1930;2100;3100;x;;;;;;;;;;;;
Brain-Class355;9060355;U61;1930;1930;1930;1930;3;8;0;3;0;5;0;BETA;1930;2100;3100;x;;;;;;;;;;;;
Brain-Class356;9060356;U61;1930;1930;1930;1930;3;8;0;3;0;5;0;BETA;1930;2100;3100;x;;;;;;;;;;;;
Brain-Class357;9060357;U61;1930;1930;1930;1930;3;8;0;3;0;5;0;BETA;1930;2100;3100;x;;;;;;;;;;;;
Brain-Class358;9060358;U61;1930;1930;1930;1930;3;8;0;3;0;5;0;BETA;1930;2100;3100;x;;;;;;;;;;;;
Brain-Class359;9060359;U61;1930;1930;1930;1930;3;8;0;3;0;5;0;BETA;1930;2100;3100;x;;;;;;;;;;;;
Brain-Class360;9060360;U61;1930;1930;1930;1930;3;8;0;3;0;5;0;BETA;1930;2100;3100;x;;;;;;;;;;;;
Brain-Class361;9060361;U61;1930;1930;1930;1930;3;8;0;3;0;5;0;BETA;1930;2100;3100;x;;;;;;;;;;;;
Brain-Class362;9060362;U61;1930;1930;1930;1930;3;8;0;3;0;5;0;BETA;1930;2100;3100;x;;;;;;;;;;;;
Brain-Class363;9060363;U61;1930;1930;1930;1930;3;8;0;3;0;5;0;BETA;1930;2100;3100;x;;;;;;;;;;;;
Brain-Class364;9060364;U61;1930;1930;1930;1930;3;8;0;3;0;5;0;BETA;1930;2100;3100;x;;;;;;;;;;;;
Brain-Class365;9060365;U61;1930;1930;1930;1930;3;8;0;3;0;5;0;BETA;1930;2100;3100;x;;;;;;;;;;;;
Brain-Class366;9060366;U61;1930;1930;1930;1930;3;8;0;3;0;5;0;BETA;1930;2100;3100;x;;;;;;;;;;;;
Brain-Class367;9060367;U61;1930;1930;1930;1930;3;8;0;3;0;5;0;BETA;1930;2100;3100;x;;;;;;;;;;;;
Brain-Class368;9060368;U61;1930;1930;1930;1930;3;8;0;3;0;5;0;BETA;1930;2100;3100;x;;;;;;;;;;;;
Brain-Class369;9060369;U61;1930;1930;1930;1930;3;8;0;3;0;5;0;BETA;1930;2100;3100;x;;;;;;;;;;;;
Brain-Class370;9060370;U61;1930;1930;1930;1930;3;8;0;3;0;5;0;BETA;1930;2100;3100;x;;;;;;;;;;;;
Brain-Class371;9060371;U61;1930;1930;1930;1930;3;8;0;3;0;5;0;BETA;1930;2100;3100;x;;;;;;;;;;;;
Brain-Class372;9060372;U61;1930;1930;1930;1930;3;8;0;3;0;5;0;BETA;1930;2100;3100;x;;;;;;;;;;;;
Brain-Class373;9060373;U61;1930;1930;1930;1930;3;8;0;3;0;5;0;BETA;1930;2100;3100;x;;;;;;;;;;;;
Brain-Class374;9060374;U61;1930;1930;1930;1930;3;8;0;3;0;5;0;BETA;1930;2100;3100;x;;;;;;;;;;;;
Brain-Class375;9060375;U61;1930;1930;1930;1930;3;8;0;3;0;5;0;BETA;1930;2100;3100;x;;;;;;;;;;;;
Brain-Class376;9060376;U61;1930;1930;1930;1930;3;8;0;3;0;5;0;BETA;1930;2100;3100;x;;;;;;;;;;;;
Brain-Class377;9060377;U61;1930;1930;1930;1930;3;8;0;3;0;5;0;BETA;1930;2100;3100;x;;;;;;;;;;;;
Brain-Class378;9060378;U61;1930;1930;1930;1930;3;8;0;3;0;5;0;BETA;1930;2100;3100;x;;;;;;;;;;;;
Brain-Class379;9060379;U61;1930;1930;1930;1930;3;8;0;3;0;5;0;BETA;1930;2100;3100;x;;;;;;;;;;;;
Brain-Class380;9060380;U61;1930;1930;1930;1930;3;8;0;3;0;5;0;BETA;1930;2100;3100;x;;;;;;;;;;;;
Brain-Class381;9060381;U61;1930;1930;1930;1930;3;8;0;3;0;5;0;BETA;1930;2100;3100;x;;;;;;;;;;;;
Brain-Class382;9060382;U61;1930;1930;1930;1930;3;8;0;3;0;5;0;BETA;1930;2100;3100;x;;;;;;;;;;;;
Brain-Class383;9060383;U61;1930;1930;1930;1930;3;8;0;3;0;5;0;BETA;1930;2100;3100;x;;;;;;;;;;;;
Brain-Class384;9060384;U61;1930;1930;1930;1930;3;8;0;3;0;5;0;BETA;1930;2100;3100;x;;;;;;;;;;;;
Brain-Class385;9060385;U61;1930;1930;1930;1930;3;8;0;3;0;5;0;BETA;1930;2100;3100;x;;;;;;;;;;;;
Brain-Class386;9060386;U61;1930;1930;1930;1930;3;8;0;3;0;5;0;BETA;1930;2100;3100;x;;;;;;;;;;;;
Brain-Class387;9060387;U61;1930;1930;1930;1930;3;8;0;3;0;5;0;BETA;1930;2100;3100;x;;;;;;;;;;;;
Brain-Class388;9060388;U61;1930;1930;1930;1930;3;8;0;3;0;5;0;BETA;1930;2100;3100;x;;;;;;;;;;;;
Brain-Class389;9060389;U61;1930;1930;1930;1930;3;8;0;3;0;5;0;BETA;1930;2100;3100;x;;;;;;;;;;;;
Brain-Class390;9060390;U61;1930;1930;1930;1930;3;8;0;3;0;5;0;BETA;1930;2100;3100;x;;;;;;;;;;;;
Brain-Class391;9060391;U61;1930;1930;1930;1930;3;8;0;3;0;5;0;BETA;1930;2100;3100;x;;;;;;;;;;;;
Brain-Class392;9060392;U61;1930;1930;1930;1930;3;8;0;3;0;5;0;BETA;1930;2100;3100;x;;;;;;;;;;;;
Brain-Class393;9060393;U61;1930;1930;1930;1930;3;8;0;3;0;5;0;BETA;1930;2100;3100;x;;;;;;;;;;;;
Brain-Class394;9060394;U61;1930;1930;1930;1930;3;8;0;3;0;5;0;BETA;1930;2100;3100;x;;;;;;;;;;;;
Brain-Class395;9060395;U61;1930;1930;1930;1930;3;8;0;3;0;5;0;BETA;1930;2100;3100;x;;;;;;;;;;;;
Brain-Class396;9060396;U61;1930;1930;1930;1930;3;8;0;3;0;5;0;BETA;1930;2100;3100;x;;;;;;;;;;;;
Brain-Class397;9060397;U61;1930;1930;1930;1930;3;8;0;3;0;5;0;BETA;1930;2100;3100;x;;;;;;;;;;;;
Brain-Class398;9060398;U61;1930;1930;1930;1930;3;8;0;3;0;5;0;BETA;1930;2100;3100;x;;;;;;;;;;;;
Brain-Class399;9060399;U61;1930;1930;1930;1930;3;8;0;3;0;5;0;BETA;1930;2100;3100;x;;;;;;;;;;;;
Brain-Class400;9060400;U61;1930;1930;1930;1930;3;8;0;3;0;5;0;BETA;1930;2100;3100;x;;;;;;;;;;;;
Brain-Class401;9060401;U61;1930;1930;1930;1930;3;8;0;3;0;5;0;BETA;1930;2100;3100;x;;;;;;;;;;;;
Brain-Class402;9060402;U61;1930;1930;1930;1930;3;8;0;3;0;5;0;BETA;1930;2100;3100;x;;;;;;;;;;;;
Brain-Class403;9060403;U61;1930;1930;1930;1930;3;8;0;3;0;5;0;BETA;1930;2100;3100;x;;;;;;;;;;;;
Brain-Class404;9060404;U61;1930;1930;1930;1930;3;8;0;3;0;5;0;BETA;1930;2100;3100;x;;;;;;;;;;;;
Brain-Class405;9060405;U61;1930;1930;1930;1930;3;8;0;3;0;5;0;BETA;1930;2100;3100;x;;;;;;;;;;;;
Brain-Class406;9060406;U61;1930;1930;1930;1930;3;8;0;3;0;5;0;BETA;1930;2100;3100;x;;;;;;;;;;;;
Brain-Class407;9060407;U61;1930;1930;1930;1930;3;8;0;3;0;5;0;BETA;1930;2100;3100;x;;;;;;;;;;;;
Brain-Class408;9060408;U61;1930;1930;1930;1930;3;8;0;3;0;5;0;BETA;1930;2100;3100;x;;;;;;;;;;;;
Brain-Class409;9060409;U61;1930;1930;1930;1930;3;8;0;3;0;5;0;BETA;1930;2100;3100;x;;;;;;;;;;;;
Brain-Class410;9060410;U61;1930;1930;1930;1930;3;8;0;3;0;5;0;BETA;1930;2100;3100;x;;;;;;;;;;;;
Brain-Class411;9060411;U61;1930;1930;1930;1930;3;8;0;3;0;5;0;BETA;1930;2100;3100;x;;;;;;;;;;;;
Brain-Class412;9060412;U61;1930;1930;1930;1930;3;8;0;3;0;5;0;BETA;1930;2100;3100;x;;;;;;;;;;;;
Brain-Class413;9060413;U61;1930;1930;1930;1930;3;8;0;3;0;5;0;BETA;1930;2100;3100;x;;;;;;;;;;;;
Brain-Class414;9060414;U61;1930;1930;1930;1930;3;8;0;3;0;5;0;BETA;1930;2100;3100;x;;;;;;;;;;;;
Brain-Class415;9060415;U61;1930;1930;1930;1930;3;8;0;3;0;5;0;BETA;1930;2100;3100;x;;;;;;;;;;;;
Brain-Class416;9060416;U61;1930;1930;1930;1930;3;8;0;3;0;5;0;BETA;1930;2100;3100;x;;;;;;;;;;;;
Brain-Class417;9060417;U61;1930;1930;1930;1930;3;8;0;3;0;5;0;BETA;1930;2100;3100;x;;;;;;;;;;;;
Brain-Class418;9060418;U61;1930;1930;1930;1930;3;8;0;3;0;5;0;BETA;1930;2100;3100;x;;;;;;;;;;;;
Brain-Class419;9060419;U61;1930;1930;1930;1930;3;8;0;3;0;5;0;BETA;1930;2100;3100;x;;;;;;;;;;;;
Brain-Class420;9060420;U61;1930;1930;1930;1930;3;8;0;3;0;5;0;BETA;1930;2100;3100;x;;;;;;;;;;;;
Brain-Class421;9060421;U61;1930;1930;1930;1930;3;8;0;3;0;5;0;BETA;1930;2100;3100;x;;;;;;;;;;;;
Brain-Class422;9060422;U61;1930;1930;1930;1930;3;8;0;3;0;5;0;BETA;1930;2100;3100;x;;;;;;;;;;;;
Brain-Class423;9060423;U61;1930;1930;1930;1930;3;8;0;3;0;5;0;BETA;1930;2100;3100;x;;;;;;;;;;;;
Brain-Class424;9060424;U61;1930;1930;1930;1930;3;8;0;3;0;5;0;BETA;1930;2100;3100;x;;;;;;;;;;;;
Brain-Class425;9060425;U61;1930;1930;1930;1930;3;8;0;3;0;5;0;BETA;1930;2100;3100;x;;;;;;;;;;;;
Brain-Class426;9060426;U61;1930;1930;1930;1930;3;8;0;3;0;5;0;BETA;1930;2100;3100;x;;;;;;;;;;;;
Brain-Class427;9060427;U61;1930;1930;1930;1930;3;8;0;3;0;5;0;BETA;1930;2100;3100;x;;;;;;;;;;;;
Brain-Class428;9060428;U61;1930;1930;1930;1930;3;8;0;3;0;5;0;BETA;1930;2100;3100;x;;;;;;;;;;;;
Brain-Class429;9060429;U61;1930;1930;1930;1930;3;8;0;3;0;5;0;BETA;1930;2100;3100;x;;;;;;;;;;;;
Brain-Class430;9060430;U61;1930;1930;1930;1930;3;8;0;3;0;5;0;BETA;1930;2100;3100;x;;;;;;;;;;;;
Brain-Class431;9060431;U61;1930;1930;1930;1930;3;8;0;3;0;5;0;BETA;1930;2100;3100;x;;;;;;;;;;;;
Brain-Class432;9060432;U61;1930;1930;1930;1930;3;8;0;3;0;5;0;BETA;1930;2100;3100;x;;;;;;;;;;;;
Brain-Class433;9060433;U61;1930;1930;1930;1930;3;8;0;3;0;5;0;BETA;1930;2100;3100;x;;;;;;;;;;;;
Brain-Class434;9060434;U61;1930;1930;1930;1930;3;8;0;3;0;5;0;BETA;1930;2100;3100;x;;;;;;;;;;;;
Brain-Class435;9060435;U61;1930;1930;1930;1930;3;8;0;3;0;5;0;BETA;1930;2100;3100;x;;;;;;;;;;;;
Brain-Class436;9060436;U61;1930;1930;1930;1930;3;8;0;3;0;5;0;BETA;1930;2100;3100;x;;;;;;;;;;;;
Brain-Class437;9060437;U61;1930;1930;1930;1930;3;8;0;3;0;5;0;BETA;1930;2100;3100;x;;;;;;;;;;;;
Brain-Class438;9060438;U61;1930;1930;1930;1930;3;8;0;3;0;5;0;BETA;1930;2100;3100;x;;;;;;;;;;;;
Brain-Class439;9060439;U61;1930;1930;1930;1930;3;8;0;3;0;5;0;BETA;1930;2100;3100;x;;;;;;;;;;;;
Brain-Class440;9060440;U61;1930;1930;1930;1930;3;8;0;3;0;5;0;BETA;1930;2100;3100;x;;;;;;;;;;;;
Brain-Class441;9060441;U61;1930;1930;1930;1930;3;8;0;3;0;5;0;BETA;1930;2100;3100;x;;;;;;;;;;;;
Brain-Class442;9060442;U61;1930;1930;1930;1930;3;8;0;3;0;5;0;BETA;1930;2100;3100;x;;;;;;;;;;;;
Brain-Class443;9060443;U61;1930;1930;1930;1930;3;8;0;3;0;5;0;BETA;1930;2100;3100;x;;;;;;;;;;;;
Brain-Class444;9060444;U61;1930;1930;1930;1930;3;8;0;3;0;5;0;BETA;1930;2100;3100;x;;;;;;;;;;;;
Brain-Class445;9060445;U61;1930;1930;1930;1930;3;8;0;3;0;5;0;BETA;1930;2100;3100;x;;;;;;;;;;;;
Brain-Class446;9060446;U61;1930;1930;1930;1930;3;8;0;3;0;5;0;BETA;1930;2100;3100;x;;;;;;;;;;;;
Brain-Class447;9060447;U61;1930;1930;1930;1930;3;8;0;3;0;5;0;BETA;1930;2100;3100;x;;;;;;;;;;;;
Brain-Class448;9060448;U61;1930;1930;1930;1930;3;8;0;3;0;5;0;BETA;1930;2100;3100;x;;;;;;;;;;;;
Brain-Class449;9060449;U61;1930;1930;1930;1930;3;8;0;3;0;5;0;BETA;1930;2100;3100;x;;;;;;;;;;;;
Brain-Class450;9060450;U61;1930;1930;1930;1930;3;8;0;3;0;5;0;BETA;1930;2100;3100;x;;;;;;;;;;;;
Brain-Class451;9060451;U61;1930;1930;1930;1930;3;8;0;3;0;5;0;BETA;1930;2100;3100;x;;;;;;;;;;;;
Brain-Class452;9060452;U61;1930;1930;1930;1930;3;8;0;3;0;5;0;BETA;1930;2100;3100;x;;;;;;;;;;;;
Brain-Class453;9060453;U61;1930;1930;1930;1930;3;8;0;3;0;5;0;BETA;1930;2100;3100;x;;;;;;;;;;;;
Brain-Class454;9060454;U61;1930;1930;1930;1930;3;8;0;3;0;5;0;BETA;1930;2100;3100;x;;;;;;;;;;;;
Brain-Class455;9060455;U61;1930;1930;1930;1930;3;8;0;3;0;5;0;BETA;1930;2100;3100;x;;;;;;;;;;;;
Brain-Class456;9060456;U61;1930;1930;1930;1930;3;8;0;3;0;5;0;BETA;1930;2100;3100;x;;;;;;;;;;;;
Brain-Class457;9060457;U61;1930;1930;1930;1930;3;8;0;3;0;5;0;BETA;1930;2100;3100;x;;;;;;;;;;;;
Brain-Class458;9060458;U61;1930;1930;1930;1930;3;8;0;3;0;5;0;BETA;1930;2100;3100;x;;;;;;;;;;;;
Brain-Class459;9060459;U61;1930;1930;1930;1930;3;8;0;3;0;5;0;BETA;1930;2100;3100;x;;;;;;;;;;;;
Brain-Class460;9060460;U61;1930;1930;1930;1930;3;8;0;3;0;5;0;BETA;1930;2100;3100;x;;;;;;;;;;;;
Brain-Class461;9060461;U61;1930;1930;1930;1930;3;8;0;3;0;5;0;BETA;1930;2100;3100;x;;;;;;;;;;;;
Brain-Class462;9060462;U61;1930;1930;1930;1930;3;8;0;3;0;5;0;BETA;1930;2100;3100;x;;;;;;;;;;;;
Brain-Class463;9060463;U61;1930;1930;1930;1930;3;8;0;3;0;5;0;BETA;1930;2100;3100;x;;;;;;;;;;;;
Brain-Class464;9060464;U61;1930;1930;1930;1930;3;8;0;3;0;5;0;BETA;1930;2100;3100;x;;;;;;;;;;;;
Brain-Class465;9060465;U61;1930;1930;1930;1930;3;8;0;3;0;5;0;BETA;1930;2100;3100;x;;;;;;;;;;;;
Brain-Class466;9060466;U61;1930;1930;1930;1930;3;8;0;3;0;5;0;BETA;1930;2100;3100;x;;;;;;;;;;;;
Brain-Class467;9060467;U61;1930;1930;1930;1930;3;8;0;3;0;5;0;BETA;1930;2100;3100;x;;;;;;;;;;;;
Brain-Class468;9060468;U61;1930;1930;1930;1930;3;8;0;3;0;5;0;BETA;1930;2100;3100;x;;;;;;;;;;;;
Brain-Class469;9060469;U61;1930;1930;1930;1930;3;8;0;3;0;5;0;BETA;1930;2100;3100;x;;;;;;;;;;;;
Brain-Class470;9060470;U61;1930;1930;1930;1930;3;8;0;3;0;5;0;BETA;1930;2100;3100;x;;;;;;;;;;;;
Brain-Class471;9060471;U61;1930;1930;1930;1930;3;8;0;3;0;5;0;BETA;1930;2100;3100;x;;;;;;;;;;;;
Brain-Class472;9060472;U61;1930;1930;1930;1930;3;8;0;3;0;5;0;BETA;1930;2100;3100;x;;;;;;;;;;;;
Brain-Class473;9060473;U61;1930;1930;1930;1930;3;8;0;3;0;5;0;BETA;1930;2100;3100;x;;;;;;;;;;;;
Brain-Class474;9060474;U61;1930;1930;1930;1930;3;8;0;3;0;5;0;BETA;1930;2100;3100;x;;;;;;;;;;;;
Brain-Class475;9060475;U61;1930;1930;1930;1930;3;8;0;3;0;5;0;BETA;1930;2100;3100;x;;;;;;;;;;;;
Brain-Class476;9060476;U61;1930;1930;1930;1930;3;8;0;3;0;5;0;BETA;1930;2100;3100;x;;;;;;;;;;;;
Brain-Class477;9060477;U61;1930;1930;1930;1930;3;8;0;3;0;5;0;BETA;1930;2100;3100;x;;;;;;;;;;;;
Brain-Class478;9060478;U61;1930;1930;1930;1930;3;8;0;3;0;5;0;BETA;1930;2100;3100;x;;;;;;;;;;;;
Brain-Class479;9060479;U61;1930;1930;1930;1930;3;8;0;3;0;5;0;BETA;1930;2100;3100;x;;;;;;;;;;;;
Brain-Class480;9060480;U61;1930;1930;1930;1930;3;8;0;3;0;5;0;BETA;1930;2100;3100;x;;;;;;;;;;;;
Brain-Class481;9060481;U61;1930;1930;1930;1930;3;8;0;3;0;5;0;BETA;1930;2100;3100;x;;;;;;;;;;;;
Brain-Class482;9060482;U61;1930;1930;1930;1930;3;8;0;3;0;5;0;BETA;1930;2100;3100;x;;;;;;;;;;;;
Brain-Class483;9060483;U61;1930;1930;1930;1930;3;8;0;3;0;5;0;BETA;1930;2100;3100;x;;;;;;;;;;;;
Brain-Class484;9060484;U61;1930;1930;1930;1930;3;8;0;3;0;5;0;BETA;1930;2100;3100;x;;;;;;;;;;;;
Brain-Class485;9060485;U61;1930;1930;1930;1930;3;8;0;3;0;5;0;BETA;1930;2100;3100;x;;;;;;;;;;;;
Brain-Class486;9060486;U61;1930;1930;1930;1930;3;8;0;3;0;5;0;BETA;1930;2100;3100;x;;;;;;;;;;;;
Brain-Class487;9060487;U61;1930;1930;1930;1930;3;8;0;3;0;5;0;BETA;1930;2100;3100;x;;;;;;;;;;;;
Brain-Class488;9060488;U61;1930;1930;1930;1930;3;8;0;3;0;5;0;BETA;1930;2100;3100;x;;;;;;;;;;;;
Brain-Class489;9060489;U61;1930;1930;1930;1930;3;8;0;3;0;5;0;BETA;1930;2100;3100;x;;;;;;;;;;;;
Brain-Class490;9060490;U61;1930;1930;1930;1930;3;8;0;3;0;5;0;BETA;1930;2100;3100;x;;;;;;;;;;;;
Brain-Class491;9060491;U61;1930;1930;1930;1930;3;8;0;3;0;5;0;BETA;1930;2100;3100;x;;;;;;;;;;;;
Brain-Class492;9060492;U61;1930;1930;1930;1930;3;8;0;3;0;5;0;BETA;1930;2100;3100;x;;;;;;;;;;;;
Brain-Class493;9060493;U61;1930;1930;1930;1930;3;8;0;3;0;5;0;BETA;1930;2100;3100;x;;;;;;;;;;;;
Brain-Class494;9060494;U61;1930;1930;1930;1930;3;8;0;3;0;5;0;BETA;1930;2100;3100;x;;;;;;;;;;;;
Brain-Class495;9060495;U61;1930;1930;1930;1930;3;8;0;3;0;5;0;BETA;1930;2100;3100;x;;;;;;;;;;;;
Brain-Class496;9060496;U61;1930;1930;1930;1930;3;8;0;3;0;5;0;BETA;1930;2100;3100;x;;;;;;;;;;;;
Brain-Class497;9060497;U61;1930;1930;1930;1930;3;8;0;3;0;5;0;BETA;1930;2100;3100;x;;;;;;;;;;;;
Brain-Class498;9060498;U61;1930;1930;1930;1930;3;8;0;3;0;5;0;BETA;1930;2100;3100;x;;;;;;;;;;;;
Brain-Class499;9060499;U61;1930;1930;1930;1930;3;8;0;3;0;5;0;BETA;1930;2100;3100;x;;;;;;;;;;;;
Brain-Class500;9060500;U61;1930;1930;1930;1930;3;8;0;3;0;5;0;BETA;1930;2100;3100;x;;;;;;;;;;;;
Brain-Class501;9060501;U61;1930;1930;1930;1930;3;8;0;3;0;5;0;BETA;1930;2100;3100;x;;;;;;;;;;;;
Brain-Class502;9060502;U61;1930;1930;1930;1930;3;8;0;3;0;5;0;BETA;1930;2100;3100;x;;;;;;;;;;;;
Brain-Class503;9060503;U61;1930;1930;1930;1930;3;8;0;3;0;5;0;BETA;1930;2100;3100;x;;;;;;;;;;;;
Brain-Class504;9060504;U61;1930;1930;1930;1930;3;8;0;3;0;5;0;BETA;1930;2100;3100;x;;;;;;;;;;;;
Brain-Class505;9060505;U61;1930;1930;1930;1930;3;8;0;3;0;5;0;BETA;1930;2100;3100;x;;;;;;;;;;;;
Brain-Class506;9060506;U61;1930;1930;1930;1930;3;8;0;3;0;5;0;BETA;1930;2100;3100;x;;;;;;;;;;;;
Brain-Class507;9060507;U61;1930;1930;1930;1930;3;8;0;3;0;5;0;BETA;1930;2100;3100;x;;;;;;;;;;;;
Brain-Class508;9060508;U61;1930;1930;1930;1930;3;8;0;3;0;5;0;BETA;1930;2100;3100;x;;;;;;;;;;;;
Brain-Class509;9060509;U61;1930;1930;1930;1930;3;8;0;3;0;5;0;BETA;1930;2100;3100;x;;;;;;;;;;;;
Brain-Class510;9060510;U61;1930;1930;1930;1930;3;8;0;3;0;5;0;BETA;1930;2100;3100;x;;;;;;;;;;;;
Brain-Class511;9060511;U61;1930;1930;1930;1930;3;8;0;3;0;5;0;BETA;1930;2100;3100;x;;;;;;;;;;;;
Brain-Class512;9060512;U61;1930;1930;1930;1930;3;8;0;3;0;5;0;BETA;1930;2100;3100;x;;;;;;;;;;;;
Brain-Class513;9060513;U61;1930;1930;1930;1930;3;8;0;3;0;5;0;BETA;1930;2100;3100;x;;;;;;;;;;;;
Brain-Class514;9060514;U61;1930;1930;1930;1930;3;8;0;3;0;5;0;BETA;1930;2100;3100;x;;;;;;;;;;;;
Brain-Class515;9060515;U61;1930;1930;1930;1930;3;8;0;3;0;5;0;BETA;1930;2100;3100;x;;;;;;;;;;;;
Brain-Class516;9060516;U61;1930;1930;1930;1930;3;8;0;3;0;5;0;BETA;1930;2100;3100;x;;;;;;;;;;;;
Brain-Class517;9060517;U61;1930;1930;1930;1930;3;8;0;3;0;5;0;BETA;1930;2100;3100;x;;;;;;;;;;;;
Brain-Class518;9060518;U61;1930;1930;1930;1930;3;8;0;3;0;5;0;BETA;1930;2100;3100;x;;;;;;;;;;;;
Brain-Class519;9060519;U61;1930;1930;1930;1930;3;8;0;3;0;5;0;BETA;1930;2100;3100;x;;;;;;;;;;;;
Brain-Class520;9060520;U61;1930;1930;1930;1930;3;8;0;3;0;5;0;BETA;1930;2100;3100;x;;;;;;;;;;;;
Brain-Class521;9060521;U61;1930;1930;1930;1930;3;8;0;3;0;5;0;BETA;1930;2100;3100;x;;;;;;;;;;;;
Brain-Class522;9060522;U61;1930;1930;1930;1930;3;8;0;3;0;5;0;BETA;1930;2100;3100;x;;;;;;;;;;;;
Brain-Class523;9060523;U61;1930;1930;1930;1930;3;8;0;3;0;5;0;BETA;1930;2100;3100;x;;;;;;;;;;;;
Brain-Class524;9060524;U61;1930;1930;1930;1930;3;8;0;3;0;5;0;BETA;1930;2100;3100;x;;;;;;;;;;;;
Brain-Class525;9060525;U61;1930;1930;1930;1930;3;8;0;3;0;5;0;BETA;1930;2100;3100;x;;;;;;;;;;;;
Brain-Class526;9060526;U61;1930;1930;1930;1930;3;8;0;3;0;5;0;BETA;1930;2100;3100;x;;;;;;;;;;;;
Brain-Class527;9060527;U61;1930;1930;1930;1930;3;8;0;3;0;5;0;BETA;1930;2100;3100;x;;;;;;;;;;;;
Brain-Class528;9060528;U61;1930;1930;1930;1930;3;8;0;3;0;5;0;BETA;1930;2100;3100;x;;;;;;;;;;;;
Brain-Class529;9060529;U61;1930;1930;1930;1930;3;8;0;3;0;5;0;BETA;1930;2100;3100;x;;;;;;;;;;;;
Brain-Class530;9060530;U61;1930;1930;1930;1930;3;8;0;3;0;5;0;BETA;1930;2100;3100;x;;;;;;;;;;;;
Brain-Class531;9060531;U61;1930;1930;1930;1930;3;8;0;3;0;5;0;BETA;1930;2100;3100;x;;;;;;;;;;;;
Brain-Class532;9060532;U61;1930;1930;1930;1930;3;8;0;3;0;5;0;BETA;1930;2100;3100;x;;;;;;;;;;;;
Brain-Class533;9060533;U61;1930;1930;1930;1930;3;8;0;3;0;5;0;BETA;1930;2100;3100;x;;;;;;;;;;;;
Brain-Class534;9060534;U61;1930;1930;1930;1930;3;8;0;3;0;5;0;BETA;1930;2100;3100;x;;;;;;;;;;;;
Brain-Class535;9060535;U61;1930;1930;1930;1930;3;8;0;3;0;5;0;BETA;1930;2100;3100;x;;;;;;;;;;;;
Brain-Class536;9060536;U61;1930;1930;1930;1930;3;8;0;3;0;5;0;BETA;1930;2100;3100;x;;;;;;;;;;;;
Brain-Class537;9060537;U61;1930;1930;1930;1930;3;8;0;3;0;5;0;BETA;1930;2100;3100;x;;;;;;;;;;;;
Brain-Class538;9060538;U61;1930;1930;1930;1930;3;8;0;3;0;5;0;BETA;1930;2100;3100;x;;;;;;;;;;;;
Brain-Class539;9060539;U61;1930;1930;1930;1930;3;8;0;3;0;5;0;BETA;1930;2100;3100;x;;;;;;;;;;;;
Brain-Class540;9060540;U61;1930;1930;1930;1930;3;8;0;3;0;5;0;BETA;1930;2100;3100;x;;;;;;;;;;;;
Brain-Class541;9060541;U61;1930;1930;1930;1930;3;8;0;3;0;5;0;BETA;1930;2100;3100;x;;;;;;;;;;;;
Brain-Class542;9060542;U61;1930;1930;1930;1930;3;8;0;3;0;5;0;BETA;1930;2100;3100;x;;;;;;;;;;;;
Brain-Class543;9060543;U61;1930;1930;1930;1930;3;8;0;3;0;5;0;BETA;1930;2100;3100;x;;;;;;;;;;;;
Brain-Class544;9060544;U61;1930;1930;1930;1930;3;8;0;3;0;5;0;BETA;1930;2100;3100;x;;;;;;;;;;;;
Brain-Class545;9060545;U61;1930;1930;1930;1930;3;8;0;3;0;5;0;BETA;1930;2100;3100;x;;;;;;;;;;;;
Brain-Class546;9060546;U61;1930;1930;1930;1930;3;8;0;3;0;5;0;BETA;1930;2100;3100;x;;;;;;;;;;;;
Brain-Class547;9060547;U61;1930;1930;1930;1930;3;8;0;3;0;5;0;BETA;1930;2100;3100;x;;;;;;;;;;;;
Brain-Class548;9060548;U61;1930;1930;1930;1930;3;8;0;3;0;5;0;BETA;1930;2100;3100;x;;;;;;;;;;;;
Brain-Class549;9060549;U61;1930;1930;1930;1930;3;8;0;3;0;5;0;BETA;1930;2100;3100;x;;;;;;;;;;;;
Brain-Class550;9060550;U61;1930;1930;1930;1930;3;8;0;3;0;5;0;BETA;1930;2100;3100;x;;;;;;;;;;;;
Brain-Class551;9060551;U61;1930;1930;1930;1930;3;8;0;3;0;5;0;BETA;1930;2100;3100;x;;;;;;;;;;;;
Brain-Class552;9060552;U61;1930;1930;1930;1930;3;8;0;3;0;5;0;BETA;1930;2100;3100;x;;;;;;;;;;;;
Brain-Class553;9060553;U61;1930;1930;1930;1930;3;8;0;3;0;5;0;BETA;1930;2100;3100;x;;;;;;;;;;;;
Brain-Class554;9060554;U61;1930;1930;1930;1930;3;8;0;3;0;5;0;BETA;1930;2100;3100;x;;;;;;;;;;;;
Brain-Class555;9060555;U61;1930;1930;1930;1930;3;8;0;3;0;5;0;BETA;1930;2100;3100;x;;;;;;;;;;;;
Brain-Class556;9060556;U61;1930;1930;1930;1930;3;8;0;3;0;5;0;BETA;1930;2100;3100;x;;;;;;;;;;;;
Brain-Class557;9060557;U61;1930;1930;1930;1930;3;8;0;3;0;5;0;BETA;1930;2100;3100;x;;;;;;;;;;;;
Brain-Class558;9060558;U61;1930;1930;1930;1930;3;8;0;3;0;5;0;BETA;1930;2100;3100;x;;;;;;;;;;;;
Brain-Class559;9060559;U61;1930;1930;1930;1930;3;8;0;3;0;5;0;BETA;1930;2100;3100;x;;;;;;;;;;;;
Brain-Class560;9060560;U61;1930;1930;1930;1930;3;8;0;3;0;5;0;BETA;1930;2100;3100;x;;;;;;;;;;;;
Brain-Class561;9060561;U61;1930;1930;1930;1930;3;8;0;3;0;5;0;BETA;1930;2100;3100;x;;;;;;;;;;;;
Brain-Class562;9060562;U61;1930;1930;1930;1930;3;8;0;3;0;5;0;BETA;1930;2100;3100;x;;;;;;;;;;;;
Brain-Class563;9060563;U61;1930;1930;1930;1930;3;8;0;3;0;5;0;BETA;1930;2100;3100;x;;;;;;;;;;;;
Brain-Class564;9060564;U61;1930;1930;1930;1930;3;8;0;3;0;5;0;BETA;1930;2100;3100;x;;;;;;;;;;;;
Brain-Class565;9060565;U61;1930;1930;1930;1930;3;8;0;3;0;5;0;BETA;1930;2100;3100;x;;;;;;;;;;;;
Brain-Class566;9060566;U61;1930;1930;1930;1930;3;8;0;3;0;5;0;BETA;1930;2100;3100;x;;;;;;;;;;;;
Brain-Class567;9060567;U61;1930;1930;1930;1930;3;8;0;3;0;5;0;BETA;1930;2100;3100;x;;;;;;;;;;;;
Brain-Class568;9060568;U61;1930;1930;1930;1930;3;8;0;3;0;5;0;BETA;1930;2100;3100;x;;;;;;;;;;;;
Brain-Class569;9060569;U61;1930;1930;1930;1930;3;8;0;3;0;5;0;BETA;1930;2100;3100;x;;;;;;;;;;;;
Brain-Class570;9060570;U61;1930;1930;1930;1930;3;8;0;3;0;5;0;BETA;1930;2100;3100;x;;;;;;;;;;;;
Brain-Class571;9060571;U61;1930;1930;1930;1930;3;8;0;3;0;5;0;BETA;1930;2100;3100;x;;;;;;;;;;;;
Brain-Class572;9060572;U61;1930;1930;1930;1930;3;8;0;3;0;5;0;BETA;1930;2100;3100;x;;;;;;;;;;;;
Brain-Class573;9060573;U61;1930;1930;1930;1930;3;8;0;3;0;5;0;BETA;1930;2100;3100;x;;;;;;;;;;;;
Brain-Class574;9060574;U61;1930;1930;1930;1930;3;8;0;3;0;5;0;BETA;1930;2100;3100;x;;;;;;;;;;;;
Brain-Class575;9060575;U61;1930;1930;1930;1930;3;8;0;3;0;5;0;BETA;1930;2100;3100;x;;;;;;;;;;;;
Brain-Class576;9060576;U61;1930;1930;1930;1930;3;8;0;3;0;5;0;BETA;1930;2100;3100;x;;;;;;;;;;;;
Brain-Class577;9060577;U61;1930;1930;1930;1930;3;8;0;3;0;5;0;BETA;1930;2100;3100;x;;;;;;;;;;;;
Brain-Class578;9060578;U61;1930;1930;1930;1930;3;8;0;3;0;5;0;BETA;1930;2100;3100;x;;;;;;;;;;;;
Brain-Class579;9060579;U61;1930;1930;1930;1930;3;8;0;3;0;5;0;BETA;1930;2100;3100;x;;;;;;;;;;;;
Brain-Class580;9060580;U61;1930;1930;1930;1930;3;8;0;3;0;5;0;BETA;1930;2100;3100;x;;;;;;;;;;;;
Brain-Class581;9060581;U61;1930;1930;1930;1930;3;8;0;3;0;5;0;BETA;1930;2100;3100;x;;;;;;;;;;;;
Brain-Class582;9060582;U61;1930;1930;1930;1930;3;8;0;3;0;5;0;BETA;1930;2100;3100;x;;;;;;;;;;;;
Brain-Class583;9060583;U61;1930;1930;1930;1930;3;8;0;3;0;5;0;BETA;1930;2100;3100;x;;;;;;;;;;;;
Brain-Class584;9060584;U61;1930;1930;1930;1930;3;8;0;3;0;5;0;BETA;1930;2100;3100;x;;;;;;;;;;;;
Brain-Class585;9060585;U61;1930;1930;1930;1930;3;8;0;3;0;5;0;BETA;1930;2100;3100;x;;;;;;;;;;;;
Brain-Class586;9060586;U61;1930;1930;1930;1930;3;8;0;3;0;5;0;BETA;1930;2100;3100;x;;;;;;;;;;;;
Brain-Class587;9060587;U61;1930;1930;1930;1930;3;8;0;3;0;5;0;BETA;1930;2100;3100;x;;;;;;;;;;;;
Brain-Class588;9060588;U61;1930;1930;1930;1930;3;8;0;3;0;5;0;BETA;1930;2100;3100;x;;;;;;;;;;;;
Brain-Class589;9060589;U61;1930;1930;1930;1930;3;8;0;3;0;5;0;BETA;1930;2100;3100;x;;;;;;;;;;;;
Brain-Class590;9060590;U61;1930;1930;1930;1930;3;8;0;3;0;5;0;BETA;1930;2100;3100;x;;;;;;;;;;;;
Brain-Class591;9060591;U61;1930;1930;1930;1930;3;8;0;3;0;5;0;BETA;1930;2100;3100;x;;;;;;;;;;;;
Brain-Class592;9060592;U61;1930;1930;1930;1930;3;8;0;3;0;5;0;BETA;1930;2100;3100;x;;;;;;;;;;;;
Brain-Class593;9060593;U61;1930;1930;1930;1930;3;8;0;3;0;5;0;BETA;1930;2100;3100;x;;;;;;;;;;;;
Brain-Class594;9060594;U61;1930;1930;1930;1930;3;8;0;3;0;5;0;BETA;1930;2100;3100;x;;;;;;;;;;;;
Brain-Class595;9060595;U61;1930;1930;1930;1930;3;8;0;3;0;5;0;BETA;1930;2100;3100;x;;;;;;;;;;;;
Brain-Class596;9060596;U61;1930;1930;1930;1930;3;8;0;3;0;5;0;BETA;1930;2100;3100;x;;;;;;;;;;;;
Brain-Class597;9060597;U61;1930;1930;1930;1930;3;8;0;3;0;5;0;BETA;1930;2100;3100;x;;;;;;;;;;;;
Brain-Class598;9060598;U61;1930;1930;1930;1930;3;8;0;3;0;5;0;BETA;1930;2100;3100;x;;;;;;;;;;;;
Brain-Class599;9060599;U61;1930;1930;1930;1930;3;8;0;3;0;5;0;BETA;1930;2100;3100;x;;;;;;;;;;;;
Brain-Class600;9060600;U61;1930;1930;1930;1930;3;8;0;3;0;5;0;BETA;1930;2100;3100;x;;;;;;;;;;;;
Brain-Class601;9060601;U61;1930;1930;1930;1930;3;8;0;3;0;5;0;BETA;1930;2100;3100;x;;;;;;;;;;;;
Brain-Class602;9060602;U61;1930;1930;1930;1930;3;8;0;3;0;5;0;BETA;1930;2100;3100;x;;;;;;;;;;;;
Brain-Class603;9060603;U61;1930;1930;1930;1930;3;8;0;3;0;5;0;BETA;1930;2100;3100;x;;;;;;;;;;;;
Brain-Class604;9060604;U61;1930;1930;1930;1930;3;8;0;3;0;5;0;BETA;1930;2100;3100;x;;;;;;;;;;;;
Brain-Class605;9060605;U61;1930;1930;1930;1930;3;8;0;3;0;5;0;BETA;1930;2100;3100;x;;;;;;;;;;;;
Brain-Class606;9060606;U61;1930;1930;1930;1930;3;8;0;3;0;5;0;BETA;1930;2100;3100;x;;;;;;;;;;;;
Brain-Class607;9060607;U61;1930;1930;1930;1930;3;8;0;3;0;5;0;BETA;1930;2100;3100;x;;;;;;;;;;;;
Brain-Class608;9060608;U61;1930;1930;1930;1930;3;8;0;3;0;5;0;BETA;1930;2100;3100;x;;;;;;;;;;;;
Brain-Class609;9060609;U61;1930;1930;1930;1930;3;8;0;3;0;5;0;BETA;1930;2100;3100;x;;;;;;;;;;;;
Brain-Class610;9060610;U61;1930;1930;1930;1930;3;8;0;3;0;5;0;BETA;1930;2100;3100;x;;;;;;;;;;;;
Brain-Class611;9060611;U61;1930;1930;1930;1930;3;8;0;3;0;5;0;BETA;1930;2100;3100;x;;;;;;;;;;;;
Brain-Class612;9060612;U61;1930;1930;1930;1930;3;8;0;3;0;5;0;BETA;1930;2100;3100;x;;;;;;;;;;;;
Brain-Class613;9060613;U61;1930;1930;1930;1930;3;8;0;3;0;5;0;BETA;1930;2100;3100;x;;;;;;;;;;;;
Brain-Class614;9060614;U61;1930;1930;1930;1930;3;8;0;3;0;5;0;BETA;1930;2100;3100;x;;;;;;;;;;;;
Brain-Class615;9060615;U61;1930;1930;1930;1930;3;8;0;3;0;5;0;BETA;1930;2100;3100;x;;;;;;;;;;;;
Brain-Class616;9060616;U61;1930;1930;1930;1930;3;8;0;3;0;5;0;BETA;1930;2100;3100;x;;;;;;;;;;;;
Brain-Class617;9060617;U61;1930;1930;1930;1930;3;8;0;3;0;5;0;BETA;1930;2100;3100;x;;;;;;;;;;;;
Brain-Class618;9060618;U61;1930;1930;1930;1930;3;8;0;3;0;5;0;BETA;1930;2100;3100;x;;;;;;;;;;;;
Brain-Class619;9060619;U61;1930;1930;1930;1930;3;8;0;3;0;5;0;BETA;1930;2100;3100;x;;;;;;;;;;;;
Brain-Class620;9060620;U61;1930;1930;1930;1930;3;8;0;3;0;5;0;BETA;1930;2100;3100;x;;;;;;;;;;;;
Brain-Class621;9060621;U61;1930;1930;1930;1930;3;8;0;3;0;5;0;BETA;1930;2100;3100;x;;;;;;;;;;;;
Brain-Class622;9060622;U61;1930;1930;1930;1930;3;8;0;3;0;5;0;BETA;1930;2100;3100;x;;;;;;;;;;;;
Brain-Class623;9060623;U61;1930;1930;1930;1930;3;8;0;3;0;5;0;BETA;1930;2100;3100;x;;;;;;;;;;;;
Brain-Class624;9060624;U61;1930;1930;1930;1930;3;8;0;3;0;5;0;BETA;1930;2100;3100;x;;;;;;;;;;;;
Brain-Class625;9060625;U61;1930;1930;1930;1930;3;8;0;3;0;5;0;BETA;1930;2100;3100;x;;;;;;;;;;;;
Brain-Class626;9060626;U61;1930;1930;1930;1930;3;8;0;3;0;5;0;BETA;1930;2100;3100;x;;;;;;;;;;;;
Brain-Class627;9060627;U61;1930;1930;1930;1930;3;8;0;3;0;5;0;BETA;1930;2100;3100;x;;;;;;;;;;;;
Brain-Class628;9060628;U61;1930;1930;1930;1930;3;8;0;3;0;5;0;BETA;1930;2100;3100;x;;;;;;;;;;;;
Brain-Class629;9060629;U61;1930;1930;1930;1930;3;8;0;3;0;5;0;BETA;1930;2100;3100;x;;;;;;;;;;;;
Brain-Class630;9060630;U61;1930;1930;1930;1930;3;8;0;3;0;5;0;BETA;1930;2100;3100;x;;;;;;;;;;;;
Brain-Class631;9060631;U61;1930;1930;1930;1930;3;8;0;3;0;5;0;BETA;1930;2100;3100;x;;;;;;;;;;;;
Brain-Class632;9060632;U61;1930;1930;1930;1930;3;8;0;3;0;5;0;BETA;1930;2100;3100;x;;;;;;;;;;;;
Brain-Class633;9060633;U61;1930;1930;1930;1930;3;8;0;3;0;5;0;BETA;1930;2100;3100;x;;;;;;;;;;;;
Brain-Class634;9060634;U61;1930;1930;1930;1930;3;8;0;3;0;5;0;BETA;1930;2100;3100;x;;;;;;;;;;;;
Brain-Class635;9060635;U61;1930;1930;1930;1930;3;8;0;3;0;5;0;BETA;1930;2100;3100;x;;;;;;;;;;;;
Brain-Class636;9060636;U61;1930;1930;1930;1930;3;8;0;3;0;5;0;BETA;1930;2100;3100;x;;;;;;;;;;;;
Brain-Class637;9060637;U61;1930;1930;1930;1930;3;8;0;3;0;5;0;BETA;1930;2100;3100;x;;;;;;;;;;;;
Brain-Class638;9060638;U61;1930;1930;1930;1930;3;8;0;3;0;5;0;BETA;1930;2100;3100;x;;;;;;;;;;;;
Brain-Class639;9060639;U61;1930;1930;1930;1930;3;8;0;3;0;5;0;BETA;1930;2100;3100;x;;;;;;;;;;;;
Brain-Class640;9060640;U61;1930;1930;1930;1930;3;8;0;3;0;5;0;BETA;1930;2100;3100;x;;;;;;;;;;;;
Brain-Class641;9060641;U61;1930;1930;1930;1930;3;8;0;3;0;5;0;BETA;1930;2100;3100;x;;;;;;;;;;;;
Brain-Class642;9060642;U61;1930;1930;1930;1930;3;8;0;3;0;5;0;BETA;1930;2100;3100;x;;;;;;;;;;;;
Brain-Class643;9060643;U61;1930;1930;1930;1930;3;8;0;3;0;5;0;BETA;1930;2100;3100;x;;;;;;;;;;;;
Brain-Class644;9060644;U61;1930;1930;1930;1930;3;8;0;3;0;5;0;BETA;1930;2100;3100;x;;;;;;;;;;;;
Brain-Class645;9060645;U61;1930;1930;1930;1930;3;8;0;3;0;5;0;BETA;1930;2100;3100;x;;;;;;;;;;;;
Brain-Class646;9060646;U61;1930;1930;1930;1930;3;8;0;3;0;5;0;BETA;1930;2100;3100;x;;;;;;;;;;;;
Brain-Class647;9060647;U61;1930;1930;1930;1930;3;8;0;3;0;5;0;BETA;1930;2100;3100;x;;;;;;;;;;;;
Brain-Class648;9060648;U61;1930;1930;1930;1930;3;8;0;3;0;5;0;BETA;1930;2100;3100;x;;;;;;;;;;;;
Brain-Class649;9060649;U61;1930;1930;1930;1930;3;8;0;3;0;5;0;BETA;1930;2100;3100;x;;;;;;;;;;;;
Brain-Class650;9060650;U61;1930;1930;1930;1930;3;8;0;3;0;5;0;BETA;1930;2100;3100;x;;;;;;;;;;;;
Brain-Class651;9060651;U61;1930;1930;1930;1930;3;8;0;3;0;5;0;BETA;1930;2100;3100;x;;;;;;;;;;;;
Brain-Class652;9060652;U61;1930;1930;1930;1930;3;8;0;3;0;5;0;BETA;1930;2100;3100;x;;;;;;;;;;;;
Brain-Class653;9060653;U61;1930;1930;1930;1930;3;8;0;3;0;5;0;BETA;1930;2100;3100;x;;;;;;;;;;;;
Brain-Class654;9060654;U61;1930;1930;1930;1930;3;8;0;3;0;5;0;BETA;1930;2100;3100;x;;;;;;;;;;;;
Brain-Class655;9060655;U61;1930;1930;1930;1930;3;8;0;3;0;5;0;BETA;1930;2100;3100;x;;;;;;;;;;;;
Brain-Class656;9060656;U61;1930;1930;1930;1930;3;8;0;3;0;5;0;BETA;1930;2100;3100;x;;;;;;;;;;;;
Brain-Class657;9060657;U61;1930;1930;1930;1930;3;8;0;3;0;5;0;BETA;1930;2100;3100;x;;;;;;;;;;;;
Brain-Class658;9060658;U61;1930;1930;1930;1930;3;8;0;3;0;5;0;BETA;1930;2100;3100;x;;;;;;;;;;;;
Brain-Class659;9060659;U61;1930;1930;1930;1930;3;8;0;3;0;5;0;BETA;1930;2100;3100;x;;;;;;;;;;;;
Brain-Class660;9060660;U61;1930;1930;1930;1930;3;8;0;3;0;5;0;BETA;1930;2100;3100;x;;;;;;;;;;;;
Brain-Class661;9060661;U61;1930;1930;1930;1930;3;8;0;3;0;5;0;BETA;1930;2100;3100;x;;;;;;;;;;;;
Brain-Class662;9060662;U61;1930;1930;1930;1930;3;8;0;3;0;5;0;BETA;1930;2100;3100;x;;;;;;;;;;;;
Brain-Class663;9060663;U61;1930;1930;1930;1930;3;8;0;3;0;5;0;BETA;1930;2100;3100;x;;;;;;;;;;;;
Brain-Class664;9060664;U61;1930;1930;1930;1930;3;8;0;3;0;5;0;BETA;1930;2100;3100;x;;;;;;;;;;;;
Brain-Class665;9060665;U61;1930;1930;1930;1930;3;8;0;3;0;5;0;BETA;1930;2100;3100;x;;;;;;;;;;;;
Brain-Class666;9060666;U61;1930;1930;1930;1930;3;8;0;3;0;5;0;BETA;1930;2100;3100;x;;;;;;;;;;;;
Brain-Class667;9060667;U61;1930;1930;1930;1930;3;8;0;3;0;5;0;BETA;1930;2100;3100;x;;;;;;;;;;;;
Brain-Class668;9060668;U61;1930;1930;1930;1930;3;8;0;3;0;5;0;BETA;1930;2100;3100;x;;;;;;;;;;;;
Brain-Class669;9060669;U61;1930;1930;1930;1930;3;8;0;3;0;5;0;BETA;1930;2100;3100;x;;;;;;;;;;;;
Brain-Class670;9060670;U61;1930;1930;1930;1930;3;8;0;3;0;5;0;BETA;1930;2100;3100;x;;;;;;;;;;;;
Brain-Class671;9060671;U61;1930;1930;1930;1930;3;8;0;3;0;5;0;BETA;1930;2100;3100;x;;;;;;;;;;;;
Brain-Class672;9060672;U61;1930;1930;1930;1930;3;8;0;3;0;5;0;BETA;1930;2100;3100;x;;;;;;;;;;;;
Brain-Class673;9060673;U61;1930;1930;1930;1930;3;8;0;3;0;5;0;BETA;1930;2100;3100;x;;;;;;;;;;;;
Brain-Class674;9060674;U61;1930;1930;1930;1930;3;8;0;3;0;5;0;BETA;1930;2100;3100;x;;;;;;;;;;;;
Brain-Class675;9060675;U61;1930;1930;1930;1930;3;8;0;3;0;5;0;BETA;1930;2100;3100;x;;;;;;;;;;;;
Brain-Class676;9060676;U61;1930;1930;1930;1930;3;8;0;3;0;5;0;BETA;1930;2100;3100;x;;;;;;;;;;;;
Brain-Class677;9060677;U61;1930;1930;1930;1930;3;8;0;3;0;5;0;BETA;1930;2100;3100;x;;;;;;;;;;;;
Brain-Class678;9060678;U61;1930;1930;1930;1930;3;8;0;3;0;5;0;BETA;1930;2100;3100;x;;;;;;;;;;;;
Brain-Class679;9060679;U61;1930;1930;1930;1930;3;8;0;3;0;5;0;BETA;1930;2100;3100;x;;;;;;;;;;;;
Brain-Class680;9060680;U61;1930;1930;1930;1930;3;8;0;3;0;5;0;BETA;1930;2100;3100;x;;;;;;;;;;;;
Brain-Class681;9060681;U61;1930;1930;1930;1930;3;8;0;3;0;5;0;BETA;1930;2100;3100;x;;;;;;;;;;;;
Brain-Class682;9060682;U61;1930;1930;1930;1930;3;8;0;3;0;5;0;BETA;1930;2100;3100;x;;;;;;;;;;;;
Brain-Class683;9060683;U61;1930;1930;1930;1930;3;8;0;3;0;5;0;BETA;1930;2100;3100;x;;;;;;;;;;;;
Brain-Class684;9060684;U61;1930;1930;1930;1930;3;8;0;3;0;5;0;BETA;1930;2100;3100;x;;;;;;;;;;;;
Brain-Class685;9060685;U61;1930;1930;1930;1930;3;8;0;3;0;5;0;BETA;1930;2100;3100;x;;;;;;;;;;;;
Brain-Class686;9060686;U61;1930;1930;1930;1930;3;8;0;3;0;5;0;BETA;1930;2100;3100;x;;;;;;;;;;;;
Brain-Class687;9060687;U61;1930;1930;1930;1930;3;8;0;3;0;5;0;BETA;1930;2100;3100;x;;;;;;;;;;;;
Brain-Class688;9060688;U61;1930;1930;1930;1930;3;8;0;3;0;5;0;BETA;1930;2100;3100;x;;;;;;;;;;;;
Brain-Class689;9060689;U61;1930;1930;1930;1930;3;8;0;3;0;5;0;BETA;1930;2100;3100;x;;;;;;;;;;;;
Brain-Class690;9060690;U61;1930;1930;1930;1930;3;8;0;3;0;5;0;BETA;1930;2100;3100;x;;;;;;;;;;;;
Brain-Class691;9060691;U61;1930;1930;1930;1930;3;8;0;3;0;5;0;BETA;1930;2100;3100;x;;;;;;;;;;;;
Brain-Class692;9060692;U61;1930;1930;1930;1930;3;8;0;3;0;5;0;BETA;1930;2100;3100;x;;;;;;;;;;;;
Brain-Class693;9060693;U61;1930;1930;1930;1930;3;8;0;3;0;5;0;BETA;1930;2100;3100;x;;;;;;;;;;;;
Brain-Class694;9060694;U61;1930;1930;1930;1930;3;8;0;3;0;5;0;BETA;1930;2100;3100;x;;;;;;;;;;;;
Brain-Class695;9060695;U61;1930;1930;1930;1930;3;8;0;3;0;5;0;BETA;1930;2100;3100;x;;;;;;;;;;;;
Brain-Class696;9060696;U61;1930;1930;1930;1930;3;8;0;3;0;5;0;BETA;1930;2100;3100;x;;;;;;;;;;;;
Brain-Class697;9060697;U61;1930;1930;1930;1930;3;8;0;3;0;5;0;BETA;1930;2100;3100;x;;;;;;;;;;;;
Brain-Class698;9060698;U61;1930;1930;1930;1930;3;8;0;3;0;5;0;BETA;1930;2100;3100;x;;;;;;;;;;;;
Brain-Class699;9060699;U61;1930;1930;1930;1930;3;8;0;3;0;5;0;BETA;1930;2100;3100;x;;;;;;;;;;;;
Brain-Class700;9060700;U61;1930;1930;1930;1930;3;8;0;3;0;5;0;BETA;1930;2100;3100;x;;;;;;;;;;;;
Brain-Class701;9060701;U61;1930;1930;1930;1930;3;8;0;3;0;5;0;BETA;1930;2100;3100;x;;;;;;;;;;;;
Brain-Class702;9060702;U61;1930;1930;1930;1930;3;8;0;3;0;5;0;BETA;1930;2100;3100;x;;;;;;;;;;;;
Brain-Class703;9060703;U61;1930;1930;1930;1930;3;8;0;3;0;5;0;BETA;1930;2100;3100;x;;;;;;;;;;;;
Brain-Class704;9060704;U61;1930;1930;1930;1930;3;8;0;3;0;5;0;BETA;1930;2100;3100;x;;;;;;;;;;;;
Brain-Class705;9060705;U61;1930;1930;1930;1930;3;8;0;3;0;5;0;BETA;1930;2100;3100;x;;;;;;;;;;;;
Brain-Class706;9060706;U61;1930;1930;1930;1930;3;8;0;3;0;5;0;BETA;1930;2100;3100;x;;;;;;;;;;;;
Brain-Class707;9060707;U61;1930;1930;1930;1930;3;8;0;3;0;5;0;BETA;1930;2100;3100;x;;;;;;;;;;;;
Brain-Class708;9060708;U61;1930;1930;1930;1930;3;8;0;3;0;5;0;BETA;1930;2100;3100;x;;;;;;;;;;;;
Brain-Class709;9060709;U61;1930;1930;1930;1930;3;8;0;3;0;5;0;BETA;1930;2100;3100;x;;;;;;;;;;;;
Brain-Class710;9060710;U61;1930;1930;1930;1930;3;8;0;3;0;5;0;BETA;1930;2100;3100;x;;;;;;;;;;;;
Brain-Class711;9060711;U61;1930;1930;1930;1930;3;8;0;3;0;5;0;BETA;1930;2100;3100;x;;;;;;;;;;;;
Brain-Class712;9060712;U61;1930;1930;1930;1930;3;8;0;3;0;5;0;BETA;1930;2100;3100;x;;;;;;;;;;;;
Brain-Class713;9060713;U61;1930;1930;1930;1930;3;8;0;3;0;5;0;BETA;1930;2100;3100;x;;;;;;;;;;;;
Brain-Class714;9060714;U61;1930;1930;1930;1930;3;8;0;3;0;5;0;BETA;1930;2100;3100;x;;;;;;;;;;;;
Brain-Class715;9060715;U61;1930;1930;1930;1930;3;8;0;3;0;5;0;BETA;1930;2100;3100;x;;;;;;;;;;;;
Brain-Class716;9060716;U61;1930;1930;1930;1930;3;8;0;3;0;5;0;BETA;1930;2100;3100;x;;;;;;;;;;;;
Brain-Class717;9060717;U61;1930;1930;1930;1930;3;8;0;3;0;5;0;BETA;1930;2100;3100;x;;;;;;;;;;;;
Brain-Class718;9060718;U61;1930;1930;1930;1930;3;8;0;3;0;5;0;BETA;1930;2100;3100;x;;;;;;;;;;;;
Brain-Class719;9060719;U61;1930;1930;1930;1930;3;8;0;3;0;5;0;BETA;1930;2100;3100;x;;;;;;;;;;;;
Brain-Class720;9060720;U61;1930;1930;1930;1930;3;8;0;3;0;5;0;BETA;1930;2100;3100;x;;;;;;;;;;;;
Brain-Class721;9060721;U61;1930;1930;1930;1930;3;8;0;3;0;5;0;BETA;1930;2100;3100;x;;;;;;;;;;;;
Brain-Class722;9060722;U61;1930;1930;1930;1930;3;8;0;3;0;5;0;BETA;1930;2100;3100;x;;;;;;;;;;;;
Brain-Class723;9060723;U61;1930;1930;1930;1930;3;8;0;3;0;5;0;BETA;1930;2100;3100;x;;;;;;;;;;;;
Brain-Class724;9060724;U61;1930;1930;1930;1930;3;8;0;3;0;5;0;BETA;1930;2100;3100;x;;;;;;;;;;;;
Brain-Class725;9060725;U61;1930;1930;1930;1930;3;8;0;3;0;5;0;BETA;1930;2100;3100;x;;;;;;;;;;;;
Brain-Class726;9060726;U61;1930;1930;1930;1930;3;8;0;3;0;5;0;BETA;1930;2100;3100;x;;;;;;;;;;;;
Brain-Class727;9060727;U61;1930;1930;1930;1930;3;8;0;3;0;5;0;BETA;1930;2100;3100;x;;;;;;;;;;;;
Brain-Class728;9060728;U61;1930;1930;1930;1930;3;8;0;3;0;5;0;BETA;1930;2100;3100;x;;;;;;;;;;;;
Brain-Class729;9060729;U61;1930;1930;1930;1930;3;8;0;3;0;5;0;BETA;1930;2100;3100;x;;;;;;;;;;;;
Brain-Class730;9060730;U61;1930;1930;1930;1930;3;8;0;3;0;5;0;BETA;1930;2100;3100;x;;;;;;;;;;;;
Brain-Class731;9060731;U61;1930;1930;1930;1930;3;8;0;3;0;5;0;BETA;1930;2100;3100;x;;;;;;;;;;;;
Brain-Class732;9060732;U61;1930;1930;1930;1930;3;8;0;3;0;5;0;BETA;1930;2100;3100;x;;;;;;;;;;;;
Brain-Class733;9060733;U61;1930;1930;1930;1930;3;8;0;3;0;5;0;BETA;1930;2100;3100;x;;;;;;;;;;;;
Brain-Class734;9060734;U61;1930;1930;1930;1930;3;8;0;3;0;5;0;BETA;1930;2100;3100;x;;;;;;;;;;;;
Brain-Class735;9060735;U61;1930;1930;1930;1930;3;8;0;3;0;5;0;BETA;1930;2100;3100;x;;;;;;;;;;;;
Brain-Class736;9060736;U61;1930;1930;1930;1930;3;8;0;3;0;5;0;BETA;1930;2100;3100;x;;;;;;;;;;;;
Brain-Class737;9060737;U61;1930;1930;1930;1930;3;8;0;3;0;5;0;BETA;1930;2100;3100;x;;;;;;;;;;;;
Brain-Class738;9060738;U61;1930;1930;1930;1930;3;8;0;3;0;5;0;BETA;1930;2100;3100;x;;;;;;;;;;;;
Brain-Class739;9060739;U61;1930;1930;1930;1930;3;8;0;3;0;5;0;BETA;1930;2100;3100;x;;;;;;;;;;;;
Brain-Class740;9060740;U61;1930;1930;1930;1930;3;8;0;3;0;5;0;BETA;1930;2100;3100;x;;;;;;;;;;;;
Brain-Class741;9060741;U61;1930;1930;1930;1930;3;8;0;3;0;5;0;BETA;1930;2100;3100;x;;;;;;;;;;;;
Brain-Class742;9060742;U61;1930;1930;1930;1930;3;8;0;3;0;5;0;BETA;1930;2100;3100;x;;;;;;;;;;;;
Brain-Class743;9060743;U61;1930;1930;1930;1930;3;8;0;3;0;5;0;BETA;1930;2100;3100;x;;;;;;;;;;;;
Brain-Class744;9060744;U61;1930;1930;1930;1930;3;8;0;3;0;5;0;BETA;1930;2100;3100;x;;;;;;;;;;;;
Brain-Class745;9060745;U61;1930;1930;1930;1930;3;8;0;3;0;5;0;BETA;1930;2100;3100;x;;;;;;;;;;;;
Brain-Class746;9060746;U61;1930;1930;1930;1930;3;8;0;3;0;5;0;BETA;1930;2100;3100;x;;;;;;;;;;;;
Brain-Class747;9060747;U61;1930;1930;1930;1930;3;8;0;3;0;5;0;BETA;1930;2100;3100;x;;;;;;;;;;;;
Brain-Class748;9060748;U61;1930;1930;1930;1930;3;8;0;3;0;5;0;BETA;1930;2100;3100;x;;;;;;;;;;;;
Brain-Class749;9060749;U61;1930;1930;1930;1930;3;8;0;3;0;5;0;BETA;1930;2100;3100;x;;;;;;;;;;;;
Brain-Class750;9060750;U61;1930;1930;1930;1930;3;8;0;3;0;5;0;BETA;1930;2100;3100;x;;;;;;;;;;;;
Brain-Class751;9060751;U61;1930;1930;1930;1930;3;8;0;3;0;5;0;BETA;1930;2100;3100;x;;;;;;;;;;;;
Brain-Class752;9060752;U61;1930;1930;1930;1930;3;8;0;3;0;5;0;BETA;1930;2100;3100;x;;;;;;;;;;;;
Brain-Class753;9060753;U61;1930;1930;1930;1930;3;8;0;3;0;5;0;BETA;1930;2100;3100;x;;;;;;;;;;;;
Brain-Class754;9060754;U61;1930;1930;1930;1930;3;8;0;3;0;5;0;BETA;1930;2100;3100;x;;;;;;;;;;;;
Brain-Class755;9060755;U61;1930;1930;1930;1930;3;8;0;3;0;5;0;BETA;1930;2100;3100;x;;;;;;;;;;;;
Brain-Class756;9060756;U61;1930;1930;1930;1930;3;8;0;3;0;5;0;BETA;1930;2100;3100;x;;;;;;;;;;;;
Brain-Class757;9060757;U61;1930;1930;1930;1930;3;8;0;3;0;5;0;BETA;1930;2100;3100;x;;;;;;;;;;;;
Brain-Class758;9060758;U61;1930;1930;1930;1930;3;8;0;3;0;5;0;BETA;1930;2100;3100;x;;;;;;;;;;;;
Brain-Class759;9060759;U61;1930;1930;1930;1930;3;8;0;3;0;5;0;BETA;1930;2100;3100;x;;;;;;;;;;;;
Brain-Class760;9060760;U61;1930;1930;1930;1930;3;8;0;3;0;5;0;BETA;1930;2100;3100;x;;;;;;;;;;;;
Brain-Class761;9060761;U61;1930;1930;1930;1930;3;8;0;3;0;5;0;BETA;1930;2100;3100;x;;;;;;;;;;;;
Brain-Class762;9060762;U61;1930;1930;1930;1930;3;8;0;3;0;5;0;BETA;1930;2100;3100;x;;;;;;;;;;;;
Brain-Class763;9060763;U61;1930;1930;1930;1930;3;8;0;3;0;5;0;BETA;1930;2100;3100;x;;;;;;;;;;;;
Brain-Class764;9060764;U61;1930;1930;1930;1930;3;8;0;3;0;5;0;BETA;1930;2100;3100;x;;;;;;;;;;;;
Brain-Class765;9060765;U61;1930;1930;1930;1930;3;8;0;3;0;5;0;BETA;1930;2100;3100;x;;;;;;;;;;;;
Brain-Class766;9060766;U61;1930;1930;1930;1930;3;8;0;3;0;5;0;BETA;1930;2100;3100;x;;;;;;;;;;;;
Brain-Class767;9060767;U61;1930;1930;1930;1930;3;8;0;3;0;5;0;BETA;1930;2100;3100;x;;;;;;;;;;;;
Brain-Class768;9060768;U61;1930;1930;1930;1930;3;8;0;3;0;5;0;BETA;1930;2100;3100;x;;;;;;;;;;;;
Brain-Class769;9060769;U61;1930;1930;1930;1930;3;8;0;3;0;5;0;BETA;1930;2100;3100;x;;;;;;;;;;;;
Brain-Class770;9060770;U61;1930;1930;1930;1930;3;8;0;3;0;5;0;BETA;1930;2100;3100;x;;;;;;;;;;;;
Brain-Class771;9060771;U61;1930;1930;1930;1930;3;8;0;3;0;5;0;BETA;1930;2100;3100;x;;;;;;;;;;;;
Brain-Class772;9060772;U61;1930;1930;1930;1930;3;8;0;3;0;5;0;BETA;1930;2100;3100;x;;;;;;;;;;;;
Brain-Class773;9060773;U61;1930;1930;1930;1930;3;8;0;3;0;5;0;BETA;1930;2100;3100;x;;;;;;;;;;;;
Brain-Class774;9060774;U61;1930;1930;1930;1930;3;8;0;3;0;5;0;BETA;1930;2100;3100;x;;;;;;;;;;;;
Brain-Class775;9060775;U61;1930;1930;1930;1930;3;8;0;3;0;5;0;BETA;1930;2100;3100;x;;;;;;;;;;;;
Brain-Class776;9060776;U61;1930;1930;1930;1930;3;8;0;3;0;5;0;BETA;1930;2100;3100;x;;;;;;;;;;;;
Brain-Class777;9060777;U61;1930;1930;1930;1930;3;8;0;3;0;5;0;BETA;1930;2100;3100;x;;;;;;;;;;;;
Brain-Class778;9060778;U61;1930;1930;1930;1930;3;8;0;3;0;5;0;BETA;1930;2100;3100;x;;;;;;;;;;;;
Brain-Class779;9060779;U61;1930;1930;1930;1930;3;8;0;3;0;5;0;BETA;1930;2100;3100;x;;;;;;;;;;;;
Brain-Class780;9060780;U61;1930;1930;1930;1930;3;8;0;3;0;5;0;BETA;1930;2100;3100;x;;;;;;;;;;;;
Brain-Class781;9060781;U61;1930;1930;1930;1930;3;8;0;3;0;5;0;BETA;1930;2100;3100;x;;;;;;;;;;;;
Brain-Class782;9060782;U61;1930;1930;1930;1930;3;8;0;3;0;5;0;BETA;1930;2100;3100;x;;;;;;;;;;;;
Brain-Class783;9060783;U61;1930;1930;1930;1930;3;8;0;3;0;5;0;BETA;1930;2100;3100;x;;;;;;;;;;;;
Brain-Class784;9060784;U61;1930;1930;1930;1930;3;8;0;3;0;5;0;BETA;1930;2100;3100;x;;;;;;;;;;;;
Brain-Class785;9060785;U61;1930;1930;1930;1930;3;8;0;3;0;5;0;BETA;1930;2100;3100;x;;;;;;;;;;;;
Brain-Class786;9060786;U61;1930;1930;1930;1930;3;8;0;3;0;5;0;BETA;1930;2100;3100;x;;;;;;;;;;;;
Brain-Class787;9060787;U61;1930;1930;1930;1930;3;8;0;3;0;5;0;BETA;1930;2100;3100;x;;;;;;;;;;;;
Brain-Class788;9060788;U61;1930;1930;1930;1930;3;8;0;3;0;5;0;BETA;1930;2100;3100;x;;;;;;;;;;;;
Brain-Class789;9060789;U61;1930;1930;1930;1930;3;8;0;3;0;5;0;BETA;1930;2100;3100;x;;;;;;;;;;;;
Brain-Class790;9060790;U61;1930;1930;1930;1930;3;8;0;3;0;5;0;BETA;1930;2100;3100;x;;;;;;;;;;;;
Brain-Class791;9060791;U61;1930;1930;1930;1930;3;8;0;3;0;5;0;BETA;1930;2100;3100;x;;;;;;;;;;;;
Brain-Class792;9060792;U61;1930;1930;1930;1930;3;8;0;3;0;5;0;BETA;1930;2100;3100;x;;;;;;;;;;;;
Brain-Class793;9060793;U61;1930;1930;1930;1930;3;8;0;3;0;5;0;BETA;1930;2100;3100;x;;;;;;;;;;;;
Brain-Class794;9060794;U61;1930;1930;1930;1930;3;8;0;3;0;5;0;BETA;1930;2100;3100;x;;;;;;;;;;;;
Brain-Class795;9060795;U61;1930;1930;1930;1930;3;8;0;3;0;5;0;BETA;1930;2100;3100;x;;;;;;;;;;;;
Brain-Class796;9060796;U61;1930;1930;1930;1930;3;8;0;3;0;5;0;BETA;1930;2100;3100;x;;;;;;;;;;;;
Brain-Class797;9060797;U61;1930;1930;1930;1930;3;8;0;3;0;5;0;BETA;1930;2100;3100;x;;;;;;;;;;;;
Brain-Class798;9060798;U61;1930;1930;1930;1930;3;8;0;3;0;5;0;BETA;1930;2100;3100;x;;;;;;;;;;;;
Brain-Class799;9060799;U61;1930;1930;1930;1930;3;8;0;3;0;5;0;BETA;1930;2100;3100;x;;;;;;;;;;;;
Brain-Class800;9060800;U61;1930;1930;1930;1930;3;8;0;3;0;5;0;BETA;1930;2100;3100;x;;;;;;;;;;;;
Brain-Class801;9060801;U61;1930;1930;1930;1930;3;8;0;3;0;5;0;BETA;1930;2100;3100;x;;;;;;;;;;;;
Brain-Class802;9060802;U61;1930;1930;1930;1930;3;8;0;3;0;5;0;BETA;1930;2100;3100;x;;;;;;;;;;;;
Brain-Class803;9060803;U61;1930;1930;1930;1930;3;8;0;3;0;5;0;BETA;1930;2100;3100;x;;;;;;;;;;;;
Brain-Class804;9060804;U61;1930;1930;1930;1930;3;8;0;3;0;5;0;BETA;1930;2100;3100;x;;;;;;;;;;;;
Brain-Class805;9060805;U61;1930;1930;1930;1930;3;8;0;3;0;5;0;BETA;1930;2100;3100;x;;;;;;;;;;;;
Brain-Class806;9060806;U61;1930;1930;1930;1930;3;8;0;3;0;5;0;BETA;1930;2100;3100;x;;;;;;;;;;;;
Brain-Class807;9060807;U61;1930;1930;1930;1930;3;8;0;3;0;5;0;BETA;1930;2100;3100;x;;;;;;;;;;;;
Brain-Class808;9060808;U61;1930;1930;1930;1930;3;8;0;3;0;5;0;BETA;1930;2100;3100;x;;;;;;;;;;;;
Brain-Class809;9060809;U61;1930;1930;1930;1930;3;8;0;3;0;5;0;BETA;1930;2100;3100;x;;;;;;;;;;;;
Brain-Class810;9060810;U61;1930;1930;1930;1930;3;8;0;3;0;5;0;BETA;1930;2100;3100;x;;;;;;;;;;;;
Brain-Class811;9060811;U61;1930;1930;1930;1930;3;8;0;3;0;5;0;BETA;1930;2100;3100;x;;;;;;;;;;;;
Brain-Class812;9060812;U61;1930;1930;1930;1930;3;8;0;3;0;5;0;BETA;1930;2100;3100;x;;;;;;;;;;;;
Brain-Class813;9060813;U61;1930;1930;1930;1930;3;8;0;3;0;5;0;BETA;1930;2100;3100;x;;;;;;;;;;;;
Brain-Class814;9060814;U61;1930;1930;1930;1930;3;8;0;3;0;5;0;BETA;1930;2100;3100;x;;;;;;;;;;;;
Brain-Class815;9060815;U61;1930;1930;1930;1930;3;8;0;3;0;5;0;BETA;1930;2100;3100;x;;;;;;;;;;;;
Brain-Class816;9060816;U61;1930;1930;1930;1930;3;8;0;3;0;5;0;BETA;1930;2100;3100;x;;;;;;;;;;;;
Brain-Class817;9060817;U61;1930;1930;1930;1930;3;8;0;3;0;5;0;BETA;1930;2100;3100;x;;;;;;;;;;;;
Brain-Class818;9060818;U61;1930;1930;1930;1930;3;8;0;3;0;5;0;BETA;1930;2100;3100;x;;;;;;;;;;;;
Brain-Class819;9060819;U61;1930;1930;1930;1930;3;8;0;3;0;5;0;BETA;1930;2100;3100;x;;;;;;;;;;;;
Brain-Class820;9060820;U61;1930;1930;1930;1930;3;8;0;3;0;5;0;BETA;1930;2100;3100;x;;;;;;;;;;;;
Brain-Class821;9060821;U61;1930;1930;1930;1930;3;8;0;3;0;5;0;BETA;1930;2100;3100;x;;;;;;;;;;;;
Brain-Class822;9060822;U61;1930;1930;1930;1930;3;8;0;3;0;5;0;BETA;1930;2100;3100;x;;;;;;;;;;;;
Brain-Class823;9060823;U61;1930;1930;1930;1930;3;8;0;3;0;5;0;BETA;1930;2100;3100;x;;;;;;;;;;;;
Brain-Class824;9060824;U61;1930;1930;1930;1930;3;8;0;3;0;5;0;BETA;1930;2100;3100;x;;;;;;;;;;;;
Brain-Class825;9060825;U61;1930;1930;1930;1930;3;8;0;3;0;5;0;BETA;1930;2100;3100;x;;;;;;;;;;;;
Brain-Class826;9060826;U61;1930;1930;1930;1930;3;8;0;3;0;5;0;BETA;1930;2100;3100;x;;;;;;;;;;;;
Brain-Class827;9060827;U61;1930;1930;1930;1930;3;8;0;3;0;5;0;BETA;1930;2100;3100;x;;;;;;;;;;;;
Brain-Class828;9060828;U61;1930;1930;1930;1930;3;8;0;3;0;5;0;BETA;1930;2100;3100;x;;;;;;;;;;;;
Brain-Class829;9060829;U61;1930;1930;1930;1930;3;8;0;3;0;5;0;BETA;1930;2100;3100;x;;;;;;;;;;;;
Brain-Class830;9060830;U61;1930;1930;1930;1930;3;8;0;3;0;5;0;BETA;1930;2100;3100;x;;;;;;;;;;;;
Brain-Class831;9060831;U61;1930;1930;1930;1930;3;8;0;3;0;5;0;BETA;1930;2100;3100;x;;;;;;;;;;;;
Brain-Class832;9060832;U61;1930;1930;1930;1930;3;8;0;3;0;5;0;BETA;1930;2100;3100;x;;;;;;;;;;;;
Brain-Class833;9060833;U61;1930;1930;1930;1930;3;8;0;3;0;5;0;BETA;1930;2100;3100;x;;;;;;;;;;;;
Brain-Class834;9060834;U61;1930;1930;1930;1930;3;8;0;3;0;5;0;BETA;1930;2100;3100;x;;;;;;;;;;;;
Brain-Class835;9060835;U61;1930;1930;1930;1930;3;8;0;3;0;5;0;BETA;1930;2100;3100;x;;;;;;;;;;;;
Brain-Class836;9060836;U61;1930;1930;1930;1930;3;8;0;3;0;5;0;BETA;1930;2100;3100;x;;;;;;;;;;;;
Brain-Class837;9060837;U61;1930;1930;1930;1930;3;8;0;3;0;5;0;BETA;1930;2100;3100;x;;;;;;;;;;;;
Brain-Class838;9060838;U61;1930;1930;1930;1930;3;8;0;3;0;5;0;BETA;1930;2100;3100;x;;;;;;;;;;;;
Brain-Class839;9060839;U61;1930;1930;1930;1930;3;8;0;3;0;5;0;BETA;1930;2100;3100;x;;;;;;;;;;;;
Brain-Class840;9060840;U61;1930;1930;1930;1930;3;8;0;3;0;5;0;BETA;1930;2100;3100;x;;;;;;;;;;;;
Brain-Class841;9060841;U61;1930;1930;1930;1930;3;8;0;3;0;5;0;BETA;1930;2100;3100;x;;;;;;;;;;;;
Brain-Class842;9060842;U61;1930;1930;1930;1930;3;8;0;3;0;5;0;BETA;1930;2100;3100;x;;;;;;;;;;;;
Brain-Class843;9060843;U61;1930;1930;1930;1930;3;8;0;3;0;5;0;BETA;1930;2100;3100;x;;;;;;;;;;;;
Brain-Class844;9060844;U61;1930;1930;1930;1930;3;8;0;3;0;5;0;BETA;1930;2100;3100;x;;;;;;;;;;;;
Brain-Class845;9060845;U61;1930;1930;1930;1930;3;8;0;3;0;5;0;BETA;1930;2100;3100;x;;;;;;;;;;;;
Brain-Class846;9060846;U61;1930;1930;1930;1930;3;8;0;3;0;5;0;BETA;1930;2100;3100;x;;;;;;;;;;;;
Brain-Class847;9060847;U61;1930;1930;1930;1930;3;8;0;3;0;5;0;BETA;1930;2100;3100;x;;;;;;;;;;;;
Brain-Class848;9060848;U61;1930;1930;1930;1930;3;8;0;3;0;5;0;BETA;1930;2100;3100;x;;;;;;;;;;;;
Brain-Class849;9060849;U61;1930;1930;1930;1930;3;8;0;3;0;5;0;BETA;1930;2100;3100;x;;;;;;;;;;;;
Brain-Class850;9060850;U61;1930;1930;1930;1930;3;8;0;3;0;5;0;BETA;1930;2100;3100;x;;;;;;;;;;;;
Brain-Class851;9060851;U61;1930;1930;1930;1930;3;8;0;3;0;5;0;BETA;1930;2100;3100;x;;;;;;;;;;;;
Brain-Class852;9060852;U61;1930;1930;1930;1930;3;8;0;3;0;5;0;BETA;1930;2100;3100;x;;;;;;;;;;;;
Brain-Class853;9060853;U61;1930;1930;1930;1930;3;8;0;3;0;5;0;BETA;1930;2100;3100;x;;;;;;;;;;;;
Brain-Class854;9060854;U61;1930;1930;1930;1930;3;8;0;3;0;5;0;BETA;1930;2100;3100;x;;;;;;;;;;;;
Brain-Class855;9060855;U61;1930;1930;1930;1930;3;8;0;3;0;5;0;BETA;1930;2100;3100;x;;;;;;;;;;;;
Brain-Class856;9060856;U61;1930;1930;1930;1930;3;8;0;3;0;5;0;BETA;1930;2100;3100;x;;;;;;;;;;;;
Brain-Class857;9060857;U61;1930;1930;1930;1930;3;8;0;3;0;5;0;BETA;1930;2100;3100;x;;;;;;;;;;;;
Brain-Class858;9060858;U61;1930;1930;1930;1930;3;8;0;3;0;5;0;BETA;1930;2100;3100;x;;;;;;;;;;;;
Brain-Class859;9060859;U61;1930;1930;1930;1930;3;8;0;3;0;5;0;BETA;1930;2100;3100;x;;;;;;;;;;;;
Brain-Class860;9060860;U61;1930;1930;1930;1930;3;8;0;3;0;5;0;BETA;1930;2100;3100;x;;;;;;;;;;;;
Brain-Class861;9060861;U61;1930;1930;1930;1930;3;8;0;3;0;5;0;BETA;1930;2100;3100;x;;;;;;;;;;;;
Brain-Class862;9060862;U61;1930;1930;1930;1930;3;8;0;3;0;5;0;BETA;1930;2100;3100;x;;;;;;;;;;;;
Brain-Class863;9060863;U61;1930;1930;1930;1930;3;8;0;3;0;5;0;BETA;1930;2100;3100;x;;;;;;;;;;;;
Brain-Class864;9060864;U61;1930;1930;1930;1930;3;8;0;3;0;5;0;BETA;1930;2100;3100;x;;;;;;;;;;;;
Brain-Class865;9060865;U61;1930;1930;1930;1930;3;8;0;3;0;5;0;BETA;1930;2100;3100;x;;;;;;;;;;;;
Brain-Class866;9060866;U61;1930;1930;1930;1930;3;8;0;3;0;5;0;BETA;1930;2100;3100;x;;;;;;;;;;;;
Brain-Class867;9060867;U61;1930;1930;1930;1930;3;8;0;3;0;5;0;BETA;1930;2100;3100;x;;;;;;;;;;;;
Brain-Class868;9060868;U61;1930;1930;1930;1930;3;8;0;3;0;5;0;BETA;1930;2100;3100;x;;;;;;;;;;;;
Brain-Class869;9060869;U61;1930;1930;1930;1930;3;8;0;3;0;5;0;BETA;1930;2100;3100;x;;;;;;;;;;;;
Brain-Class870;9060870;U61;1930;1930;1930;1930;3;8;0;3;0;5;0;BETA;1930;2100;3100;x;;;;;;;;;;;;
Brain-Class871;9060871;U61;1930;1930;1930;1930;3;8;0;3;0;5;0;BETA;1930;2100;3100;x;;;;;;;;;;;;
Brain-Class872;9060872;U61;1930;1930;1930;1930;3;8;0;3;0;5;0;BETA;1930;2100;3100;x;;;;;;;;;;;;
Brain-Class873;9060873;U61;1930;1930;1930;1930;3;8;0;3;0;5;0;BETA;1930;2100;3100;x;;;;;;;;;;;;
Brain-Class874;9060874;U61;1930;1930;1930;1930;3;8;0;3;0;5;0;BETA;1930;2100;3100;x;;;;;;;;;;;;
Brain-Class875;9060875;U61;1930;1930;1930;1930;3;8;0;3;0;5;0;BETA;1930;2100;3100;x;;;;;;;;;;;;
Brain-Class876;9060876;U61;1930;1930;1930;1930;3;8;0;3;0;5;0;BETA;1930;2100;3100;x;;;;;;;;;;;;
Brain-Class877;9060877;U61;1930;1930;1930;1930;3;8;0;3;0;5;0;BETA;1930;2100;3100;x;;;;;;;;;;;;
Brain-Class878;9060878;U61;1930;1930;1930;1930;3;8;0;3;0;5;0;BETA;1930;2100;3100;x;;;;;;;;;;;;
Brain-Class879;9060879;U61;1930;1930;1930;1930;3;8;0;3;0;5;0;BETA;1930;2100;3100;x;;;;;;;;;;;;
Brain-Class880;9060880;U61;1930;1930;1930;1930;3;8;0;3;0;5;0;BETA;1930;2100;3100;x;;;;;;;;;;;;
Brain-Class881;9060881;U61;1930;1930;1930;1930;3;8;0;3;0;5;0;BETA;1930;2100;3100;x;;;;;;;;;;;;
Brain-Class882;9060882;U61;1930;1930;1930;1930;3;8;0;3;0;5;0;BETA;1930;2100;3100;x;;;;;;;;;;;;
Brain-Class883;9060883;U61;1930;1930;1930;1930;3;8;0;3;0;5;0;BETA;1930;2100;3100;x;;;;;;;;;;;;
Brain-Class884;9060884;U61;1930;1930;1930;1930;3;8;0;3;0;5;0;BETA;1930;2100;3100;x;;;;;;;;;;;;
Brain-Class885;9060885;U61;1930;1930;1930;1930;3;8;0;3;0;5;0;BETA;1930;2100;3100;x;;;;;;;;;;;;
Brain-Class886;9060886;U61;1930;1930;1930;1930;3;8;0;3;0;5;0;BETA;1930;2100;3100;x;;;;;;;;;;;;
Brain-Class887;9060887;U61;1930;1930;1930;1930;3;8;0;3;0;5;0;BETA;1930;2100;3100;x;;;;;;;;;;;;
Brain-Class888;9060888;U61;1930;1930;1930;1930;3;8;0;3;0;5;0;BETA;1930;2100;3100;x;;;;;;;;;;;;
Brain-Class889;9060889;U61;1930;1930;1930;1930;3;8;0;3;0;5;0;BETA;1930;2100;3100;x;;;;;;;;;;;;
Brain-Class890;9060890;U61;1930;1930;1930;1930;3;8;0;3;0;5;0;BETA;1930;2100;3100;x;;;;;;;;;;;;
Brain-Class891;9060891;U61;1930;1930;1930;1930;3;8;0;3;0;5;0;BETA;1930;2100;3100;x;;;;;;;;;;;;
Brain-Class892;9060892;U61;1930;1930;1930;1930;3;8;0;3;0;5;0;BETA;1930;2100;3100;x;;;;;;;;;;;;
Brain-Class893;9060893;U61;1930;1930;1930;1930;3;8;0;3;0;5;0;BETA;1930;2100;3100;x;;;;;;;;;;;;
Brain-Class894;9060894;U61;1930;1930;1930;1930;3;8;0;3;0;5;0;BETA;1930;2100;3100;x;;;;;;;;;;;;
Brain-Class895;9060895;U61;1930;1930;1930;1930;3;8;0;3;0;5;0;BETA;1930;2100;3100;x;;;;;;;;;;;;
Brain-Class896;9060896;U61;1930;1930;1930;1930;3;8;0;3;0;5;0;BETA;1930;2100;3100;x;;;;;;;;;;;;
Brain-Class897;9060897;U61;1930;1930;1930;1930;3;8;0;3;0;5;0;BETA;1930;2100;3100;x;;;;;;;;;;;;
Brain-Class898;9060898;U61;1930;1930;1930;1930;3;8;0;3;0;5;0;BETA;1930;2100;3100;x;;;;;;;;;;;;
Brain-Class899;9060899;U61;1930;1930;1930;1930;3;8;0;3;0;5;0;BETA;1930;2100;3100;x;;;;;;;;;;;;
Brain-Class900;9060900;U61;1930;1930;1930;1930;3;8;0;3;0;5;0;BETA;1930;2100;3100;x;;;;;;;;;;;;
Brain-Class901;9060901;U61;1930;1930;1930;1930;3;8;0;3;0;5;0;BETA;1930;2100;3100;x;;;;;;;;;;;;
Brain-Class902;9060902;U61;1930;1930;1930;1930;3;8;0;3;0;5;0;BETA;1930;2100;3100;x;;;;;;;;;;;;
Brain-Class903;9060903;U61;1930;1930;1930;1930;3;8;0;3;0;5;0;BETA;1930;2100;3100;x;;;;;;;;;;;;
Brain-Class904;9060904;U61;1930;1930;1930;1930;3;8;0;3;0;5;0;BETA;1930;2100;3100;x;;;;;;;;;;;;
Brain-Class905;9060905;U61;1930;1930;1930;1930;3;8;0;3;0;5;0;BETA;1930;2100;3100;x;;;;;;;;;;;;
Brain-Class906;9060906;U61;1930;1930;1930;1930;3;8;0;3;0;5;0;BETA;1930;2100;3100;x;;;;;;;;;;;;
Brain-Class907;9060907;U61;1930;1930;1930;1930;3;8;0;3;0;5;0;BETA;1930;2100;3100;x;;;;;;;;;;;;
Brain-Class908;9060908;U61;1930;1930;1930;1930;3;8;0;3;0;5;0;BETA;1930;2100;3100;x;;;;;;;;;;;;
Brain-Class909;9060909;U61;1930;1930;1930;1930;3;8;0;3;0;5;0;BETA;1930;2100;3100;x;;;;;;;;;;;;
Brain-Class910;9060910;U61;1930;1930;1930;1930;3;8;0;3;0;5;0;BETA;1930;2100;3100;x;;;;;;;;;;;;
Brain-Class911;9060911;U61;1930;1930;1930;1930;3;8;0;3;0;5;0;BETA;1930;2100;3100;x;;;;;;;;;;;;
Brain-Class912;9060912;U61;1930;1930;1930;1930;3;8;0;3;0;5;0;BETA;1930;2100;3100;x;;;;;;;;;;;;
Brain-Class913;9060913;U61;1930;1930;1930;1930;3;8;0;3;0;5;0;BETA;1930;2100;3100;x;;;;;;;;;;;;
Brain-Class914;9060914;U61;1930;1930;1930;1930;3;8;0;3;0;5;0;BETA;1930;2100;3100;x;;;;;;;;;;;;
Brain-Class915;9060915;U61;1930;1930;1930;1930;3;8;0;3;0;5;0;BETA;1930;2100;3100;x;;;;;;;;;;;;
Brain-Class916;9060916;U61;1930;1930;1930;1930;3;8;0;3;0;5;0;BETA;1930;2100;3100;x;;;;;;;;;;;;
Brain-Class917;9060917;U61;1930;1930;1930;1930;3;8;0;3;0;5;0;BETA;1930;2100;3100;x;;;;;;;;;;;;
Brain-Class918;9060918;U61;1930;1930;1930;1930;3;8;0;3;0;5;0;BETA;1930;2100;3100;x;;;;;;;;;;;;
Brain-Class919;9060919;U61;1930;1930;1930;1930;3;8;0;3;0;5;0;BETA;1930;2100;3100;x;;;;;;;;;;;;
Brain-Class920;9060920;U61;1930;1930;1930;1930;3;8;0;3;0;5;0;BETA;1930;2100;3100;x;;;;;;;;;;;;
Brain-Class921;9060921;U61;1930;1930;1930;1930;3;8;0;3;0;5;0;BETA;1930;2100;3100;x;;;;;;;;;;;;
Brain-Class922;9060922;U61;1930;1930;1930;1930;3;8;0;3;0;5;0;BETA;1930;2100;3100;x;;;;;;;;;;;;
Brain-Class923;9060923;U61;1930;1930;1930;1930;3;8;0;3;0;5;0;BETA;1930;2100;3100;x;;;;;;;;;;;;
Brain-Class924;9060924;U61;1930;1930;1930;1930;3;8;0;3;0;5;0;BETA;1930;2100;3100;x;;;;;;;;;;;;
Brain-Class925;9060925;U61;1930;1930;1930;1930;3;8;0;3;0;5;0;BETA;1930;2100;3100;x;;;;;;;;;;;;
Brain-Class926;9060926;U61;1930;1930;1930;1930;3;8;0;3;0;5;0;BETA;1930;2100;3100;x;;;;;;;;;;;;
Brain-Class927;9060927;U61;1930;1930;1930;1930;3;8;0;3;0;5;0;BETA;1930;2100;3100;x;;;;;;;;;;;;
Brain-Class928;9060928;U61;1930;1930;1930;1930;3;8;0;3;0;5;0;BETA;1930;2100;3100;x;;;;;;;;;;;;
Brain-Class929;9060929;U61;1930;1930;1930;1930;3;8;0;3;0;5;0;BETA;1930;2100;3100;x;;;;;;;;;;;;
Brain-Class930;9060930;U61;1930;1930;1930;1930;3;8;0;3;0;5;0;BETA;1930;2100;3100;x;;;;;;;;;;;;
Brain-Class931;9060931;U61;1930;1930;1930;1930;3;8;0;3;0;5;0;BETA;1930;2100;3100;x;;;;;;;;;;;;
Brain-Class932;9060932;U61;1930;1930;1930;1930;3;8;0;3;0;5;0;BETA;1930;2100;3100;x;;;;;;;;;;;;
Brain-Class933;9060933;U61;1930;1930;1930;1930;3;8;0;3;0;5;0;BETA;1930;2100;3100;x;;;;;;;;;;;;
Brain-Class934;9060934;U61;1930;1930;1930;1930;3;8;0;3;0;5;0;BETA;1930;2100;3100;x;;;;;;;;;;;;
Brain-Class935;9060935;U61;1930;1930;1930;1930;3;8;0;3;0;5;0;BETA;1930;2100;3100;x;;;;;;;;;;;;
Brain-Class936;9060936;U61;1930;1930;1930;1930;3;8;0;3;0;5;0;BETA;1930;2100;3100;x;;;;;;;;;;;;
Brain-Class937;9060937;U61;1930;1930;1930;1930;3;8;0;3;0;5;0;BETA;1930;2100;3100;x;;;;;;;;;;;;
Brain-Class938;9060938;U61;1930;1930;1930;1930;3;8;0;3;0;5;0;BETA;1930;2100;3100;x;;;;;;;;;;;;
Brain-Class939;9060939;U61;1930;1930;1930;1930;3;8;0;3;0;5;0;BETA;1930;2100;3100;x;;;;;;;;;;;;
Brain-Class940;9060940;U61;1930;1930;1930;1930;3;8;0;3;0;5;0;BETA;1930;2100;3100;x;;;;;;;;;;;;
Brain-Class941;9060941;U61;1930;1930;1930;1930;3;8;0;3;0;5;0;BETA;1930;2100;3100;x;;;;;;;;;;;;
Brain-Class942;9060942;U61;1930;1930;1930;1930;3;8;0;3;0;5;0;BETA;1930;2100;3100;x;;;;;;;;;;;;
Brain-Class943;9060943;U61;1930;1930;1930;1930;3;8;0;3;0;5;0;BETA;1930;2100;3100;x;;;;;;;;;;;;
Brain-Class944;9060944;U61;1930;1930;1930;1930;3;8;0;3;0;5;0;BETA;1930;2100;3100;x;;;;;;;;;;;;
Brain-Class945;9060945;U61;1930;1930;1930;1930;3;8;0;3;0;5;0;BETA;1930;2100;3100;x;;;;;;;;;;;;
Brain-Class946;9060946;U61;1930;1930;1930;1930;3;8;0;3;0;5;0;BETA;1930;2100;3100;x;;;;;;;;;;;;
Brain-Class947;9060947;U61;1930;1930;1930;1930;3;8;0;3;0;5;0;BETA;1930;2100;3100;x;;;;;;;;;;;;
Brain-Class948;9060948;U61;1930;1930;1930;1930;3;8;0;3;0;5;0;BETA;1930;2100;3100;x;;;;;;;;;;;;
Brain-Class949;9060949;U61;1930;1930;1930;1930;3;8;0;3;0;5;0;BETA;1930;2100;3100;x;;;;;;;;;;;;
Brain-Class950;9060950;U61;1930;1930;1930;1930;3;8;0;3;0;5;0;BETA;1930;2100;3100;x;;;;;;;;;;;;
Brain-Class951;9060951;U61;1930;1930;1930;1930;3;8;0;3;0;5;0;BETA;1930;2100;3100;x;;;;;;;;;;;;
Brain-Class952;9060952;U61;1930;1930;1930;1930;3;8;0;3;0;5;0;BETA;1930;2100;3100;x;;;;;;;;;;;;
Brain-Class953;9060953;U61;1930;1930;1930;1930;3;8;0;3;0;5;0;BETA;1930;2100;3100;x;;;;;;;;;;;;
Brain-Class954;9060954;U61;1930;1930;1930;1930;3;8;0;3;0;5;0;BETA;1930;2100;3100;x;;;;;;;;;;;;
Brain-Class955;9060955;U61;1930;1930;1930;1930;3;8;0;3;0;5;0;BETA;1930;2100;3100;x;;;;;;;;;;;;
Brain-Class956;9060956;U61;1930;1930;1930;1930;3;8;0;3;0;5;0;BETA;1930;2100;3100;x;;;;;;;;;;;;
Brain-Class957;9060957;U61;1930;1930;1930;1930;3;8;0;3;0;5;0;BETA;1930;2100;3100;x;;;;;;;;;;;;
Brain-Class958;9060958;U61;1930;1930;1930;1930;3;8;0;3;0;5;0;BETA;1930;2100;3100;x;;;;;;;;;;;;
Brain-Class959;9060959;U61;1930;1930;1930;1930;3;8;0;3;0;5;0;BETA;1930;2100;3100;x;;;;;;;;;;;;
Brain-Class960;9060960;U61;1930;1930;1930;1930;3;8;0;3;0;5;0;BETA;1930;2100;3100;x;;;;;;;;;;;;
Brain-Class961;9060961;U61;1930;1930;1930;1930;3;8;0;3;0;5;0;BETA;1930;2100;3100;x;;;;;;;;;;;;
Brain-Class962;9060962;U61;1930;1930;1930;1930;3;8;0;3;0;5;0;BETA;1930;2100;3100;x;;;;;;;;;;;;
Brain-Class963;9060963;U61;1930;1930;1930;1930;3;8;0;3;0;5;0;BETA;1930;2100;3100;x;;;;;;;;;;;;
Brain-Class964;9060964;U61;1930;1930;1930;1930;3;8;0;3;0;5;0;BETA;1930;2100;3100;x;;;;;;;;;;;;
Brain-Class965;9060965;U61;1930;1930;1930;1930;3;8;0;3;0;5;0;BETA;1930;2100;3100;x;;;;;;;;;;;;
Brain-Class966;9060966;U61;1930;1930;1930;1930;3;8;0;3;0;5;0;BETA;1930;2100;3100;x;;;;;;;;;;;;
Brain-Class967;9060967;U61;1930;1930;1930;1930;3;8;0;3;0;5;0;BETA;1930;2100;3100;x;;;;;;;;;;;;
Brain-Class968;9060968;U61;1930;1930;1930;1930;3;8;0;3;0;5;0;BETA;1930;2100;3100;x;;;;;;;;;;;;
Brain-Class969;9060969;U61;1930;1930;1930;1930;3;8;0;3;0;5;0;BETA;1930;2100;3100;x;;;;;;;;;;;;
Brain-Class970;9060970;U61;1930;1930;1930;1930;3;8;0;3;0;5;0;BETA;1930;2100;3100;x;;;;;;;;;;;;
Brain-Class971;9060971;U61;1930;1930;1930;1930;3;8;0;3;0;5;0;BETA;1930;2100;3100;x;;;;;;;;;;;;
Brain-Class972;9060972;U61;1930;1930;1930;1930;3;8;0;3;0;5;0;BETA;1930;2100;3100;x;;;;;;;;;;;;
Brain-Class973;9060973;U61;1930;1930;1930;1930;3;8;0;3;0;5;0;BETA;1930;2100;3100;x;;;;;;;;;;;;
Brain-Class974;9060974;U61;1930;1930;1930;1930;3;8;0;3;0;5;0;BETA;1930;2100;3100;x;;;;;;;;;;;;
Brain-Class975;9060975;U61;1930;1930;1930;1930;3;8;0;3;0;5;0;BETA;1930;2100;3100;x;;;;;;;;;;;;
Brain-Class976;9060976;U61;1930;1930;1930;1930;3;8;0;3;0;5;0;BETA;1930;2100;3100;x;;;;;;;;;;;;
Brain-Class977;9060977;U61;1930;1930;1930;1930;3;8;0;3;0;5;0;BETA;1930;2100;3100;x;;;;;;;;;;;;
Brain-Class978;9060978;U61;1930;1930;1930;1930;3;8;0;3;0;5;0;BETA;1930;2100;3100;x;;;;;;;;;;;;
Brain-Class979;9060979;U61;1930;1930;1930;1930;3;8;0;3;0;5;0;BETA;1930;2100;3100;x;;;;;;;;;;;;
Brain-Class980;9060980;U61;1930;1930;1930;1930;3;8;0;3;0;5;0;BETA;1930;2100;3100;x;;;;;;;;;;;;
Brain-Class981;9060981;U61;1930;1930;1930;1930;3;8;0;3;0;5;0;BETA;1930;2100;3100;x;;;;;;;;;;;;
Brain-Class982;9060982;U61;1930;1930;1930;1930;3;8;0;3;0;5;0;BETA;1930;2100;3100;x;;;;;;;;;;;;
Brain-Class983;9060983;U61;1930;1930;1930;1930;3;8;0;3;0;5;0;BETA;1930;2100;3100;x;;;;;;;;;;;;
Brain-Class984;9060984;U61;1930;1930;1930;1930;3;8;0;3;0;5;0;BETA;1930;2100;3100;x;;;;;;;;;;;;
Brain-Class985;9060985;U61;1930;1930;1930;1930;3;8;0;3;0;5;0;BETA;1930;2100;3100;x;;;;;;;;;;;;
Brain-Class986;9060986;U61;1930;1930;1930;1930;3;8;0;3;0;5;0;BETA;1930;2100;3100;x;;;;;;;;;;;;
Brain-Class987;9060987;U61;1930;1930;1930;1930;3;8;0;3;0;5;0;BETA;1930;2100;3100;x;;;;;;;;;;;;
Brain-Class988;9060988;U61;1930;1930;1930;1930;3;8;0;3;0;5;0;BETA;1930;2100;3100;x;;;;;;;;;;;;
Brain-Class989;9060989;U61;1930;1930;1930;1930;3;8;0;3;0;5;0;BETA;1930;2100;3100;x;;;;;;;;;;;;
Brain-Class990;9060990;U61;1930;1930;1930;1930;3;8;0;3;0;5;0;BETA;1930;2100;3100;x;;;;;;;;;;;;
Brain-Class991;9060991;U61;1930;1930;1930;1930;3;8;0;3;0;5;0;BETA;1930;2100;3100;x;;;;;;;;;;;;
Brain-Class992;9060992;U61;1930;1930;1930;1930;3;8;0;3;0;5;0;BETA;1930;2100;3100;x;;;;;;;;;;;;
Brain-Class993;9060993;U61;1930;1930;1930;1930;3;8;0;3;0;5;0;BETA;1930;2100;3100;x;;;;;;;;;;;;
Brain-Class994;9060994;U61;1930;1930;1930;1930;3;8;0;3;0;5;0;BETA;1930;2100;3100;x;;;;;;;;;;;;
Brain-Class995;9060995;U61;1930;1930;1930;1930;3;8;0;3;0;5;0;BETA;1930;2100;3100;x;;;;;;;;;;;;
Brain-Class996;9060996;U61;1930;1930;1930;1930;3;8;0;3;0;5;0;BETA;1930;2100;3100;x;;;;;;;;;;;;
Brain-Class997;9060997;U61;1930;1930;1930;1930;3;8;0;3;0;5;0;BETA;1930;2100;3100;x;;;;;;;;;;;;
Brain-Class998;9060998;U61;1930;1930;1930;1930;3;8;0;3;0;5;0;BETA;1930;2100;3100;x;;;;;;;;;;;;
Brain-Class999;9060999;U61;1930;1930;1930;1930;3;8;0;3;0;5;0;BETA;1930;2100;3100;x;;;;;;;;;;;;
Brain-Class1000;9061000;U61;1930;1930;1930;1930;3;8;0;3;0;5;0;BETA;1930;2100;3100;x;;;;;;;;;;;;
