Name;ID;Country;Rank;3;Year;Rank;2;Year;Rank;1;Year;Rank;0;Year;Ideal;Rank;;Max;Skill;Traits;Skill;Experience;Loyalty;Type;Picture;Start;Year;End;Year;x
Brain-Class001;9080001;U81;1930;1930;1930;1930;3;8;0;3;0;5;0;BETA;1930;2100;3000;x;;;;;;;;;;;;
Brain-Class002;9080002;U81;1930;1930;1930;1930;3;8;0;3;0;5;0;BETA;1930;2100;3000;x;;;;;;;;;;;;
Brain-Class003;9080003;U81;1930;1930;1930;1930;3;8;0;3;0;5;0;BETA;1930;2100;3000;x;;;;;;;;;;;;
Brain-Class004;9080004;U81;1930;1930;1930;1930;3;8;0;3;0;5;0;BETA;1930;2100;3000;x;;;;;;;;;;;;
Brain-Class005;9080005;U81;1930;1930;1930;1930;3;8;0;3;0;5;0;BETA;1930;2100;3000;x;;;;;;;;;;;;
Brain-Class006;9080006;U81;1930;1930;1930;1930;3;8;0;3;0;5;0;BETA;1930;2100;3000;x;;;;;;;;;;;;
Brain-Class007;9080007;U81;1930;1930;1930;1930;3;8;0;3;0;5;0;BETA;1930;2100;3000;x;;;;;;;;;;;;
Brain-Class008;9080008;U81;1930;1930;1930;1930;3;8;0;3;0;5;0;BETA;1930;2100;3000;x;;;;;;;;;;;;
Brain-Class009;9080009;U81;1930;1930;1930;1930;3;8;0;3;0;5;0;BETA;1930;2100;3000;x;;;;;;;;;;;;
Brain-Class010;9080010;U81;1930;1930;1930;1930;3;8;0;3;0;5;0;BETA;1930;2100;3000;x;;;;;;;;;;;;
Brain-Class011;9080011;U81;1930;1930;1930;1930;3;8;0;3;0;5;0;BETA;1930;2100;3000;x;;;;;;;;;;;;
Brain-Class012;9080012;U81;1930;1930;1930;1930;3;8;0;3;0;5;0;BETA;1930;2100;3000;x;;;;;;;;;;;;
Brain-Class013;9080013;U81;1930;1930;1930;1930;3;8;0;3;0;5;0;BETA;1930;2100;3000;x;;;;;;;;;;;;
Brain-Class014;9080014;U81;1930;1930;1930;1930;3;8;0;3;0;5;0;BETA;1930;2100;3000;x;;;;;;;;;;;;
Brain-Class015;9080015;U81;1930;1930;1930;1930;3;8;0;3;0;5;0;BETA;1930;2100;3000;x;;;;;;;;;;;;
Brain-Class016;9080016;U81;1930;1930;1930;1930;3;8;0;3;0;5;0;BETA;1930;2100;3000;x;;;;;;;;;;;;
Brain-Class017;9080017;U81;1930;1930;1930;1930;3;8;0;3;0;5;0;BETA;1930;2100;3000;x;;;;;;;;;;;;
Brain-Class018;9080018;U81;1930;1930;1930;1930;3;8;0;3;0;5;0;BETA;1930;2100;3000;x;;;;;;;;;;;;
Brain-Class019;9080019;U81;1930;1930;1930;1930;3;8;0;3;0;5;0;BETA;1930;2100;3000;x;;;;;;;;;;;;
Brain-Class020;9080020;U81;1930;1930;1930;1930;3;8;0;3;0;5;0;BETA;1930;2100;3000;x;;;;;;;;;;;;
Brain-Class021;9080021;U81;1930;1930;1930;1930;3;8;0;3;0;5;0;BETA;1930;2100;3000;x;;;;;;;;;;;;
Brain-Class022;9080022;U81;1930;1930;1930;1930;3;8;0;3;0;5;0;BETA;1930;2100;3000;x;;;;;;;;;;;;
Brain-Class023;9080023;U81;1930;1930;1930;1930;3;8;0;3;0;5;0;BETA;1930;2100;3000;x;;;;;;;;;;;;
Brain-Class024;9080024;U81;1930;1930;1930;1930;3;8;0;3;0;5;0;BETA;1930;2100;3000;x;;;;;;;;;;;;
Brain-Class025;9080025;U81;1930;1930;1930;1930;3;8;0;3;0;5;0;BETA;1930;2100;3000;x;;;;;;;;;;;;
Brain-Class026;9080026;U81;1930;1930;1930;1930;3;8;0;3;0;5;0;BETA;1930;2100;3000;x;;;;;;;;;;;;
Brain-Class027;9080027;U81;1930;1930;1930;1930;3;8;0;3;0;5;0;BETA;1930;2100;3000;x;;;;;;;;;;;;
Brain-Class028;9080028;U81;1930;1930;1930;1930;3;8;0;3;0;5;0;BETA;1930;2100;3000;x;;;;;;;;;;;;
Brain-Class029;9080029;U81;1930;1930;1930;1930;3;8;0;3;0;5;0;BETA;1930;2100;3000;x;;;;;;;;;;;;
Brain-Class030;9080030;U81;1930;1930;1930;1930;3;8;0;3;0;5;0;BETA;1930;2100;3000;x;;;;;;;;;;;;
Brain-Class031;9080031;U81;1930;1930;1930;1930;3;8;0;3;0;5;0;BETA;1930;2100;3000;x;;;;;;;;;;;;
Brain-Class032;9080032;U81;1930;1930;1930;1930;3;8;0;3;0;5;0;BETA;1930;2100;3000;x;;;;;;;;;;;;
Brain-Class033;9080033;U81;1930;1930;1930;1930;3;8;0;3;0;5;0;BETA;1930;2100;3000;x;;;;;;;;;;;;
Brain-Class034;9080034;U81;1930;1930;1930;1930;3;8;0;3;0;5;0;BETA;1930;2100;3000;x;;;;;;;;;;;;
Brain-Class035;9080035;U81;1930;1930;1930;1930;3;8;0;3;0;5;0;BETA;1930;2100;3000;x;;;;;;;;;;;;
Brain-Class036;9080036;U81;1930;1930;1930;1930;3;8;0;3;0;5;0;BETA;1930;2100;3000;x;;;;;;;;;;;;
Brain-Class037;9080037;U81;1930;1930;1930;1930;3;8;0;3;0;5;0;BETA;1930;2100;3000;x;;;;;;;;;;;;
Brain-Class038;9080038;U81;1930;1930;1930;1930;3;8;0;3;0;5;0;BETA;1930;2100;3000;x;;;;;;;;;;;;
Brain-Class039;9080039;U81;1930;1930;1930;1930;3;8;0;3;0;5;0;BETA;1930;2100;3000;x;;;;;;;;;;;;
Brain-Class040;9080040;U81;1930;1930;1930;1930;3;8;0;3;0;5;0;BETA;1930;2100;3000;x;;;;;;;;;;;;
Brain-Class041;9080041;U81;1930;1930;1930;1930;3;8;0;3;0;5;0;BETA;1930;2100;3000;x;;;;;;;;;;;;
Brain-Class042;9080042;U81;1930;1930;1930;1930;3;8;0;3;0;5;0;BETA;1930;2100;3000;x;;;;;;;;;;;;
Brain-Class043;9080043;U81;1930;1930;1930;1930;3;8;0;3;0;5;0;BETA;1930;2100;3000;x;;;;;;;;;;;;
Brain-Class044;9080044;U81;1930;1930;1930;1930;3;8;0;3;0;5;0;BETA;1930;2100;3000;x;;;;;;;;;;;;
Brain-Class045;9080045;U81;1930;1930;1930;1930;3;8;0;3;0;5;0;BETA;1930;2100;3000;x;;;;;;;;;;;;
Brain-Class046;9080046;U81;1930;1930;1930;1930;3;8;0;3;0;5;0;BETA;1930;2100;3000;x;;;;;;;;;;;;
Brain-Class047;9080047;U81;1930;1930;1930;1930;3;8;0;3;0;5;0;BETA;1930;2100;3000;x;;;;;;;;;;;;
Brain-Class048;9080048;U81;1930;1930;1930;1930;3;8;0;3;0;5;0;BETA;1930;2100;3000;x;;;;;;;;;;;;
Brain-Class049;9080049;U81;1930;1930;1930;1930;3;8;0;3;0;5;0;BETA;1930;2100;3000;x;;;;;;;;;;;;
Brain-Class050;9080050;U81;1930;1930;1930;1930;3;8;0;3;0;5;0;BETA;1930;2100;3000;x;;;;;;;;;;;;
Brain-Class051;9080051;U81;1930;1930;1930;1930;3;8;0;3;0;5;0;BETA;1930;2100;3000;x;;;;;;;;;;;;
Brain-Class052;9080052;U81;1930;1930;1930;1930;3;8;0;3;0;5;0;BETA;1930;2100;3000;x;;;;;;;;;;;;
Brain-Class053;9080053;U81;1930;1930;1930;1930;3;8;0;3;0;5;0;BETA;1930;2100;3000;x;;;;;;;;;;;;
Brain-Class054;9080054;U81;1930;1930;1930;1930;3;8;0;3;0;5;0;BETA;1930;2100;3000;x;;;;;;;;;;;;
Brain-Class055;9080055;U81;1930;1930;1930;1930;3;8;0;3;0;5;0;BETA;1930;2100;3000;x;;;;;;;;;;;;
Brain-Class056;9080056;U81;1930;1930;1930;1930;3;8;0;3;0;5;0;BETA;1930;2100;3000;x;;;;;;;;;;;;
Brain-Class057;9080057;U81;1930;1930;1930;1930;3;8;0;3;0;5;0;BETA;1930;2100;3000;x;;;;;;;;;;;;
Brain-Class058;9080058;U81;1930;1930;1930;1930;3;8;0;3;0;5;0;BETA;1930;2100;3000;x;;;;;;;;;;;;
Brain-Class059;9080059;U81;1930;1930;1930;1930;3;8;0;3;0;5;0;BETA;1930;2100;3000;x;;;;;;;;;;;;
Brain-Class060;9080060;U81;1930;1930;1930;1930;3;8;0;3;0;5;0;BETA;1930;2100;3000;x;;;;;;;;;;;;
Brain-Class061;9080061;U81;1930;1930;1930;1930;3;8;0;3;0;5;0;BETA;1930;2100;3000;x;;;;;;;;;;;;
Brain-Class062;9080062;U81;1930;1930;1930;1930;3;8;0;3;0;5;0;BETA;1930;2100;3000;x;;;;;;;;;;;;
Brain-Class063;9080063;U81;1930;1930;1930;1930;3;8;0;3;0;5;0;BETA;1930;2100;3000;x;;;;;;;;;;;;
Brain-Class064;9080064;U81;1930;1930;1930;1930;3;8;0;3;0;5;0;BETA;1930;2100;3000;x;;;;;;;;;;;;
Brain-Class065;9080065;U81;1930;1930;1930;1930;3;8;0;3;0;5;0;BETA;1930;2100;3000;x;;;;;;;;;;;;
Brain-Class066;9080066;U81;1930;1930;1930;1930;3;8;0;3;0;5;0;BETA;1930;2100;3000;x;;;;;;;;;;;;
Brain-Class067;9080067;U81;1930;1930;1930;1930;3;8;0;3;0;5;0;BETA;1930;2100;3000;x;;;;;;;;;;;;
Brain-Class068;9080068;U81;1930;1930;1930;1930;3;8;0;3;0;5;0;BETA;1930;2100;3000;x;;;;;;;;;;;;
Brain-Class069;9080069;U81;1930;1930;1930;1930;3;8;0;3;0;5;0;BETA;1930;2100;3000;x;;;;;;;;;;;;
Brain-Class070;9080070;U81;1930;1930;1930;1930;3;8;0;3;0;5;0;BETA;1930;2100;3000;x;;;;;;;;;;;;
Brain-Class071;9080071;U81;1930;1930;1930;1930;3;8;0;3;0;5;0;BETA;1930;2100;3000;x;;;;;;;;;;;;
Brain-Class072;9080072;U81;1930;1930;1930;1930;3;8;0;3;0;5;0;BETA;1930;2100;3000;x;;;;;;;;;;;;
Brain-Class073;9080073;U81;1930;1930;1930;1930;3;8;0;3;0;5;0;BETA;1930;2100;3000;x;;;;;;;;;;;;
Brain-Class074;9080074;U81;1930;1930;1930;1930;3;8;0;3;0;5;0;BETA;1930;2100;3000;x;;;;;;;;;;;;
Brain-Class075;9080075;U81;1930;1930;1930;1930;3;8;0;3;0;5;0;BETA;1930;2100;3000;x;;;;;;;;;;;;
Brain-Class076;9080076;U81;1930;1930;1930;1930;3;8;0;3;0;5;0;BETA;1930;2100;3000;x;;;;;;;;;;;;
Brain-Class077;9080077;U81;1930;1930;1930;1930;3;8;0;3;0;5;0;BETA;1930;2100;3000;x;;;;;;;;;;;;
Brain-Class078;9080078;U81;1930;1930;1930;1930;3;8;0;3;0;5;0;BETA;1930;2100;3000;x;;;;;;;;;;;;
Brain-Class079;9080079;U81;1930;1930;1930;1930;3;8;0;3;0;5;0;BETA;1930;2100;3000;x;;;;;;;;;;;;
Brain-Class080;9080080;U81;1930;1930;1930;1930;3;8;0;3;0;5;0;BETA;1930;2100;3000;x;;;;;;;;;;;;
Brain-Class081;9080081;U81;1930;1930;1930;1930;3;8;0;3;0;5;0;BETA;1930;2100;3000;x;;;;;;;;;;;;
Brain-Class082;9080082;U81;1930;1930;1930;1930;3;8;0;3;0;5;0;BETA;1930;2100;3000;x;;;;;;;;;;;;
Brain-Class083;9080083;U81;1930;1930;1930;1930;3;8;0;3;0;5;0;BETA;1930;2100;3000;x;;;;;;;;;;;;
Brain-Class084;9080084;U81;1930;1930;1930;1930;3;8;0;3;0;5;0;BETA;1930;2100;3000;x;;;;;;;;;;;;
Brain-Class085;9080085;U81;1930;1930;1930;1930;3;8;0;3;0;5;0;BETA;1930;2100;3000;x;;;;;;;;;;;;
Brain-Class086;9080086;U81;1930;1930;1930;1930;3;8;0;3;0;5;0;BETA;1930;2100;3000;x;;;;;;;;;;;;
Brain-Class087;9080087;U81;1930;1930;1930;1930;3;8;0;3;0;5;0;BETA;1930;2100;3000;x;;;;;;;;;;;;
Brain-Class088;9080088;U81;1930;1930;1930;1930;3;8;0;3;0;5;0;BETA;1930;2100;3000;x;;;;;;;;;;;;
Brain-Class089;9080089;U81;1930;1930;1930;1930;3;8;0;3;0;5;0;BETA;1930;2100;3000;x;;;;;;;;;;;;
Brain-Class090;9080090;U81;1930;1930;1930;1930;3;8;0;3;0;5;0;BETA;1930;2100;3000;x;;;;;;;;;;;;
Brain-Class091;9080091;U81;1930;1930;1930;1930;3;8;0;3;0;5;0;BETA;1930;2100;3000;x;;;;;;;;;;;;
Brain-Class092;9080092;U81;1930;1930;1930;1930;3;8;0;3;0;5;0;BETA;1930;2100;3000;x;;;;;;;;;;;;
Brain-Class093;9080093;U81;1930;1930;1930;1930;3;8;0;3;0;5;0;BETA;1930;2100;3000;x;;;;;;;;;;;;
Brain-Class094;9080094;U81;1930;1930;1930;1930;3;8;0;3;0;5;0;BETA;1930;2100;3000;x;;;;;;;;;;;;
Brain-Class095;9080095;U81;1930;1930;1930;1930;3;8;0;3;0;5;0;BETA;1930;2100;3000;x;;;;;;;;;;;;
Brain-Class096;9080096;U81;1930;1930;1930;1930;3;8;0;3;0;5;0;BETA;1930;2100;3000;x;;;;;;;;;;;;
Brain-Class097;9080097;U81;1930;1930;1930;1930;3;8;0;3;0;5;0;BETA;1930;2100;3000;x;;;;;;;;;;;;
Brain-Class098;9080098;U81;1930;1930;1930;1930;3;8;0;3;0;5;0;BETA;1930;2100;3000;x;;;;;;;;;;;;
Brain-Class099;9080099;U81;1930;1930;1930;1930;3;8;0;3;0;5;0;BETA;1930;2100;3000;x;;;;;;;;;;;;
Brain-Class100;9080100;U81;1930;1930;1930;1930;3;8;0;3;0;5;0;BETA;1930;2100;3000;x;;;;;;;;;;;;
Brain-Class101;9080101;U81;1930;1930;1930;1930;3;8;0;3;0;5;0;BETA;1930;2100;3000;x;;;;;;;;;;;;
Brain-Class102;9080102;U81;1930;1930;1930;1930;3;8;0;3;0;5;0;BETA;1930;2100;3000;x;;;;;;;;;;;;
Brain-Class103;9080103;U81;1930;1930;1930;1930;3;8;0;3;0;5;0;BETA;1930;2100;3000;x;;;;;;;;;;;;
Brain-Class104;9080104;U81;1930;1930;1930;1930;3;8;0;3;0;5;0;BETA;1930;2100;3000;x;;;;;;;;;;;;
Brain-Class105;9080105;U81;1930;1930;1930;1930;3;8;0;3;0;5;0;BETA;1930;2100;3000;x;;;;;;;;;;;;
Brain-Class106;9080106;U81;1930;1930;1930;1930;3;8;0;3;0;5;0;BETA;1930;2100;3000;x;;;;;;;;;;;;
Brain-Class107;9080107;U81;1930;1930;1930;1930;3;8;0;3;0;5;0;BETA;1930;2100;3000;x;;;;;;;;;;;;
Brain-Class108;9080108;U81;1930;1930;1930;1930;3;8;0;3;0;5;0;BETA;1930;2100;3000;x;;;;;;;;;;;;
Brain-Class109;9080109;U81;1930;1930;1930;1930;3;8;0;3;0;5;0;BETA;1930;2100;3000;x;;;;;;;;;;;;
Brain-Class110;9080110;U81;1930;1930;1930;1930;3;8;0;3;0;5;0;BETA;1930;2100;3000;x;;;;;;;;;;;;
Brain-Class111;9080111;U81;1930;1930;1930;1930;3;8;0;3;0;5;0;BETA;1930;2100;3000;x;;;;;;;;;;;;
Brain-Class112;9080112;U81;1930;1930;1930;1930;3;8;0;3;0;5;0;BETA;1930;2100;3000;x;;;;;;;;;;;;
Brain-Class113;9080113;U81;1930;1930;1930;1930;3;8;0;3;0;5;0;BETA;1930;2100;3000;x;;;;;;;;;;;;
Brain-Class114;9080114;U81;1930;1930;1930;1930;3;8;0;3;0;5;0;BETA;1930;2100;3000;x;;;;;;;;;;;;
Brain-Class115;9080115;U81;1930;1930;1930;1930;3;8;0;3;0;5;0;BETA;1930;2100;3000;x;;;;;;;;;;;;
Brain-Class116;9080116;U81;1930;1930;1930;1930;3;8;0;3;0;5;0;BETA;1930;2100;3000;x;;;;;;;;;;;;
Brain-Class117;9080117;U81;1930;1930;1930;1930;3;8;0;3;0;5;0;BETA;1930;2100;3000;x;;;;;;;;;;;;
Brain-Class118;9080118;U81;1930;1930;1930;1930;3;8;0;3;0;5;0;BETA;1930;2100;3000;x;;;;;;;;;;;;
Brain-Class119;9080119;U81;1930;1930;1930;1930;3;8;0;3;0;5;0;BETA;1930;2100;3000;x;;;;;;;;;;;;
Brain-Class120;9080120;U81;1930;1930;1930;1930;3;8;0;3;0;5;0;BETA;1930;2100;3000;x;;;;;;;;;;;;
Brain-Class121;9080121;U81;1930;1930;1930;1930;3;8;0;3;0;5;0;BETA;1930;2100;3000;x;;;;;;;;;;;;
Brain-Class122;9080122;U81;1930;1930;1930;1930;3;8;0;3;0;5;0;BETA;1930;2100;3000;x;;;;;;;;;;;;
Brain-Class123;9080123;U81;1930;1930;1930;1930;3;8;0;3;0;5;0;BETA;1930;2100;3000;x;;;;;;;;;;;;
Brain-Class124;9080124;U81;1930;1930;1930;1930;3;8;0;3;0;5;0;BETA;1930;2100;3000;x;;;;;;;;;;;;
Brain-Class125;9080125;U81;1930;1930;1930;1930;3;8;0;3;0;5;0;BETA;1930;2100;3000;x;;;;;;;;;;;;
Brain-Class126;9080126;U81;1930;1930;1930;1930;3;8;0;3;0;5;0;BETA;1930;2100;3000;x;;;;;;;;;;;;
Brain-Class127;9080127;U81;1930;1930;1930;1930;3;8;0;3;0;5;0;BETA;1930;2100;3000;x;;;;;;;;;;;;
Brain-Class128;9080128;U81;1930;1930;1930;1930;3;8;0;3;0;5;0;BETA;1930;2100;3000;x;;;;;;;;;;;;
Brain-Class129;9080129;U81;1930;1930;1930;1930;3;8;0;3;0;5;0;BETA;1930;2100;3000;x;;;;;;;;;;;;
Brain-Class130;9080130;U81;1930;1930;1930;1930;3;8;0;3;0;5;0;BETA;1930;2100;3000;x;;;;;;;;;;;;
Brain-Class131;9080131;U81;1930;1930;1930;1930;3;8;0;3;0;5;0;BETA;1930;2100;3000;x;;;;;;;;;;;;
Brain-Class132;9080132;U81;1930;1930;1930;1930;3;8;0;3;0;5;0;BETA;1930;2100;3000;x;;;;;;;;;;;;
Brain-Class133;9080133;U81;1930;1930;1930;1930;3;8;0;3;0;5;0;BETA;1930;2100;3000;x;;;;;;;;;;;;
Brain-Class134;9080134;U81;1930;1930;1930;1930;3;8;0;3;0;5;0;BETA;1930;2100;3000;x;;;;;;;;;;;;
Brain-Class135;9080135;U81;1930;1930;1930;1930;3;8;0;3;0;5;0;BETA;1930;2100;3000;x;;;;;;;;;;;;
Brain-Class136;9080136;U81;1930;1930;1930;1930;3;8;0;3;0;5;0;BETA;1930;2100;3000;x;;;;;;;;;;;;
Brain-Class137;9080137;U81;1930;1930;1930;1930;3;8;0;3;0;5;0;BETA;1930;2100;3000;x;;;;;;;;;;;;
Brain-Class138;9080138;U81;1930;1930;1930;1930;3;8;0;3;0;5;0;BETA;1930;2100;3000;x;;;;;;;;;;;;
Brain-Class139;9080139;U81;1930;1930;1930;1930;3;8;0;3;0;5;0;BETA;1930;2100;3000;x;;;;;;;;;;;;
Brain-Class140;9080140;U81;1930;1930;1930;1930;3;8;0;3;0;5;0;BETA;1930;2100;3000;x;;;;;;;;;;;;
Brain-Class141;9080141;U81;1930;1930;1930;1930;3;8;0;3;0;5;0;BETA;1930;2100;3000;x;;;;;;;;;;;;
Brain-Class142;9080142;U81;1930;1930;1930;1930;3;8;0;3;0;5;0;BETA;1930;2100;3000;x;;;;;;;;;;;;
Brain-Class143;9080143;U81;1930;1930;1930;1930;3;8;0;3;0;5;0;BETA;1930;2100;3000;x;;;;;;;;;;;;
Brain-Class144;9080144;U81;1930;1930;1930;1930;3;8;0;3;0;5;0;BETA;1930;2100;3000;x;;;;;;;;;;;;
Brain-Class145;9080145;U81;1930;1930;1930;1930;3;8;0;3;0;5;0;BETA;1930;2100;3000;x;;;;;;;;;;;;
Brain-Class146;9080146;U81;1930;1930;1930;1930;3;8;0;3;0;5;0;BETA;1930;2100;3000;x;;;;;;;;;;;;
Brain-Class147;9080147;U81;1930;1930;1930;1930;3;8;0;3;0;5;0;BETA;1930;2100;3000;x;;;;;;;;;;;;
Brain-Class148;9080148;U81;1930;1930;1930;1930;3;8;0;3;0;5;0;BETA;1930;2100;3000;x;;;;;;;;;;;;
Brain-Class149;9080149;U81;1930;1930;1930;1930;3;8;0;3;0;5;0;BETA;1930;2100;3000;x;;;;;;;;;;;;
Brain-Class150;9080150;U81;1930;1930;1930;1930;3;8;0;3;0;5;0;BETA;1930;2100;3000;x;;;;;;;;;;;;
Brain-Class151;9080151;U81;1930;1930;1930;1930;3;8;0;3;0;5;0;BETA;1930;2100;3000;x;;;;;;;;;;;;
Brain-Class152;9080152;U81;1930;1930;1930;1930;3;8;0;3;0;5;0;BETA;1930;2100;3000;x;;;;;;;;;;;;
Brain-Class153;9080153;U81;1930;1930;1930;1930;3;8;0;3;0;5;0;BETA;1930;2100;3000;x;;;;;;;;;;;;
Brain-Class154;9080154;U81;1930;1930;1930;1930;3;8;0;3;0;5;0;BETA;1930;2100;3000;x;;;;;;;;;;;;
Brain-Class155;9080155;U81;1930;1930;1930;1930;3;8;0;3;0;5;0;BETA;1930;2100;3000;x;;;;;;;;;;;;
Brain-Class156;9080156;U81;1930;1930;1930;1930;3;8;0;3;0;5;0;BETA;1930;2100;3000;x;;;;;;;;;;;;
Brain-Class157;9080157;U81;1930;1930;1930;1930;3;8;0;3;0;5;0;BETA;1930;2100;3000;x;;;;;;;;;;;;
Brain-Class158;9080158;U81;1930;1930;1930;1930;3;8;0;3;0;5;0;BETA;1930;2100;3000;x;;;;;;;;;;;;
Brain-Class159;9080159;U81;1930;1930;1930;1930;3;8;0;3;0;5;0;BETA;1930;2100;3000;x;;;;;;;;;;;;
Brain-Class160;9080160;U81;1930;1930;1930;1930;3;8;0;3;0;5;0;BETA;1930;2100;3000;x;;;;;;;;;;;;
Brain-Class161;9080161;U81;1930;1930;1930;1930;3;8;0;3;0;5;0;BETA;1930;2100;3000;x;;;;;;;;;;;;
Brain-Class162;9080162;U81;1930;1930;1930;1930;3;8;0;3;0;5;0;BETA;1930;2100;3000;x;;;;;;;;;;;;
Brain-Class163;9080163;U81;1930;1930;1930;1930;3;8;0;3;0;5;0;BETA;1930;2100;3000;x;;;;;;;;;;;;
Brain-Class164;9080164;U81;1930;1930;1930;1930;3;8;0;3;0;5;0;BETA;1930;2100;3000;x;;;;;;;;;;;;
Brain-Class165;9080165;U81;1930;1930;1930;1930;3;8;0;3;0;5;0;BETA;1930;2100;3000;x;;;;;;;;;;;;
Brain-Class166;9080166;U81;1930;1930;1930;1930;3;8;0;3;0;5;0;BETA;1930;2100;3000;x;;;;;;;;;;;;
Brain-Class167;9080167;U81;1930;1930;1930;1930;3;8;0;3;0;5;0;BETA;1930;2100;3000;x;;;;;;;;;;;;
Brain-Class168;9080168;U81;1930;1930;1930;1930;3;8;0;3;0;5;0;BETA;1930;2100;3000;x;;;;;;;;;;;;
Brain-Class169;9080169;U81;1930;1930;1930;1930;3;8;0;3;0;5;0;BETA;1930;2100;3000;x;;;;;;;;;;;;
Brain-Class170;9080170;U81;1930;1930;1930;1930;3;8;0;3;0;5;0;BETA;1930;2100;3000;x;;;;;;;;;;;;
Brain-Class171;9080171;U81;1930;1930;1930;1930;3;8;0;3;0;5;0;BETA;1930;2100;3000;x;;;;;;;;;;;;
Brain-Class172;9080172;U81;1930;1930;1930;1930;3;8;0;3;0;5;0;BETA;1930;2100;3000;x;;;;;;;;;;;;
Brain-Class173;9080173;U81;1930;1930;1930;1930;3;8;0;3;0;5;0;BETA;1930;2100;3000;x;;;;;;;;;;;;
Brain-Class174;9080174;U81;1930;1930;1930;1930;3;8;0;3;0;5;0;BETA;1930;2100;3000;x;;;;;;;;;;;;
Brain-Class175;9080175;U81;1930;1930;1930;1930;3;8;0;3;0;5;0;BETA;1930;2100;3000;x;;;;;;;;;;;;
Brain-Class176;9080176;U81;1930;1930;1930;1930;3;8;0;3;0;5;0;BETA;1930;2100;3000;x;;;;;;;;;;;;
Brain-Class177;9080177;U81;1930;1930;1930;1930;3;8;0;3;0;5;0;BETA;1930;2100;3000;x;;;;;;;;;;;;
Brain-Class178;9080178;U81;1930;1930;1930;1930;3;8;0;3;0;5;0;BETA;1930;2100;3000;x;;;;;;;;;;;;
Brain-Class179;9080179;U81;1930;1930;1930;1930;3;8;0;3;0;5;0;BETA;1930;2100;3000;x;;;;;;;;;;;;
Brain-Class180;9080180;U81;1930;1930;1930;1930;3;8;0;3;0;5;0;BETA;1930;2100;3000;x;;;;;;;;;;;;
Brain-Class181;9080181;U81;1930;1930;1930;1930;3;8;0;3;0;5;0;BETA;1930;2100;3000;x;;;;;;;;;;;;
Brain-Class182;9080182;U81;1930;1930;1930;1930;3;8;0;3;0;5;0;BETA;1930;2100;3000;x;;;;;;;;;;;;
Brain-Class183;9080183;U81;1930;1930;1930;1930;3;8;0;3;0;5;0;BETA;1930;2100;3000;x;;;;;;;;;;;;
Brain-Class184;9080184;U81;1930;1930;1930;1930;3;8;0;3;0;5;0;BETA;1930;2100;3000;x;;;;;;;;;;;;
Brain-Class185;9080185;U81;1930;1930;1930;1930;3;8;0;3;0;5;0;BETA;1930;2100;3000;x;;;;;;;;;;;;
Brain-Class186;9080186;U81;1930;1930;1930;1930;3;8;0;3;0;5;0;BETA;1930;2100;3000;x;;;;;;;;;;;;
Brain-Class187;9080187;U81;1930;1930;1930;1930;3;8;0;3;0;5;0;BETA;1930;2100;3000;x;;;;;;;;;;;;
Brain-Class188;9080188;U81;1930;1930;1930;1930;3;8;0;3;0;5;0;BETA;1930;2100;3000;x;;;;;;;;;;;;
Brain-Class189;9080189;U81;1930;1930;1930;1930;3;8;0;3;0;5;0;BETA;1930;2100;3000;x;;;;;;;;;;;;
Brain-Class190;9080190;U81;1930;1930;1930;1930;3;8;0;3;0;5;0;BETA;1930;2100;3000;x;;;;;;;;;;;;
Brain-Class191;9080191;U81;1930;1930;1930;1930;3;8;0;3;0;5;0;BETA;1930;2100;3000;x;;;;;;;;;;;;
Brain-Class192;9080192;U81;1930;1930;1930;1930;3;8;0;3;0;5;0;BETA;1930;2100;3000;x;;;;;;;;;;;;
Brain-Class193;9080193;U81;1930;1930;1930;1930;3;8;0;3;0;5;0;BETA;1930;2100;3000;x;;;;;;;;;;;;
Brain-Class194;9080194;U81;1930;1930;1930;1930;3;8;0;3;0;5;0;BETA;1930;2100;3000;x;;;;;;;;;;;;
Brain-Class195;9080195;U81;1930;1930;1930;1930;3;8;0;3;0;5;0;BETA;1930;2100;3000;x;;;;;;;;;;;;
Brain-Class196;9080196;U81;1930;1930;1930;1930;3;8;0;3;0;5;0;BETA;1930;2100;3000;x;;;;;;;;;;;;
Brain-Class197;9080197;U81;1930;1930;1930;1930;3;8;0;3;0;5;0;BETA;1930;2100;3000;x;;;;;;;;;;;;
Brain-Class198;9080198;U81;1930;1930;1930;1930;3;8;0;3;0;5;0;BETA;1930;2100;3000;x;;;;;;;;;;;;
Brain-Class199;9080199;U81;1930;1930;1930;1930;3;8;0;3;0;5;0;BETA;1930;2100;3000;x;;;;;;;;;;;;
Brain-Class200;9080200;U81;1930;1930;1930;1930;3;8;0;3;0;5;0;BETA;1930;2100;3000;x;;;;;;;;;;;;
Brain-Class201;9080201;U81;1930;1930;1930;1930;3;8;0;3;0;5;0;BETA;1930;2100;3000;x;;;;;;;;;;;;
Brain-Class202;9080202;U81;1930;1930;1930;1930;3;8;0;3;0;5;0;BETA;1930;2100;3000;x;;;;;;;;;;;;
Brain-Class203;9080203;U81;1930;1930;1930;1930;3;8;0;3;0;5;0;BETA;1930;2100;3000;x;;;;;;;;;;;;
Brain-Class204;9080204;U81;1930;1930;1930;1930;3;8;0;3;0;5;0;BETA;1930;2100;3000;x;;;;;;;;;;;;
Brain-Class205;9080205;U81;1930;1930;1930;1930;3;8;0;3;0;5;0;BETA;1930;2100;3000;x;;;;;;;;;;;;
Brain-Class206;9080206;U81;1930;1930;1930;1930;3;8;0;3;0;5;0;BETA;1930;2100;3000;x;;;;;;;;;;;;
Brain-Class207;9080207;U81;1930;1930;1930;1930;3;8;0;3;0;5;0;BETA;1930;2100;3000;x;;;;;;;;;;;;
Brain-Class208;9080208;U81;1930;1930;1930;1930;3;8;0;3;0;5;0;BETA;1930;2100;3000;x;;;;;;;;;;;;
Brain-Class209;9080209;U81;1930;1930;1930;1930;3;8;0;3;0;5;0;BETA;1930;2100;3000;x;;;;;;;;;;;;
Brain-Class210;9080210;U81;1930;1930;1930;1930;3;8;0;3;0;5;0;BETA;1930;2100;3000;x;;;;;;;;;;;;
Brain-Class211;9080211;U81;1930;1930;1930;1930;3;8;0;3;0;5;0;BETA;1930;2100;3000;x;;;;;;;;;;;;
Brain-Class212;9080212;U81;1930;1930;1930;1930;3;8;0;3;0;5;0;BETA;1930;2100;3000;x;;;;;;;;;;;;
Brain-Class213;9080213;U81;1930;1930;1930;1930;3;8;0;3;0;5;0;BETA;1930;2100;3000;x;;;;;;;;;;;;
Brain-Class214;9080214;U81;1930;1930;1930;1930;3;8;0;3;0;5;0;BETA;1930;2100;3000;x;;;;;;;;;;;;
Brain-Class215;9080215;U81;1930;1930;1930;1930;3;8;0;3;0;5;0;BETA;1930;2100;3000;x;;;;;;;;;;;;
Brain-Class216;9080216;U81;1930;1930;1930;1930;3;8;0;3;0;5;0;BETA;1930;2100;3000;x;;;;;;;;;;;;
Brain-Class217;9080217;U81;1930;1930;1930;1930;3;8;0;3;0;5;0;BETA;1930;2100;3000;x;;;;;;;;;;;;
Brain-Class218;9080218;U81;1930;1930;1930;1930;3;8;0;3;0;5;0;BETA;1930;2100;3000;x;;;;;;;;;;;;
Brain-Class219;9080219;U81;1930;1930;1930;1930;3;8;0;3;0;5;0;BETA;1930;2100;3000;x;;;;;;;;;;;;
Brain-Class220;9080220;U81;1930;1930;1930;1930;3;8;0;3;0;5;0;BETA;1930;2100;3000;x;;;;;;;;;;;;
Brain-Class221;9080221;U81;1930;1930;1930;1930;3;8;0;3;0;5;0;BETA;1930;2100;3000;x;;;;;;;;;;;;
Brain-Class222;9080222;U81;1930;1930;1930;1930;3;8;0;3;0;5;0;BETA;1930;2100;3000;x;;;;;;;;;;;;
Brain-Class223;9080223;U81;1930;1930;1930;1930;3;8;0;3;0;5;0;BETA;1930;2100;3000;x;;;;;;;;;;;;
Brain-Class224;9080224;U81;1930;1930;1930;1930;3;8;0;3;0;5;0;BETA;1930;2100;3000;x;;;;;;;;;;;;
Brain-Class225;9080225;U81;1930;1930;1930;1930;3;8;0;3;0;5;0;BETA;1930;2100;3000;x;;;;;;;;;;;;
Brain-Class226;9080226;U81;1930;1930;1930;1930;3;8;0;3;0;5;0;BETA;1930;2100;3000;x;;;;;;;;;;;;
Brain-Class227;9080227;U81;1930;1930;1930;1930;3;8;0;3;0;5;0;BETA;1930;2100;3000;x;;;;;;;;;;;;
Brain-Class228;9080228;U81;1930;1930;1930;1930;3;8;0;3;0;5;0;BETA;1930;2100;3000;x;;;;;;;;;;;;
Brain-Class229;9080229;U81;1930;1930;1930;1930;3;8;0;3;0;5;0;BETA;1930;2100;3000;x;;;;;;;;;;;;
Brain-Class230;9080230;U81;1930;1930;1930;1930;3;8;0;3;0;5;0;BETA;1930;2100;3000;x;;;;;;;;;;;;
Brain-Class231;9080231;U81;1930;1930;1930;1930;3;8;0;3;0;5;0;BETA;1930;2100;3000;x;;;;;;;;;;;;
Brain-Class232;9080232;U81;1930;1930;1930;1930;3;8;0;3;0;5;0;BETA;1930;2100;3000;x;;;;;;;;;;;;
Brain-Class233;9080233;U81;1930;1930;1930;1930;3;8;0;3;0;5;0;BETA;1930;2100;3000;x;;;;;;;;;;;;
Brain-Class234;9080234;U81;1930;1930;1930;1930;3;8;0;3;0;5;0;BETA;1930;2100;3000;x;;;;;;;;;;;;
Brain-Class235;9080235;U81;1930;1930;1930;1930;3;8;0;3;0;5;0;BETA;1930;2100;3000;x;;;;;;;;;;;;
Brain-Class236;9080236;U81;1930;1930;1930;1930;3;8;0;3;0;5;0;BETA;1930;2100;3000;x;;;;;;;;;;;;
Brain-Class237;9080237;U81;1930;1930;1930;1930;3;8;0;3;0;5;0;BETA;1930;2100;3000;x;;;;;;;;;;;;
Brain-Class238;9080238;U81;1930;1930;1930;1930;3;8;0;3;0;5;0;BETA;1930;2100;3000;x;;;;;;;;;;;;
Brain-Class239;9080239;U81;1930;1930;1930;1930;3;8;0;3;0;5;0;BETA;1930;2100;3000;x;;;;;;;;;;;;
Brain-Class240;9080240;U81;1930;1930;1930;1930;3;8;0;3;0;5;0;BETA;1930;2100;3000;x;;;;;;;;;;;;
Brain-Class241;9080241;U81;1930;1930;1930;1930;3;8;0;3;0;5;0;BETA;1930;2100;3000;x;;;;;;;;;;;;
Brain-Class242;9080242;U81;1930;1930;1930;1930;3;8;0;3;0;5;0;BETA;1930;2100;3000;x;;;;;;;;;;;;
Brain-Class243;9080243;U81;1930;1930;1930;1930;3;8;0;3;0;5;0;BETA;1930;2100;3000;x;;;;;;;;;;;;
Brain-Class244;9080244;U81;1930;1930;1930;1930;3;8;0;3;0;5;0;BETA;1930;2100;3000;x;;;;;;;;;;;;
Brain-Class245;9080245;U81;1930;1930;1930;1930;3;8;0;3;0;5;0;BETA;1930;2100;3000;x;;;;;;;;;;;;
Brain-Class246;9080246;U81;1930;1930;1930;1930;3;8;0;3;0;5;0;BETA;1930;2100;3000;x;;;;;;;;;;;;
Brain-Class247;9080247;U81;1930;1930;1930;1930;3;8;0;3;0;5;0;BETA;1930;2100;3000;x;;;;;;;;;;;;
Brain-Class248;9080248;U81;1930;1930;1930;1930;3;8;0;3;0;5;0;BETA;1930;2100;3000;x;;;;;;;;;;;;
Brain-Class249;9080249;U81;1930;1930;1930;1930;3;8;0;3;0;5;0;BETA;1930;2100;3000;x;;;;;;;;;;;;
Brain-Class250;9080250;U81;1930;1930;1930;1930;3;8;0;3;0;5;0;BETA;1930;2100;3000;x;;;;;;;;;;;;
Brain-Class251;9080251;U81;1930;1930;1930;1930;3;8;0;3;0;5;0;BETA;1930;2100;3000;x;;;;;;;;;;;;
Brain-Class252;9080252;U81;1930;1930;1930;1930;3;8;0;3;0;5;0;BETA;1930;2100;3000;x;;;;;;;;;;;;
Brain-Class253;9080253;U81;1930;1930;1930;1930;3;8;0;3;0;5;0;BETA;1930;2100;3000;x;;;;;;;;;;;;
Brain-Class254;9080254;U81;1930;1930;1930;1930;3;8;0;3;0;5;0;BETA;1930;2100;3000;x;;;;;;;;;;;;
Brain-Class255;9080255;U81;1930;1930;1930;1930;3;8;0;3;0;5;0;BETA;1930;2100;3000;x;;;;;;;;;;;;
Brain-Class256;9080256;U81;1930;1930;1930;1930;3;8;0;3;0;5;0;BETA;1930;2100;3000;x;;;;;;;;;;;;
Brain-Class257;9080257;U81;1930;1930;1930;1930;3;8;0;3;0;5;0;BETA;1930;2100;3000;x;;;;;;;;;;;;
Brain-Class258;9080258;U81;1930;1930;1930;1930;3;8;0;3;0;5;0;BETA;1930;2100;3000;x;;;;;;;;;;;;
Brain-Class259;9080259;U81;1930;1930;1930;1930;3;8;0;3;0;5;0;BETA;1930;2100;3000;x;;;;;;;;;;;;
Brain-Class260;9080260;U81;1930;1930;1930;1930;3;8;0;3;0;5;0;BETA;1930;2100;3000;x;;;;;;;;;;;;
Brain-Class261;9080261;U81;1930;1930;1930;1930;3;8;0;3;0;5;0;BETA;1930;2100;3000;x;;;;;;;;;;;;
Brain-Class262;9080262;U81;1930;1930;1930;1930;3;8;0;3;0;5;0;BETA;1930;2100;3000;x;;;;;;;;;;;;
Brain-Class263;9080263;U81;1930;1930;1930;1930;3;8;0;3;0;5;0;BETA;1930;2100;3000;x;;;;;;;;;;;;
Brain-Class264;9080264;U81;1930;1930;1930;1930;3;8;0;3;0;5;0;BETA;1930;2100;3000;x;;;;;;;;;;;;
Brain-Class265;9080265;U81;1930;1930;1930;1930;3;8;0;3;0;5;0;BETA;1930;2100;3000;x;;;;;;;;;;;;
Brain-Class266;9080266;U81;1930;1930;1930;1930;3;8;0;3;0;5;0;BETA;1930;2100;3000;x;;;;;;;;;;;;
Brain-Class267;9080267;U81;1930;1930;1930;1930;3;8;0;3;0;5;0;BETA;1930;2100;3000;x;;;;;;;;;;;;
Brain-Class268;9080268;U81;1930;1930;1930;1930;3;8;0;3;0;5;0;BETA;1930;2100;3000;x;;;;;;;;;;;;
Brain-Class269;9080269;U81;1930;1930;1930;1930;3;8;0;3;0;5;0;BETA;1930;2100;3000;x;;;;;;;;;;;;
Brain-Class270;9080270;U81;1930;1930;1930;1930;3;8;0;3;0;5;0;BETA;1930;2100;3000;x;;;;;;;;;;;;
Brain-Class271;9080271;U81;1930;1930;1930;1930;3;8;0;3;0;5;0;BETA;1930;2100;3000;x;;;;;;;;;;;;
Brain-Class272;9080272;U81;1930;1930;1930;1930;3;8;0;3;0;5;0;BETA;1930;2100;3000;x;;;;;;;;;;;;
Brain-Class273;9080273;U81;1930;1930;1930;1930;3;8;0;3;0;5;0;BETA;1930;2100;3000;x;;;;;;;;;;;;
Brain-Class274;9080274;U81;1930;1930;1930;1930;3;8;0;3;0;5;0;BETA;1930;2100;3000;x;;;;;;;;;;;;
Brain-Class275;9080275;U81;1930;1930;1930;1930;3;8;0;3;0;5;0;BETA;1930;2100;3000;x;;;;;;;;;;;;
Brain-Class276;9080276;U81;1930;1930;1930;1930;3;8;0;3;0;5;0;BETA;1930;2100;3000;x;;;;;;;;;;;;
Brain-Class277;9080277;U81;1930;1930;1930;1930;3;8;0;3;0;5;0;BETA;1930;2100;3000;x;;;;;;;;;;;;
Brain-Class278;9080278;U81;1930;1930;1930;1930;3;8;0;3;0;5;0;BETA;1930;2100;3000;x;;;;;;;;;;;;
Brain-Class279;9080279;U81;1930;1930;1930;1930;3;8;0;3;0;5;0;BETA;1930;2100;3000;x;;;;;;;;;;;;
Brain-Class280;9080280;U81;1930;1930;1930;1930;3;8;0;3;0;5;0;BETA;1930;2100;3000;x;;;;;;;;;;;;
Brain-Class281;9080281;U81;1930;1930;1930;1930;3;8;0;3;0;5;0;BETA;1930;2100;3000;x;;;;;;;;;;;;
Brain-Class282;9080282;U81;1930;1930;1930;1930;3;8;0;3;0;5;0;BETA;1930;2100;3000;x;;;;;;;;;;;;
Brain-Class283;9080283;U81;1930;1930;1930;1930;3;8;0;3;0;5;0;BETA;1930;2100;3000;x;;;;;;;;;;;;
Brain-Class284;9080284;U81;1930;1930;1930;1930;3;8;0;3;0;5;0;BETA;1930;2100;3000;x;;;;;;;;;;;;
Brain-Class285;9080285;U81;1930;1930;1930;1930;3;8;0;3;0;5;0;BETA;1930;2100;3000;x;;;;;;;;;;;;
Brain-Class286;9080286;U81;1930;1930;1930;1930;3;8;0;3;0;5;0;BETA;1930;2100;3000;x;;;;;;;;;;;;
Brain-Class287;9080287;U81;1930;1930;1930;1930;3;8;0;3;0;5;0;BETA;1930;2100;3000;x;;;;;;;;;;;;
Brain-Class288;9080288;U81;1930;1930;1930;1930;3;8;0;3;0;5;0;BETA;1930;2100;3000;x;;;;;;;;;;;;
Brain-Class289;9080289;U81;1930;1930;1930;1930;3;8;0;3;0;5;0;BETA;1930;2100;3000;x;;;;;;;;;;;;
Brain-Class290;9080290;U81;1930;1930;1930;1930;3;8;0;3;0;5;0;BETA;1930;2100;3000;x;;;;;;;;;;;;
Brain-Class291;9080291;U81;1930;1930;1930;1930;3;8;0;3;0;5;0;BETA;1930;2100;3000;x;;;;;;;;;;;;
Brain-Class292;9080292;U81;1930;1930;1930;1930;3;8;0;3;0;5;0;BETA;1930;2100;3000;x;;;;;;;;;;;;
Brain-Class293;9080293;U81;1930;1930;1930;1930;3;8;0;3;0;5;0;BETA;1930;2100;3000;x;;;;;;;;;;;;
Brain-Class294;9080294;U81;1930;1930;1930;1930;3;8;0;3;0;5;0;BETA;1930;2100;3000;x;;;;;;;;;;;;
Brain-Class295;9080295;U81;1930;1930;1930;1930;3;8;0;3;0;5;0;BETA;1930;2100;3000;x;;;;;;;;;;;;
Brain-Class296;9080296;U81;1930;1930;1930;1930;3;8;0;3;0;5;0;BETA;1930;2100;3000;x;;;;;;;;;;;;
Brain-Class297;9080297;U81;1930;1930;1930;1930;3;8;0;3;0;5;0;BETA;1930;2100;3000;x;;;;;;;;;;;;
Brain-Class298;9080298;U81;1930;1930;1930;1930;3;8;0;3;0;5;0;BETA;1930;2100;3000;x;;;;;;;;;;;;
Brain-Class299;9080299;U81;1930;1930;1930;1930;3;8;0;3;0;5;0;BETA;1930;2100;3000;x;;;;;;;;;;;;
Brain-Class300;9080300;U81;1930;1930;1930;1930;3;8;0;3;0;5;0;BETA;1930;2100;3000;x;;;;;;;;;;;;
Brain-Class301;9080301;U81;1930;1930;1930;1930;3;8;0;3;0;5;0;BETA;1930;2100;3000;x;;;;;;;;;;;;
Brain-Class302;9080302;U81;1930;1930;1930;1930;3;8;0;3;0;5;0;BETA;1930;2100;3000;x;;;;;;;;;;;;
Brain-Class303;9080303;U81;1930;1930;1930;1930;3;8;0;3;0;5;0;BETA;1930;2100;3000;x;;;;;;;;;;;;
Brain-Class304;9080304;U81;1930;1930;1930;1930;3;8;0;3;0;5;0;BETA;1930;2100;3000;x;;;;;;;;;;;;
Brain-Class305;9080305;U81;1930;1930;1930;1930;3;8;0;3;0;5;0;BETA;1930;2100;3000;x;;;;;;;;;;;;
Brain-Class306;9080306;U81;1930;1930;1930;1930;3;8;0;3;0;5;0;BETA;1930;2100;3000;x;;;;;;;;;;;;
Brain-Class307;9080307;U81;1930;1930;1930;1930;3;8;0;3;0;5;0;BETA;1930;2100;3000;x;;;;;;;;;;;;
Brain-Class308;9080308;U81;1930;1930;1930;1930;3;8;0;3;0;5;0;BETA;1930;2100;3000;x;;;;;;;;;;;;
Brain-Class309;9080309;U81;1930;1930;1930;1930;3;8;0;3;0;5;0;BETA;1930;2100;3000;x;;;;;;;;;;;;
Brain-Class310;9080310;U81;1930;1930;1930;1930;3;8;0;3;0;5;0;BETA;1930;2100;3000;x;;;;;;;;;;;;
Brain-Class311;9080311;U81;1930;1930;1930;1930;3;8;0;3;0;5;0;BETA;1930;2100;3000;x;;;;;;;;;;;;
Brain-Class312;9080312;U81;1930;1930;1930;1930;3;8;0;3;0;5;0;BETA;1930;2100;3000;x;;;;;;;;;;;;
Brain-Class313;9080313;U81;1930;1930;1930;1930;3;8;0;3;0;5;0;BETA;1930;2100;3000;x;;;;;;;;;;;;
Brain-Class314;9080314;U81;1930;1930;1930;1930;3;8;0;3;0;5;0;BETA;1930;2100;3000;x;;;;;;;;;;;;
Brain-Class315;9080315;U81;1930;1930;1930;1930;3;8;0;3;0;5;0;BETA;1930;2100;3000;x;;;;;;;;;;;;
Brain-Class316;9080316;U81;1930;1930;1930;1930;3;8;0;3;0;5;0;BETA;1930;2100;3000;x;;;;;;;;;;;;
Brain-Class317;9080317;U81;1930;1930;1930;1930;3;8;0;3;0;5;0;BETA;1930;2100;3000;x;;;;;;;;;;;;
Brain-Class318;9080318;U81;1930;1930;1930;1930;3;8;0;3;0;5;0;BETA;1930;2100;3000;x;;;;;;;;;;;;
Brain-Class319;9080319;U81;1930;1930;1930;1930;3;8;0;3;0;5;0;BETA;1930;2100;3000;x;;;;;;;;;;;;
Brain-Class320;9080320;U81;1930;1930;1930;1930;3;8;0;3;0;5;0;BETA;1930;2100;3000;x;;;;;;;;;;;;
Brain-Class321;9080321;U81;1930;1930;1930;1930;3;8;0;3;0;5;0;BETA;1930;2100;3000;x;;;;;;;;;;;;
Brain-Class322;9080322;U81;1930;1930;1930;1930;3;8;0;3;0;5;0;BETA;1930;2100;3000;x;;;;;;;;;;;;
Brain-Class323;9080323;U81;1930;1930;1930;1930;3;8;0;3;0;5;0;BETA;1930;2100;3000;x;;;;;;;;;;;;
Brain-Class324;9080324;U81;1930;1930;1930;1930;3;8;0;3;0;5;0;BETA;1930;2100;3000;x;;;;;;;;;;;;
Brain-Class325;9080325;U81;1930;1930;1930;1930;3;8;0;3;0;5;0;BETA;1930;2100;3000;x;;;;;;;;;;;;
Brain-Class326;9080326;U81;1930;1930;1930;1930;3;8;0;3;0;5;0;BETA;1930;2100;3000;x;;;;;;;;;;;;
Brain-Class327;9080327;U81;1930;1930;1930;1930;3;8;0;3;0;5;0;BETA;1930;2100;3000;x;;;;;;;;;;;;
Brain-Class328;9080328;U81;1930;1930;1930;1930;3;8;0;3;0;5;0;BETA;1930;2100;3000;x;;;;;;;;;;;;
Brain-Class329;9080329;U81;1930;1930;1930;1930;3;8;0;3;0;5;0;BETA;1930;2100;3000;x;;;;;;;;;;;;
Brain-Class330;9080330;U81;1930;1930;1930;1930;3;8;0;3;0;5;0;BETA;1930;2100;3000;x;;;;;;;;;;;;
Brain-Class331;9080331;U81;1930;1930;1930;1930;3;8;0;3;0;5;0;BETA;1930;2100;3000;x;;;;;;;;;;;;
Brain-Class332;9080332;U81;1930;1930;1930;1930;3;8;0;3;0;5;0;BETA;1930;2100;3000;x;;;;;;;;;;;;
Brain-Class333;9080333;U81;1930;1930;1930;1930;3;8;0;3;0;5;0;BETA;1930;2100;3000;x;;;;;;;;;;;;
Brain-Class334;9080334;U81;1930;1930;1930;1930;3;8;0;3;0;5;0;BETA;1930;2100;3000;x;;;;;;;;;;;;
Brain-Class335;9080335;U81;1930;1930;1930;1930;3;8;0;3;0;5;0;BETA;1930;2100;3000;x;;;;;;;;;;;;
Brain-Class336;9080336;U81;1930;1930;1930;1930;3;8;0;3;0;5;0;BETA;1930;2100;3000;x;;;;;;;;;;;;
Brain-Class337;9080337;U81;1930;1930;1930;1930;3;8;0;3;0;5;0;BETA;1930;2100;3000;x;;;;;;;;;;;;
Brain-Class338;9080338;U81;1930;1930;1930;1930;3;8;0;3;0;5;0;BETA;1930;2100;3000;x;;;;;;;;;;;;
Brain-Class339;9080339;U81;1930;1930;1930;1930;3;8;0;3;0;5;0;BETA;1930;2100;3000;x;;;;;;;;;;;;
Brain-Class340;9080340;U81;1930;1930;1930;1930;3;8;0;3;0;5;0;BETA;1930;2100;3000;x;;;;;;;;;;;;
Brain-Class341;9080341;U81;1930;1930;1930;1930;3;8;0;3;0;5;0;BETA;1930;2100;3000;x;;;;;;;;;;;;
Brain-Class342;9080342;U81;1930;1930;1930;1930;3;8;0;3;0;5;0;BETA;1930;2100;3000;x;;;;;;;;;;;;
Brain-Class343;9080343;U81;1930;1930;1930;1930;3;8;0;3;0;5;0;BETA;1930;2100;3000;x;;;;;;;;;;;;
Brain-Class344;9080344;U81;1930;1930;1930;1930;3;8;0;3;0;5;0;BETA;1930;2100;3000;x;;;;;;;;;;;;
Brain-Class345;9080345;U81;1930;1930;1930;1930;3;8;0;3;0;5;0;BETA;1930;2100;3000;x;;;;;;;;;;;;
Brain-Class346;9080346;U81;1930;1930;1930;1930;3;8;0;3;0;5;0;BETA;1930;2100;3000;x;;;;;;;;;;;;
Brain-Class347;9080347;U81;1930;1930;1930;1930;3;8;0;3;0;5;0;BETA;1930;2100;3000;x;;;;;;;;;;;;
Brain-Class348;9080348;U81;1930;1930;1930;1930;3;8;0;3;0;5;0;BETA;1930;2100;3000;x;;;;;;;;;;;;
Brain-Class349;9080349;U81;1930;1930;1930;1930;3;8;0;3;0;5;0;BETA;1930;2100;3000;x;;;;;;;;;;;;
Brain-Class350;9080350;U81;1930;1930;1930;1930;3;8;0;3;0;5;0;BETA;1930;2100;3000;x;;;;;;;;;;;;
Brain-Class351;9080351;U81;1930;1930;1930;1930;3;8;0;3;0;5;0;BETA;1930;2100;3000;x;;;;;;;;;;;;
Brain-Class352;9080352;U81;1930;1930;1930;1930;3;8;0;3;0;5;0;BETA;1930;2100;3000;x;;;;;;;;;;;;
Brain-Class353;9080353;U81;1930;1930;1930;1930;3;8;0;3;0;5;0;BETA;1930;2100;3000;x;;;;;;;;;;;;
Brain-Class354;9080354;U81;1930;1930;1930;1930;3;8;0;3;0;5;0;BETA;1930;2100;3000;x;;;;;;;;;;;;
Brain-Class355;9080355;U81;1930;1930;1930;1930;3;8;0;3;0;5;0;BETA;1930;2100;3000;x;;;;;;;;;;;;
Brain-Class356;9080356;U81;1930;1930;1930;1930;3;8;0;3;0;5;0;BETA;1930;2100;3000;x;;;;;;;;;;;;
Brain-Class357;9080357;U81;1930;1930;1930;1930;3;8;0;3;0;5;0;BETA;1930;2100;3000;x;;;;;;;;;;;;
Brain-Class358;9080358;U81;1930;1930;1930;1930;3;8;0;3;0;5;0;BETA;1930;2100;3000;x;;;;;;;;;;;;
Brain-Class359;9080359;U81;1930;1930;1930;1930;3;8;0;3;0;5;0;BETA;1930;2100;3000;x;;;;;;;;;;;;
Brain-Class360;9080360;U81;1930;1930;1930;1930;3;8;0;3;0;5;0;BETA;1930;2100;3000;x;;;;;;;;;;;;
Brain-Class361;9080361;U81;1930;1930;1930;1930;3;8;0;3;0;5;0;BETA;1930;2100;3000;x;;;;;;;;;;;;
Brain-Class362;9080362;U81;1930;1930;1930;1930;3;8;0;3;0;5;0;BETA;1930;2100;3000;x;;;;;;;;;;;;
Brain-Class363;9080363;U81;1930;1930;1930;1930;3;8;0;3;0;5;0;BETA;1930;2100;3000;x;;;;;;;;;;;;
Brain-Class364;9080364;U81;1930;1930;1930;1930;3;8;0;3;0;5;0;BETA;1930;2100;3000;x;;;;;;;;;;;;
Brain-Class365;9080365;U81;1930;1930;1930;1930;3;8;0;3;0;5;0;BETA;1930;2100;3000;x;;;;;;;;;;;;
Brain-Class366;9080366;U81;1930;1930;1930;1930;3;8;0;3;0;5;0;BETA;1930;2100;3000;x;;;;;;;;;;;;
Brain-Class367;9080367;U81;1930;1930;1930;1930;3;8;0;3;0;5;0;BETA;1930;2100;3000;x;;;;;;;;;;;;
Brain-Class368;9080368;U81;1930;1930;1930;1930;3;8;0;3;0;5;0;BETA;1930;2100;3000;x;;;;;;;;;;;;
Brain-Class369;9080369;U81;1930;1930;1930;1930;3;8;0;3;0;5;0;BETA;1930;2100;3000;x;;;;;;;;;;;;
Brain-Class370;9080370;U81;1930;1930;1930;1930;3;8;0;3;0;5;0;BETA;1930;2100;3000;x;;;;;;;;;;;;
Brain-Class371;9080371;U81;1930;1930;1930;1930;3;8;0;3;0;5;0;BETA;1930;2100;3000;x;;;;;;;;;;;;
Brain-Class372;9080372;U81;1930;1930;1930;1930;3;8;0;3;0;5;0;BETA;1930;2100;3000;x;;;;;;;;;;;;
Brain-Class373;9080373;U81;1930;1930;1930;1930;3;8;0;3;0;5;0;BETA;1930;2100;3000;x;;;;;;;;;;;;
Brain-Class374;9080374;U81;1930;1930;1930;1930;3;8;0;3;0;5;0;BETA;1930;2100;3000;x;;;;;;;;;;;;
Brain-Class375;9080375;U81;1930;1930;1930;1930;3;8;0;3;0;5;0;BETA;1930;2100;3000;x;;;;;;;;;;;;
Brain-Class376;9080376;U81;1930;1930;1930;1930;3;8;0;3;0;5;0;BETA;1930;2100;3000;x;;;;;;;;;;;;
Brain-Class377;9080377;U81;1930;1930;1930;1930;3;8;0;3;0;5;0;BETA;1930;2100;3000;x;;;;;;;;;;;;
Brain-Class378;9080378;U81;1930;1930;1930;1930;3;8;0;3;0;5;0;BETA;1930;2100;3000;x;;;;;;;;;;;;
Brain-Class379;9080379;U81;1930;1930;1930;1930;3;8;0;3;0;5;0;BETA;1930;2100;3000;x;;;;;;;;;;;;
Brain-Class380;9080380;U81;1930;1930;1930;1930;3;8;0;3;0;5;0;BETA;1930;2100;3000;x;;;;;;;;;;;;
Brain-Class381;9080381;U81;1930;1930;1930;1930;3;8;0;3;0;5;0;BETA;1930;2100;3000;x;;;;;;;;;;;;
Brain-Class382;9080382;U81;1930;1930;1930;1930;3;8;0;3;0;5;0;BETA;1930;2100;3000;x;;;;;;;;;;;;
Brain-Class383;9080383;U81;1930;1930;1930;1930;3;8;0;3;0;5;0;BETA;1930;2100;3000;x;;;;;;;;;;;;
Brain-Class384;9080384;U81;1930;1930;1930;1930;3;8;0;3;0;5;0;BETA;1930;2100;3000;x;;;;;;;;;;;;
Brain-Class385;9080385;U81;1930;1930;1930;1930;3;8;0;3;0;5;0;BETA;1930;2100;3000;x;;;;;;;;;;;;
Brain-Class386;9080386;U81;1930;1930;1930;1930;3;8;0;3;0;5;0;BETA;1930;2100;3000;x;;;;;;;;;;;;
Brain-Class387;9080387;U81;1930;1930;1930;1930;3;8;0;3;0;5;0;BETA;1930;2100;3000;x;;;;;;;;;;;;
Brain-Class388;9080388;U81;1930;1930;1930;1930;3;8;0;3;0;5;0;BETA;1930;2100;3000;x;;;;;;;;;;;;
Brain-Class389;9080389;U81;1930;1930;1930;1930;3;8;0;3;0;5;0;BETA;1930;2100;3000;x;;;;;;;;;;;;
Brain-Class390;9080390;U81;1930;1930;1930;1930;3;8;0;3;0;5;0;BETA;1930;2100;3000;x;;;;;;;;;;;;
Brain-Class391;9080391;U81;1930;1930;1930;1930;3;8;0;3;0;5;0;BETA;1930;2100;3000;x;;;;;;;;;;;;
Brain-Class392;9080392;U81;1930;1930;1930;1930;3;8;0;3;0;5;0;BETA;1930;2100;3000;x;;;;;;;;;;;;
Brain-Class393;9080393;U81;1930;1930;1930;1930;3;8;0;3;0;5;0;BETA;1930;2100;3000;x;;;;;;;;;;;;
Brain-Class394;9080394;U81;1930;1930;1930;1930;3;8;0;3;0;5;0;BETA;1930;2100;3000;x;;;;;;;;;;;;
Brain-Class395;9080395;U81;1930;1930;1930;1930;3;8;0;3;0;5;0;BETA;1930;2100;3000;x;;;;;;;;;;;;
Brain-Class396;9080396;U81;1930;1930;1930;1930;3;8;0;3;0;5;0;BETA;1930;2100;3000;x;;;;;;;;;;;;
Brain-Class397;9080397;U81;1930;1930;1930;1930;3;8;0;3;0;5;0;BETA;1930;2100;3000;x;;;;;;;;;;;;
Brain-Class398;9080398;U81;1930;1930;1930;1930;3;8;0;3;0;5;0;BETA;1930;2100;3000;x;;;;;;;;;;;;
Brain-Class399;9080399;U81;1930;1930;1930;1930;3;8;0;3;0;5;0;BETA;1930;2100;3000;x;;;;;;;;;;;;
Brain-Class400;9080400;U81;1930;1930;1930;1930;3;8;0;3;0;5;0;BETA;1930;2100;3000;x;;;;;;;;;;;;
Brain-Class401;9080401;U81;1930;1930;1930;1930;3;8;0;3;0;5;0;BETA;1930;2100;3000;x;;;;;;;;;;;;
Brain-Class402;9080402;U81;1930;1930;1930;1930;3;8;0;3;0;5;0;BETA;1930;2100;3000;x;;;;;;;;;;;;
Brain-Class403;9080403;U81;1930;1930;1930;1930;3;8;0;3;0;5;0;BETA;1930;2100;3000;x;;;;;;;;;;;;
Brain-Class404;9080404;U81;1930;1930;1930;1930;3;8;0;3;0;5;0;BETA;1930;2100;3000;x;;;;;;;;;;;;
Brain-Class405;9080405;U81;1930;1930;1930;1930;3;8;0;3;0;5;0;BETA;1930;2100;3000;x;;;;;;;;;;;;
Brain-Class406;9080406;U81;1930;1930;1930;1930;3;8;0;3;0;5;0;BETA;1930;2100;3000;x;;;;;;;;;;;;
Brain-Class407;9080407;U81;1930;1930;1930;1930;3;8;0;3;0;5;0;BETA;1930;2100;3000;x;;;;;;;;;;;;
Brain-Class408;9080408;U81;1930;1930;1930;1930;3;8;0;3;0;5;0;BETA;1930;2100;3000;x;;;;;;;;;;;;
Brain-Class409;9080409;U81;1930;1930;1930;1930;3;8;0;3;0;5;0;BETA;1930;2100;3000;x;;;;;;;;;;;;
Brain-Class410;9080410;U81;1930;1930;1930;1930;3;8;0;3;0;5;0;BETA;1930;2100;3000;x;;;;;;;;;;;;
Brain-Class411;9080411;U81;1930;1930;1930;1930;3;8;0;3;0;5;0;BETA;1930;2100;3000;x;;;;;;;;;;;;
Brain-Class412;9080412;U81;1930;1930;1930;1930;3;8;0;3;0;5;0;BETA;1930;2100;3000;x;;;;;;;;;;;;
Brain-Class413;9080413;U81;1930;1930;1930;1930;3;8;0;3;0;5;0;BETA;1930;2100;3000;x;;;;;;;;;;;;
Brain-Class414;9080414;U81;1930;1930;1930;1930;3;8;0;3;0;5;0;BETA;1930;2100;3000;x;;;;;;;;;;;;
Brain-Class415;9080415;U81;1930;1930;1930;1930;3;8;0;3;0;5;0;BETA;1930;2100;3000;x;;;;;;;;;;;;
Brain-Class416;9080416;U81;1930;1930;1930;1930;3;8;0;3;0;5;0;BETA;1930;2100;3000;x;;;;;;;;;;;;
Brain-Class417;9080417;U81;1930;1930;1930;1930;3;8;0;3;0;5;0;BETA;1930;2100;3000;x;;;;;;;;;;;;
Brain-Class418;9080418;U81;1930;1930;1930;1930;3;8;0;3;0;5;0;BETA;1930;2100;3000;x;;;;;;;;;;;;
Brain-Class419;9080419;U81;1930;1930;1930;1930;3;8;0;3;0;5;0;BETA;1930;2100;3000;x;;;;;;;;;;;;
Brain-Class420;9080420;U81;1930;1930;1930;1930;3;8;0;3;0;5;0;BETA;1930;2100;3000;x;;;;;;;;;;;;
Brain-Class421;9080421;U81;1930;1930;1930;1930;3;8;0;3;0;5;0;BETA;1930;2100;3000;x;;;;;;;;;;;;
Brain-Class422;9080422;U81;1930;1930;1930;1930;3;8;0;3;0;5;0;BETA;1930;2100;3000;x;;;;;;;;;;;;
Brain-Class423;9080423;U81;1930;1930;1930;1930;3;8;0;3;0;5;0;BETA;1930;2100;3000;x;;;;;;;;;;;;
Brain-Class424;9080424;U81;1930;1930;1930;1930;3;8;0;3;0;5;0;BETA;1930;2100;3000;x;;;;;;;;;;;;
Brain-Class425;9080425;U81;1930;1930;1930;1930;3;8;0;3;0;5;0;BETA;1930;2100;3000;x;;;;;;;;;;;;
Brain-Class426;9080426;U81;1930;1930;1930;1930;3;8;0;3;0;5;0;BETA;1930;2100;3000;x;;;;;;;;;;;;
Brain-Class427;9080427;U81;1930;1930;1930;1930;3;8;0;3;0;5;0;BETA;1930;2100;3000;x;;;;;;;;;;;;
Brain-Class428;9080428;U81;1930;1930;1930;1930;3;8;0;3;0;5;0;BETA;1930;2100;3000;x;;;;;;;;;;;;
Brain-Class429;9080429;U81;1930;1930;1930;1930;3;8;0;3;0;5;0;BETA;1930;2100;3000;x;;;;;;;;;;;;
Brain-Class430;9080430;U81;1930;1930;1930;1930;3;8;0;3;0;5;0;BETA;1930;2100;3000;x;;;;;;;;;;;;
Brain-Class431;9080431;U81;1930;1930;1930;1930;3;8;0;3;0;5;0;BETA;1930;2100;3000;x;;;;;;;;;;;;
Brain-Class432;9080432;U81;1930;1930;1930;1930;3;8;0;3;0;5;0;BETA;1930;2100;3000;x;;;;;;;;;;;;
Brain-Class433;9080433;U81;1930;1930;1930;1930;3;8;0;3;0;5;0;BETA;1930;2100;3000;x;;;;;;;;;;;;
Brain-Class434;9080434;U81;1930;1930;1930;1930;3;8;0;3;0;5;0;BETA;1930;2100;3000;x;;;;;;;;;;;;
Brain-Class435;9080435;U81;1930;1930;1930;1930;3;8;0;3;0;5;0;BETA;1930;2100;3000;x;;;;;;;;;;;;
Brain-Class436;9080436;U81;1930;1930;1930;1930;3;8;0;3;0;5;0;BETA;1930;2100;3000;x;;;;;;;;;;;;
Brain-Class437;9080437;U81;1930;1930;1930;1930;3;8;0;3;0;5;0;BETA;1930;2100;3000;x;;;;;;;;;;;;
Brain-Class438;9080438;U81;1930;1930;1930;1930;3;8;0;3;0;5;0;BETA;1930;2100;3000;x;;;;;;;;;;;;
Brain-Class439;9080439;U81;1930;1930;1930;1930;3;8;0;3;0;5;0;BETA;1930;2100;3000;x;;;;;;;;;;;;
Brain-Class440;9080440;U81;1930;1930;1930;1930;3;8;0;3;0;5;0;BETA;1930;2100;3000;x;;;;;;;;;;;;
Brain-Class441;9080441;U81;1930;1930;1930;1930;3;8;0;3;0;5;0;BETA;1930;2100;3000;x;;;;;;;;;;;;
Brain-Class442;9080442;U81;1930;1930;1930;1930;3;8;0;3;0;5;0;BETA;1930;2100;3000;x;;;;;;;;;;;;
Brain-Class443;9080443;U81;1930;1930;1930;1930;3;8;0;3;0;5;0;BETA;1930;2100;3000;x;;;;;;;;;;;;
Brain-Class444;9080444;U81;1930;1930;1930;1930;3;8;0;3;0;5;0;BETA;1930;2100;3000;x;;;;;;;;;;;;
Brain-Class445;9080445;U81;1930;1930;1930;1930;3;8;0;3;0;5;0;BETA;1930;2100;3000;x;;;;;;;;;;;;
Brain-Class446;9080446;U81;1930;1930;1930;1930;3;8;0;3;0;5;0;BETA;1930;2100;3000;x;;;;;;;;;;;;
Brain-Class447;9080447;U81;1930;1930;1930;1930;3;8;0;3;0;5;0;BETA;1930;2100;3000;x;;;;;;;;;;;;
Brain-Class448;9080448;U81;1930;1930;1930;1930;3;8;0;3;0;5;0;BETA;1930;2100;3000;x;;;;;;;;;;;;
Brain-Class449;9080449;U81;1930;1930;1930;1930;3;8;0;3;0;5;0;BETA;1930;2100;3000;x;;;;;;;;;;;;
Brain-Class450;9080450;U81;1930;1930;1930;1930;3;8;0;3;0;5;0;BETA;1930;2100;3000;x;;;;;;;;;;;;
Brain-Class451;9080451;U81;1930;1930;1930;1930;3;8;0;3;0;5;0;BETA;1930;2100;3000;x;;;;;;;;;;;;
Brain-Class452;9080452;U81;1930;1930;1930;1930;3;8;0;3;0;5;0;BETA;1930;2100;3000;x;;;;;;;;;;;;
Brain-Class453;9080453;U81;1930;1930;1930;1930;3;8;0;3;0;5;0;BETA;1930;2100;3000;x;;;;;;;;;;;;
Brain-Class454;9080454;U81;1930;1930;1930;1930;3;8;0;3;0;5;0;BETA;1930;2100;3000;x;;;;;;;;;;;;
Brain-Class455;9080455;U81;1930;1930;1930;1930;3;8;0;3;0;5;0;BETA;1930;2100;3000;x;;;;;;;;;;;;
Brain-Class456;9080456;U81;1930;1930;1930;1930;3;8;0;3;0;5;0;BETA;1930;2100;3000;x;;;;;;;;;;;;
Brain-Class457;9080457;U81;1930;1930;1930;1930;3;8;0;3;0;5;0;BETA;1930;2100;3000;x;;;;;;;;;;;;
Brain-Class458;9080458;U81;1930;1930;1930;1930;3;8;0;3;0;5;0;BETA;1930;2100;3000;x;;;;;;;;;;;;
Brain-Class459;9080459;U81;1930;1930;1930;1930;3;8;0;3;0;5;0;BETA;1930;2100;3000;x;;;;;;;;;;;;
Brain-Class460;9080460;U81;1930;1930;1930;1930;3;8;0;3;0;5;0;BETA;1930;2100;3000;x;;;;;;;;;;;;
Brain-Class461;9080461;U81;1930;1930;1930;1930;3;8;0;3;0;5;0;BETA;1930;2100;3000;x;;;;;;;;;;;;
Brain-Class462;9080462;U81;1930;1930;1930;1930;3;8;0;3;0;5;0;BETA;1930;2100;3000;x;;;;;;;;;;;;
Brain-Class463;9080463;U81;1930;1930;1930;1930;3;8;0;3;0;5;0;BETA;1930;2100;3000;x;;;;;;;;;;;;
Brain-Class464;9080464;U81;1930;1930;1930;1930;3;8;0;3;0;5;0;BETA;1930;2100;3000;x;;;;;;;;;;;;
Brain-Class465;9080465;U81;1930;1930;1930;1930;3;8;0;3;0;5;0;BETA;1930;2100;3000;x;;;;;;;;;;;;
Brain-Class466;9080466;U81;1930;1930;1930;1930;3;8;0;3;0;5;0;BETA;1930;2100;3000;x;;;;;;;;;;;;
Brain-Class467;9080467;U81;1930;1930;1930;1930;3;8;0;3;0;5;0;BETA;1930;2100;3000;x;;;;;;;;;;;;
Brain-Class468;9080468;U81;1930;1930;1930;1930;3;8;0;3;0;5;0;BETA;1930;2100;3000;x;;;;;;;;;;;;
Brain-Class469;9080469;U81;1930;1930;1930;1930;3;8;0;3;0;5;0;BETA;1930;2100;3000;x;;;;;;;;;;;;
Brain-Class470;9080470;U81;1930;1930;1930;1930;3;8;0;3;0;5;0;BETA;1930;2100;3000;x;;;;;;;;;;;;
Brain-Class471;9080471;U81;1930;1930;1930;1930;3;8;0;3;0;5;0;BETA;1930;2100;3000;x;;;;;;;;;;;;
Brain-Class472;9080472;U81;1930;1930;1930;1930;3;8;0;3;0;5;0;BETA;1930;2100;3000;x;;;;;;;;;;;;
Brain-Class473;9080473;U81;1930;1930;1930;1930;3;8;0;3;0;5;0;BETA;1930;2100;3000;x;;;;;;;;;;;;
Brain-Class474;9080474;U81;1930;1930;1930;1930;3;8;0;3;0;5;0;BETA;1930;2100;3000;x;;;;;;;;;;;;
Brain-Class475;9080475;U81;1930;1930;1930;1930;3;8;0;3;0;5;0;BETA;1930;2100;3000;x;;;;;;;;;;;;
Brain-Class476;9080476;U81;1930;1930;1930;1930;3;8;0;3;0;5;0;BETA;1930;2100;3000;x;;;;;;;;;;;;
Brain-Class477;9080477;U81;1930;1930;1930;1930;3;8;0;3;0;5;0;BETA;1930;2100;3000;x;;;;;;;;;;;;
Brain-Class478;9080478;U81;1930;1930;1930;1930;3;8;0;3;0;5;0;BETA;1930;2100;3000;x;;;;;;;;;;;;
Brain-Class479;9080479;U81;1930;1930;1930;1930;3;8;0;3;0;5;0;BETA;1930;2100;3000;x;;;;;;;;;;;;
Brain-Class480;9080480;U81;1930;1930;1930;1930;3;8;0;3;0;5;0;BETA;1930;2100;3000;x;;;;;;;;;;;;
Brain-Class481;9080481;U81;1930;1930;1930;1930;3;8;0;3;0;5;0;BETA;1930;2100;3000;x;;;;;;;;;;;;
Brain-Class482;9080482;U81;1930;1930;1930;1930;3;8;0;3;0;5;0;BETA;1930;2100;3000;x;;;;;;;;;;;;
Brain-Class483;9080483;U81;1930;1930;1930;1930;3;8;0;3;0;5;0;BETA;1930;2100;3000;x;;;;;;;;;;;;
Brain-Class484;9080484;U81;1930;1930;1930;1930;3;8;0;3;0;5;0;BETA;1930;2100;3000;x;;;;;;;;;;;;
Brain-Class485;9080485;U81;1930;1930;1930;1930;3;8;0;3;0;5;0;BETA;1930;2100;3000;x;;;;;;;;;;;;
Brain-Class486;9080486;U81;1930;1930;1930;1930;3;8;0;3;0;5;0;BETA;1930;2100;3000;x;;;;;;;;;;;;
Brain-Class487;9080487;U81;1930;1930;1930;1930;3;8;0;3;0;5;0;BETA;1930;2100;3000;x;;;;;;;;;;;;
Brain-Class488;9080488;U81;1930;1930;1930;1930;3;8;0;3;0;5;0;BETA;1930;2100;3000;x;;;;;;;;;;;;
Brain-Class489;9080489;U81;1930;1930;1930;1930;3;8;0;3;0;5;0;BETA;1930;2100;3000;x;;;;;;;;;;;;
Brain-Class490;9080490;U81;1930;1930;1930;1930;3;8;0;3;0;5;0;BETA;1930;2100;3000;x;;;;;;;;;;;;
Brain-Class491;9080491;U81;1930;1930;1930;1930;3;8;0;3;0;5;0;BETA;1930;2100;3000;x;;;;;;;;;;;;
Brain-Class492;9080492;U81;1930;1930;1930;1930;3;8;0;3;0;5;0;BETA;1930;2100;3000;x;;;;;;;;;;;;
Brain-Class493;9080493;U81;1930;1930;1930;1930;3;8;0;3;0;5;0;BETA;1930;2100;3000;x;;;;;;;;;;;;
Brain-Class494;9080494;U81;1930;1930;1930;1930;3;8;0;3;0;5;0;BETA;1930;2100;3000;x;;;;;;;;;;;;
Brain-Class495;9080495;U81;1930;1930;1930;1930;3;8;0;3;0;5;0;BETA;1930;2100;3000;x;;;;;;;;;;;;
Brain-Class496;9080496;U81;1930;1930;1930;1930;3;8;0;3;0;5;0;BETA;1930;2100;3000;x;;;;;;;;;;;;
Brain-Class497;9080497;U81;1930;1930;1930;1930;3;8;0;3;0;5;0;BETA;1930;2100;3000;x;;;;;;;;;;;;
Brain-Class498;9080498;U81;1930;1930;1930;1930;3;8;0;3;0;5;0;BETA;1930;2100;3000;x;;;;;;;;;;;;
Brain-Class499;9080499;U81;1930;1930;1930;1930;3;8;0;3;0;5;0;BETA;1930;2100;3000;x;;;;;;;;;;;;
Brain-Class500;9080500;U81;1930;1930;1930;1930;3;8;0;3;0;5;0;BETA;1930;2100;3000;x;;;;;;;;;;;;
Brain-Class501;9080501;U81;1930;1930;1930;1930;3;8;0;3;0;5;0;BETA;1930;2100;3000;x;;;;;;;;;;;;
Brain-Class502;9080502;U81;1930;1930;1930;1930;3;8;0;3;0;5;0;BETA;1930;2100;3000;x;;;;;;;;;;;;
Brain-Class503;9080503;U81;1930;1930;1930;1930;3;8;0;3;0;5;0;BETA;1930;2100;3000;x;;;;;;;;;;;;
Brain-Class504;9080504;U81;1930;1930;1930;1930;3;8;0;3;0;5;0;BETA;1930;2100;3000;x;;;;;;;;;;;;
Brain-Class505;9080505;U81;1930;1930;1930;1930;3;8;0;3;0;5;0;BETA;1930;2100;3000;x;;;;;;;;;;;;
Brain-Class506;9080506;U81;1930;1930;1930;1930;3;8;0;3;0;5;0;BETA;1930;2100;3000;x;;;;;;;;;;;;
Brain-Class507;9080507;U81;1930;1930;1930;1930;3;8;0;3;0;5;0;BETA;1930;2100;3000;x;;;;;;;;;;;;
Brain-Class508;9080508;U81;1930;1930;1930;1930;3;8;0;3;0;5;0;BETA;1930;2100;3000;x;;;;;;;;;;;;
Brain-Class509;9080509;U81;1930;1930;1930;1930;3;8;0;3;0;5;0;BETA;1930;2100;3000;x;;;;;;;;;;;;
Brain-Class510;9080510;U81;1930;1930;1930;1930;3;8;0;3;0;5;0;BETA;1930;2100;3000;x;;;;;;;;;;;;
Brain-Class511;9080511;U81;1930;1930;1930;1930;3;8;0;3;0;5;0;BETA;1930;2100;3000;x;;;;;;;;;;;;
Brain-Class512;9080512;U81;1930;1930;1930;1930;3;8;0;3;0;5;0;BETA;1930;2100;3000;x;;;;;;;;;;;;
Brain-Class513;9080513;U81;1930;1930;1930;1930;3;8;0;3;0;5;0;BETA;1930;2100;3000;x;;;;;;;;;;;;
Brain-Class514;9080514;U81;1930;1930;1930;1930;3;8;0;3;0;5;0;BETA;1930;2100;3000;x;;;;;;;;;;;;
Brain-Class515;9080515;U81;1930;1930;1930;1930;3;8;0;3;0;5;0;BETA;1930;2100;3000;x;;;;;;;;;;;;
Brain-Class516;9080516;U81;1930;1930;1930;1930;3;8;0;3;0;5;0;BETA;1930;2100;3000;x;;;;;;;;;;;;
Brain-Class517;9080517;U81;1930;1930;1930;1930;3;8;0;3;0;5;0;BETA;1930;2100;3000;x;;;;;;;;;;;;
Brain-Class518;9080518;U81;1930;1930;1930;1930;3;8;0;3;0;5;0;BETA;1930;2100;3000;x;;;;;;;;;;;;
Brain-Class519;9080519;U81;1930;1930;1930;1930;3;8;0;3;0;5;0;BETA;1930;2100;3000;x;;;;;;;;;;;;
Brain-Class520;9080520;U81;1930;1930;1930;1930;3;8;0;3;0;5;0;BETA;1930;2100;3000;x;;;;;;;;;;;;
Brain-Class521;9080521;U81;1930;1930;1930;1930;3;8;0;3;0;5;0;BETA;1930;2100;3000;x;;;;;;;;;;;;
Brain-Class522;9080522;U81;1930;1930;1930;1930;3;8;0;3;0;5;0;BETA;1930;2100;3000;x;;;;;;;;;;;;
Brain-Class523;9080523;U81;1930;1930;1930;1930;3;8;0;3;0;5;0;BETA;1930;2100;3000;x;;;;;;;;;;;;
Brain-Class524;9080524;U81;1930;1930;1930;1930;3;8;0;3;0;5;0;BETA;1930;2100;3000;x;;;;;;;;;;;;
Brain-Class525;9080525;U81;1930;1930;1930;1930;3;8;0;3;0;5;0;BETA;1930;2100;3000;x;;;;;;;;;;;;
Brain-Class526;9080526;U81;1930;1930;1930;1930;3;8;0;3;0;5;0;BETA;1930;2100;3000;x;;;;;;;;;;;;
Brain-Class527;9080527;U81;1930;1930;1930;1930;3;8;0;3;0;5;0;BETA;1930;2100;3000;x;;;;;;;;;;;;
Brain-Class528;9080528;U81;1930;1930;1930;1930;3;8;0;3;0;5;0;BETA;1930;2100;3000;x;;;;;;;;;;;;
Brain-Class529;9080529;U81;1930;1930;1930;1930;3;8;0;3;0;5;0;BETA;1930;2100;3000;x;;;;;;;;;;;;
Brain-Class530;9080530;U81;1930;1930;1930;1930;3;8;0;3;0;5;0;BETA;1930;2100;3000;x;;;;;;;;;;;;
Brain-Class531;9080531;U81;1930;1930;1930;1930;3;8;0;3;0;5;0;BETA;1930;2100;3000;x;;;;;;;;;;;;
Brain-Class532;9080532;U81;1930;1930;1930;1930;3;8;0;3;0;5;0;BETA;1930;2100;3000;x;;;;;;;;;;;;
Brain-Class533;9080533;U81;1930;1930;1930;1930;3;8;0;3;0;5;0;BETA;1930;2100;3000;x;;;;;;;;;;;;
Brain-Class534;9080534;U81;1930;1930;1930;1930;3;8;0;3;0;5;0;BETA;1930;2100;3000;x;;;;;;;;;;;;
Brain-Class535;9080535;U81;1930;1930;1930;1930;3;8;0;3;0;5;0;BETA;1930;2100;3000;x;;;;;;;;;;;;
Brain-Class536;9080536;U81;1930;1930;1930;1930;3;8;0;3;0;5;0;BETA;1930;2100;3000;x;;;;;;;;;;;;
Brain-Class537;9080537;U81;1930;1930;1930;1930;3;8;0;3;0;5;0;BETA;1930;2100;3000;x;;;;;;;;;;;;
Brain-Class538;9080538;U81;1930;1930;1930;1930;3;8;0;3;0;5;0;BETA;1930;2100;3000;x;;;;;;;;;;;;
Brain-Class539;9080539;U81;1930;1930;1930;1930;3;8;0;3;0;5;0;BETA;1930;2100;3000;x;;;;;;;;;;;;
Brain-Class540;9080540;U81;1930;1930;1930;1930;3;8;0;3;0;5;0;BETA;1930;2100;3000;x;;;;;;;;;;;;
Brain-Class541;9080541;U81;1930;1930;1930;1930;3;8;0;3;0;5;0;BETA;1930;2100;3000;x;;;;;;;;;;;;
Brain-Class542;9080542;U81;1930;1930;1930;1930;3;8;0;3;0;5;0;BETA;1930;2100;3000;x;;;;;;;;;;;;
Brain-Class543;9080543;U81;1930;1930;1930;1930;3;8;0;3;0;5;0;BETA;1930;2100;3000;x;;;;;;;;;;;;
Brain-Class544;9080544;U81;1930;1930;1930;1930;3;8;0;3;0;5;0;BETA;1930;2100;3000;x;;;;;;;;;;;;
Brain-Class545;9080545;U81;1930;1930;1930;1930;3;8;0;3;0;5;0;BETA;1930;2100;3000;x;;;;;;;;;;;;
Brain-Class546;9080546;U81;1930;1930;1930;1930;3;8;0;3;0;5;0;BETA;1930;2100;3000;x;;;;;;;;;;;;
Brain-Class547;9080547;U81;1930;1930;1930;1930;3;8;0;3;0;5;0;BETA;1930;2100;3000;x;;;;;;;;;;;;
Brain-Class548;9080548;U81;1930;1930;1930;1930;3;8;0;3;0;5;0;BETA;1930;2100;3000;x;;;;;;;;;;;;
Brain-Class549;9080549;U81;1930;1930;1930;1930;3;8;0;3;0;5;0;BETA;1930;2100;3000;x;;;;;;;;;;;;
Brain-Class550;9080550;U81;1930;1930;1930;1930;3;8;0;3;0;5;0;BETA;1930;2100;3000;x;;;;;;;;;;;;
Brain-Class551;9080551;U81;1930;1930;1930;1930;3;8;0;3;0;5;0;BETA;1930;2100;3000;x;;;;;;;;;;;;
Brain-Class552;9080552;U81;1930;1930;1930;1930;3;8;0;3;0;5;0;BETA;1930;2100;3000;x;;;;;;;;;;;;
Brain-Class553;9080553;U81;1930;1930;1930;1930;3;8;0;3;0;5;0;BETA;1930;2100;3000;x;;;;;;;;;;;;
Brain-Class554;9080554;U81;1930;1930;1930;1930;3;8;0;3;0;5;0;BETA;1930;2100;3000;x;;;;;;;;;;;;
Brain-Class555;9080555;U81;1930;1930;1930;1930;3;8;0;3;0;5;0;BETA;1930;2100;3000;x;;;;;;;;;;;;
Brain-Class556;9080556;U81;1930;1930;1930;1930;3;8;0;3;0;5;0;BETA;1930;2100;3000;x;;;;;;;;;;;;
Brain-Class557;9080557;U81;1930;1930;1930;1930;3;8;0;3;0;5;0;BETA;1930;2100;3000;x;;;;;;;;;;;;
Brain-Class558;9080558;U81;1930;1930;1930;1930;3;8;0;3;0;5;0;BETA;1930;2100;3000;x;;;;;;;;;;;;
Brain-Class559;9080559;U81;1930;1930;1930;1930;3;8;0;3;0;5;0;BETA;1930;2100;3000;x;;;;;;;;;;;;
Brain-Class560;9080560;U81;1930;1930;1930;1930;3;8;0;3;0;5;0;BETA;1930;2100;3000;x;;;;;;;;;;;;
Brain-Class561;9080561;U81;1930;1930;1930;1930;3;8;0;3;0;5;0;BETA;1930;2100;3000;x;;;;;;;;;;;;
Brain-Class562;9080562;U81;1930;1930;1930;1930;3;8;0;3;0;5;0;BETA;1930;2100;3000;x;;;;;;;;;;;;
Brain-Class563;9080563;U81;1930;1930;1930;1930;3;8;0;3;0;5;0;BETA;1930;2100;3000;x;;;;;;;;;;;;
Brain-Class564;9080564;U81;1930;1930;1930;1930;3;8;0;3;0;5;0;BETA;1930;2100;3000;x;;;;;;;;;;;;
Brain-Class565;9080565;U81;1930;1930;1930;1930;3;8;0;3;0;5;0;BETA;1930;2100;3000;x;;;;;;;;;;;;
Brain-Class566;9080566;U81;1930;1930;1930;1930;3;8;0;3;0;5;0;BETA;1930;2100;3000;x;;;;;;;;;;;;
Brain-Class567;9080567;U81;1930;1930;1930;1930;3;8;0;3;0;5;0;BETA;1930;2100;3000;x;;;;;;;;;;;;
Brain-Class568;9080568;U81;1930;1930;1930;1930;3;8;0;3;0;5;0;BETA;1930;2100;3000;x;;;;;;;;;;;;
Brain-Class569;9080569;U81;1930;1930;1930;1930;3;8;0;3;0;5;0;BETA;1930;2100;3000;x;;;;;;;;;;;;
Brain-Class570;9080570;U81;1930;1930;1930;1930;3;8;0;3;0;5;0;BETA;1930;2100;3000;x;;;;;;;;;;;;
Brain-Class571;9080571;U81;1930;1930;1930;1930;3;8;0;3;0;5;0;BETA;1930;2100;3000;x;;;;;;;;;;;;
Brain-Class572;9080572;U81;1930;1930;1930;1930;3;8;0;3;0;5;0;BETA;1930;2100;3000;x;;;;;;;;;;;;
Brain-Class573;9080573;U81;1930;1930;1930;1930;3;8;0;3;0;5;0;BETA;1930;2100;3000;x;;;;;;;;;;;;
Brain-Class574;9080574;U81;1930;1930;1930;1930;3;8;0;3;0;5;0;BETA;1930;2100;3000;x;;;;;;;;;;;;
Brain-Class575;9080575;U81;1930;1930;1930;1930;3;8;0;3;0;5;0;BETA;1930;2100;3000;x;;;;;;;;;;;;
Brain-Class576;9080576;U81;1930;1930;1930;1930;3;8;0;3;0;5;0;BETA;1930;2100;3000;x;;;;;;;;;;;;
Brain-Class577;9080577;U81;1930;1930;1930;1930;3;8;0;3;0;5;0;BETA;1930;2100;3000;x;;;;;;;;;;;;
Brain-Class578;9080578;U81;1930;1930;1930;1930;3;8;0;3;0;5;0;BETA;1930;2100;3000;x;;;;;;;;;;;;
Brain-Class579;9080579;U81;1930;1930;1930;1930;3;8;0;3;0;5;0;BETA;1930;2100;3000;x;;;;;;;;;;;;
Brain-Class580;9080580;U81;1930;1930;1930;1930;3;8;0;3;0;5;0;BETA;1930;2100;3000;x;;;;;;;;;;;;
Brain-Class581;9080581;U81;1930;1930;1930;1930;3;8;0;3;0;5;0;BETA;1930;2100;3000;x;;;;;;;;;;;;
Brain-Class582;9080582;U81;1930;1930;1930;1930;3;8;0;3;0;5;0;BETA;1930;2100;3000;x;;;;;;;;;;;;
Brain-Class583;9080583;U81;1930;1930;1930;1930;3;8;0;3;0;5;0;BETA;1930;2100;3000;x;;;;;;;;;;;;
Brain-Class584;9080584;U81;1930;1930;1930;1930;3;8;0;3;0;5;0;BETA;1930;2100;3000;x;;;;;;;;;;;;
Brain-Class585;9080585;U81;1930;1930;1930;1930;3;8;0;3;0;5;0;BETA;1930;2100;3000;x;;;;;;;;;;;;
Brain-Class586;9080586;U81;1930;1930;1930;1930;3;8;0;3;0;5;0;BETA;1930;2100;3000;x;;;;;;;;;;;;
Brain-Class587;9080587;U81;1930;1930;1930;1930;3;8;0;3;0;5;0;BETA;1930;2100;3000;x;;;;;;;;;;;;
Brain-Class588;9080588;U81;1930;1930;1930;1930;3;8;0;3;0;5;0;BETA;1930;2100;3000;x;;;;;;;;;;;;
Brain-Class589;9080589;U81;1930;1930;1930;1930;3;8;0;3;0;5;0;BETA;1930;2100;3000;x;;;;;;;;;;;;
Brain-Class590;9080590;U81;1930;1930;1930;1930;3;8;0;3;0;5;0;BETA;1930;2100;3000;x;;;;;;;;;;;;
Brain-Class591;9080591;U81;1930;1930;1930;1930;3;8;0;3;0;5;0;BETA;1930;2100;3000;x;;;;;;;;;;;;
Brain-Class592;9080592;U81;1930;1930;1930;1930;3;8;0;3;0;5;0;BETA;1930;2100;3000;x;;;;;;;;;;;;
Brain-Class593;9080593;U81;1930;1930;1930;1930;3;8;0;3;0;5;0;BETA;1930;2100;3000;x;;;;;;;;;;;;
Brain-Class594;9080594;U81;1930;1930;1930;1930;3;8;0;3;0;5;0;BETA;1930;2100;3000;x;;;;;;;;;;;;
Brain-Class595;9080595;U81;1930;1930;1930;1930;3;8;0;3;0;5;0;BETA;1930;2100;3000;x;;;;;;;;;;;;
Brain-Class596;9080596;U81;1930;1930;1930;1930;3;8;0;3;0;5;0;BETA;1930;2100;3000;x;;;;;;;;;;;;
Brain-Class597;9080597;U81;1930;1930;1930;1930;3;8;0;3;0;5;0;BETA;1930;2100;3000;x;;;;;;;;;;;;
Brain-Class598;9080598;U81;1930;1930;1930;1930;3;8;0;3;0;5;0;BETA;1930;2100;3000;x;;;;;;;;;;;;
Brain-Class599;9080599;U81;1930;1930;1930;1930;3;8;0;3;0;5;0;BETA;1930;2100;3000;x;;;;;;;;;;;;
Brain-Class600;9080600;U81;1930;1930;1930;1930;3;8;0;3;0;5;0;BETA;1930;2100;3000;x;;;;;;;;;;;;
Brain-Class601;9080601;U81;1930;1930;1930;1930;3;8;0;3;0;5;0;BETA;1930;2100;3000;x;;;;;;;;;;;;
Brain-Class602;9080602;U81;1930;1930;1930;1930;3;8;0;3;0;5;0;BETA;1930;2100;3000;x;;;;;;;;;;;;
Brain-Class603;9080603;U81;1930;1930;1930;1930;3;8;0;3;0;5;0;BETA;1930;2100;3000;x;;;;;;;;;;;;
Brain-Class604;9080604;U81;1930;1930;1930;1930;3;8;0;3;0;5;0;BETA;1930;2100;3000;x;;;;;;;;;;;;
Brain-Class605;9080605;U81;1930;1930;1930;1930;3;8;0;3;0;5;0;BETA;1930;2100;3000;x;;;;;;;;;;;;
Brain-Class606;9080606;U81;1930;1930;1930;1930;3;8;0;3;0;5;0;BETA;1930;2100;3000;x;;;;;;;;;;;;
Brain-Class607;9080607;U81;1930;1930;1930;1930;3;8;0;3;0;5;0;BETA;1930;2100;3000;x;;;;;;;;;;;;
Brain-Class608;9080608;U81;1930;1930;1930;1930;3;8;0;3;0;5;0;BETA;1930;2100;3000;x;;;;;;;;;;;;
Brain-Class609;9080609;U81;1930;1930;1930;1930;3;8;0;3;0;5;0;BETA;1930;2100;3000;x;;;;;;;;;;;;
Brain-Class610;9080610;U81;1930;1930;1930;1930;3;8;0;3;0;5;0;BETA;1930;2100;3000;x;;;;;;;;;;;;
Brain-Class611;9080611;U81;1930;1930;1930;1930;3;8;0;3;0;5;0;BETA;1930;2100;3000;x;;;;;;;;;;;;
Brain-Class612;9080612;U81;1930;1930;1930;1930;3;8;0;3;0;5;0;BETA;1930;2100;3000;x;;;;;;;;;;;;
Brain-Class613;9080613;U81;1930;1930;1930;1930;3;8;0;3;0;5;0;BETA;1930;2100;3000;x;;;;;;;;;;;;
Brain-Class614;9080614;U81;1930;1930;1930;1930;3;8;0;3;0;5;0;BETA;1930;2100;3000;x;;;;;;;;;;;;
Brain-Class615;9080615;U81;1930;1930;1930;1930;3;8;0;3;0;5;0;BETA;1930;2100;3000;x;;;;;;;;;;;;
Brain-Class616;9080616;U81;1930;1930;1930;1930;3;8;0;3;0;5;0;BETA;1930;2100;3000;x;;;;;;;;;;;;
Brain-Class617;9080617;U81;1930;1930;1930;1930;3;8;0;3;0;5;0;BETA;1930;2100;3000;x;;;;;;;;;;;;
Brain-Class618;9080618;U81;1930;1930;1930;1930;3;8;0;3;0;5;0;BETA;1930;2100;3000;x;;;;;;;;;;;;
Brain-Class619;9080619;U81;1930;1930;1930;1930;3;8;0;3;0;5;0;BETA;1930;2100;3000;x;;;;;;;;;;;;
Brain-Class620;9080620;U81;1930;1930;1930;1930;3;8;0;3;0;5;0;BETA;1930;2100;3000;x;;;;;;;;;;;;
Brain-Class621;9080621;U81;1930;1930;1930;1930;3;8;0;3;0;5;0;BETA;1930;2100;3000;x;;;;;;;;;;;;
Brain-Class622;9080622;U81;1930;1930;1930;1930;3;8;0;3;0;5;0;BETA;1930;2100;3000;x;;;;;;;;;;;;
Brain-Class623;9080623;U81;1930;1930;1930;1930;3;8;0;3;0;5;0;BETA;1930;2100;3000;x;;;;;;;;;;;;
Brain-Class624;9080624;U81;1930;1930;1930;1930;3;8;0;3;0;5;0;BETA;1930;2100;3000;x;;;;;;;;;;;;
Brain-Class625;9080625;U81;1930;1930;1930;1930;3;8;0;3;0;5;0;BETA;1930;2100;3000;x;;;;;;;;;;;;
Brain-Class626;9080626;U81;1930;1930;1930;1930;3;8;0;3;0;5;0;BETA;1930;2100;3000;x;;;;;;;;;;;;
Brain-Class627;9080627;U81;1930;1930;1930;1930;3;8;0;3;0;5;0;BETA;1930;2100;3000;x;;;;;;;;;;;;
Brain-Class628;9080628;U81;1930;1930;1930;1930;3;8;0;3;0;5;0;BETA;1930;2100;3000;x;;;;;;;;;;;;
Brain-Class629;9080629;U81;1930;1930;1930;1930;3;8;0;3;0;5;0;BETA;1930;2100;3000;x;;;;;;;;;;;;
Brain-Class630;9080630;U81;1930;1930;1930;1930;3;8;0;3;0;5;0;BETA;1930;2100;3000;x;;;;;;;;;;;;
Brain-Class631;9080631;U81;1930;1930;1930;1930;3;8;0;3;0;5;0;BETA;1930;2100;3000;x;;;;;;;;;;;;
Brain-Class632;9080632;U81;1930;1930;1930;1930;3;8;0;3;0;5;0;BETA;1930;2100;3000;x;;;;;;;;;;;;
Brain-Class633;9080633;U81;1930;1930;1930;1930;3;8;0;3;0;5;0;BETA;1930;2100;3000;x;;;;;;;;;;;;
Brain-Class634;9080634;U81;1930;1930;1930;1930;3;8;0;3;0;5;0;BETA;1930;2100;3000;x;;;;;;;;;;;;
Brain-Class635;9080635;U81;1930;1930;1930;1930;3;8;0;3;0;5;0;BETA;1930;2100;3000;x;;;;;;;;;;;;
Brain-Class636;9080636;U81;1930;1930;1930;1930;3;8;0;3;0;5;0;BETA;1930;2100;3000;x;;;;;;;;;;;;
Brain-Class637;9080637;U81;1930;1930;1930;1930;3;8;0;3;0;5;0;BETA;1930;2100;3000;x;;;;;;;;;;;;
Brain-Class638;9080638;U81;1930;1930;1930;1930;3;8;0;3;0;5;0;BETA;1930;2100;3000;x;;;;;;;;;;;;
Brain-Class639;9080639;U81;1930;1930;1930;1930;3;8;0;3;0;5;0;BETA;1930;2100;3000;x;;;;;;;;;;;;
Brain-Class640;9080640;U81;1930;1930;1930;1930;3;8;0;3;0;5;0;BETA;1930;2100;3000;x;;;;;;;;;;;;
Brain-Class641;9080641;U81;1930;1930;1930;1930;3;8;0;3;0;5;0;BETA;1930;2100;3000;x;;;;;;;;;;;;
Brain-Class642;9080642;U81;1930;1930;1930;1930;3;8;0;3;0;5;0;BETA;1930;2100;3000;x;;;;;;;;;;;;
Brain-Class643;9080643;U81;1930;1930;1930;1930;3;8;0;3;0;5;0;BETA;1930;2100;3000;x;;;;;;;;;;;;
Brain-Class644;9080644;U81;1930;1930;1930;1930;3;8;0;3;0;5;0;BETA;1930;2100;3000;x;;;;;;;;;;;;
Brain-Class645;9080645;U81;1930;1930;1930;1930;3;8;0;3;0;5;0;BETA;1930;2100;3000;x;;;;;;;;;;;;
Brain-Class646;9080646;U81;1930;1930;1930;1930;3;8;0;3;0;5;0;BETA;1930;2100;3000;x;;;;;;;;;;;;
Brain-Class647;9080647;U81;1930;1930;1930;1930;3;8;0;3;0;5;0;BETA;1930;2100;3000;x;;;;;;;;;;;;
Brain-Class648;9080648;U81;1930;1930;1930;1930;3;8;0;3;0;5;0;BETA;1930;2100;3000;x;;;;;;;;;;;;
Brain-Class649;9080649;U81;1930;1930;1930;1930;3;8;0;3;0;5;0;BETA;1930;2100;3000;x;;;;;;;;;;;;
Brain-Class650;9080650;U81;1930;1930;1930;1930;3;8;0;3;0;5;0;BETA;1930;2100;3000;x;;;;;;;;;;;;
Brain-Class651;9080651;U81;1930;1930;1930;1930;3;8;0;3;0;5;0;BETA;1930;2100;3000;x;;;;;;;;;;;;
Brain-Class652;9080652;U81;1930;1930;1930;1930;3;8;0;3;0;5;0;BETA;1930;2100;3000;x;;;;;;;;;;;;
Brain-Class653;9080653;U81;1930;1930;1930;1930;3;8;0;3;0;5;0;BETA;1930;2100;3000;x;;;;;;;;;;;;
Brain-Class654;9080654;U81;1930;1930;1930;1930;3;8;0;3;0;5;0;BETA;1930;2100;3000;x;;;;;;;;;;;;
Brain-Class655;9080655;U81;1930;1930;1930;1930;3;8;0;3;0;5;0;BETA;1930;2100;3000;x;;;;;;;;;;;;
Brain-Class656;9080656;U81;1930;1930;1930;1930;3;8;0;3;0;5;0;BETA;1930;2100;3000;x;;;;;;;;;;;;
Brain-Class657;9080657;U81;1930;1930;1930;1930;3;8;0;3;0;5;0;BETA;1930;2100;3000;x;;;;;;;;;;;;
Brain-Class658;9080658;U81;1930;1930;1930;1930;3;8;0;3;0;5;0;BETA;1930;2100;3000;x;;;;;;;;;;;;
Brain-Class659;9080659;U81;1930;1930;1930;1930;3;8;0;3;0;5;0;BETA;1930;2100;3000;x;;;;;;;;;;;;
Brain-Class660;9080660;U81;1930;1930;1930;1930;3;8;0;3;0;5;0;BETA;1930;2100;3000;x;;;;;;;;;;;;
Brain-Class661;9080661;U81;1930;1930;1930;1930;3;8;0;3;0;5;0;BETA;1930;2100;3000;x;;;;;;;;;;;;
Brain-Class662;9080662;U81;1930;1930;1930;1930;3;8;0;3;0;5;0;BETA;1930;2100;3000;x;;;;;;;;;;;;
Brain-Class663;9080663;U81;1930;1930;1930;1930;3;8;0;3;0;5;0;BETA;1930;2100;3000;x;;;;;;;;;;;;
Brain-Class664;9080664;U81;1930;1930;1930;1930;3;8;0;3;0;5;0;BETA;1930;2100;3000;x;;;;;;;;;;;;
Brain-Class665;9080665;U81;1930;1930;1930;1930;3;8;0;3;0;5;0;BETA;1930;2100;3000;x;;;;;;;;;;;;
Brain-Class666;9080666;U81;1930;1930;1930;1930;3;8;0;3;0;5;0;BETA;1930;2100;3000;x;;;;;;;;;;;;
Brain-Class667;9080667;U81;1930;1930;1930;1930;3;8;0;3;0;5;0;BETA;1930;2100;3000;x;;;;;;;;;;;;
Brain-Class668;9080668;U81;1930;1930;1930;1930;3;8;0;3;0;5;0;BETA;1930;2100;3000;x;;;;;;;;;;;;
Brain-Class669;9080669;U81;1930;1930;1930;1930;3;8;0;3;0;5;0;BETA;1930;2100;3000;x;;;;;;;;;;;;
Brain-Class670;9080670;U81;1930;1930;1930;1930;3;8;0;3;0;5;0;BETA;1930;2100;3000;x;;;;;;;;;;;;
Brain-Class671;9080671;U81;1930;1930;1930;1930;3;8;0;3;0;5;0;BETA;1930;2100;3000;x;;;;;;;;;;;;
Brain-Class672;9080672;U81;1930;1930;1930;1930;3;8;0;3;0;5;0;BETA;1930;2100;3000;x;;;;;;;;;;;;
Brain-Class673;9080673;U81;1930;1930;1930;1930;3;8;0;3;0;5;0;BETA;1930;2100;3000;x;;;;;;;;;;;;
Brain-Class674;9080674;U81;1930;1930;1930;1930;3;8;0;3;0;5;0;BETA;1930;2100;3000;x;;;;;;;;;;;;
Brain-Class675;9080675;U81;1930;1930;1930;1930;3;8;0;3;0;5;0;BETA;1930;2100;3000;x;;;;;;;;;;;;
Brain-Class676;9080676;U81;1930;1930;1930;1930;3;8;0;3;0;5;0;BETA;1930;2100;3000;x;;;;;;;;;;;;
Brain-Class677;9080677;U81;1930;1930;1930;1930;3;8;0;3;0;5;0;BETA;1930;2100;3000;x;;;;;;;;;;;;
Brain-Class678;9080678;U81;1930;1930;1930;1930;3;8;0;3;0;5;0;BETA;1930;2100;3000;x;;;;;;;;;;;;
Brain-Class679;9080679;U81;1930;1930;1930;1930;3;8;0;3;0;5;0;BETA;1930;2100;3000;x;;;;;;;;;;;;
Brain-Class680;9080680;U81;1930;1930;1930;1930;3;8;0;3;0;5;0;BETA;1930;2100;3000;x;;;;;;;;;;;;
Brain-Class681;9080681;U81;1930;1930;1930;1930;3;8;0;3;0;5;0;BETA;1930;2100;3000;x;;;;;;;;;;;;
Brain-Class682;9080682;U81;1930;1930;1930;1930;3;8;0;3;0;5;0;BETA;1930;2100;3000;x;;;;;;;;;;;;
Brain-Class683;9080683;U81;1930;1930;1930;1930;3;8;0;3;0;5;0;BETA;1930;2100;3000;x;;;;;;;;;;;;
Brain-Class684;9080684;U81;1930;1930;1930;1930;3;8;0;3;0;5;0;BETA;1930;2100;3000;x;;;;;;;;;;;;
Brain-Class685;9080685;U81;1930;1930;1930;1930;3;8;0;3;0;5;0;BETA;1930;2100;3000;x;;;;;;;;;;;;
Brain-Class686;9080686;U81;1930;1930;1930;1930;3;8;0;3;0;5;0;BETA;1930;2100;3000;x;;;;;;;;;;;;
Brain-Class687;9080687;U81;1930;1930;1930;1930;3;8;0;3;0;5;0;BETA;1930;2100;3000;x;;;;;;;;;;;;
Brain-Class688;9080688;U81;1930;1930;1930;1930;3;8;0;3;0;5;0;BETA;1930;2100;3000;x;;;;;;;;;;;;
Brain-Class689;9080689;U81;1930;1930;1930;1930;3;8;0;3;0;5;0;BETA;1930;2100;3000;x;;;;;;;;;;;;
Brain-Class690;9080690;U81;1930;1930;1930;1930;3;8;0;3;0;5;0;BETA;1930;2100;3000;x;;;;;;;;;;;;
Brain-Class691;9080691;U81;1930;1930;1930;1930;3;8;0;3;0;5;0;BETA;1930;2100;3000;x;;;;;;;;;;;;
Brain-Class692;9080692;U81;1930;1930;1930;1930;3;8;0;3;0;5;0;BETA;1930;2100;3000;x;;;;;;;;;;;;
Brain-Class693;9080693;U81;1930;1930;1930;1930;3;8;0;3;0;5;0;BETA;1930;2100;3000;x;;;;;;;;;;;;
Brain-Class694;9080694;U81;1930;1930;1930;1930;3;8;0;3;0;5;0;BETA;1930;2100;3000;x;;;;;;;;;;;;
Brain-Class695;9080695;U81;1930;1930;1930;1930;3;8;0;3;0;5;0;BETA;1930;2100;3000;x;;;;;;;;;;;;
Brain-Class696;9080696;U81;1930;1930;1930;1930;3;8;0;3;0;5;0;BETA;1930;2100;3000;x;;;;;;;;;;;;
Brain-Class697;9080697;U81;1930;1930;1930;1930;3;8;0;3;0;5;0;BETA;1930;2100;3000;x;;;;;;;;;;;;
Brain-Class698;9080698;U81;1930;1930;1930;1930;3;8;0;3;0;5;0;BETA;1930;2100;3000;x;;;;;;;;;;;;
Brain-Class699;9080699;U81;1930;1930;1930;1930;3;8;0;3;0;5;0;BETA;1930;2100;3000;x;;;;;;;;;;;;
Brain-Class700;9080700;U81;1930;1930;1930;1930;3;8;0;3;0;5;0;BETA;1930;2100;3000;x;;;;;;;;;;;;
Brain-Class701;9080701;U81;1930;1930;1930;1930;3;8;0;3;0;5;0;BETA;1930;2100;3000;x;;;;;;;;;;;;
Brain-Class702;9080702;U81;1930;1930;1930;1930;3;8;0;3;0;5;0;BETA;1930;2100;3000;x;;;;;;;;;;;;
Brain-Class703;9080703;U81;1930;1930;1930;1930;3;8;0;3;0;5;0;BETA;1930;2100;3000;x;;;;;;;;;;;;
Brain-Class704;9080704;U81;1930;1930;1930;1930;3;8;0;3;0;5;0;BETA;1930;2100;3000;x;;;;;;;;;;;;
Brain-Class705;9080705;U81;1930;1930;1930;1930;3;8;0;3;0;5;0;BETA;1930;2100;3000;x;;;;;;;;;;;;
Brain-Class706;9080706;U81;1930;1930;1930;1930;3;8;0;3;0;5;0;BETA;1930;2100;3000;x;;;;;;;;;;;;
Brain-Class707;9080707;U81;1930;1930;1930;1930;3;8;0;3;0;5;0;BETA;1930;2100;3000;x;;;;;;;;;;;;
Brain-Class708;9080708;U81;1930;1930;1930;1930;3;8;0;3;0;5;0;BETA;1930;2100;3000;x;;;;;;;;;;;;
Brain-Class709;9080709;U81;1930;1930;1930;1930;3;8;0;3;0;5;0;BETA;1930;2100;3000;x;;;;;;;;;;;;
Brain-Class710;9080710;U81;1930;1930;1930;1930;3;8;0;3;0;5;0;BETA;1930;2100;3000;x;;;;;;;;;;;;
Brain-Class711;9080711;U81;1930;1930;1930;1930;3;8;0;3;0;5;0;BETA;1930;2100;3000;x;;;;;;;;;;;;
Brain-Class712;9080712;U81;1930;1930;1930;1930;3;8;0;3;0;5;0;BETA;1930;2100;3000;x;;;;;;;;;;;;
Brain-Class713;9080713;U81;1930;1930;1930;1930;3;8;0;3;0;5;0;BETA;1930;2100;3000;x;;;;;;;;;;;;
Brain-Class714;9080714;U81;1930;1930;1930;1930;3;8;0;3;0;5;0;BETA;1930;2100;3000;x;;;;;;;;;;;;
Brain-Class715;9080715;U81;1930;1930;1930;1930;3;8;0;3;0;5;0;BETA;1930;2100;3000;x;;;;;;;;;;;;
Brain-Class716;9080716;U81;1930;1930;1930;1930;3;8;0;3;0;5;0;BETA;1930;2100;3000;x;;;;;;;;;;;;
Brain-Class717;9080717;U81;1930;1930;1930;1930;3;8;0;3;0;5;0;BETA;1930;2100;3000;x;;;;;;;;;;;;
Brain-Class718;9080718;U81;1930;1930;1930;1930;3;8;0;3;0;5;0;BETA;1930;2100;3000;x;;;;;;;;;;;;
Brain-Class719;9080719;U81;1930;1930;1930;1930;3;8;0;3;0;5;0;BETA;1930;2100;3000;x;;;;;;;;;;;;
Brain-Class720;9080720;U81;1930;1930;1930;1930;3;8;0;3;0;5;0;BETA;1930;2100;3000;x;;;;;;;;;;;;
Brain-Class721;9080721;U81;1930;1930;1930;1930;3;8;0;3;0;5;0;BETA;1930;2100;3000;x;;;;;;;;;;;;
Brain-Class722;9080722;U81;1930;1930;1930;1930;3;8;0;3;0;5;0;BETA;1930;2100;3000;x;;;;;;;;;;;;
Brain-Class723;9080723;U81;1930;1930;1930;1930;3;8;0;3;0;5;0;BETA;1930;2100;3000;x;;;;;;;;;;;;
Brain-Class724;9080724;U81;1930;1930;1930;1930;3;8;0;3;0;5;0;BETA;1930;2100;3000;x;;;;;;;;;;;;
Brain-Class725;9080725;U81;1930;1930;1930;1930;3;8;0;3;0;5;0;BETA;1930;2100;3000;x;;;;;;;;;;;;
Brain-Class726;9080726;U81;1930;1930;1930;1930;3;8;0;3;0;5;0;BETA;1930;2100;3000;x;;;;;;;;;;;;
Brain-Class727;9080727;U81;1930;1930;1930;1930;3;8;0;3;0;5;0;BETA;1930;2100;3000;x;;;;;;;;;;;;
Brain-Class728;9080728;U81;1930;1930;1930;1930;3;8;0;3;0;5;0;BETA;1930;2100;3000;x;;;;;;;;;;;;
Brain-Class729;9080729;U81;1930;1930;1930;1930;3;8;0;3;0;5;0;BETA;1930;2100;3000;x;;;;;;;;;;;;
Brain-Class730;9080730;U81;1930;1930;1930;1930;3;8;0;3;0;5;0;BETA;1930;2100;3000;x;;;;;;;;;;;;
Brain-Class731;9080731;U81;1930;1930;1930;1930;3;8;0;3;0;5;0;BETA;1930;2100;3000;x;;;;;;;;;;;;
Brain-Class732;9080732;U81;1930;1930;1930;1930;3;8;0;3;0;5;0;BETA;1930;2100;3000;x;;;;;;;;;;;;
Brain-Class733;9080733;U81;1930;1930;1930;1930;3;8;0;3;0;5;0;BETA;1930;2100;3000;x;;;;;;;;;;;;
Brain-Class734;9080734;U81;1930;1930;1930;1930;3;8;0;3;0;5;0;BETA;1930;2100;3000;x;;;;;;;;;;;;
Brain-Class735;9080735;U81;1930;1930;1930;1930;3;8;0;3;0;5;0;BETA;1930;2100;3000;x;;;;;;;;;;;;
Brain-Class736;9080736;U81;1930;1930;1930;1930;3;8;0;3;0;5;0;BETA;1930;2100;3000;x;;;;;;;;;;;;
Brain-Class737;9080737;U81;1930;1930;1930;1930;3;8;0;3;0;5;0;BETA;1930;2100;3000;x;;;;;;;;;;;;
Brain-Class738;9080738;U81;1930;1930;1930;1930;3;8;0;3;0;5;0;BETA;1930;2100;3000;x;;;;;;;;;;;;
Brain-Class739;9080739;U81;1930;1930;1930;1930;3;8;0;3;0;5;0;BETA;1930;2100;3000;x;;;;;;;;;;;;
Brain-Class740;9080740;U81;1930;1930;1930;1930;3;8;0;3;0;5;0;BETA;1930;2100;3000;x;;;;;;;;;;;;
Brain-Class741;9080741;U81;1930;1930;1930;1930;3;8;0;3;0;5;0;BETA;1930;2100;3000;x;;;;;;;;;;;;
Brain-Class742;9080742;U81;1930;1930;1930;1930;3;8;0;3;0;5;0;BETA;1930;2100;3000;x;;;;;;;;;;;;
Brain-Class743;9080743;U81;1930;1930;1930;1930;3;8;0;3;0;5;0;BETA;1930;2100;3000;x;;;;;;;;;;;;
Brain-Class744;9080744;U81;1930;1930;1930;1930;3;8;0;3;0;5;0;BETA;1930;2100;3000;x;;;;;;;;;;;;
Brain-Class745;9080745;U81;1930;1930;1930;1930;3;8;0;3;0;5;0;BETA;1930;2100;3000;x;;;;;;;;;;;;
Brain-Class746;9080746;U81;1930;1930;1930;1930;3;8;0;3;0;5;0;BETA;1930;2100;3000;x;;;;;;;;;;;;
Brain-Class747;9080747;U81;1930;1930;1930;1930;3;8;0;3;0;5;0;BETA;1930;2100;3000;x;;;;;;;;;;;;
Brain-Class748;9080748;U81;1930;1930;1930;1930;3;8;0;3;0;5;0;BETA;1930;2100;3000;x;;;;;;;;;;;;
Brain-Class749;9080749;U81;1930;1930;1930;1930;3;8;0;3;0;5;0;BETA;1930;2100;3000;x;;;;;;;;;;;;
Brain-Class750;9080750;U81;1930;1930;1930;1930;3;8;0;3;0;5;0;BETA;1930;2100;3000;x;;;;;;;;;;;;
Brain-Class751;9080751;U81;1930;1930;1930;1930;3;8;0;3;0;5;0;BETA;1930;2100;3000;x;;;;;;;;;;;;
Brain-Class752;9080752;U81;1930;1930;1930;1930;3;8;0;3;0;5;0;BETA;1930;2100;3000;x;;;;;;;;;;;;
Brain-Class753;9080753;U81;1930;1930;1930;1930;3;8;0;3;0;5;0;BETA;1930;2100;3000;x;;;;;;;;;;;;
Brain-Class754;9080754;U81;1930;1930;1930;1930;3;8;0;3;0;5;0;BETA;1930;2100;3000;x;;;;;;;;;;;;
Brain-Class755;9080755;U81;1930;1930;1930;1930;3;8;0;3;0;5;0;BETA;1930;2100;3000;x;;;;;;;;;;;;
Brain-Class756;9080756;U81;1930;1930;1930;1930;3;8;0;3;0;5;0;BETA;1930;2100;3000;x;;;;;;;;;;;;
Brain-Class757;9080757;U81;1930;1930;1930;1930;3;8;0;3;0;5;0;BETA;1930;2100;3000;x;;;;;;;;;;;;
Brain-Class758;9080758;U81;1930;1930;1930;1930;3;8;0;3;0;5;0;BETA;1930;2100;3000;x;;;;;;;;;;;;
Brain-Class759;9080759;U81;1930;1930;1930;1930;3;8;0;3;0;5;0;BETA;1930;2100;3000;x;;;;;;;;;;;;
Brain-Class760;9080760;U81;1930;1930;1930;1930;3;8;0;3;0;5;0;BETA;1930;2100;3000;x;;;;;;;;;;;;
Brain-Class761;9080761;U81;1930;1930;1930;1930;3;8;0;3;0;5;0;BETA;1930;2100;3000;x;;;;;;;;;;;;
Brain-Class762;9080762;U81;1930;1930;1930;1930;3;8;0;3;0;5;0;BETA;1930;2100;3000;x;;;;;;;;;;;;
Brain-Class763;9080763;U81;1930;1930;1930;1930;3;8;0;3;0;5;0;BETA;1930;2100;3000;x;;;;;;;;;;;;
Brain-Class764;9080764;U81;1930;1930;1930;1930;3;8;0;3;0;5;0;BETA;1930;2100;3000;x;;;;;;;;;;;;
Brain-Class765;9080765;U81;1930;1930;1930;1930;3;8;0;3;0;5;0;BETA;1930;2100;3000;x;;;;;;;;;;;;
Brain-Class766;9080766;U81;1930;1930;1930;1930;3;8;0;3;0;5;0;BETA;1930;2100;3000;x;;;;;;;;;;;;
Brain-Class767;9080767;U81;1930;1930;1930;1930;3;8;0;3;0;5;0;BETA;1930;2100;3000;x;;;;;;;;;;;;
Brain-Class768;9080768;U81;1930;1930;1930;1930;3;8;0;3;0;5;0;BETA;1930;2100;3000;x;;;;;;;;;;;;
Brain-Class769;9080769;U81;1930;1930;1930;1930;3;8;0;3;0;5;0;BETA;1930;2100;3000;x;;;;;;;;;;;;
Brain-Class770;9080770;U81;1930;1930;1930;1930;3;8;0;3;0;5;0;BETA;1930;2100;3000;x;;;;;;;;;;;;
Brain-Class771;9080771;U81;1930;1930;1930;1930;3;8;0;3;0;5;0;BETA;1930;2100;3000;x;;;;;;;;;;;;
Brain-Class772;9080772;U81;1930;1930;1930;1930;3;8;0;3;0;5;0;BETA;1930;2100;3000;x;;;;;;;;;;;;
Brain-Class773;9080773;U81;1930;1930;1930;1930;3;8;0;3;0;5;0;BETA;1930;2100;3000;x;;;;;;;;;;;;
Brain-Class774;9080774;U81;1930;1930;1930;1930;3;8;0;3;0;5;0;BETA;1930;2100;3000;x;;;;;;;;;;;;
Brain-Class775;9080775;U81;1930;1930;1930;1930;3;8;0;3;0;5;0;BETA;1930;2100;3000;x;;;;;;;;;;;;
Brain-Class776;9080776;U81;1930;1930;1930;1930;3;8;0;3;0;5;0;BETA;1930;2100;3000;x;;;;;;;;;;;;
Brain-Class777;9080777;U81;1930;1930;1930;1930;3;8;0;3;0;5;0;BETA;1930;2100;3000;x;;;;;;;;;;;;
Brain-Class778;9080778;U81;1930;1930;1930;1930;3;8;0;3;0;5;0;BETA;1930;2100;3000;x;;;;;;;;;;;;
Brain-Class779;9080779;U81;1930;1930;1930;1930;3;8;0;3;0;5;0;BETA;1930;2100;3000;x;;;;;;;;;;;;
Brain-Class780;9080780;U81;1930;1930;1930;1930;3;8;0;3;0;5;0;BETA;1930;2100;3000;x;;;;;;;;;;;;
Brain-Class781;9080781;U81;1930;1930;1930;1930;3;8;0;3;0;5;0;BETA;1930;2100;3000;x;;;;;;;;;;;;
Brain-Class782;9080782;U81;1930;1930;1930;1930;3;8;0;3;0;5;0;BETA;1930;2100;3000;x;;;;;;;;;;;;
Brain-Class783;9080783;U81;1930;1930;1930;1930;3;8;0;3;0;5;0;BETA;1930;2100;3000;x;;;;;;;;;;;;
Brain-Class784;9080784;U81;1930;1930;1930;1930;3;8;0;3;0;5;0;BETA;1930;2100;3000;x;;;;;;;;;;;;
Brain-Class785;9080785;U81;1930;1930;1930;1930;3;8;0;3;0;5;0;BETA;1930;2100;3000;x;;;;;;;;;;;;
Brain-Class786;9080786;U81;1930;1930;1930;1930;3;8;0;3;0;5;0;BETA;1930;2100;3000;x;;;;;;;;;;;;
Brain-Class787;9080787;U81;1930;1930;1930;1930;3;8;0;3;0;5;0;BETA;1930;2100;3000;x;;;;;;;;;;;;
Brain-Class788;9080788;U81;1930;1930;1930;1930;3;8;0;3;0;5;0;BETA;1930;2100;3000;x;;;;;;;;;;;;
Brain-Class789;9080789;U81;1930;1930;1930;1930;3;8;0;3;0;5;0;BETA;1930;2100;3000;x;;;;;;;;;;;;
Brain-Class790;9080790;U81;1930;1930;1930;1930;3;8;0;3;0;5;0;BETA;1930;2100;3000;x;;;;;;;;;;;;
Brain-Class791;9080791;U81;1930;1930;1930;1930;3;8;0;3;0;5;0;BETA;1930;2100;3000;x;;;;;;;;;;;;
Brain-Class792;9080792;U81;1930;1930;1930;1930;3;8;0;3;0;5;0;BETA;1930;2100;3000;x;;;;;;;;;;;;
Brain-Class793;9080793;U81;1930;1930;1930;1930;3;8;0;3;0;5;0;BETA;1930;2100;3000;x;;;;;;;;;;;;
Brain-Class794;9080794;U81;1930;1930;1930;1930;3;8;0;3;0;5;0;BETA;1930;2100;3000;x;;;;;;;;;;;;
Brain-Class795;9080795;U81;1930;1930;1930;1930;3;8;0;3;0;5;0;BETA;1930;2100;3000;x;;;;;;;;;;;;
Brain-Class796;9080796;U81;1930;1930;1930;1930;3;8;0;3;0;5;0;BETA;1930;2100;3000;x;;;;;;;;;;;;
Brain-Class797;9080797;U81;1930;1930;1930;1930;3;8;0;3;0;5;0;BETA;1930;2100;3000;x;;;;;;;;;;;;
Brain-Class798;9080798;U81;1930;1930;1930;1930;3;8;0;3;0;5;0;BETA;1930;2100;3000;x;;;;;;;;;;;;
Brain-Class799;9080799;U81;1930;1930;1930;1930;3;8;0;3;0;5;0;BETA;1930;2100;3000;x;;;;;;;;;;;;
Brain-Class800;9080800;U81;1930;1930;1930;1930;3;8;0;3;0;5;0;BETA;1930;2100;3000;x;;;;;;;;;;;;
Brain-Class801;9080801;U81;1930;1930;1930;1930;3;8;0;3;0;5;0;BETA;1930;2100;3000;x;;;;;;;;;;;;
Brain-Class802;9080802;U81;1930;1930;1930;1930;3;8;0;3;0;5;0;BETA;1930;2100;3000;x;;;;;;;;;;;;
Brain-Class803;9080803;U81;1930;1930;1930;1930;3;8;0;3;0;5;0;BETA;1930;2100;3000;x;;;;;;;;;;;;
Brain-Class804;9080804;U81;1930;1930;1930;1930;3;8;0;3;0;5;0;BETA;1930;2100;3000;x;;;;;;;;;;;;
Brain-Class805;9080805;U81;1930;1930;1930;1930;3;8;0;3;0;5;0;BETA;1930;2100;3000;x;;;;;;;;;;;;
Brain-Class806;9080806;U81;1930;1930;1930;1930;3;8;0;3;0;5;0;BETA;1930;2100;3000;x;;;;;;;;;;;;
Brain-Class807;9080807;U81;1930;1930;1930;1930;3;8;0;3;0;5;0;BETA;1930;2100;3000;x;;;;;;;;;;;;
Brain-Class808;9080808;U81;1930;1930;1930;1930;3;8;0;3;0;5;0;BETA;1930;2100;3000;x;;;;;;;;;;;;
Brain-Class809;9080809;U81;1930;1930;1930;1930;3;8;0;3;0;5;0;BETA;1930;2100;3000;x;;;;;;;;;;;;
Brain-Class810;9080810;U81;1930;1930;1930;1930;3;8;0;3;0;5;0;BETA;1930;2100;3000;x;;;;;;;;;;;;
Brain-Class811;9080811;U81;1930;1930;1930;1930;3;8;0;3;0;5;0;BETA;1930;2100;3000;x;;;;;;;;;;;;
Brain-Class812;9080812;U81;1930;1930;1930;1930;3;8;0;3;0;5;0;BETA;1930;2100;3000;x;;;;;;;;;;;;
Brain-Class813;9080813;U81;1930;1930;1930;1930;3;8;0;3;0;5;0;BETA;1930;2100;3000;x;;;;;;;;;;;;
Brain-Class814;9080814;U81;1930;1930;1930;1930;3;8;0;3;0;5;0;BETA;1930;2100;3000;x;;;;;;;;;;;;
Brain-Class815;9080815;U81;1930;1930;1930;1930;3;8;0;3;0;5;0;BETA;1930;2100;3000;x;;;;;;;;;;;;
Brain-Class816;9080816;U81;1930;1930;1930;1930;3;8;0;3;0;5;0;BETA;1930;2100;3000;x;;;;;;;;;;;;
Brain-Class817;9080817;U81;1930;1930;1930;1930;3;8;0;3;0;5;0;BETA;1930;2100;3000;x;;;;;;;;;;;;
Brain-Class818;9080818;U81;1930;1930;1930;1930;3;8;0;3;0;5;0;BETA;1930;2100;3000;x;;;;;;;;;;;;
Brain-Class819;9080819;U81;1930;1930;1930;1930;3;8;0;3;0;5;0;BETA;1930;2100;3000;x;;;;;;;;;;;;
Brain-Class820;9080820;U81;1930;1930;1930;1930;3;8;0;3;0;5;0;BETA;1930;2100;3000;x;;;;;;;;;;;;
Brain-Class821;9080821;U81;1930;1930;1930;1930;3;8;0;3;0;5;0;BETA;1930;2100;3000;x;;;;;;;;;;;;
Brain-Class822;9080822;U81;1930;1930;1930;1930;3;8;0;3;0;5;0;BETA;1930;2100;3000;x;;;;;;;;;;;;
Brain-Class823;9080823;U81;1930;1930;1930;1930;3;8;0;3;0;5;0;BETA;1930;2100;3000;x;;;;;;;;;;;;
Brain-Class824;9080824;U81;1930;1930;1930;1930;3;8;0;3;0;5;0;BETA;1930;2100;3000;x;;;;;;;;;;;;
Brain-Class825;9080825;U81;1930;1930;1930;1930;3;8;0;3;0;5;0;BETA;1930;2100;3000;x;;;;;;;;;;;;
Brain-Class826;9080826;U81;1930;1930;1930;1930;3;8;0;3;0;5;0;BETA;1930;2100;3000;x;;;;;;;;;;;;
Brain-Class827;9080827;U81;1930;1930;1930;1930;3;8;0;3;0;5;0;BETA;1930;2100;3000;x;;;;;;;;;;;;
Brain-Class828;9080828;U81;1930;1930;1930;1930;3;8;0;3;0;5;0;BETA;1930;2100;3000;x;;;;;;;;;;;;
Brain-Class829;9080829;U81;1930;1930;1930;1930;3;8;0;3;0;5;0;BETA;1930;2100;3000;x;;;;;;;;;;;;
Brain-Class830;9080830;U81;1930;1930;1930;1930;3;8;0;3;0;5;0;BETA;1930;2100;3000;x;;;;;;;;;;;;
Brain-Class831;9080831;U81;1930;1930;1930;1930;3;8;0;3;0;5;0;BETA;1930;2100;3000;x;;;;;;;;;;;;
Brain-Class832;9080832;U81;1930;1930;1930;1930;3;8;0;3;0;5;0;BETA;1930;2100;3000;x;;;;;;;;;;;;
Brain-Class833;9080833;U81;1930;1930;1930;1930;3;8;0;3;0;5;0;BETA;1930;2100;3000;x;;;;;;;;;;;;
Brain-Class834;9080834;U81;1930;1930;1930;1930;3;8;0;3;0;5;0;BETA;1930;2100;3000;x;;;;;;;;;;;;
Brain-Class835;9080835;U81;1930;1930;1930;1930;3;8;0;3;0;5;0;BETA;1930;2100;3000;x;;;;;;;;;;;;
Brain-Class836;9080836;U81;1930;1930;1930;1930;3;8;0;3;0;5;0;BETA;1930;2100;3000;x;;;;;;;;;;;;
Brain-Class837;9080837;U81;1930;1930;1930;1930;3;8;0;3;0;5;0;BETA;1930;2100;3000;x;;;;;;;;;;;;
Brain-Class838;9080838;U81;1930;1930;1930;1930;3;8;0;3;0;5;0;BETA;1930;2100;3000;x;;;;;;;;;;;;
Brain-Class839;9080839;U81;1930;1930;1930;1930;3;8;0;3;0;5;0;BETA;1930;2100;3000;x;;;;;;;;;;;;
Brain-Class840;9080840;U81;1930;1930;1930;1930;3;8;0;3;0;5;0;BETA;1930;2100;3000;x;;;;;;;;;;;;
Brain-Class841;9080841;U81;1930;1930;1930;1930;3;8;0;3;0;5;0;BETA;1930;2100;3000;x;;;;;;;;;;;;
Brain-Class842;9080842;U81;1930;1930;1930;1930;3;8;0;3;0;5;0;BETA;1930;2100;3000;x;;;;;;;;;;;;
Brain-Class843;9080843;U81;1930;1930;1930;1930;3;8;0;3;0;5;0;BETA;1930;2100;3000;x;;;;;;;;;;;;
Brain-Class844;9080844;U81;1930;1930;1930;1930;3;8;0;3;0;5;0;BETA;1930;2100;3000;x;;;;;;;;;;;;
Brain-Class845;9080845;U81;1930;1930;1930;1930;3;8;0;3;0;5;0;BETA;1930;2100;3000;x;;;;;;;;;;;;
Brain-Class846;9080846;U81;1930;1930;1930;1930;3;8;0;3;0;5;0;BETA;1930;2100;3000;x;;;;;;;;;;;;
Brain-Class847;9080847;U81;1930;1930;1930;1930;3;8;0;3;0;5;0;BETA;1930;2100;3000;x;;;;;;;;;;;;
Brain-Class848;9080848;U81;1930;1930;1930;1930;3;8;0;3;0;5;0;BETA;1930;2100;3000;x;;;;;;;;;;;;
Brain-Class849;9080849;U81;1930;1930;1930;1930;3;8;0;3;0;5;0;BETA;1930;2100;3000;x;;;;;;;;;;;;
Brain-Class850;9080850;U81;1930;1930;1930;1930;3;8;0;3;0;5;0;BETA;1930;2100;3000;x;;;;;;;;;;;;
Brain-Class851;9080851;U81;1930;1930;1930;1930;3;8;0;3;0;5;0;BETA;1930;2100;3000;x;;;;;;;;;;;;
Brain-Class852;9080852;U81;1930;1930;1930;1930;3;8;0;3;0;5;0;BETA;1930;2100;3000;x;;;;;;;;;;;;
Brain-Class853;9080853;U81;1930;1930;1930;1930;3;8;0;3;0;5;0;BETA;1930;2100;3000;x;;;;;;;;;;;;
Brain-Class854;9080854;U81;1930;1930;1930;1930;3;8;0;3;0;5;0;BETA;1930;2100;3000;x;;;;;;;;;;;;
Brain-Class855;9080855;U81;1930;1930;1930;1930;3;8;0;3;0;5;0;BETA;1930;2100;3000;x;;;;;;;;;;;;
Brain-Class856;9080856;U81;1930;1930;1930;1930;3;8;0;3;0;5;0;BETA;1930;2100;3000;x;;;;;;;;;;;;
Brain-Class857;9080857;U81;1930;1930;1930;1930;3;8;0;3;0;5;0;BETA;1930;2100;3000;x;;;;;;;;;;;;
Brain-Class858;9080858;U81;1930;1930;1930;1930;3;8;0;3;0;5;0;BETA;1930;2100;3000;x;;;;;;;;;;;;
Brain-Class859;9080859;U81;1930;1930;1930;1930;3;8;0;3;0;5;0;BETA;1930;2100;3000;x;;;;;;;;;;;;
Brain-Class860;9080860;U81;1930;1930;1930;1930;3;8;0;3;0;5;0;BETA;1930;2100;3000;x;;;;;;;;;;;;
Brain-Class861;9080861;U81;1930;1930;1930;1930;3;8;0;3;0;5;0;BETA;1930;2100;3000;x;;;;;;;;;;;;
Brain-Class862;9080862;U81;1930;1930;1930;1930;3;8;0;3;0;5;0;BETA;1930;2100;3000;x;;;;;;;;;;;;
Brain-Class863;9080863;U81;1930;1930;1930;1930;3;8;0;3;0;5;0;BETA;1930;2100;3000;x;;;;;;;;;;;;
Brain-Class864;9080864;U81;1930;1930;1930;1930;3;8;0;3;0;5;0;BETA;1930;2100;3000;x;;;;;;;;;;;;
Brain-Class865;9080865;U81;1930;1930;1930;1930;3;8;0;3;0;5;0;BETA;1930;2100;3000;x;;;;;;;;;;;;
Brain-Class866;9080866;U81;1930;1930;1930;1930;3;8;0;3;0;5;0;BETA;1930;2100;3000;x;;;;;;;;;;;;
Brain-Class867;9080867;U81;1930;1930;1930;1930;3;8;0;3;0;5;0;BETA;1930;2100;3000;x;;;;;;;;;;;;
Brain-Class868;9080868;U81;1930;1930;1930;1930;3;8;0;3;0;5;0;BETA;1930;2100;3000;x;;;;;;;;;;;;
Brain-Class869;9080869;U81;1930;1930;1930;1930;3;8;0;3;0;5;0;BETA;1930;2100;3000;x;;;;;;;;;;;;
Brain-Class870;9080870;U81;1930;1930;1930;1930;3;8;0;3;0;5;0;BETA;1930;2100;3000;x;;;;;;;;;;;;
Brain-Class871;9080871;U81;1930;1930;1930;1930;3;8;0;3;0;5;0;BETA;1930;2100;3000;x;;;;;;;;;;;;
Brain-Class872;9080872;U81;1930;1930;1930;1930;3;8;0;3;0;5;0;BETA;1930;2100;3000;x;;;;;;;;;;;;
Brain-Class873;9080873;U81;1930;1930;1930;1930;3;8;0;3;0;5;0;BETA;1930;2100;3000;x;;;;;;;;;;;;
Brain-Class874;9080874;U81;1930;1930;1930;1930;3;8;0;3;0;5;0;BETA;1930;2100;3000;x;;;;;;;;;;;;
Brain-Class875;9080875;U81;1930;1930;1930;1930;3;8;0;3;0;5;0;BETA;1930;2100;3000;x;;;;;;;;;;;;
Brain-Class876;9080876;U81;1930;1930;1930;1930;3;8;0;3;0;5;0;BETA;1930;2100;3000;x;;;;;;;;;;;;
Brain-Class877;9080877;U81;1930;1930;1930;1930;3;8;0;3;0;5;0;BETA;1930;2100;3000;x;;;;;;;;;;;;
Brain-Class878;9080878;U81;1930;1930;1930;1930;3;8;0;3;0;5;0;BETA;1930;2100;3000;x;;;;;;;;;;;;
Brain-Class879;9080879;U81;1930;1930;1930;1930;3;8;0;3;0;5;0;BETA;1930;2100;3000;x;;;;;;;;;;;;
Brain-Class880;9080880;U81;1930;1930;1930;1930;3;8;0;3;0;5;0;BETA;1930;2100;3000;x;;;;;;;;;;;;
Brain-Class881;9080881;U81;1930;1930;1930;1930;3;8;0;3;0;5;0;BETA;1930;2100;3000;x;;;;;;;;;;;;
Brain-Class882;9080882;U81;1930;1930;1930;1930;3;8;0;3;0;5;0;BETA;1930;2100;3000;x;;;;;;;;;;;;
Brain-Class883;9080883;U81;1930;1930;1930;1930;3;8;0;3;0;5;0;BETA;1930;2100;3000;x;;;;;;;;;;;;
Brain-Class884;9080884;U81;1930;1930;1930;1930;3;8;0;3;0;5;0;BETA;1930;2100;3000;x;;;;;;;;;;;;
Brain-Class885;9080885;U81;1930;1930;1930;1930;3;8;0;3;0;5;0;BETA;1930;2100;3000;x;;;;;;;;;;;;
Brain-Class886;9080886;U81;1930;1930;1930;1930;3;8;0;3;0;5;0;BETA;1930;2100;3000;x;;;;;;;;;;;;
Brain-Class887;9080887;U81;1930;1930;1930;1930;3;8;0;3;0;5;0;BETA;1930;2100;3000;x;;;;;;;;;;;;
Brain-Class888;9080888;U81;1930;1930;1930;1930;3;8;0;3;0;5;0;BETA;1930;2100;3000;x;;;;;;;;;;;;
Brain-Class889;9080889;U81;1930;1930;1930;1930;3;8;0;3;0;5;0;BETA;1930;2100;3000;x;;;;;;;;;;;;
Brain-Class890;9080890;U81;1930;1930;1930;1930;3;8;0;3;0;5;0;BETA;1930;2100;3000;x;;;;;;;;;;;;
Brain-Class891;9080891;U81;1930;1930;1930;1930;3;8;0;3;0;5;0;BETA;1930;2100;3000;x;;;;;;;;;;;;
Brain-Class892;9080892;U81;1930;1930;1930;1930;3;8;0;3;0;5;0;BETA;1930;2100;3000;x;;;;;;;;;;;;
Brain-Class893;9080893;U81;1930;1930;1930;1930;3;8;0;3;0;5;0;BETA;1930;2100;3000;x;;;;;;;;;;;;
Brain-Class894;9080894;U81;1930;1930;1930;1930;3;8;0;3;0;5;0;BETA;1930;2100;3000;x;;;;;;;;;;;;
Brain-Class895;9080895;U81;1930;1930;1930;1930;3;8;0;3;0;5;0;BETA;1930;2100;3000;x;;;;;;;;;;;;
Brain-Class896;9080896;U81;1930;1930;1930;1930;3;8;0;3;0;5;0;BETA;1930;2100;3000;x;;;;;;;;;;;;
Brain-Class897;9080897;U81;1930;1930;1930;1930;3;8;0;3;0;5;0;BETA;1930;2100;3000;x;;;;;;;;;;;;
Brain-Class898;9080898;U81;1930;1930;1930;1930;3;8;0;3;0;5;0;BETA;1930;2100;3000;x;;;;;;;;;;;;
Brain-Class899;9080899;U81;1930;1930;1930;1930;3;8;0;3;0;5;0;BETA;1930;2100;3000;x;;;;;;;;;;;;
Brain-Class900;9080900;U81;1930;1930;1930;1930;3;8;0;3;0;5;0;BETA;1930;2100;3000;x;;;;;;;;;;;;
Brain-Class901;9080901;U81;1930;1930;1930;1930;3;8;0;3;0;5;0;BETA;1930;2100;3000;x;;;;;;;;;;;;
Brain-Class902;9080902;U81;1930;1930;1930;1930;3;8;0;3;0;5;0;BETA;1930;2100;3000;x;;;;;;;;;;;;
Brain-Class903;9080903;U81;1930;1930;1930;1930;3;8;0;3;0;5;0;BETA;1930;2100;3000;x;;;;;;;;;;;;
Brain-Class904;9080904;U81;1930;1930;1930;1930;3;8;0;3;0;5;0;BETA;1930;2100;3000;x;;;;;;;;;;;;
Brain-Class905;9080905;U81;1930;1930;1930;1930;3;8;0;3;0;5;0;BETA;1930;2100;3000;x;;;;;;;;;;;;
Brain-Class906;9080906;U81;1930;1930;1930;1930;3;8;0;3;0;5;0;BETA;1930;2100;3000;x;;;;;;;;;;;;
Brain-Class907;9080907;U81;1930;1930;1930;1930;3;8;0;3;0;5;0;BETA;1930;2100;3000;x;;;;;;;;;;;;
Brain-Class908;9080908;U81;1930;1930;1930;1930;3;8;0;3;0;5;0;BETA;1930;2100;3000;x;;;;;;;;;;;;
Brain-Class909;9080909;U81;1930;1930;1930;1930;3;8;0;3;0;5;0;BETA;1930;2100;3000;x;;;;;;;;;;;;
Brain-Class910;9080910;U81;1930;1930;1930;1930;3;8;0;3;0;5;0;BETA;1930;2100;3000;x;;;;;;;;;;;;
Brain-Class911;9080911;U81;1930;1930;1930;1930;3;8;0;3;0;5;0;BETA;1930;2100;3000;x;;;;;;;;;;;;
Brain-Class912;9080912;U81;1930;1930;1930;1930;3;8;0;3;0;5;0;BETA;1930;2100;3000;x;;;;;;;;;;;;
Brain-Class913;9080913;U81;1930;1930;1930;1930;3;8;0;3;0;5;0;BETA;1930;2100;3000;x;;;;;;;;;;;;
Brain-Class914;9080914;U81;1930;1930;1930;1930;3;8;0;3;0;5;0;BETA;1930;2100;3000;x;;;;;;;;;;;;
Brain-Class915;9080915;U81;1930;1930;1930;1930;3;8;0;3;0;5;0;BETA;1930;2100;3000;x;;;;;;;;;;;;
Brain-Class916;9080916;U81;1930;1930;1930;1930;3;8;0;3;0;5;0;BETA;1930;2100;3000;x;;;;;;;;;;;;
Brain-Class917;9080917;U81;1930;1930;1930;1930;3;8;0;3;0;5;0;BETA;1930;2100;3000;x;;;;;;;;;;;;
Brain-Class918;9080918;U81;1930;1930;1930;1930;3;8;0;3;0;5;0;BETA;1930;2100;3000;x;;;;;;;;;;;;
Brain-Class919;9080919;U81;1930;1930;1930;1930;3;8;0;3;0;5;0;BETA;1930;2100;3000;x;;;;;;;;;;;;
Brain-Class920;9080920;U81;1930;1930;1930;1930;3;8;0;3;0;5;0;BETA;1930;2100;3000;x;;;;;;;;;;;;
Brain-Class921;9080921;U81;1930;1930;1930;1930;3;8;0;3;0;5;0;BETA;1930;2100;3000;x;;;;;;;;;;;;
Brain-Class922;9080922;U81;1930;1930;1930;1930;3;8;0;3;0;5;0;BETA;1930;2100;3000;x;;;;;;;;;;;;
Brain-Class923;9080923;U81;1930;1930;1930;1930;3;8;0;3;0;5;0;BETA;1930;2100;3000;x;;;;;;;;;;;;
Brain-Class924;9080924;U81;1930;1930;1930;1930;3;8;0;3;0;5;0;BETA;1930;2100;3000;x;;;;;;;;;;;;
Brain-Class925;9080925;U81;1930;1930;1930;1930;3;8;0;3;0;5;0;BETA;1930;2100;3000;x;;;;;;;;;;;;
Brain-Class926;9080926;U81;1930;1930;1930;1930;3;8;0;3;0;5;0;BETA;1930;2100;3000;x;;;;;;;;;;;;
Brain-Class927;9080927;U81;1930;1930;1930;1930;3;8;0;3;0;5;0;BETA;1930;2100;3000;x;;;;;;;;;;;;
Brain-Class928;9080928;U81;1930;1930;1930;1930;3;8;0;3;0;5;0;BETA;1930;2100;3000;x;;;;;;;;;;;;
Brain-Class929;9080929;U81;1930;1930;1930;1930;3;8;0;3;0;5;0;BETA;1930;2100;3000;x;;;;;;;;;;;;
Brain-Class930;9080930;U81;1930;1930;1930;1930;3;8;0;3;0;5;0;BETA;1930;2100;3000;x;;;;;;;;;;;;
Brain-Class931;9080931;U81;1930;1930;1930;1930;3;8;0;3;0;5;0;BETA;1930;2100;3000;x;;;;;;;;;;;;
Brain-Class932;9080932;U81;1930;1930;1930;1930;3;8;0;3;0;5;0;BETA;1930;2100;3000;x;;;;;;;;;;;;
Brain-Class933;9080933;U81;1930;1930;1930;1930;3;8;0;3;0;5;0;BETA;1930;2100;3000;x;;;;;;;;;;;;
Brain-Class934;9080934;U81;1930;1930;1930;1930;3;8;0;3;0;5;0;BETA;1930;2100;3000;x;;;;;;;;;;;;
Brain-Class935;9080935;U81;1930;1930;1930;1930;3;8;0;3;0;5;0;BETA;1930;2100;3000;x;;;;;;;;;;;;
Brain-Class936;9080936;U81;1930;1930;1930;1930;3;8;0;3;0;5;0;BETA;1930;2100;3000;x;;;;;;;;;;;;
Brain-Class937;9080937;U81;1930;1930;1930;1930;3;8;0;3;0;5;0;BETA;1930;2100;3000;x;;;;;;;;;;;;
Brain-Class938;9080938;U81;1930;1930;1930;1930;3;8;0;3;0;5;0;BETA;1930;2100;3000;x;;;;;;;;;;;;
Brain-Class939;9080939;U81;1930;1930;1930;1930;3;8;0;3;0;5;0;BETA;1930;2100;3000;x;;;;;;;;;;;;
Brain-Class940;9080940;U81;1930;1930;1930;1930;3;8;0;3;0;5;0;BETA;1930;2100;3000;x;;;;;;;;;;;;
Brain-Class941;9080941;U81;1930;1930;1930;1930;3;8;0;3;0;5;0;BETA;1930;2100;3000;x;;;;;;;;;;;;
Brain-Class942;9080942;U81;1930;1930;1930;1930;3;8;0;3;0;5;0;BETA;1930;2100;3000;x;;;;;;;;;;;;
Brain-Class943;9080943;U81;1930;1930;1930;1930;3;8;0;3;0;5;0;BETA;1930;2100;3000;x;;;;;;;;;;;;
Brain-Class944;9080944;U81;1930;1930;1930;1930;3;8;0;3;0;5;0;BETA;1930;2100;3000;x;;;;;;;;;;;;
Brain-Class945;9080945;U81;1930;1930;1930;1930;3;8;0;3;0;5;0;BETA;1930;2100;3000;x;;;;;;;;;;;;
Brain-Class946;9080946;U81;1930;1930;1930;1930;3;8;0;3;0;5;0;BETA;1930;2100;3000;x;;;;;;;;;;;;
Brain-Class947;9080947;U81;1930;1930;1930;1930;3;8;0;3;0;5;0;BETA;1930;2100;3000;x;;;;;;;;;;;;
Brain-Class948;9080948;U81;1930;1930;1930;1930;3;8;0;3;0;5;0;BETA;1930;2100;3000;x;;;;;;;;;;;;
Brain-Class949;9080949;U81;1930;1930;1930;1930;3;8;0;3;0;5;0;BETA;1930;2100;3000;x;;;;;;;;;;;;
Brain-Class950;9080950;U81;1930;1930;1930;1930;3;8;0;3;0;5;0;BETA;1930;2100;3000;x;;;;;;;;;;;;
Brain-Class951;9080951;U81;1930;1930;1930;1930;3;8;0;3;0;5;0;BETA;1930;2100;3000;x;;;;;;;;;;;;
Brain-Class952;9080952;U81;1930;1930;1930;1930;3;8;0;3;0;5;0;BETA;1930;2100;3000;x;;;;;;;;;;;;
Brain-Class953;9080953;U81;1930;1930;1930;1930;3;8;0;3;0;5;0;BETA;1930;2100;3000;x;;;;;;;;;;;;
Brain-Class954;9080954;U81;1930;1930;1930;1930;3;8;0;3;0;5;0;BETA;1930;2100;3000;x;;;;;;;;;;;;
Brain-Class955;9080955;U81;1930;1930;1930;1930;3;8;0;3;0;5;0;BETA;1930;2100;3000;x;;;;;;;;;;;;
Brain-Class956;9080956;U81;1930;1930;1930;1930;3;8;0;3;0;5;0;BETA;1930;2100;3000;x;;;;;;;;;;;;
Brain-Class957;9080957;U81;1930;1930;1930;1930;3;8;0;3;0;5;0;BETA;1930;2100;3000;x;;;;;;;;;;;;
Brain-Class958;9080958;U81;1930;1930;1930;1930;3;8;0;3;0;5;0;BETA;1930;2100;3000;x;;;;;;;;;;;;
Brain-Class959;9080959;U81;1930;1930;1930;1930;3;8;0;3;0;5;0;BETA;1930;2100;3000;x;;;;;;;;;;;;
Brain-Class960;9080960;U81;1930;1930;1930;1930;3;8;0;3;0;5;0;BETA;1930;2100;3000;x;;;;;;;;;;;;
Brain-Class961;9080961;U81;1930;1930;1930;1930;3;8;0;3;0;5;0;BETA;1930;2100;3000;x;;;;;;;;;;;;
Brain-Class962;9080962;U81;1930;1930;1930;1930;3;8;0;3;0;5;0;BETA;1930;2100;3000;x;;;;;;;;;;;;
Brain-Class963;9080963;U81;1930;1930;1930;1930;3;8;0;3;0;5;0;BETA;1930;2100;3000;x;;;;;;;;;;;;
Brain-Class964;9080964;U81;1930;1930;1930;1930;3;8;0;3;0;5;0;BETA;1930;2100;3000;x;;;;;;;;;;;;
Brain-Class965;9080965;U81;1930;1930;1930;1930;3;8;0;3;0;5;0;BETA;1930;2100;3000;x;;;;;;;;;;;;
Brain-Class966;9080966;U81;1930;1930;1930;1930;3;8;0;3;0;5;0;BETA;1930;2100;3000;x;;;;;;;;;;;;
Brain-Class967;9080967;U81;1930;1930;1930;1930;3;8;0;3;0;5;0;BETA;1930;2100;3000;x;;;;;;;;;;;;
Brain-Class968;9080968;U81;1930;1930;1930;1930;3;8;0;3;0;5;0;BETA;1930;2100;3000;x;;;;;;;;;;;;
Brain-Class969;9080969;U81;1930;1930;1930;1930;3;8;0;3;0;5;0;BETA;1930;2100;3000;x;;;;;;;;;;;;
Brain-Class970;9080970;U81;1930;1930;1930;1930;3;8;0;3;0;5;0;BETA;1930;2100;3000;x;;;;;;;;;;;;
Brain-Class971;9080971;U81;1930;1930;1930;1930;3;8;0;3;0;5;0;BETA;1930;2100;3000;x;;;;;;;;;;;;
Brain-Class972;9080972;U81;1930;1930;1930;1930;3;8;0;3;0;5;0;BETA;1930;2100;3000;x;;;;;;;;;;;;
Brain-Class973;9080973;U81;1930;1930;1930;1930;3;8;0;3;0;5;0;BETA;1930;2100;3000;x;;;;;;;;;;;;
Brain-Class974;9080974;U81;1930;1930;1930;1930;3;8;0;3;0;5;0;BETA;1930;2100;3000;x;;;;;;;;;;;;
Brain-Class975;9080975;U81;1930;1930;1930;1930;3;8;0;3;0;5;0;BETA;1930;2100;3000;x;;;;;;;;;;;;
Brain-Class976;9080976;U81;1930;1930;1930;1930;3;8;0;3;0;5;0;BETA;1930;2100;3000;x;;;;;;;;;;;;
Brain-Class977;9080977;U81;1930;1930;1930;1930;3;8;0;3;0;5;0;BETA;1930;2100;3000;x;;;;;;;;;;;;
Brain-Class978;9080978;U81;1930;1930;1930;1930;3;8;0;3;0;5;0;BETA;1930;2100;3000;x;;;;;;;;;;;;
Brain-Class979;9080979;U81;1930;1930;1930;1930;3;8;0;3;0;5;0;BETA;1930;2100;3000;x;;;;;;;;;;;;
Brain-Class980;9080980;U81;1930;1930;1930;1930;3;8;0;3;0;5;0;BETA;1930;2100;3000;x;;;;;;;;;;;;
Brain-Class981;9080981;U81;1930;1930;1930;1930;3;8;0;3;0;5;0;BETA;1930;2100;3000;x;;;;;;;;;;;;
Brain-Class982;9080982;U81;1930;1930;1930;1930;3;8;0;3;0;5;0;BETA;1930;2100;3000;x;;;;;;;;;;;;
Brain-Class983;9080983;U81;1930;1930;1930;1930;3;8;0;3;0;5;0;BETA;1930;2100;3000;x;;;;;;;;;;;;
Brain-Class984;9080984;U81;1930;1930;1930;1930;3;8;0;3;0;5;0;BETA;1930;2100;3000;x;;;;;;;;;;;;
Brain-Class985;9080985;U81;1930;1930;1930;1930;3;8;0;3;0;5;0;BETA;1930;2100;3000;x;;;;;;;;;;;;
Brain-Class986;9080986;U81;1930;1930;1930;1930;3;8;0;3;0;5;0;BETA;1930;2100;3000;x;;;;;;;;;;;;
Brain-Class987;9080987;U81;1930;1930;1930;1930;3;8;0;3;0;5;0;BETA;1930;2100;3000;x;;;;;;;;;;;;
Brain-Class988;9080988;U81;1930;1930;1930;1930;3;8;0;3;0;5;0;BETA;1930;2100;3000;x;;;;;;;;;;;;
Brain-Class989;9080989;U81;1930;1930;1930;1930;3;8;0;3;0;5;0;BETA;1930;2100;3000;x;;;;;;;;;;;;
Brain-Class990;9080990;U81;1930;1930;1930;1930;3;8;0;3;0;5;0;BETA;1930;2100;3000;x;;;;;;;;;;;;
Brain-Class991;9080991;U81;1930;1930;1930;1930;3;8;0;3;0;5;0;BETA;1930;2100;3000;x;;;;;;;;;;;;
Brain-Class992;9080992;U81;1930;1930;1930;1930;3;8;0;3;0;5;0;BETA;1930;2100;3000;x;;;;;;;;;;;;
Brain-Class993;9080993;U81;1930;1930;1930;1930;3;8;0;3;0;5;0;BETA;1930;2100;3000;x;;;;;;;;;;;;
Brain-Class994;9080994;U81;1930;1930;1930;1930;3;8;0;3;0;5;0;BETA;1930;2100;3000;x;;;;;;;;;;;;
Brain-Class995;9080995;U81;1930;1930;1930;1930;3;8;0;3;0;5;0;BETA;1930;2100;3000;x;;;;;;;;;;;;
Brain-Class996;9080996;U81;1930;1930;1930;1930;3;8;0;3;0;5;0;BETA;1930;2100;3000;x;;;;;;;;;;;;
Brain-Class997;9080997;U81;1930;1930;1930;1930;3;8;0;3;0;5;0;BETA;1930;2100;3000;x;;;;;;;;;;;;
Brain-Class998;9080998;U81;1930;1930;1930;1930;3;8;0;3;0;5;0;BETA;1930;2100;3000;x;;;;;;;;;;;;
Brain-Class999;9080999;U81;1930;1930;1930;1930;3;8;0;3;0;5;0;BETA;1930;2100;3000;x;;;;;;;;;;;;
Brain-Class1000;9081000;U81;1930;1930;1930;1930;3;8;0;3;0;5;0;BETA;1930;2100;3000;x;;;;;;;;;;;;
