Name;ID;Country;Rank 3 Year;Rank 2 Year;Rank 1 Year;Rank 0 Year;Ideal Rank;Max Skill;Traits;Skill;Experience;Loyalty;Type;Picture;Start Year;End Year;;x
plant;1054041;U91;1930;1941;1990;1990;2;5;0;2;0;5;0;L54041;1930;1990;2100;x
Allard;1052001;U91;1948;1958;1966;1990;3;7;4;2;0;5;0;L52001;1948;1990;2100;x
Berunachezu;1052005;U91;1944;1990;1990;1990;3;5;4;1;0;5;0;L52005;1944;1990;2100;x
Bevan;1052006;U91;1945;1990;1990;1990;3;4;0;1;0;5;0;L52006;1945;1990;2100;x
Bingham;1052007;U91;1944;1990;1990;1990;3;6;128;1;0;4;0;L52007;1944;1990;2100;x
Burns;1052010;U91;1943;1944;1990;1990;2;6;128;2;0;5;0;L52010;1943;1990;2100;x
Kaberudu;1052011;U91;1941;1945;1990;1990;3;6;4;2;0;5;0;L52011;1941;1990;2100;x
Ethel;1052015;U91;1944;1990;1990;1990;3;4;0;1;0;5;0;L52015;1944;1990;2100;x
Ferndale;1052016;U91;1930;1942;1990;1990;2;5;0;2;0;5;0;L52016;1930;1990;2100;x
Foster;1052018;U91;1940;1990;1990;1990;2;7;130;3;0;5;0;L52018;1940;1990;2100;x
Faux;1052019;U91;1943;1944;1945;1990;2;7;256;3;0;5;0;L52019;1943;1990;2100;x
Gardner;1052021;U91;1944;1990;1990;1990;3;4;128;1;0;5;0;L52021;1944;1990;2100;x
Jianeri;1052022;U91;1941;1990;1990;1990;3;7;128;1;0;5;0;L52022;1941;1990;2100;x
Hoff Meister;1052026;U91;1944;1990;1990;1990;3;5;0;2;0;5;0;L52026;1944;1990;2100;x
Hyde;1052028;U91;1942;1990;1990;1990;3;5;128;1;0;5;0;L52028;1942;1990;2100;x
Jefferson;1052029;U91;1943;1946;1990;1990;3;6;4;2;0;5;0;L52029;1943;1990;2100;x
Kifura;1052030;U91;1944;1990;1990;1990;3;4;256;1;0;5;0;L52030;1944;1990;2100;x
Kitchen ing;1052032;U91;1944;1990;1990;1990;3;6;128;2;0;5;0;L52032;1944;1990;2100;x
Rukuraku;1052035;U91;1942;1990;1990;1990;3;6;2;2;0;5;0;L52035;1942;1990;2100;x
Matthews;1052039;U91;1944;1990;1990;1990;3;4;0;1;0;5;0;L52039;1944;1990;2100;x
Macavity over;1052040;U91;1939;1943;1990;1990;2;5;128;2;0;5;0;L52040;1939;1990;2100;x
Mackenzie;1052043;U91;1937;1943;1990;1990;2;5;32;2;0;5;0;L52043;1937;1990;2100;x
Melville;1052045;U91;1943;1990;1990;1990;3;5;32;1;0;5;0;L52045;1943;1990;2100;x
Morton;1052046;U91;1944;1990;1990;1990;3;6;5;2;0;5;0;L52046;1944;1990;2100;x
Nitobi;1052049;U91;1940;1990;1990;1990;3;6;260;2;0;5;0;L52049;1940;1990;2100;x
Nikurin;1052050;U91;1944;1990;1990;1990;3;5;256;1;0;5;0;L52050;1944;1990;2100;x
Norton;1052051;U91;1939;1945;1990;1990;3;6;128;2;0;5;0;L52051;1939;1990;2100;x
Oulton;1052052;U91;1938;1941;1946;1990;2;6;1;3;0;5;0;L52052;1938;1990;2100;x
Parkes;1052053;U91;1938;1941;1990;1990;2;5;4;2;0;5;0;L52053;1938;1990;2100;x
Plow;1052054;U91;1950;1990;1990;1990;3;5;64;1;0;5;0;L52054;1950;1990;2100;x
Price;1052055;U91;1941;1990;1990;1990;3;4;0;1;0;5;0;L52055;1941;1990;2100;x
Roberts;1052057;U91;1941;1990;1990;1990;1;5;0;1;0;5;0;L52057;1941;1990;2100;x
Rockingham;1052058;U91;1944;1990;1990;1990;3;5;256;1;0;5;0;L52058;1944;1990;2100;x
Sansom;1052062;U91;1930;1943;1990;1990;2;6;128;2;0;5;0;L52062;1930;1990;2100;x
Simmons;1052065;U91;1941;1943;1944;1990;2;8;132;3;0;5;0;L52065;1941;1990;2100;x
Sutozato;1052069;U91;1938;1945;1990;1990;3;5;1;2;0;5;0;L52069;1938;1990;2100;x
Vanier;1052072;U91;1930;1930;1938;1990;1;6;516;3;0;5;0;L52072;1930;1990;2100;x
Vaux;1052073;U91;1943;1944;1990;1990;3;6;128;1;0;5;0;L52073;1943;1990;2100;x
Walker;1052074;U91;1943;1990;1990;1990;3;5;256;1;0;5;0;L52074;1943;1990;2100;x
Worthington;1052078;U91;1942;1946;1990;1990;3;6;128;2;0;5;0;L52078;1942;1990;2100;x
Barber;1052079;U91;1939;1941;1990;1990;2;5;0;2;0;5;1;L52079;1939;1990;2100;x
Bishop;1052081;U91;1940;1990;1990;1990;3;5;0;1;0;5;1;L52081;1940;1990;2100;x
Desmond;1052083;U91;1945;1990;1990;1990;3;5;0;1;0;5;1;L52083;1945;1990;2100;x
Jones;1052085;U91;1930;1941;1990;1990;2;6;4096;2;0;5;1;L52085;1930;1990;2100;x
Murray Adam;1052088;U91;1942;1990;1990;1990;3;6;8192;1;0;5;1;L52088;1942;1990;2100;x
Paruchin;1052090;U91;1945;1990;1990;1990;3;4;0;1;0;5;1;L52090;1945;1990;2100;x
Petipasu;1052091;U91;1941;1990;1990;1990;3;5;1024;1;0;5;1;L52091;1941;1990;2100;x
Pears;1052092;U91;1943;1947;1990;1990;3;6;0;2;0;5;1;L52092;1943;1990;2100;x
Lead;1052093;U91;1943;1946;1990;1990;3;6;4096;2;0;5;1;L52093;1943;1990;2100;x
Richardson;1052094;U91;1940;1990;1990;1990;3;5;0;1;0;5;1;L52094;1940;1990;2100;x
Son Durst ROHM;1052095;U91;1937;1941;1990;1990;2;6;4096;2;0;5;1;L52095;1937;1990;2100;x
Bering;1052098;U91;1943;1990;1990;1990;3;5;65536;1;0;5;2;L52098;1943;1990;2100;x
Kaffe;1052102;U91;1930;1930;1939;1990;1;7;4608;3;0;5;2;L52102;1930;1990;2100;x
Fultz;1052103;U91;1942;1946;1990;1990;3;5;131584;2;0;5;2;L52103;1942;1990;2100;x
Gurejia;1052104;U91;1941;1990;1990;1990;3;6;0;1;0;5;2;L52104;1941;1990;2100;x
Harley;1052106;U91;1943;1990;1990;1990;3;5;0;1;0;5;2;L52106;1943;1990;2100;x
car;1052107;U91;1943;1990;1990;1990;3;4;65536;1;0;5;2;L52107;1943;1990;2100;x
Langlois;1052108;U91;1945;1990;1990;1990;3;4;0;1;0;5;2;L52108;1945;1990;2100;x
McBurney;1052109;U91;1943;1990;1990;1990;3;5;32768;1;0;5;2;L52109;1943;1990;2100;x
mirror;1052111;U91;1942;1944;1947;1990;2;6;0;3;0;5;2;L52111;1942;1990;2100;x
Orlando;1052113;U91;1941;1990;1990;1990;3;5;0;1;0;5;2;L52113;1941;1990;2100;x
Timmermann;1052115;U91;1944;1947;1990;1990;3;5;0;2;0;5;2;L52115;1944;1990;2100;x
Watt;1052116;U91;1939;1990;1990;1990;3;6;131072;1;0;5;2;L52116;1939;1990;2100;x
Monseru;1052117;U91;1942;1945;1990;1990;3;6;128;2;0;5;0;L52117;1942;1990;2100;x
Graham;1052118;U91;1941;1945;1955;1990;1;6;64;3;0;5;0;M45162;1941;1990;2100;x
Walsh;1052119;U91;1951;1954;1960;1990;1;6;4;3;0;5;0;M45163;1951;1990;2100;x
Haperu;1052120;U91;1950;1955;1960;1990;1;6;1;3;0;5;0;M45166;1950;1990;2100;x
Haninton;1052121;U91;1956;1961;1990;1990;2;5;0;2;0;5;1;M45167;1956;1990;2100;x
Lecky;1052123;U91;1942;1944;1953;1990;2;6;131072;3;0;5;2;M45169;1942;1990;2100;x
Blackadder;1052124;U91;1944;1990;1990;1990;3;7;68;3;0;5;0;L52124;1944;1990;2100;x
Clark;1052125;U91;1945;1955;1990;1990;1;4;0;1;0;5;0;L52125;1945;1990;2100;x
