Name;ID;Country;Rank 3 Year;Rank 2 Year;Rank 1 Year;Rank 0 Year;Ideal Rank;Max Skill;Traits;Skill;Experience;Loyalty;Type;Picture;Start Year;End Year;Retirement Year;x
Clayton. W. Abrams Jr.;60000;USA;1960;1963;1964;2100;1;7;128;2;0;5;0;M6008;1960;2040;2100;x
Roger Donlon;60002;USA;1958;2100;2100;2100;3;5;64;1;0;5;0;L60002;1958;2040;2100;x 
John. D. Berkeley;60003;USA;1950;1960;2100;2100;2;5;0;2;0;5;1;L60003;1950;2040;2100;x 
James. E. Hill;60004;USA;1956;1966;1977;2100;1;6;0;2;0;5;2;L60004;1956;2040;2100;x 
Noel. A. M. Gaylor;60005;USA;1951;1955;1962;2100;1;6;0;1;0;5;1;L60005;1951;2040;2100;x 
George. C. Akusuteru;60006;USA;1951;1972;2100;2100;2;6;131072;1;0;5;2;L60006;1951;2040;2100;x 
Andrew. J. Good Pastor;60007;USA;1961;1966;1968;2100;1;7;33;2;0;5;0;L60007;1961;2040;2100;x 
Bruce Palmer Jr.;60008;USA;1961;1963;1968;2100;1;7;256;2;0;5;0;L60008;1961;2040;2100;x 
William. B. Lawson;60009;USA;1960;1960;1969;2100;1;6;2;1;0;5;0;L60009;1960;2040;2100;x 
Frederick. C. Weiyando;60010;USA;1962;1968;1970;2100;1;7;4;1;0;5;0;M6139;1962;2040;2100;x 
Henry. A. Miley Jr.;60011;USA;1963;1969;1970;2100;1;6;3;1;0;5;0;L60011;1963;2040;2100;x 
Michael. S. Davison;60012;USA;1963;1968;1970;2100;1;6;128;1;0;5;0;L60012;1963;2040;2100;x 
Donald. V. Bennett;60013;USA;1960;1960;1972;2100;1;6;64;1;0;5;0;L60013;1960;2040;2100;x 
Alexander. M. Haig Jr.;60014;USA;1969;1972;1973;2100;1;7;4;2;0;5;0;M6056;1960;2040;2100;x 
Walter. T. Kelwin Jr.;60015;USA;1960;1960;1973;2100;1;6;64;1;0;5;0;L60015;1960;2040;2100;x 
William. E. Depew;60016;USA;1960;1960;1973;2100;1;6;16;1;0;5;0;L60016;1960;2040;2100;x 
Ruchado. G. Stilwell;60017;USA;1960;1960;1973;2100;1;6;128;1;0;5;0;L60017;1960;2040;2100;x 
Melvin Zeiss;60018;USA;1960;1960;1973;2100;1;6;256;1;0;5;0;L60018;1960;2040;2100;x 
Bernard. W. Rogers;60019;USA;1970;1972;1974;2100;1;7;0;2;0;5;0;M6140;1970;2040;2100;x 
John. R. Dean Jr.;60020;USA;1970;1970;1975;2100;1;6;256;1;0;5;0;L60020;1970;2040;2100;x 
George. S. Blanchard;60021;USA;1970;1970;1975;2100;1;6;256;1;0;5;0;L60021;1970;2040;2100;x 
William. A. Knowlton;60022;USA;1970;1970;1976;2100;1;6;128;1;0;5;0;L60022;1970;2040;2100;x 
Frederick. J. Clausen Jr.;60023;USA;1970;1970;1976;2100;1;6;256;1;0;5;0;L60023;1970;2040;2100;x 
John William Vesshi Jr.;60024;USA;1974;1975;1976;2100;1;7;4;2;0;5;0;M6129;1970;2040;2100;x 
Don. A. Star Lee;60025;USA;1970;1970;1977;2100;1;6;128;1;0;5;0;L60025;1970;2040;2100;x 
Sam. S. Walker;60026;USA;1970;1970;1977;2100;1;7;260;1;0;5;0;L60026;1970;2040;2100;x 
John. R. Guthrie;60027;USA;1970;1970;1977;2100;1;6;32;1;0;5;0;L60027;1970;2040;2100;x 
Robert. M. Shoemaker;60028;USA;1970;1970;1978;2100;1;6;4;1;0;5;0;L60028;1970;2040;2100;x 
Edward. C. Mayer;60029;USA;1970;1970;1979;2100;1;6;256;1;0;5;0;M6141;1970;2040;2100;x 
John. A. Wickham Jr.;60030;USA;1970;1970;1979;2100;1;6;256;1;0;5;0;M6142;1970;2040;2100;x 
Voruni. F. Warner;60031;USA;1972;1975;1979;2100;1;7;256;1;0;5;0;L60031;1972;2040;2100;x 
Glen. K. Otisu;60032;USA;1972;1978;1981;2100;1;7;128;2;0;5;0;L60032;1974;2040;2100;x 
Donald. R. Keith;60033;USA;1972;1977;1981;2100;1;6;1;1;0;5;0;L60033;1974;2040;2100;x 
Richard. E. Kavazosu;60034;USA;1972;1980;1982;2100;1;7;64;2;0;5;0;L60034;1972;2040;2100;x 
Robert. W. Senewarudo;60035;USA;1972;1980;1982;2100;1;6;2;1;0;5;0;L60035;1972;2040;2100;x 
Roscoe Robinson Jr.;60036;USA;1972;1980;1982;2100;1;7;256;2;0;5;0;L60036;1972;2040;2100;x 
William. R. Richardson;60037;USA;1973;1980;1983;2100;1;6;2;1;0;5;0;L60037;1973;2040;2100;x 
Paul. F. Gorman;60038;USA;1973;1980;1983;2100;1;6;0;1;0;5;0;L60038;1973;2040;2100;x 
Wallace. H. Nutting;60039;USA;1973;1980;1983;2100;1;7;128;2;0;5;0;L60039;1973;2040;2100;x 
Maxwell. R. Truman;60040;USA;1973;1980;1983;2100;1;6;1;1;0;5;0;L60040;1973;2040;2100;x 
William. J. Livesey;60041;USA;1974;1980;1984;2100;1;6;4;1;0;5;0;L60041;1974;2040;2100;x 
Richard Horner Thompson;60042;USA;1974;1981;1984;2100;1;6;1;1;0;5;0;L60042;1974;2040;2100;x 
Robert. C. Kingston;60043;USA;1972;1981;1984;2100;1;7;4;1;0;5;0;L60043;1972;2040;2100;x 
John. R. Galvin;60044;USA;1975;1981;1985;2100;1;6;0;1;0;5;0;L60044;1975;2040;2100;x 
Fred. K. Mahafi;60045;USA;1975;1980;1985;2100;1;7;260;2;0;5;0;L60045;1975;2040;2100;x 
Jack. N. Benefits;60046;USA;1975;1981;1985;2100;1;6;64;1;0;5;0;L60046;1975;2040;2100;x 
Carl. E. Vuono;60047;USA;1976;1983;1986;2100;1;7;4;1;0;5;0;M6143;1976;2040;2100;x 
Joseph. T. Parasutora Jr.;60048;USA;1976;1983;1986;2100;1;6;16;1;0;5;0;L60048;1976;2040;2100;x 
James. J. Lindsay;60049;USA;1976;1984;1986;2100;1;6;256;1;0;5;0;L60049;1976;2040;2100;x 
Lewis. C. Wagner Jr.;60050;USA;1977;1983;1987;2100;1;6;1;1;0;5;0;L60050;1977;2040;2100;x 
Frederick. F. Wehner Jr.;60051;USA;1977;1984;1987;2100;1;7;4;2;0;5;0;L60051;1977;2040;2100;x 
Arthur. E. Brown Jr.;60052;USA;1977;1983;1987;2100;1;7;4;2;0;5;0;L60052;1977;2040;2100;x 
Lewis. C. Menetore;60053;USA;1977;1982;1987;2100;1;7;16;1;0;5;0;L60053;1977;2040;2100;x 
Crosby. E. Saint;60054;USA;1978;1985;1988;2100;1;6;128;1;0;5;0;L60054;1978;2040;2100;x 
Norman Schwarzkopf Jr.;60055;USA;1976;1983;1988;2100;0;9;6;3;0;5;0;L60055;1976;2040;2100;x 
Robert. W. Risukasshi;60056;USA;1979;1985;1989;2100;1;6;16;1;0;5;0;L60056;1979;2040;2100;x 
Colin Powell;60057;USA;1979;1987;1989;2100;1;6;0;1;0;5;0;M6062;1979;2040;2100;x 
John. W. Foz;60058;USA;1979;1985;1989;2100;1;6;256;1;0;5;0;L60058;1979;2040;2100;x 
Edwin. H. Burda Jr.;60059;USA;1979;1985;1989;2100;1;6;0;1;0;5;0;L60059;1979;2040;2100;x 
William. G. T. Tuttle Jr.;60060;USA;1979;1985;1989;2100;1;6;1;1;0;5;0;L60060;1979;2040;2100;x 
Gordon. R. Sullivan;60061;USA;1980;1985;1990;2100;1;6;2;1;0;5;0;M6144;1980;2040;2100;x 
Carl. W. Sutina;60062;USA;1980;1985;1990;2100;1;7;256;2;0;5;0;L60062;1980;2040;2100;x 
George. A. Joruwan;60063;USA;1980;1985;1990;2100;1;7;128;2;0;5;0;L60063;1980;2040;2100;x 
Dennis. J. Reimer;60064;USA;1984;1990;1991;2100;1;7;4;2;0;5;0;L60064;1984;2040;2100;x 
Frederick. M. Franks Jr.;60065;USA;1984;1988;1991;2100;1;7;128;2;0;5;0;L60065;1984;2040;2100;x 
Jimmy. D. Ross;60066;USA;1982;1988;1992;2100;1;6;1;1;0;5;0;L60066;1982;2040;2100;x 
John Shalikashvili;60067;USA;1982;1988;1992;2100;1;8;129;2;0;5;0;M6133;1982;2040;2100;x 
David. M. Maddox;60068;USA;1982;1988;1992;2100;1;6;4;1;0;5;0;L60068;1982;2040;2100;x 
J. H. bin Ford Percy III;60069;USA;1983;1989;1993;2100;1;7;256;2;0;5;0;L60069;1983;2040;2100;x 
Wayne. A. Downing;60070;USA;1983;1989;1993;2100;1;7;256;2;0;5;0;L60070;1983;2040;2100;x 
Gary. E. rack;60071;USA;1983;1989;1993;2100;1;6;256;1;0;5;0;L60071;1983;2040;2100;x 
Leon. E. Salomon;60072;USA;1984;1989;1994;2100;1;6;1;1;0;5;0;L60072;1984;2040;2100;x 
Barry. R. McCaffrey;60073;USA;1984;1989;1994;2100;1;7;16;1;0;5;0;L60073;1984;2040;2100;x 
John. H. Tireri Jr.;60074;USA;1984;1989;1994;2100;1;6;2;1;0;5;0;L60074;1984;2040;2100;x 
William. W. Herzog;60075;USA;1984;1989;1994;2100;1;6;16;1;0;5;0;L60075;1984;2040;2100;x 
William. W. Crouch;60076;USA;1985;1990;1995;2100;1;7;4;1;0;5;0;L60076;1985;2040;2100;x 
Ronald. H. Griffith;60077;USA;1985;1990;1995;2100;1;7;129;2;0;5;0;L60077;1985;2040;2100;x 
Henry Hugh Shelton;60078;USA;1986;1991;1996;2100;1;7;129;2;0;5;0;M6134;1986;2040;2100;x 
Johnny. E. Wilson;60079;USA;1986;1991;1996;2100;1;6;1;1;0;5;0;L60079;1986;2040;2100;x 
Wesley. K. Clark Sr.;60080;USA;1986;1991;1996;2100;1;7;4;2;0;5;0;L60080;1986;2040;2100;x 
David. A. Buramuretto;60081;USA;1986;1991;1996;2100;1;6;256;1;0;5;0;L60081;1986;2040;2100;x 
Eric Shinseki;60082;USA;1987;1996;1997;2100;1;8;132;2;0;5;0;M6146;1987;2040;2100;x 
Peter Shoemaker;60083;USA;1987;1993;1997;2100;1;7;16;2;0;5;0;M6147;1987;2040;2100;x 
Thomas. A. Schwarz;60084;USA;1988;1993;1998;2100;1;6;0;1;0;5;0;L60084;1988;2040;2100;x 
John. N. Abrams;60085;USA;1988;1993;1998;2100;1;7;4194308;1;0;5;0;L60085;1988;2040;2100;x 
Montgomery. C. Meigs;60086;USA;1988;1993;1998;2100;1;7;4;1;0;5;0;L60086;1988;2040;2100;x 
John. M. Keene;60087;USA;1989;1994;1999;2100;1;7;256;2;0;5;0;L60087;1989;2040;2100;x 
John. G. Coburn;60088;USA;1989;1994;1999;2100;1;6;1;1;0;5;0;L60088;1989;2040;2100;x 
John. W. Hendrix;60089;USA;1989;1994;1999;2100;1;6;0;1;0;5;0;L60089;1989;2040;2100;x 
William. F. Kernan;60090;USA;1990;1995;2000;2100;1;7;256;1;0;5;0;L60090;1990;2040;2100;x 
Tommy. R. Franks;60091;USA;1990;1995;2000;2100;1;7;64;2;0;5;0;L60091;1990;2040;2100;x 
Larry. R. Ellis;60092;USA;1991;1996;2001;2100;1;7;128;1;0;5;0;L60092;1991;2040;2100;x 
Paul. J. Khan;60093;USA;1991;1996;2001;2100;1;6;1;1;0;5;0;L60093;1991;2040;2100;x 
Leon. J. Rapote;60094;USA;1992;1997;2002;2100;1;6;0;1;0;5;0;L60094;1992;2040;2100;x 
James. T. Hill;60095;USA;1992;1997;2002;2100;1;6;256;2;0;5;0;L60095;1992;2040;2100;x 
Kevin. P. Burns;60096;USA;1992;1997;2002;2100;1;6;4;1;0;5;0;L60096;1992;2040;2100;x 
Burwell. B. Bell III;60097;USA;1992;1997;2002;2100;1;7;132;2;0;5;0;L60097;1992;2040;2100;x 
John. P. Abizaido;60098;USA;1993;1998;2003;2100;1;7;262148;2;0;5;0;L60098;1993;2040;2100;x 
Brian. D. Brown;60099;USA;1993;1998;2003;2100;1;7;256;2;0;5;0;L60099;1993;2040;2100;x 
George. W. Casey Jr.;60100;USA;1993;1998;2003;2100;1;8;6;2;0;5;0;M6148;1993;2040;2100;x 
Richard. A. Cody;60101;USA;1994;1999;2004;2100;1;7;256;2;0;5;0;L60101;1994;2040;2100;x 
Dan. K. McNeil;60102;USA;1994;1999;2004;2100;1;7;258;1;0;5;0;L60102;1994;2040;2100;x 
Benjamin. S. Griffin;60103;USA;1994;1999;2004;2100;1;7;3;1;0;5;0;L60103;1994;2040;2100;x 
Bantsu. J. Craddock;60104;USA;1995;2000;2005;2100;1;7;256;2;0;5;0;L60104;1995;2040;2100;x 
William. S. Wallace;60105;USA;1995;2000;2005;2100;1;6;0;1;0;5;0;L60105;1995;2040;2100;x 
David. D. McKee Nan;60106;USA;1995;2000;2005;2100;1;7;4;1;0;5;0;L60106;1995;2040;2100;x 
William. E. word;60107;USA;1996;2001;2006;2100;1;6;256;1;0;5;0;L60107;1996;2040;2100;x 
Charles. C. Campbell;60108;USA;1997;2002;2007;2100;1;7;16;1;0;5;0;L60108;1997;2040;2100;x 
David. H. Petoreiasu;60109;USA;1997;2002;2007;2100;1;8;258;2;0;5;0;M6125;1997;2040;2100;x 
Wiruta. L. Sharp;60110;USA;1999;2005;2008;2100;1;7;4;1;0;5;0;L60110;1999;2040;2100;x 
Peter. W. Chiarelli;60111;USA;1999;2005;2008;2100;1;7;2;1;0;5;0;L60111;1999;2040;2100;x 
Carter. F. Ham;60112;USA;2003;2007;2008;2100;1;7;2;1;0;5;0;L60112;2003;2040;2100;x 
Raymond. T. Odieruno;60113;USA;1999;2005;2008;2100;1;8;64;2;0;5;0;M6150;1999;2040;2100;x 
Anne. E. Dunwoody;60114;USA;1999;2005;2008;2100;1;6;1;1;0;5;0;L60114;1999;2040;2100;x 
Martin. E. Dempsey;60115;USA;2001;2005;2008;2100;1;7;256;1;0;5;0;M6138;2001;2040;2100;x 
Stanley. A. McChrystal;60116;USA;2001;2006;2009;2100;1;8;6;2;0;5;0;L60116;2001;2040;2100;x 
Keith. B. Alexander;60117;USA;2001;2006;2010;2100;1;7;2;1;0;5;0;L60117;2001;2040;2100;x 
James. D. Thurman;60118;USA;2001;2006;2010;2100;1;7;4;1;0;5;0;L60118;2001;2040;2100;x 
Lloyd. J. Austin III;60119;USA;2001;2006;2010;2100;1;7;256;2;0;5;0;L60119;2001;2040;2100;x 
Robert. W. corn;60120;USA;2004;2009;2011;2100;1;7;4;1;0;5;0;L60120;2004;2040;2100;x 
Charles. H. Jacoby Jr.;60121;USA;2002;2007;2011;2100;1;7;256;1;0;5;0;L60121;2002;2040;2100;x 
David. M. Rodriguez;60122;USA;2002;2007;2011;2100;1;7;256;1;0;5;0;L60122;2002;2040;2100;x 
Dennis. L. Via;60123;USA;2002;2007;2012;2100;1;6;1;1;0;5;0;L60123;2002;2040;2100;x 
Frank. J. Glass;60124;USA;2006;2010;2012;2100;1;6;32;1;0;5;0;L60124;2002;2040;2100;x 
John. F. Campbell;60125;USA;2005;2011;2013;2100;1;7;256;1;0;5;0;L60125;2005;2040;2100;x 
Daniel. B. Allyn;60126;USA;2005;2012;2013;2100;1;6;256;1;0;5;0;L60126;2005;2040;2100;x 
Vincent. K. Brooks;60127;USA;2005;2011;2013;2100;1;7;2;1;0;5;0;L60127;2005;2040;2100;x 
Curtis. M. Sukapa Lotti;60128;USA;2005;2010;2013;2100;1;7;256;2;0;5;0;L60128;2005;2040;2100;x 
Elmo. R. Zumuworuto Jr.;60129;USA;1965;1968;1970;2100;1;7;2048;2;0;5;1;M6009;1965;2040;2100;x 
Ralph. W. Cousins;60130;USA;1970;1970;1972;2100;1;7;8192;2;0;5;1;L60130;1970;2040;2100;x 
Isaac. C. Kid Jr.;60131;USA;1970;1970;1972;2100;1;7;4096;2;0;5;1;L60131;1970;2040;2100;x 
Thomas. B. Hayward;60132;USA;1970;1970;1976;2100;1;7;8192;2;0;5;1;M6152;1970;2040;2100;x 
Maurice. F. Weisuna;60133;USA;1970;1970;1972;2100;1;6;0;1;0;5;1;L60133;1970;2040;2100;x 
James. L. Holloway III;60134;USA;1970;1970;1973;2100;1;7;4096;2;0;5;1;M6151;1970;2040;2100;x 
Walls. H. Bagley;60135;USA;1970;1970;1973;2100;1;6;0;1;0;5;1;L60135;1970;2040;2100;x 
Hyman. G. Rikkova;60136;USA;1970;1970;1973;2100;1;6;0;1;0;5;1;L60136;1970;2040;2100;x 
Meanzu Johnston Jr.;60137;USA;1970;1970;1973;2100;1;6;0;1;0;5;1;L60137;1970;2040;2100;x 
Harold. E. Share;60138;USA;1970;1970;1974;2100;1;6;0;1;0;5;1;L60138;1970;2040;2100;x 
John. P. Weinel;60139;USA;1970;1970;1974;2100;1;6;0;1;0;5;1;L60139;1970;2040;2100;x 
Frederick. H. Michaelis;60140;USA;1970;1970;1975;2100;1;7;8192;2;0;5;1;L60140;1970;2040;2100;x 
David. H. Bagley;60141;USA;1970;1970;1975;2100;1;6;0;1;0;5;1;L60141;1970;2040;2100;x 
Stans field. M. Turner;60142;USA;1970;1970;1975;2100;1;7;0;2;0;5;1;M6113;1970;2040;2100;x 
Daniel. J. Murphy;60143;USA;1970;1970;1976;2100;1;6;8192;1;0;5;1;L60143;1970;2040;2100;x 
Robert. L. J. Long;60144;USA;1970;1975;1977;2100;1;7;1024;2;0;5;1;L60144;1970;2040;2100;x 
Donald. C. Davis;60145;USA;1970;1975;1978;2100;1;6;0;1;0;5;1;L60145;1970;2040;2100;x 
Alfred. J. Whittle Jr.;60146;USA;1970;1975;1978;2100;1;6;1024;1;0;5;1;L60146;1970;2040;2100;x 
Harry. D. Train II;60147;USA;1970;1975;1978;2100;1;7;2048;1;0;5;1;L60147;1970;2040;2100;x 
James. D. Watkins;60148;USA;1970;1975;1979;2100;1;8;4096;2;0;5;1;M6153;1970;2040;2100;x 
William. J. Crow Jr.;60149;USA;1973;1977;1980;2100;1;7;1024;2;0;5;1;M6130;1973;2040;2100;x 
Bobby Ray Inman;60150;USA;1970;1977;1981;2100;1;6;0;1;0;5;1;L60150;1970;2040;2100;x 
William. N. Small;60151;USA;1970;1977;1981;2100;1;6;8192;1;0;5;1;L60151;1970;2040;2100;x 
John. G. Williams Jr.;60152;USA;1970;1977;1981;2100;1;6;1024;1;0;5;1;L60152;1970;2040;2100;x 
George. E. R. Kinnear II;60153;USA;1970;1977;1981;2100;1;6;0;2;0;5;1;L60153;1970;2040;2100;x 
Kinnado. R. McKee;60154;USA;1970;1978;1982;2100;1;7;1024;2;0;5;1;L60154;1970;2040;2100;x 
Sylvester. R. Foley Jr.;60155;USA;1970;1978;1982;2100;1;6;0;1;0;5;1;L60155;1970;2040;2100;x 
Wesley. L. McDonalds;60156;USA;1972;1978;1982;2100;1;7;4096;2;0;5;1;L60156;1972;2040;2100;x 
Ronald. J. Hayes;60157;USA;1970;1980;1983;2100;1;6;8192;1;0;5;1;L60157;1970;2040;2100;x 
Stephen. A. White;60158;USA;1970;1980;1983;2100;1;6;0;1;0;5;1;L60158;1970;2040;2100;x 
Lee. J. baguette Jr.;60159;USA;1975;1982;1985;2100;1;7;2048;1;0;5;1;L60159;1975;2040;2100;x 
James. A. Lions Jr.;60160;USA;1975;1982;1985;2100;1;7;4096;2;0;5;1;L60160;1975;2040;2100;x 
Carlyle. A. H. Trost;60161;USA;1975;1982;1985;2100;1;7;1024;2;0;5;1;M6154;1975;2040;2100;x 
James. B. busy IV;60162;USA;1975;1982;1985;2100;1;7;8192;2;0;5;1;L60162;1975;2040;2100;x 
Arthur. S. Morrow Jr.;60163;USA;1975;1982;1985;2100;1;6;0;1;0;5;1;L60163;1975;2040;2100;x 
Frank. B. Kelso II;60164;USA;1980;1983;1986;2100;1;7;1024;2;0;5;1;M6155;1980;2040;2100;x 
Huntington Hardy stealing;60165;USA;1980;1985;1987;2100;1;6;8192;1;0;5;1;L60165;1980;2040;2100;x 
Powell. F. Carter Jr.;60166;USA;1980;1985;1987;2100;1;6;0;2;0;5;1;L60166;1980;2040;2100;x 
David. E. Jeremiah;60167;USA;1980;1985;1987;2100;1;7;2048;1;0;5;1;M6132;1980;2040;2100;x 
Leon. A. Edoni;60168;USA;1975;1982;1988;2100;1;7;8192;2;0;5;1;L60168;1980;2040;2100;x 
Bruce Demers;60169;USA;1975;1982;1988;2100;1;6;0;1;0;5;1;L60169;1980;2040;2100;x 
James. R. Hogg;60170;USA;1975;1982;1988;2100;1;7;2048;2;0;5;1;L60170;1980;2040;2100;x 
John. J. Hennessy;60171;USA;1970;1970;1974;2100;1;7;256;2;0;5;0;L60171;1970;2040;2100;x 
Harold. R. Aaron;60172;USA;1970;1977;2100;2100;2;5;256;1;0;5;0;L60172;1970;2040;2100;x
Robert. B. Abrams;60173;USA;2000;2004;2100;2100;2;6;128;1;0;5;0;L60173;2000;2040;2100;x
James. B. Adamson;60174;USA;1967;2100;2100;2100;3;5;0;1;0;5;0;L60174;1967;2040;2100;x 
James Adkins;60175;USA;1993;2100;2100;2100;3;5;0;1;0;5;0;L60175;1993;2040;2100;x
Alfred. F. Earner;60176;USA;1972;2100;2100;2100;3;5;2;1;0;5;0;L60176;1972;2040;2100;x 
John. D. Alten Berg Jr.;60177;USA;1970;2100;2100;2100;3;5;256;1;0;5;0;L60177;1970;2040;2100;x 
Herbert. L. Altshuller;60178;USA;2000;2100;2100;2100;3;5;256;1;0;5;0;L60178;2000;2040;2100;x
Marsha Anderson;60179;USA;2011;2100;2100;2100;3;5;0;1;0;5;0;L60179;2011;2040;2100;x
Mark. E. Anderson;60180;USA;2003;2100;2100;2100;3;5;1;1;0;5;0;L60180;2003;2040;2100;x
Tobato-Oerter;60181;USA;1973;1983;2100;2100;2;6;256;2;0;5;0;L60181;1973;2040;2100;x 
Edward. D. fool;60182;USA;1979;1994;2100;2100;2;6;2;1;0;5;0;L60182;1979;2040;2100;x 
Rick Bacchus;60183;USA;2002;2100;2100;2100;3;6;2;1;0;5;0;L60183;2002;2040;2100;x 
John. C. Bernsen Jr.;60184;USA;1976;2100;2100;2100;3;6;132;2;0;5;0;L60184;1976;2040;2100;x 
Charles. R. Bailey;60185;USA;2011;2100;2100;2100;3;3;0;0;0;5;0;L60185;2011;2040;2100;x
Mildred. I. C. Bailey;60186;USA;1971;2100;2100;2100;3;3;1;0;0;5;0;L60186;1971;2040;2100;x 
John. L. Ballantyne III;60187;USA;1983;1988;2100;2100;3;6;0;1;0;5;0;L60187;1983;2040;2100;x 
Joe. N. ballad;60188;USA;1991;1996;2100;2100;2;6;32;1;0;5;0;L60188;1991;2040;2100;x 
Michael. D. Barbero;60189;USA;1995;2003;2100;2100;2;7;260;2;0;5;0;L60189;1995;2040;2100;x
Eldon. A. Bajeweru;60190;USA;1995;2100;2100;2100;3;5;0;1;0;5;0;L60190;1995;2040;2100;x
David. W. Bano;60191;USA;1995;2003;2100;2100;2;7;4;2;0;5;0;L60191;1995;2040;2100;x 
John-Baptiste;60192;USA;1997;2100;2100;2100;3;5;128;1;0;5;0;L60192;1997;2040;2100;x 
Julius. W. Becton Jr.;60193;USA;1970;1978;2100;2100;2;6;0;2;0;5;0;L60193;1970;2040;2100;x 
Sydney Brian Berry;60194;USA;1974;1977;2100;2100;2;6;0;1;0;5;0;L60194;1974;2040;2100;x 
Lead. K. Beverijji;60195;USA;1975;2100;2100;2100;3;5;2;1;0;5;0;L60195;1975;2040;2100;x 
William. C. Biro;60196;USA;1993;2100;2100;2100;3;5;64;1;0;5;0;L60196;1993;2040;2100;x 
Scott. C. Black;60197;USA;1990;2008;2100;2100;2;5;0;1;0;5;0;L60197;1990;2040;2100;x 
James. G. Brany;60198;USA;1997;2100;2100;2100;3;5;0;1;0;5;0;L60198;1997;2040;2100;x 
H. Steven Blum;60199;USA;1995;2003;2100;2100;2;6;2;1;0;5;0;L60199;1995;2040;2100;x 
Daniel. P. Bolger;60200;USA;2000;2010;2100;2100;2;6;16;1;0;5;0;L60200;2000;2040;2100;x
Thomas. P. Bostic;60201;USA;2005;2012;2100;2100;2;6;32;1;0;5;0;L60200;2005;2040;2100;x
Kenneth bowler;60202;USA;1992;2100;2100;2100;3;6;260;2;0;5;0;L60201;1992;2040;2100;x 
William. G. Boikin;60203;USA;1998;2003;2100;2100;2;6;128;2;0;5;0;L60202;1998;2040;2100;x 
Peter. J. Boylan;60204;USA;1983;2100;2100;2100;3;5;0;1;0;5;0;L60203;1983;2040;2100;x 
Patrick Henry Brady;60205;USA;1980;2100;2100;2100;3;5;0;0;0;5;0;L60204;1980;2040;2100;x 
John. N. Brandenburg;60206;USA;1978;1980;2100;2100;2;6;256;1;0;5;0;L60205;1978;2040;2100;x 
William. H. Brandenburg;60207;USA;1998;2100;2100;2100;3;5;4;1;0;5;0;L60206;1998;2040;2100;x 
Joseph. K. Buratton;60208;USA;1972;1980;2100;2100;2;6;32;1;0;5;0;L60207;1972;2040;2100;x 
Howard. B. Buromubagu;60209;USA;1995;2010;2100;2100;2;6;2;1;0;5;0;L60208;1995;2040;2100;x
Leo. A. Brooks Jr.;60210;USA;2001;2100;2100;2100;3;5;256;1;0;5;0;L60210;2001;2040;2100;x
Leo. A. Brooks Sr.;60211;USA;1980;2100;2100;2100;3;5;0;1;0;5;0;L60211;1980;2040;2100;x
John. M. Brown III;60212;USA;1995;2004;2100;2100;2;6;4;1;0;5;0;L60212;1995;2040;2100;x
John. S. Brown;60213;USA;1998;2100;2100;2100;3;5;4;1;0;5;0;L60213;1998;2040;2100;x 
Robert Mark Brown;60214;USA;2005;2100;2100;2100;3;5;1;1;0;5;0;L60214;2005;2040;2100;x
Albert Bryant Jr.;60215;USA;1998;2100;2100;2100;3;6;128;2;0;5;0;L60215;1998;2040;2100;x 
Peter. G. Bar Blues;60216;USA;1973;1982;2100;2100;2;6;1;1;0;5;0;L60216;1973;2040;2100;x 
Donald Burdick;60217;USA;1983;2100;2100;2100;3;5;64;1;0;5;0;L60217;1983;2040;2100;x 
Ronald. L. Burgess Jr.;60218;USA;1995;2009;2100;2100;2;6;16;1;0;5;0;L60218;1995;2040;2100;x 
Rosetta. Y. Burke;60219;USA;1992;2100;2100;2100;3;5;0;0;0;5;0;L60219;1992;2040;2100;x 
Sherian. G. Kadoria;60220;USA;1980;2100;2100;2100;3;5;0;0;0;5;0;L60220;1980;2040;2100;x 
William. B. Caldwell;60221;USA;2001;2007;2100;2100;2;7;4;2;0;5;0;L60221;2001;2040;2100;x 
William. B. Caldwell III;60222;USA;1969;1978;2100;2100;2;6;2;1;0;5;0;L60222;1980;2040;2100;x 
Donald. M. Campbell Jr.;60223;USA;2004;2011;2100;2100;2;6;128;1;0;5;0;L60223;2004;2040;2100;x
James. L. Campbell;60224;USA;1993;2002;2100;2100;2;6;256;1;0;5;0;L60224;1993;2040;2100;x 
Kevin. T. Campbell;60225;USA;2000;2005;2100;2100;2;6;64;1;0;5;0;L60225;1980;2040;2100;x
Michael. A. Kanavan;60226;USA;1990;2000;2100;2100;2;5;2;1;0;5;0;L60226;1990;2040;2100;x 
Jesefu-Karavoruho Jr.;60227;USA;2000;2100;2100;2100;3;4;0;0;0;5;0;L60227;2000;2040;2100;x
Dominique. A. Kariro;60228;USA;2009;2100;2100;2100;3;5;2;1;0;5;0;L60228;2009;2040;2100;x
William. S. Carpenter;60229;USA;1970;1980;2100;2100;2;6;256;1;0;5;0;L60229;1970;2040;2100;x 
Raymond. W. Carpenter;60230;USA;2003;2100;2100;2100;3;5;32;1;0;5;0;L60230;2003;2040;2100;x 
Richard Kerr;60231;USA;1976;2100;2100;2100;3;4;0;0;0;5;2;L60230;1976;2040;2100;x 
Joseph. C. Carter;60232;USA;2007;2100;2100;2100;3;5;2;0;0;5;0;L60231;2007;2040;2100;x 
Douglas. L. Carver;60233;USA;2005;2100;2100;2100;3;4;0;0;0;5;0;L60232;2005;2040;2100;x 
Robert. L. Kasuren;60234;USA;2000;2010;2100;2100;2;6;256;2;0;5;0;L60233;2000;2040;2100;x
Carmen. J. Kaveza;60235;USA;1980;1990;2100;2100;2;5;256;1;0;5;0;L60234;1980;2040;2100;x 
Carlos Fernando Chardon;60236;USA;1973;2100;2100;2100;3;5;2;0;0;5;0;L60235;1973;2040;2100;x 
Dana. K. Chipman;60237;USA;1999;2009;2100;2100;2;6;0;1;0;5;0;L60236;1999;2040;2100;x 
Daniel. W. Christman;60238;USA;1984;1996;2100;2100;2;6;32;1;0;5;0;L60237;1984;2040;2100;x 
Frank. A. Kiporia;60239;USA;2004;2100;2100;2100;3;5;0;0;0;5;0;L60238;2004;2040;2100;x 
Robert. T. Clark;60240;USA;1990;2000;2100;2100;2;6;256;1;0;5;0;L60240;1990;2040;2100;x 
Mary. E. Clark;60241;USA;1980;2100;2100;2100;3;4;1;0;0;5;0;L60241;1975;2040;2100;x 
Joseph. M. Kosumano;60242;USA;2000;2003;2100;2100;2;5;0;1;0;5;0;L60242;2000;2040;2100;x
Jesse. R. Cross;60243;USA;2005;2100;2100;2100;3;5;1;1;0;5;0;L60243;2005;2040;2100;x
Howard. G. Crowell Jr.;60244;USA;1975;1985;2100;2100;2;6;0;1;0;5;0;L60244;1975;2040;2100;x 
Anthony Kukoro;60245;USA;2004;2100;2100;2100;3;5;256;1;0;5;0;L60245;2004;2040;2100;x
William. A. Kugono;60246;USA;1997;2100;2100;2100;3;5;1;1;0;5;0;L60246;1997;2040;2100;x 
James. P. clen;60247;USA;2000;2100;2100;2100;3;4;0;0;0;5;0;L60247;2000;2040;2100;x 
John. H. Cushman;60248;USA;1972;1976;2100;2100;2;5;256;1;0;5;0;L60248;1972;2040;2100;x 
John. M. Custer III;60249;USA;2005;2100;2100;2100;3;5;16;0;0;5;0;L60249;2005;2040;2100;x
Elliott. C. Custer Jr.;60250;USA;1980;2100;2100;2100;3;5;16;1;0;5;0;L60250;1970;2040;2100;x 
James. P. Daily;60251;USA;1980;2100;2100;2100;3;5;2;1;0;5;0;L60251;2001;2040;2100;x 
John. R. Daraujo Jr.;60252;USA;1987;2100;2100;2100;3;5;2;1;0;5;0;L60252;1987;2040;2100;x 
Flora. D. DArpino;60253;USA;2005;2010;2100;2100;2;4;0;0;0;5;0;L60253;2005;2040;2100;x
Brett. D. Doherty;60254;USA;2008;2100;2100;2100;3;5;2;0;0;5;0;L60254;2008;2040;2100;x
Philip. B. Davidson Jr.;60255;USA;1967;1972;2100;2100;2;6;16;1;0;5;0;L60255;1967;2040;2100;x 
Franklin. M. Davis Jr.;60256;USA;1968;2100;2100;2100;3;5;0;1;0;5;0;L60256;1968;2040;2100;x 
Peak. M. Dawkins;60257;USA;1973;2100;2100;2100;3;5;256;1;0;5;0;L60257;1973;2040;2100;x 
Keith. W. Dayton;60258;USA;1998;2005;2100;2100;2;6;64;1;0;5;0;L60258;1998;2040;2100;x 
Joseph. G. de Paul;60259;USA;2006;2100;2100;2100;3;5;0;1;0;5;0;L60259;2006;2040;2100;x
Richard. D. Dean;60260;USA;1983;2100;2100;2100;3;5;96;1;0;5;0;L60260;1983;2040;2100;x 
Miles. L. dealing;60261;USA;2005;2100;2100;2100;3;5;0;1;0;5;0;L60261;2005;2040;2100;x
Robert. F. Dies;60262;USA;1990;2100;2100;2100;3;5;0;0;0;5;0;L60262;1990;2040;2100;x 
Kelly. G. Denson;60263;USA;2000;2100;2100;2100;3;5;0;0;0;5;0;L60263;2000;2040;2100;x 
William Robertson Desoburi;60264;USA;1965;1968;2100;2100;2;7;128;2;0;5;0;L60264;1965;2040;2100;x 
Emilio Diaz Colon;60265;USA;1992;2100;2100;2100;3;5;2;1;0;5;0;L60265;1992;2040;2100;x 
Oliver. W. Dillard;60266;USA;1972;2100;2100;2100;3;6;4;1;0;5;0;L60266;1972;2040;2100;x 
Henry Doctor Jr.;60267;USA;1990;2000;2100;2100;2;6;0;1;0;5;0;L60267;1990;2040;2100;x
Larry. J. Doggen;60268;USA;1996;2003;2100;2100;2;6;2;1;0;5;0;L60268;1996;2040;2100;x 
Wellborn. G. Doruvin;60269;USA;1961;1971;2100;2100;2;6;128;1;0;5;0;L60269;1961;2040;2100;x 
James. L. Dozier;60270;USA;1980;2100;2100;2100;3;5;128;1;0;5;0;L60270;1980;2040;2100;x 
Thomas. W. Dan;60271;USA;1960;1970;2100;2100;2;6;64;1;0;5;0;L60271;1960;2040;2100;x
Paul. D. Eaton;60272;USA;2000;2100;2100;2100;3;6;4;1;0;5;0;L60272;2000;2040;2100;x 
Mari. K. Eder;60273;USA;2000;2100;2100;2100;3;5;0;0;0;5;0;L60273;2000;2040;2100;x 
Charles. B. Eichelberger;60274;USA;1980;1985;2100;2100;3;5;16;1;0;5;0;L60274;1980;2040;2100;x 
Carl. W. Eikenberry;60275;USA;2000;2005;2100;2100;2;6;4;1;0;5;0;L60275;2000;2040;2100;x 
Norris. L. Ainatoson;60276;USA;1980;2100;2100;2100;3;4;0;0;0;5;0;L60276;1980;2040;2100;x 
John Eisenhower;60277;USA;1963;2100;2100;2100;3;5;0;1;0;5;0;L60277;1963;2040;2100;x 
Henry. E. Emerson;60278;USA;1970;1970;2100;2100;2;7;260;2;0;5;0;L60278;1970;2040;2100;x 
Robert Leahy Fair;60279;USA;1970;1975;2100;2100;2;6;8;2;0;5;0;L60279;1970;2040;2100;x 
Kenneth. L. Farmer Jr.;60280;USA;2004;2100;2100;2100;3;4;0;0;0;5;0;L60280;2004;2040;2100;x
Barbara Fast;60281;USA;1995;2100;2100;2100;3;5;0;0;0;5;0;L60281;1995;2040;2100;x 
George Fay;60282;USA;2000;2100;2100;2100;3;5;0;0;0;5;0;L60282;2000;2040;2100;x 
Michael Ferita;60283;USA;2005;2011;2100;2100;3;6;256;2;0;5;0;L60283;2005;2040;2100;x
Joseph. F. Phil Jr.;60284;USA;2000;2008;2100;2100;2;6;4;1;0;5;0;L60284;2000;2040;2100;x 
Michael. C. Flowers;60285;USA;2005;2100;2100;2100;3;5;256;1;0;5;0;L60285;2005;2040;2100;x
Robert. B. Flowers;60286;USA;2000;2005;2100;2100;2;6;288;1;0;5;0;L60286;2000;2040;2100;x
Michael. T. Flynn;60287;USA;2002;2010;2100;2100;2;6;16;1;0;5;0;L60287;2002;2040;2100;x 
Robert. F. Foley;60288;USA;1990;1998;2100;2100;2;6;0;2;0;5;0;L60288;1990;2040;2100;x 
Pat Foot;60289;USA;1986;2100;2100;2100;3;4;0;0;0;5;0;L60289;1986;2040;2100;x 
John. F. Forest;60290;USA;1971;1979;2100;2100;2;6;4;1;0;5;0;L60290;1971;2040;2100;x 
Hugh. F. Foster Jr.;60291;USA;1970;2100;2100;2100;3;5;0;0;0;5;0;L60291;1970;2040;2100;x 
Stephen. E. Foster;60292;USA;2000;2100;2100;2100;3;5;0;1;0;5;2;L60292;2000;2040;2100;x
Walter. E. fountain;60293;USA;2011;2100;2100;2100;3;5;2;1;0;5;0;L60293;2011;2040;2100;x
David. G. Fox;60294;USA;2010;2100;2100;2100;3;6;4;1;0;5;0;L60294;2010;2040;2100;x
Benjamin. C. free clay;60295;USA;2003;2005;2100;2100;2;6;256;1;0;5;0;L60295;2003;2040;2100;x 
Carl. H. Freeman;60296;USA;1990;2100;2100;2100;3;5;257;1;0;5;0;L60296;1990;2040;2100;x 
David. P. Furidovitchi;60297;USA;2005;2011;2100;2100;2;6;16;1;0;5;0;L60297;2005;2040;2100;x 
Catherine. G. Frost;60298;USA;2000;2100;2100;2100;3;4;0;0;0;5;0;L60298;2000;2040;2100;x 
Malcolm. B. Frost;60299;USA;2011;2100;2100;2100;3;6;256;1;0;5;0;L60299;2011;2040;2100;x
John. L. Hugh;60300;USA;1984;2100;2100;2100;3;4;0;0;0;5;0;L60300;1984;2040;2100;x 
Kathleen. M. Gainey;60301;USA;2000;2010;2100;2100;2;5;1;0;0;5;0;L60301;2000;2040;2100;x
Robert. G. guard Jr.;60302;USA;1970;1980;2100;2100;2;5;2;1;0;5;0;L60302;1970;2040;2100;x 
John. D. Gardner;60303;USA;1995;2005;2100;2100;2;6;0;1;0;5;0;L60303;1995;2040;2100;x 
Jay. M. Garner;60304;USA;1980;1990;2100;2100;2;6;2;1;0;5;0;L60304;1980;2040;2100;x 
William. B. Garrett III;60305;USA;2005;2012;2100;2100;2;6;256;1;0;5;0;L60305;2005;2040;2100;x
William. F. Garrison;60306;USA;1985;2100;2100;2100;3;6;20;1;0;5;0;L60306;1985;2040;2100;x 
David. W. Gay;60307;USA;1992;2100;2100;2100;3;5;64;0;0;5;0;L60307;1992;2040;2100;x 
James. K. Gilman;60308;USA;2000;2100;2100;2100;3;4;0;0;0;5;0;L60308;2000;2040;2100;x 
Daniel. O. Graham;60309;USA;1975;1980;2100;2100;2;5;0;1;0;5;0;L60309;1975;2040;2100;x
David. E. Gunraji Jr.;60310;USA;1970;1979;2100;2100;2;6;256;2;0;5;0;L60310;1970;2040;2100;x 
David. L. grunge;60311;USA;1990;2100;2100;2100;3;5;4;1;0;5;0;L60311;1990;2040;2100;x 
Ernest Graves Jr.;60312;USA;1970;1978;2100;2100;2;5;0;0;0;5;0;L60312;1970;2040;2100;x 
Howard. D. Graves;60313;USA;1982;1987;2100;2100;2;6;32;1;0;5;0;L60313;1982;2040;2100;x 
Francis. S. Green Leaf;60314;USA;1963;2100;2100;2100;3;5;2;1;0;5;0;L60314;1963;2040;2100;x 
William. C. Gribble Jr.;60315;USA;1960;1970;2100;2100;2;6;32;1;0;5;0;L60315;1960;2040;2100;x 
James. A. Grimsley Jr.;60316;USA;1970;2100;2100;2100;3;5;128;1;0;5;0;L60316;1970;2040;2100;x 
Gaylord. T. Ganhasu;60317;USA;1990;2100;2100;2100;3;4;0;0;0;5;0;L60317;1990;2040;2100;x 
Harvey. M. Makenson;60318;USA;1990;2100;2100;2100;3;5;2;0;0;5;0;L60318;1990;2040;2100;x 
Jerome. A. Habereku;60319;USA;1995;2100;2100;2100;3;4;0;0;0;5;0;L60319;1995;2040;2100;x 
Franklin. L. Hagenbeck;60320;USA;2001;2005;2100;2100;3;5;256;1;0;5;0;L60320;2001;2040;2100;x 
Rebecca. S. Halstead;60321;USA;2005;2100;2100;2100;3;5;1;0;0;5;0;L60321;2005;2040;2100;x 
David. D. Haruvason;60322;USA;2005;2010;2100;2100;2;6;64;1;0;5;0;L60322;2005;2040;2100;x
Mark. R. Hamilton;60323;USA;1990;2100;2100;2100;3;5;0;0;0;5;0;L60323;1990;2040;2100;x 
Jeffrey. W. Hammond;60324;USA;2003;2100;2100;2100;3;5;64;1;0;5;0;L60324;2003;2040;2100;x 
John. C. Hanley;60325;USA;2008;2100;2100;2100;3;5;64;1;0;5;0;L60325;2008;2040;2100;x
Rodney. R. Hanura;60326;USA;1995;2100;2100;2100;3;5;0;0;0;5;0;L60326;1995;2040;2100;x 
Benjamin. L. Harrison;60327;USA;1984;2100;2100;2100;3;6;16;2;0;5;0;L60327;1973;2040;2100;x 
William Hardin Harrison;60328;USA;1980;1987;2100;2100;2;5;0;1;0;5;0;L60328;1980;2040;2100;x 
Henry. J. Hatch;60329;USA;1981;1988;2100;2100;2;6;32;1;0;5;0;L60329;1981;2040;2100;x 
Thomas. F. Healy Jr.;60330;USA;1980;1990;2100;2100;2;5;128;1;0;5;0;L60330;1980;2040;2100;x 
Erwin. R. Haibagu III;60331;USA;1978;1984;2100;2100;2;6;32;1;0;5;0;L60331;1978;2040;2100;x 
Roland. V. Heizer;60332;USA;1970;1975;2100;2100;2;5;0;1;0;5;0;L60332;1970;2040;2100;x 
Frank Herumikku;60333;USA;2003;2008;2100;2100;2;6;256;1;0;5;0;L60333;2003;2040;2100;x 
James. R. Herumuri;60334;USA;1995;2002;2100;2100;2;5;0;1;0;5;0;L60334;1995;2040;2100;x 
Let. A. Hernandez;60335;USA;2003;2010;2100;2100;2;6;64;1;0;5;0;L60335;2003;2040;2100;x 
Patrick. J. Hesse;60336;USA;1979;2100;2100;2100;3;3;0;0;0;5;0;L60336;1979;2040;2100;x 
David. H. Hicks;60337;USA;1999;2100;2100;2100;3;3;0;0;0;5;0;L60337;1999;2040;2100;x 
Terrence. J. Hirudona;60338;USA;2007;2100;2100;2100;3;5;1;1;0;5;0;L60338;2007;2040;2100;x
Charles. A. Hines;60339;USA;1989;2100;2100;2100;3;5;2;1;0;5;0;L60339;1989;2040;2100;x 
James. L. Hodge;60340;USA;2003;2100;2100;2100;3;5;1;1;0;5;0;L60340;2003;2040;2100;x 
Kenneth. J. Hodson;60341;USA;1972;2100;2100;2100;3;5;32;1;0;5;0;L60341;1972;2040;2100;x 
David. R. Hogg;60342;USA;2005;2010;2100;2100;2;6;256;1;0;5;0;L60342;2005;2040;2100;x
James. W. Hall singer;60343;USA;1985;2100;2100;2100;3;3;0;0;0;5;0;L60343;1985;2040;2100;x 
Russell. L. Honore;60344;USA;1995;2005;2100;2100;2;6;2;1;0;5;0;L60344;1984;2040;2100;x 
Jay. W. Hood;60345;USA;2004;2100;2100;2100;3;5;64;1;0;5;0;L60345;2004;2040;2100;x 
Patricia. D. Horoho;60346;USA;2004;2010;2100;2100;2;3;0;0;0;5;0;L60346;2004;2040;2100;x
Russell. D. Howard;60347;USA;1995;2100;2100;2100;3;5;16;1;0;5;0;L60347;1995;2040;2100;x 
Walter. B. Huffman;60348;USA;1997;2100;2100;2100;3;4;0;0;0;5;0;L60348;1997;2040;2100;x 
Patrick. L. fuse;60349;USA;1990;1996;2100;2100;2;6;16;1;0;5;0;L60349;1990;2040;2100;x 
David. H. Hanton Jr.;60350;USA;2000;2010;2100;2100;2;6;0;1;0;5;0;L60350;2000;2040;2100;x 
Geruhato. W. Hyatt;60351;USA;1970;2100;2100;2100;3;3;0;0;0;5;0;L60351;1970;2040;2100;x 
Joseph. R. Inge;60352;USA;1995;2004;2100;2100;2;6;128;1;0;5;0;L60352;1995;2040;2100;x 
William. E. Ingram Jr.;60353;USA;2001;2011;2100;2100;2;6;2;1;0;5;0;L60353;2001;2040;2100;x 
Gallen. B. Jackman;60354;USA;2001;2100;2100;2100;3;5;4;1;0;5;0;L60354;2001;2040;2100;x 
Jesefu. R. Jerineku;60355;USA;1973;2100;2100;2100;3;5;2;0;0;5;0;L60355;1973;2040;2100;x 
Hull. B. Jennings;60356;USA;1970;1970;2100;2100;2;4;0;0;0;5;0;L60356;1970;2040;2100;x 
John Stanford;60357;USA;1985;2100;2100;2100;3;5;0;1;0;5;0;L60357;1985;2040;2100;x 
Dean. E. Johnson;60358;USA;1970;2100;2100;2100;3;3;0;0;0;5;0;L60358;1970;2040;2100;x 
John. D. Johnson;60359;USA;2006;2010;2100;2100;2;6;4;1;0;5;0;L60359;2006;2040;2100;x
Kermit D. Johnson;60360;USA;1978;2100;2100;2100;3;3;0;0;0;5;0;L60360;1978;2040;2100;x 
Rodney. L. Johnson;60361;USA;2004;2100;2100;2100;3;5;0;1;0;5;0;L60361;2004;2040;2100;x 
Hazel. W. Johnson  Brown;60362;USA;1976;2100;2100;2100;3;3;0;0;0;5;0;L60362;1976;2040;2100;x 
Anthony. R. Jones;60363;USA;1995;2000;2100;2100;2;6;0;1;0;5;0;L60363;1995;2040;2100;x 
Ruben. D. Jones;60364;USA;2004;2100;2100;2100;3;5;0;1;0;5;0;L60364;2004;2040;2100;x 
Amos. A. Jordan;60365;USA;1980;2100;2100;2100;3;4;0;0;0;5;0;L60365;1980;2040;2100;x 
Joyce. L. Stevens;60366;USA;2006;2100;2100;2100;3;5;0;1;0;5;0;L60366;2006;2040;2100;x
Joseph. C. Joyce;60367;USA;1980;2100;2100;2100;3;4;0;0;0;5;0;L60367;1980;2040;2100;x 
Nicholas. D. Justice;60368;USA;2002;2100;2100;2100;3;5;16;1;0;5;0;L60368;2002;2040;2100;x 
Timothy. J. Kadavi;60369;USA;2009;2100;2100;2100;3;5;2;1;0;5;0;L60369;2009;2040;2100;x
James. G. Karerugizu;60370;USA;1970;1970;2100;2100;2;6;129;2;0;5;0;L60370;1970;2040;2100;x 
Oris. E. Kelly;60371;USA;1970;2100;2100;2100;3;3;0;0;0;5;0;L60371;1970;2040;2100;x 
Claudia. J. Kennedy;60372;USA;1990;1997;2100;2100;2;6;2;1;0;5;0;L60372;1990;2040;2100;x 
Timothy. M. Kennedy;60373;USA;1980;2100;2100;2100;3;5;0;0;0;5;0;L60373;1980;2040;2100;x 
Claude. M. kick ring ter;60374;USA;1981;1990;2100;2100;2;5;0;0;0;5;0;L60374;1981;2040;2100;x 
Kevin. C. Kylie;60375;USA;2002;2004;2100;2100;2;3;0;0;0;5;0;L60375;2002;2040;2100;x 
Mark. T. Kimitto;60376;USA;1997;2003;2100;2100;3;5;64;1;0;5;0;L60376;1997;2040;2100;x 
Robert. M. Kimitto;60377;USA;1994;2100;2100;2100;3;5;256;1;0;5;0;L60377;1994;2040;2100;x 
John. F. Kimonzu;60378;USA;1999;2005;2100;2100;2;6;16;1;0;5;0;L60378;1999;2040;2100;x 
Kenneth. A. Kuhn;60379;USA;2005;2100;2100;2100;3;5;0;0;0;5;0;L60379;2005;2040;2100;x
Nicolas. S. H. Kurauchiu;60380;USA;1984;2100;2100;2100;3;5;128;1;0;5;0;L60380;1984;2040;2100;x 
James. A. Crook;60381;USA;1990;2100;2100;2100;3;5;0;0;0;5;0;L60381;1990;2040;2100;x 
Daniel. M. Kurumurei;60382;USA;1995;2100;2100;2100;3;3;0;0;0;5;0;L60382;1995;2040;2100;x 
Paul. J. Rakamera;60383;USA;2007;2100;2100;2100;3;5;4;1;0;5;0;L60383;2007;2040;2100;x
Roger. A. Lalic;60384;USA;2000;2100;2100;2100;3;3;0;0;0;5;0;L60384;2000;2040;2100;x 
Bennett. C. Randoreno;60385;USA;2000;2100;2100;2100;3;5;32;1;0;5;0;L60385;2000;2040;2100;x 
John David Larson;60386;USA;1995;2100;2100;2100;3;4;0;0;0;5;0;L60386;1995;2040;2100;x 
Bruce. M. Lawler;60387;USA;1984;2100;2100;2100;3;5;128;1;0;5;0;L60387;1997;2040;2100;x 
Mary. A. Lger;60388;USA;2004;2012;2100;2100;2;5;16;1;0;5;0;L60388;2004;2040;2100;x
Scott. D. Reguworudo;60389;USA;2010;2100;2100;2100;3;5;0;0;0;5;0;L60389;2010;2040;2100;x
John. S. complexone;60390;USA;1970;2100;2100;2100;3;5;256;1;0;5;0;L60390;1970;2040;2100;x 
John. M. Lemoyne;60391;USA;1995;2000;2100;2100;2;5;0;1;0;5;0;L60391;1995;2040;2100;x 
William. J. Lennox Jr.;60392;USA;1995;2001;2100;2100;2;6;64;1;0;5;0;L60392;1995;2040;2100;x 
Glen. J. Resuniaku;60393;USA;1984;2100;2100;2100;3;5;1;1;0;5;0;L60393;2008;2040;2100;x
Lester Merutinesu Lopez;60394;USA;1998;2100;2100;2100;3;3;0;0;0;5;0;L60394;1998;2040;2100;x 
James. J. Lovelace;60395;USA;1996;2002;2100;2100;2;6;64;1;0;5;0;L60395;1996;2040;2100;x 
Douglas. E. lute;60396;USA;2001;2006;2100;2100;2;6;4;2;0;5;0;L60396;2001;2040;2100;x 
Alan. R. phosphorus;60397;USA;2008;2100;2100;2100;3;5;2;1;0;5;0;L60397;2008;2040;2100;x
Judd. H. Lions;60398;USA;2010;2100;2100;2100;3;5;130;1;0;5;0;L60398;2010;2040;2100;x
George. L. Mably Jr.;60399;USA;1970;2100;2100;2100;3;5;4;1;0;5;0;L60399;1970;2040;2100;x 
David. A. Makewen;60400;USA;2010;2100;2100;2100;3;5;0;1;0;5;0;L60400;2010;2040;2100;x
Howard. S. Maggie;60401;USA;1970;2100;2100;2100;3;5;2;1;0;5;0;L60401;1970;2040;2100;x 
Thaddeus. F. Malanowski;60402;USA;1970;2100;2100;2100;3;3;0;0;0;5;0;L60402;1970;2040;2100;x 
Ronald. S. Mangum;60403;USA;1995;2100;2100;2100;3;5;230;1;0;5;0;L60403;1995;2040;2100;x 
Michael. D. Maples;60404;USA;2001;2005;2100;2100;3;6;64;1;0;5;0;L60404;2001;2040;2100;x 
William Miranda Marin;60405;USA;1985;2100;2100;2100;3;5;2;0;0;5;0;L60405;1985;2040;2100;x 
Sydney. M. Marks;60406;USA;1970;2100;2100;2100;3;5;256;1;0;5;0;L60406;1970;2040;2100;x 
Mark. S. Martins;60407;USA;2010;2100;2100;2100;3;5;0;0;0;5;0;L60407;2010;2040;2100;x
Timothy. J. Mode;60408;USA;1991;2000;2100;2100;2;5;0;1;0;5;0;L60408;1991;2040;2100;x
Mark. A. McAllister;60409;USA;2009;2100;2100;2100;3;5;257;1;0;5;0;L60409;2009;2040;2100;x
Herbert. J. McChrystal Jr.;60410;USA;1970;2100;2100;2100;3;5;0;0;0;5;0;L60410;1970;2040;2100;x 
Charles. J. McDonnell;60411;USA;1986;2100;2100;2100;3;3;0;0;0;5;0;L60411;1986;2040;2100;x 
Colleen. L. McGuire;60412;USA;2009;2100;2100;2100;3;3;0;0;0;5;0;L60412;2009;2040;2100;x 
John. P. McLaren;60413;USA;2001;2100;2100;2100;3;5;0;1;0;5;0;L60413;2001;2040;2100;x 
Herbert. R. McMaster;60414;USA;2006;2100;2100;2100;3;6;4;2;0;5;0;L60414;2006;2040;2100;x
Adolf McQueen;60415;USA;2005;2100;2100;2100;3;5;1;1;0;5;0;L60415;2005;2040;2100;x 
Enrique Mendez Jr.;60416;USA;1975;2100;2100;2100;3;3;0;0;0;5;0;L60416;1975;2040;2100;x 
Paul. E. Menoha;60417;USA;1989;1995;2100;2100;2;5;16;1;0;5;0;L60417;1989;2040;2100;x 
Thomas. F. Mets;60418;USA;1995;2003;2100;2100;2;6;4;2;0;5;0;L60418;1995;2040;2100;x 
Jeffrey. D. mirror;60419;USA;2000;2100;2100;2100;3;5;16;1;0;5;0;L60419;2000;2040;2100;x 
Johnny. R. mirror;60420;USA;2009;2100;2100;2100;3;5;128;1;0;5;0;L60420;2009;2040;2100;x
Thomas. G. mirror;60421;USA;2001;2008;2100;2100;2;6;0;1;0;5;0;L60421;2001;2040;2100;x 
Mark. A. Millet;60422;USA;2007;2011;2100;2100;3;6;256;1;0;5;0;L60422;2007;2040;2100;x
Bernard. T. Mittemaia;60423;USA;1975;1980;2100;2100;2;4;0;0;0;5;0;L60423;1975;2040;2100;x 
Benjamin. R. Mixon;60424;USA;2002;2008;2100;2100;2;6;256;2;0;5;0;L60424;2002;2040;2100;x 
Bad. K. Mizusawa;60425;USA;2008;2100;2100;2100;3;5;256;1;0;5;0;L60425;2008;2040;2100;x
Thomas. M. Montgomery;60426;USA;1985;1992;2100;2100;2;6;128;2;0;5;0;L60426;1985;2040;2100;x 
Harold. G. Moore Jr.;60427;USA;1970;1974;2100;2100;2;6;4;2;0;5;0;L60427;1970;2040;2100;x 
David. A. Morris;60428;USA;2005;2100;2100;2100;3;5;256;1;0;5;0;L60428;2005;2040;2100;x
John. W. Morris;60429;USA;1970;1976;2100;2100;2;6;32;1;0;5;0;L60429;1970;2040;2100;x 
John. F. Mulholland Jr.;60430;USA;2005;2008;2100;2100;2;6;20;2;0;5;0;L60430;2005;2040;2100;x
Michael. J. Nadotti Jr.;60431;USA;1990;2100;2100;2100;3;3;0;0;0;5;0;L60431;1990;2040;2100;x 
Richard. C. Nash;60432;USA;2000;2100;2100;2100;3;6;2;1;0;5;0;L60432;2000;2040;2100;x
William. L. Nash;60433;USA;1990;2100;2100;2100;3;5;128;1;0;5;0;L60433;1990;2040;2100;x 
William. A. Navas Jr.;60434;USA;1990;2100;2100;2100;3;5;32;1;0;5;0;L60434;1990;2040;2100;x 
Michael. D. Navurukaru;60435;USA;1984;2100;2100;2100;3;5;0;0;0;5;0;L60435;2011;2040;2100;x
Spurgeon. H. Neel Jr.;60436;USA;1970;2100;2100;2100;3;3;0;0;0;5;0;L60436;1970;2040;2100;x 
Harold. J. Nevin;60437;USA;1999;2100;2100;2100;3;5;0;0;0;5;0;L60437;1999;2040;2100;x 
John. W. Nicholson;60438;USA;1995;2100;2100;2100;3;4;0;0;0;5;0;L60438;1995;2040;2100;x 
John. W. Nicholson Jr.;60439;USA;2006;2100;2100;2100;3;5;256;1;0;5;0;L60439;2006;2040;2100;x
James. W. Nattoru;60440;USA;2001;2100;2100;2100;3;5;2;1;0;5;0;L60440;2001;2040;2100;x 
Michael. L. Oates;60441;USA;2000;2007;2100;2100;2;6;256;1;0;5;0;L60441;2000;2040;2100;x 
Douglas. J. OConnor;60442;USA;1978;2100;2100;2100;3;5;256;1;0;5;0;L60442;1978;2040;2100;x 
William Eldridge Odom;60443;USA;1977;1984;2100;2100;2;5;2;1;0;5;0;L60443;1977;2040;2100;x 
Rafael Oferaru;60444;USA;2008;2100;2100;2100;3;5;2;1;0;5;0;L60444;2008;2040;2100;x
Peter George Orenchuku;60445;USA;1970;2100;2100;2100;3;3;0;0;0;5;0;L60445;1970;2040;2100;x 
Eruneido. A. Oliver Gonzalez;60446;USA;1987;2100;2100;2100;3;6;2;1;0;5;0;L60446;1987;2040;2100;x 
Richard OMeara;60447;USA;1995;2100;2100;2100;3;4;0;0;0;5;0;L60447;1995;2040;2100;x 
Malcolm Ross ONeill;60448;USA;1990;1993;2100;2100;2;5;1;0;0;5;0;L60448;1990;2040;2100;x 
Cheruzu. A. Ott Jr.;60449;USA;1970;2100;2100;2100;3;5;192;1;0;5;0;L60449;1970;2040;2100;x 
Paul Thomas Ott;60450;USA;1995;2100;2100;2100;3;5;0;0;0;5;0;L60450;1995;2040;2100;x 
Ira. C. Owens;60451;USA;1985;1990;2100;2100;2;6;16;1;0;5;0;L60451;1985;2040;2100;x 
William. G. Pagonisu;60452;USA;1984;1990;2100;2100;2;6;1;1;0;5;0;L60452;1984;2040;2100;x 
Dave Richard Palmer;60453;USA;1976;1986;2100;2100;2;6;128;2;0;5;0;L60453;1976;2040;2100;x 
Harold. R. Parfitt;60454;USA;1970;2100;2100;2100;3;5;32;1;0;5;0;L60454;1970;2040;2100;x 
Burton. D. Patrick;60455;USA;1975;1985;2100;2100;2;6;256;1;0;5;0;L60455;1975;2040;2100;x 
George. S. Patton IV;60456;USA;1970;2100;2100;2100;3;7;128;2;0;5;0;L60456;1970;2040;2100;x 
James. B. peak;60457;USA;1992;2000;2100;2100;2;4;0;0;0;5;0;L60457;1992;2040;2100;x 
Coral Wong Peach;60458;USA;2002;2100;2100;2100;3;3;0;0;0;5;0;L60458;2002;2040;2100;x 
Dana. J. H. Pittard;60459;USA;2006;2100;2100;2100;3;5;128;1;0;5;0;L60459;2006;2040;2100;x
Charles. C. Pixley;60460;USA;1973;1977;2100;2100;2;3;0;0;0;5;0;L60460;1973;2040;2100;x 
Gail. S. Pollock;60461;USA;2003;2100;2100;2100;3;3;0;0;0;5;0;L60461;2003;2040;2100;x 
Roger. C. Pool;60462;USA;1990;2100;2100;2100;3;4;1;0;0;5;0;L60462;1990;2040;2100;x 
William. E. Potts;60463;USA;1967;1973;2100;2100;2;6;4;2;0;5;0;L60463;1967;2040;2100;x 
Lee. S. Price;60464;USA;2005;2100;2100;2100;3;4;0;0;0;5;0;L60464;2005;2040;2100;x 
Raymond. F. lease;60465;USA;1988;2100;2100;2100;3;5;4;1;0;5;0;L60465;1988;2040;2100;x 
Eldon. P. Regua;60466;USA;2003;2100;2100;2100;3;5;16;1;0;5;0;L60466;2003;2040;2100;x
Virgil. A. Richard;60467;USA;1990;2100;2100;2100;3;4;0;0;0;5;0;L60467;1990;2040;2100;x 
Glen. K. lease;60468;USA;2002;2100;2100;2100;3;5;0;1;0;5;0;L60468;2002;2040;2100;x 
Glen. K. lease;60469;USA;2002;2100;2100;2100;3;5;16384;1;0;5;2;L60468;2002;2040;2100;x 
LObree. S. Rigudon;60470;USA;2000;2100;2100;2100;3;5;0;0;0;5;0;L60470;2000;2040;2100;x 
John. M. Riggs;60471;USA;1990;2000;2100;2100;2;6;0;1;0;5;0;L60471;1990;2040;2100;x 
Fred. D. Robinson Jr.;60472;USA;2000;2100;2100;2100;3;5;128;1;0;5;0;L60472;2000;2040;2100;x
Michael. S. Rochelle;60473;USA;2000;2005;2100;2100;2;6;0;1;0;5;0;L60473;2000;2040;2100;x 
Antonio A Rodriguez Barinas;60474;USA;1977;2100;2100;2100;3;6;4;1;0;5;0;L60474;1977;2040;2100;x 
Charles Calvin Rogers;60475;USA;1970;2100;2100;2100;3;6;64;1;0;5;0;L60475;1970;2040;2100;x 
M. Collier Ross;60476;USA;1970;1978;2100;2100;2;6;0;1;0;5;0;L60476;1970;2040;2100;x 
Edward. L. Rowny;60477;USA;1970;1970;2100;2100;2;6;32;2;0;5;0;L60477;1970;2040;2100;x 
Donald. L. Rutherford;60478;USA;2005;2100;2100;2100;3;3;0;0;0;5;0;L60478;2005;2040;2100;x
Jerry. R. Rutherford;60479;USA;1988;1992;2100;2100;2;6;128;1;0;5;0;L60479;1988;2040;2100;x 
Michael. A. Ryan;60480;USA;2005;2100;2100;2100;3;5;128;1;0;5;0;L60480;2005;2040;2100;x 
Charles Walcott Ryder Jr.;60481;USA;1970;2100;2100;2100;3;5;1;1;0;5;0;L60481;1970;2040;2100;x 
Donald. J. rider;60482;USA;2000;2100;2100;2100;3;4;0;0;0;5;0;L60482;2000;2040;2100;x 
Ricardo Sanchez;60483;USA;1995;2004;2100;2100;2;6;128;1;0;5;0;L60483;1995;2040;2100;x 
Guy. L. Sands  Pingotto;60484;USA;2005;2100;2100;2100;3;5;256;1;0;5;0;L60484;2005;2040;2100;x
Robert. H. Scales Jr.;60485;USA;1990;2100;2100;2100;3;5;64;1;0;5;0;L60485;1990;2040;2100;x 
Jeffrey. J. Gerhard laser;60486;USA;2000;2100;2100;2100;3;5;256;1;0;5;0;L60486;2000;2040;2100;x 
Richard. A. Shorutesu;60487;USA;1980;2100;2100;2100;3;5;128;1;0;5;0;L60487;1980;2040;2100;x 
Stephen. P. shock;60488;USA;1997;2100;2100;2100;3;5;4;1;0;5;0;L60488;1997;2040;2100;x 
Eric. B. Shoemaker;60489;USA;2000;2007;2100;2100;2;4;0;0;0;5;0;L60489;2000;2040;2100;x 
Roger. C. Schultz;60490;USA;1996;2001;2100;2100;2;6;0;0;0;5;0;L60490;1996;2040;2100;x 
Andrew. M. Schuster;60491;USA;1990;2100;2100;2100;3;5;0;0;0;5;0;L60491;1990;2040;2100;x 
Willard Warren Scott Jr.;60492;USA;1970;1980;2100;2100;2;6;0;2;0;5;0;L60492;1970;2040;2100;x 
George. M. Saiguniousu;60493;USA;1968;1972;2100;2100;2;6;132;2;0;5;0;L60493;1968;2040;2100;x 
Richard. J. Seitz;60494;USA;1970;1970;2100;2100;3;7;256;2;0;5;0;L60494;1970;2040;2100;x 
Sydney Shakunau;60495;USA;1984;2100;2100;2100;3;5;16;1;0;5;0;L60495;1984;2040;2100;x 
Donald. W. Shea;60496;USA;1990;2100;2100;2100;3;3;0;0;0;5;0;L60496;1990;2040;2100;x 
Winant Sidr;60497;USA;1970;2100;2100;2100;3;5;0;1;0;5;0;L60497;1970;2040;2100;x 
Jeffrey Allen Sinclair;60498;USA;2010;2100;2100;2100;3;5;256;1;0;5;0;L60498;2010;2040;2100;x
John. K. Shinguraubu;60499;USA;1970;2100;2100;2100;3;6;4;1;0;5;0;L60499;1970;2040;2100;x 
Henry Jean Skene;60500;USA;1984;2100;2100;2100;3;5;1;1;0;5;0;L60500;1984;2040;2100;x 
Donald. B. Smith;60501;USA;1994;2100;2100;2100;3;5;2;1;0;5;0;L60501;1994;2040;2100;x 
Edwin. P. Smith;60502;USA;1993;1998;2100;2100;2;6;0;1;0;5;0;L60502;1993;2040;2100;x 
Isaac. D. Smith;60503;USA;1990;2100;2100;2100;3;5;0;1;0;5;0;L60503;1990;2040;2100;x 
Tammy Smith;60504;USA;2012;2100;2100;2100;3;5;0;0;0;5;0;L60504;2012;2040;2100;x
Billy. K. Solomon;60505;USA;1990;1995;2100;2100;2;6;1;1;0;5;0;L60505;1990;2040;2100;x 
Edward Soriano;60506;USA;1993;2000;2100;2100;2;6;2;1;0;5;0;L60506;1993;2040;2100;x 
Charles. L. South word;60507;USA;1970;2100;2100;2100;3;5;2;0;0;5;0;L60507;1970;2040;2100;x 
Harry. E. Soisuta;60508;USA;1980;1989;2100;2100;2;6;16;1;0;5;0;L60508;1980;2040;2100;x 
Felix. L. Sparks;60509;USA;1968;2100;2100;2100;3;5;0;0;0;5;0;L60509;1968;2040;2100;x 
Michael Supiguremairu;60510;USA;1984;1988;2100;2100;2;6;0;1;0;5;0;L60510;1984;2040;2100;x 
Michael. J. Squire;60511;USA;1998;2100;2100;2100;3;5;2;1;0;5;0;L60511;1998;2040;2100;x 
William. B. Steel;60512;USA;1974;2100;2100;2100;3;5;0;1;0;5;0;L60512;1974;2040;2100;x 
William. M. Steel;60513;USA;1990;1996;2100;2100;2;6;256;1;0;5;0;L60513;1990;2040;2100;x 
John. E. Sterling Jr.;60514;USA;2001;2006;2100;2100;2;6;32;1;0;5;0;L60514;2001;2040;2100;x 
Robert. L. Stewart;60515;USA;1982;2100;2100;2100;3;5;0;0;0;5;2;L60515;1982;2040;2100;x 
George. R. Sutotoza;60516;USA;1980;1985;2100;2100;2;6;0;1;0;5;0;L60516;1980;2040;2100;x 
Carl. A. strike lock;60517;USA;1995;2004;2100;2100;2;6;32;1;0;5;0;L60517;1995;2040;2100;x 
Albert. N. Sutaburubain III;60518;USA;1970;2100;2100;2100;3;4;0;0;0;5;0;L60518;1970;2040;2100;x 
Jack. C. Suturutsu Jr.;60519;USA;1999;2006;2100;2100;2;6;1;1;0;5;0;L60519;1999;2040;2100;x 
William. K. Souter;60520;USA;1984;2100;2100;2100;3;4;0;0;0;5;0;L60520;1984;2040;2100;x 
Raleigh. K. Sutton;60521;USA;2007;2100;2100;2100;3;3;0;0;0;5;0;L60521;2007;2040;2100;x
Guy. C. Swan III;60522;USA;2000;2005;2100;2100;2;6;2;1;0;5;0;L60522;2000;2040;2100;x 
Charles. H. Suwannakku Jr.;60523;USA;2000;2100;2100;2100;3;5;256;1;0;5;0;L60523;2000;2040;2100;x 
Harold. J. Sykora;60524;USA;1988;2100;2100;2100;3;5;0;0;0;5;0;L60524;1988;2040;2100;x 
John. B. Sylvester;60525;USA;1994;2000;2100;2100;2;6;128;1;0;5;0;L60525;1994;2040;2100;x 
Antonio. M. Taguba;60526;USA;2000;2100;2100;2100;3;5;128;1;0;5;0;L60526;2000;2040;2100;x 
Jeffrey. W. Tally;60527;USA;2005;2012;2100;2100;2;6;32;1;0;5;0;L60527;2005;2040;2100;x
Joseph. J. tart;60528;USA;2000;2100;2100;2100;3;5;4;1;0;5;0;L60528;2000;2040;2100;x 
Richard. R. Taylor;60529;USA;1967;1973;2100;2100;2;4;0;0;0;5;0;L60529;1967;2040;2100;x 
M. Ted Wong;60530;USA;2010;2100;2100;2100;3;3;0;0;0;5;0;L60530;2010;2040;2100;x
Merudisu. W. B. Temple;60531;USA;2005;2100;2100;2100;3;5;32;1;0;5;0;L60531;2005;2040;2100;x
James. L. Terry;60532;USA;2006;2012;2100;2100;2;6;256;2;0;5;0;L60532;2006;2040;2100;x
Scott. L. Sole;60533;USA;2008;2100;2100;2100;3;5;0;0;0;5;0;L60533;2008;2040;2100;x
Charles. W. Thomas;60534;USA;1994;2100;2100;2100;3;5;16;1;0;5;0;L60534;1994;2040;2100;x 
Edmond. R. Thompson;60535;USA;1975;2100;2100;2100;3;5;16;1;0;5;0;L60535;1975;2040;2100;x 
Anthony. J. Tata;60536;USA;2005;2100;2100;2100;3;4;0;0;0;5;0;L60536;2005;2040;2100;x 
Michael. S. Tucker;60537;USA;2004;2009;2100;2100;2;6;128;1;0;5;0;L60537;2004;2040;2100;x
Abraham. J. Turner;60538;USA;2005;2100;2100;2100;3;5;256;1;0;5;0;L60538;2005;2040;2100;x 
Thomas. R. Turner II;60539;USA;1999;2006;2100;2100;2;6;256;2;0;5;0;L60539;1999;2040;2100;x 
John Uberti;60540;USA;2008;2100;2100;2100;3;5;256;1;0;5;0;L60540;2008;2040;2100;x
Robin Unbagu;60541;USA;2005;2100;2100;2100;3;3;0;0;0;5;0;L60541;2005;2040;2100;x
David. P. Val Court;60542;USA;2000;2008;2100;2100;2;6;64;1;0;5;0;L60542;2000;2040;2100;x 
Alfred. A. Valenzuela;60543;USA;1995;2100;2100;2100;3;5;2;1;0;5;0;L60543;1995;2040;2100;x 
Paul. E. Valerie;60544;USA;1984;2100;2100;2100;3;5;0;1;0;5;0;L60544;1984;2040;2100;x 
Robert. L. Van Antwerp Jr.;60545;USA;2000;2007;2100;2100;2;6;32;1;0;5;0;L60545;2000;2040;2100;x 
Paul. J. Vanderbilt prongs;60546;USA;1986;2100;2100;2100;3;5;1;1;0;5;0;L60546;1986;2040;2100;x 
Clyde. A. Vaughan;60547;USA;2000;2005;2100;2100;2;6;32;1;0;5;0;L60547;2000;2040;2100;x 
James. B. Vought;60548;USA;1975;1980;2100;2100;2;6;4;2;0;5;0;L60548;1975;2040;2100;x 
Francis. D. Vavara;60549;USA;1995;2100;2100;2100;3;5;0;1;0;5;0;L60549;1995;2040;2100;x
John. R. Vines;60550;USA;2000;2005;2100;2100;2;6;256;1;0;5;0;L60550;2000;2040;2100;x 
Joseph. L. Voteru;60551;USA;2007;2012;2100;2100;2;6;256;1;0;5;0;L60551;2007;2040;2100;x
George. J. Walker;60552;USA;1980;2100;2100;2100;3;5;0;1;0;5;0;L60552;1980;2040;2100;x 
Emmett. H. Walker Jr.;60553;USA;1972;1982;2100;2100;2;6;68;1;0;5;0;L60553;1972;2040;2100;x 
Calvin Waller;60554;USA;1980;1985;2100;2100;2;6;0;1;0;5;0;L60554;1980;2040;2100;x 
John. E. Walsh;60555;USA;2008;2100;2100;2100;3;5;0;0;0;5;0;L60555;2008;2040;2100;x 
Vernon. A. Walters;60556;USA;1970;1970;2100;2100;2;5;16;1;0;5;0;L60556;1970;2040;2100;x 
Fuba WAS de Chege;60557;USA;1985;2100;2100;2100;3;5;0;1;0;5;0;L60557;1985;2040;2100;x 
Gregory. L. weight;60558;USA;2005;2100;2100;2100;3;5;2;1;0;5;0;L60558;2005;2040;2100;x 
La Vergne. E. Webber;60559;USA;1974;1979;2100;2100;2;6;2;1;0;5;0;L60559;1974;2040;2100;x 
William. G. Webster;60560;USA;2001;2009;2100;2100;2;6;0;1;0;5;0;L60560;2001;2040;2100;x 
George. W. Wait Man;60561;USA;2002;2100;2100;2100;3;3;0;0;0;5;0;L60561;2002;2040;2100;x 
Sydney. T. Wayne Stein;60562;USA;1980;1985;2100;2100;2;5;16;1;0;5;0;L60562;1980;2040;2100;x 
Robert. L. Wetzel;60563;USA;1975;2100;2100;2100;3;5;0;1;0;5;0;L60563;1975;2040;2100;x 
Oren. R. Howaidon;60564;USA;1980;1987;2100;2100;2;6;0;1;0;5;0;L60564;1980;2040;2100;x 
R. Steven Whitcomb;60565;USA;1997;2004;2100;2100;2;6;128;2;0;5;0;L60565;1997;2040;2100;x 
Thomas. E. White Jr.;60566;USA;1984;2100;2100;2100;3;5;4;1;0;5;0;L60566;1984;2040;2100;x 
Charles. W. Whittington Jr.;60567;USA;2009;2100;2100;2100;3;5;0;1;0;5;0;L60567;2009;2040;2100;x
Francis. J. Wheel Chin Suki;60568;USA;2005;2010;2100;2100;2;6;256;2;0;5;0;L60568;2005;2040;2100;x
William Walter Wilkins;60569;USA;1985;2100;2100;2100;3;5;0;0;0;5;0;L60569;1985;2040;2100;x 
William. P. Levine;60570;USA;1962;2100;2100;2100;3;5;32;1;0;5;0;L60570;1962;2040;2100;x 
Arthur. E. Williams;60571;USA;1985;1992;2100;2100;2;6;32;1;0;5;0;L60571;1985;2040;2100;x 
James. A. Williams;60572;USA;1975;1981;2100;2100;2;6;16;1;0;5;0;L60572;1975;2040;2100;x 
Samuel. V. Wilson;60573;USA;1970;1970;2100;2100;2;6;16;1;0;5;0;L60573;1970;2040;2100;x 
Walter Woidakofusuki;60574;USA;1998;2100;2100;2100;3;5;256;1;0;5;0;L60574;1998;2040;2100;x 
Larry. D. Waiche;60575;USA;2010;2100;2100;2100;3;5;1;1;0;5;0;L60575;2010;2040;2100;x
James. C. Yarbrough;60576;USA;2007;2100;2100;2100;3;6;256;2;0;5;0;L60576;2007;2040;2100;x 
Elmer. P. Yates;60577;USA;1970;2100;2100;2100;3;5;32;1;0;5;0;L60577;1970;2040;2100;x 
Walter. H. Yates Jr.;60578;USA;1990;2100;2100;2100;3;5;128;1;0;5;0;L60578;1990;2040;2100;x 
John. J. Ieosokku;60579;USA;1980;1989;2100;2100;2;6;4;2;0;5;0;L60579;1980;2040;2100;x 
Matthew. A. Zimmerman Jr.;60580;USA;1985;2100;2100;2100;3;3;0;0;0;5;0;L60580;1985;2040;2100;x 
Walter. E. Zinc;60581;USA;2005;2100;2100;2100;3;5;0;0;0;5;0;L60581;2005;2040;2100;x
Michael. J. Aguilar;60582;USA;1998;2100;2100;2100;3;5;258;0;0;5;0;L60582;1998;2040;2100;x 
Michael. J. Aguilar;60583;USA;1998;2100;2100;2100;3;5;0;1;0;5;2;L60582;1998;2040;2100;x 
Vaughan. A. Ally;60584;USA;2006;2100;2100;2100;3;4;256;0;0;5;0;L60584;2006;2040;2100;x
Ronald. L. Bailey;60585;USA;2005;2011;2100;2100;2;6;256;1;0;5;0;L60585;2005;2040;2100;x
Herbert. L. Beckington;60586;USA;1970;1970;2100;2100;2;6;256;2;0;5;0;L60586;1970;2040;2100;x 
Thomas. A. Benes;60587;USA;1990;2100;2100;2100;3;5;256;1;0;5;0;L60587;1990;2040;2100;x 
Thomas. A. Benes;60588;USA;1990;2100;2100;2100;3;5;0;1;0;5;2;L60587;1990;2040;2100;x 
John. W. Bergman;60589;USA;1997;2003;2100;2100;2;6;131072;1;0;5;2;L60589;1997;2040;2100;x 
David. F. Bice;60590;USA;1997;2100;2100;2100;3;5;256;1;0;5;0;L60590;1997;2040;2100;x 
Vicente. T. Brass;60591;USA;1970;2100;2100;2100;3;5;256;1;0;5;0;L60591;1970;2040;2100;x 
Robert. D. Vaughan;60592;USA;1970;2100;2100;2100;3;5;8192;1;0;5;0;L60592;1970;2040;2100;x 
Charles Bolden;60593;USA;1994;2100;2100;2100;3;5;0;1;0;5;2;L60593;1994;2040;2100;x 
David. M. Brahms;60594;USA;1985;2100;2100;2100;3;5;0;1;0;5;2;L60594;1985;2040;2100;x 
Frank. J. Breath;60595;USA;1985;2100;2100;2100;3;5;256;1;0;5;0;L60595;1985;2040;2100;x 
Margaret. A. Brewer;60596;USA;1978;2100;2100;2100;3;4;256;0;0;5;0;L60596;1978;2040;2100;x 
Leslie. E. Brown;60597;USA;1970;1970;2100;2100;2;6;8192;2;0;5;2;L60597;1970;2040;2100;x 
William. D. Cato;60598;USA;2000;2100;2100;2100;3;5;16384;1;0;5;2;L60598;2000;2040;2100;x 
George. R. Christmas;60599;USA;1986;1993;2100;2100;2;6;256;2;0;5;0;L60599;1986;2040;2100;x 
H. Stacy Clay Dee;60600;USA;2010;2100;2100;2100;3;5;260;1;0;5;0;L60600;2010;2040;2100;x
Mark. A. Clark;60601;USA;2009;2100;2100;2100;3;6;260;2;0;5;0;L60601;2009;2040;2100;x
Ronald. S. Coleman;60602;USA;2002;2006;2100;2100;2;6;257;1;0;5;0;L60602;2002;2040;2100;x 
John. V. Cox;60603;USA;1977;2100;2100;2100;3;6;8192;2;0;5;2;L60603;1977;2040;2100;x 
John. R. Allen;60604;USA;2003;2008;2010;2100;1;7;258;3;0;5;0;L60604;2003;2040;2100;x 
James. F. Amos;60605;USA;1998;2006;2010;2100;1;7;16384;2;0;5;2;M6187;1998;2040;2100;x
Earl. E. Anderson;60606;USA;1968;1970;1972;2100;1;7;16384;3;0;5;2;L60606;1968;2040;2100;x 
Robert. H. Barrow;60607;USA;1969;1975;1979;2100;1;7;256;3;0;5;0;M6179;1969;2040;2100;x 
Walter. E. Boomer;60608;USA;1986;1990;1992;2100;1;6;256;2;0;5;0;L60608;1986;2040;2100;x 
James. E. Cartwright;60609;USA;2000;2004;2007;2100;1;7;16384;2;0;5;2;L60609;2000;2040;2100;x 
James. T. Conway;60610;USA;1996;2002;2006;2100;1;7;256;3;0;5;0;M6186;1996;2040;2100;x 
George. B. Christo;60611;USA;1975;1984;1985;2100;1;6;257;2;0;5;0;L60611;1975;2040;2100;x 
Robert. E. Cushman Jr.;60612;USA;1958;1967;1970;2100;1;7;256;3;0;5;0;M6177;1958;2040;2100;x 
John. R. Daily;60613;USA;1982;1989;1990;2100;1;7;16384;2;0;5;2;L60613;1982;2040;2100;x 
Terrence. R. Deiku;60614;USA;1992;1995;1998;2100;1;6;16384;2;0;5;2;L60614;1992;2040;2100;x 
John. K. Davis;60615;USA;1975;1981;1983;2100;1;7;16384;2;0;5;2;L60615;1975;2040;2100;x 
James. L. Day;60616;USA;1976;2100;2100;2100;3;5;256;2;0;5;0;L60616;1976;2040;2100;x 
Michael. P. Delong;60617;USA;1993;1998;2100;2100;2;6;16384;1;0;5;2;L60617;1993;2040;2100;x 
Thomas. V. Doraude;60618;USA;1989;2100;2100;2100;3;5;256;1;0;5;0;L60618;1989;2040;2100;x 
Joseph. F. Dan Ford Jr.;60619;USA;2005;2008;2010;2100;1;7;256;3;0;5;0;L60619;2005;2040;2100;x
Ross. T. Dwyer;60620;USA;1970;2100;2100;2100;3;5;256;2;0;5;0;L60620;1970;2040;2100;x 
Michael. E. Ennis;60621;USA;1998;2100;2100;2100;3;5;272;1;0;5;0;L60621;1998;2040;2100;x 
James. M. Faye Gray;60622;USA;1998;2100;2100;2100;3;5;256;0;0;5;0;L60622;1998;2040;2100;x 
Walter. D. Fillmore;60623;USA;1980;2100;2100;2100;3;5;256;1;0;5;0;L60623;1980;2040;2100;x 
James. F. Flock;60624;USA;2005;2100;2100;2100;3;5;131072;1;0;5;2;L60624;2005;2040;2100;x 
Carlton. W. Fulford Jr.;60625;USA;1991;1996;1998;2100;2;6;256;2;0;5;0;L60625;1991;2040;2100;x 
Donald. R. Gardner;60626;USA;1984;2100;2100;2100;3;5;256;1;0;5;0;L60626;1984;2040;2100;x 
Walter. E. Gaskin;60627;USA;2002;2008;2100;2100;2;6;260;2;0;5;0;L60627;2002;2040;2100;x 
Timothy. F. Gomure;60628;USA;1999;2100;2100;2100;3;5;256;1;0;5;0;L60628;1999;2040;2100;x 
John. F. Goodman;60629;USA;1997;2004;2100;2100;2;6;8192;1;0;5;0;L60629;1997;2040;2100;x 
Alfred. M. Gray Jr.;60630;USA;1976;1984;1987;2100;1;7;256;3;0;5;0;M6181;1976;2040;2100;x 
Charles. M. Gaganasu;60631;USA;2005;2100;2100;2100;3;5;256;1;0;5;0;L60631;2005;2040;2100;x 
Robert. E. Haberu;60632;USA;1976;2100;2100;2100;3;5;256;1;0;5;0;L60632;1976;2040;2100;x 
Michael Hegi;60633;USA;1993;1999;2003;2100;1;7;256;2;0;5;0;M6185;1993;2040;2100;x 
Earl. B. Hairusuton;60634;USA;1994;1999;2100;2100;2;6;256;1;0;5;0;L60634;1994;2040;2100;x 
Hugh. W. Hardy;60635;USA;1973;2100;2100;2100;3;5;256;1;0;5;0;L60635;1973;2040;2100;x 
J. Michael Hayes;60636;USA;1995;2100;2100;2100;3;5;256;0;0;5;0;L60636;1995;2040;2100;x 
Richard. D. Heani;60637;USA;1986;1990;1994;2100;1;6;131072;2;0;5;2;L60637;1986;2040;2100;x 
Dennis. J. Heiriku;60638;USA;2001;2008;2100;2100;2;6;256;2;0;5;0;L60638;2001;2040;2100;x 
Joseph. P. Hoa;60639;USA;1984;1990;1991;2100;1;7;256;3;0;5;0;L60639;1984;2040;2100;x 
Richard. A. hack;60640;USA;1999;2100;2100;2100;3;5;256;1;0;5;0;L60640;1999;2040;2100;x 
Yang. C. Harry;60641;USA;1995;2003;2100;2100;2;6;256;2;0;5;0;L60641;1995;2040;2100;x 
Samuel Jasukiruka;60642;USA;1968;1974;1976;2100;1;7;256;2;0;5;0;L60642;1968;2040;2100;x 
Harry. W. Jenkins;60643;USA;1988;2100;2100;2100;3;5;256;0;0;5;0;L60643;1988;2040;2100;x 
Carl. B. Jensen;60644;USA;2005;2100;2100;2100;3;5;131072;1;0;5;2;L60644;2005;2040;2100;x
Robert. B. Johnston;60645;USA;1986;1990;2100;2100;2;6;256;2;0;5;0;L60645;1986;2040;2100;x 
James. L. Jones;60646;USA;1992;1996;1999;2100;1;7;256;3;0;5;0;M6184;1992;2040;2100;x 
John. F. Kelly;60647;USA;2003;2009;2013;2100;1;7;260;3;0;5;0;L60647;2003;2040;2100;x
Charles. C. Kururaku;60648;USA;1987;1992;1995;2100;1;7;256;3;0;5;0;M6183;1987;2040;2100;x 
Kevin. B. Kukuroku;60649;USA;1992;2100;2100;2100;3;5;16384;1;0;5;2;L60649;1992;2040;2100;x 
Lawrence. F. Snowden;60650;USA;1970;1975;2100;2100;2;6;256;1;0;5;0;L60650;1970;2040;2100;x 
Paul. E. Lefebvre;60651;USA;2003;2100;2100;2100;3;5;256;1;0;5;0;L60651;2003;2040;2100;x 
Michael. R. Renato;60652;USA;2001;2100;2100;2100;3;4;0;0;0;5;0;L60652;2001;2040;2100;x 
Frank Ributti;60653;USA;1992;1996;2100;2100;2;6;256;1;0;5;0;L60653;1992;2040;2100;x 
James. E. Livingston;60654;USA;1988;2100;2100;2100;3;5;256;1;0;5;0;L60654;1988;2040;2100;x 
Lawrence. H. Livingston;60655;USA;1991;2100;2100;2100;3;5;256;1;0;5;0;L60655;1991;2040;2100;x 
Jarvis. D. Lynch Jr.;60656;USA;1985;2100;2100;2100;3;5;257;1;0;5;0;L60656;1985;2040;2100;x 
Robert Magnus;60657;USA;1995;2001;2005;2100;1;7;16384;2;0;5;2;L60657;1995;2040;2100;x 
James. N. Mathis;60658;USA;2000;2005;2010;2100;1;7;256;3;0;5;0;L60658;2000;2040;2100;x 
Kenneth Makunaren;60659;USA;1972;1978;1979;2100;1;7;256;3;0;5;0;L60659;1972;2040;2100;x 
Joseph. J. Makumenamin;60660;USA;2004;2100;2100;2100;3;5;256;1;0;5;0;L60660;2004;2040;2100;x
Joseph. V. Medina;60661;USA;2001;2100;2100;2100;3;5;256;1;0;5;0;L60661;2001;2040;2100;x 
Gerald. L. mirror;60662;USA;1992;2100;2100;2100;3;4;0;0;0;5;2;L60662;1992;2040;2100;x 
Walter Lee Miller Jr.;60663;USA;2009;2100;2100;2100;3;5;256;1;0;5;0;L60663;2009;2040;2100;x
Richard. P. Mills;60664;USA;2004;2011;2100;2100;2;6;256;2;0;5;0;L60664;2004;2040;2100;x
Thomas. R. Morgan;60665;USA;1977;1985;1986;2100;1;7;16384;2;0;5;2;L60665;1977;2040;2100;x 
Carl Epstein computing Mandi Jr.;60666;USA;1982;1988;1991;2100;1;7;256;3;0;5;0;M6182;1982;2040;2100;x 
Carol. A. Mutter;60667;USA;1991;1996;2100;2100;2;6;256;2;0;5;0;L60667;1991;2040;2100;x 
Richard. F. Natonsuki;60668;USA;1998;2006;2100;2100;2;6;256;2;0;5;0;L60668;1998;2040;2100;x 
Richard. I. Neil;60669;USA;1989;1994;1996;2100;1;7;256;2;0;5;0;L60669;1989;2040;2100;x 
Gregory. S. Newbold;60670;USA;1992;1997;2100;2100;2;6;257;1;0;5;0;L60670;1992;2040;2100;x 
William. L. Niland;60671;USA;1994;2000;2002;2100;1;7;16384;3;0;5;2;L60671;1994;2040;2100;x 
Jeffrey. W. Oster;60672;USA;1988;1995;2100;2100;2;6;256;1;0;5;0;L60672;1988;2040;2100;x 
Peter Pace;60673;USA;1994;1996;2000;2100;1;8;256;3;0;5;0;M6136;1994;2040;2100;x 
Leslie. M. Palm;60674;USA;1992;2100;2100;2100;3;5;256;1;0;5;0;L60674;1992;2040;2100;x 
John. M. Paxton Jr.;60675;USA;2003;2008;2012;2100;1;7;256;2;0;5;0;L60675;2003;2040;2100;x
Frank. E. Petersen;60676;USA;1979;1986;2100;2100;2;6;16384;1;0;5;2;L60676;1979;2040;2100;x 
Arnold. L. Punaro;60677;USA;1993;2100;2100;2100;3;5;256;1;0;5;0;L60677;1993;2040;2100;x 
Francis. E. Quinlan;60678;USA;2003;2100;2100;2100;3;5;256;0;0;5;0;L60678;2003;2040;2100;x 
Loretta. E. Reynolds;60679;USA;2009;2100;2100;2100;3;5;256;1;0;5;0;L60679;2009;2040;2100;x 
Ronald. G. Richard;60680;USA;1993;2100;2100;2100;3;5;256;1;0;5;0;L60680;1993;2040;2100;x 
Wallace. H. Robinson;60681;USA;1966;1971;2100;2100;2;6;257;1;0;5;0;L60681;1966;2040;2100;x 
Wayne. E. Rawlings;60682;USA;1993;2100;2100;2100;3;5;256;1;0;5;0;L60682;1993;2040;2100;x 
Angela Arinasu;60683;USA;2006;2100;2100;2100;3;5;256;0;0;5;0;L60683;2006;2040;2100;x 
John. F. Sattler;60684;USA;1997;2005;2100;2100;2;6;256;1;0;5;0;L60684;1997;2040;2100;x 
John. J. Sheehan;60685;USA;1987;1991;1994;2100;1;7;256;2;0;5;0;L60685;1987;2040;2100;x 
Michael. K. Sheridan;60686;USA;1984;2100;2100;2100;3;5;256;0;0;5;0;L60686;1984;2040;2100;x 
Edwin. H. Simmons;60687;USA;1968;2100;2100;2100;3;6;260;2;0;5;0;L60687;1968;2040;2100;x 
Ray. L. Smith;60688;USA;1991;2100;2100;2100;3;5;256;1;0;5;0;L60688;1991;2040;2100;x 
Ralph. H. span jar;60689;USA;1970;2100;2100;2100;3;5;0;1;0;5;2;L60689;1970;2040;2100;x 
Henry. C. stack Paul III;60690;USA;1984;1990;2100;2100;2;6;256;1;0;5;0;L60690;1984;2040;2100;x 
Keith. J. Stalder;60691;USA;2000;2008;2100;2100;2;6;256;1;0;5;0;L60691;2000;2040;2100;x 
Clifford. L. Stanley;60692;USA;1994;2100;2100;2100;3;5;256;1;0;5;0;L60692;1994;2040;2100;x 
Martin. R. Steel;60693;USA;1993;1996;2100;2100;2;6;384;2;0;5;0;L60693;1993;2040;2100;x 
Joseph. D. Stewart;60694;USA;1988;2100;2100;2100;3;5;256;1;0;5;0;L60694;1984;2040;2100;x 
Joseph. D. Stewart;60695;USA;1998;2000;2100;2100;2;5;0;1;0;5;1;L60694;1998;2040;2100;x 
Douglas. M. Stone;60696;USA;2009;2100;2100;2100;3;5;256;1;0;5;0;L60696;2009;2040;2100;x
Greg. A. scan Two de Wand;60697;USA;2003;2100;2100;2100;3;5;16384;1;0;5;2;L60697;2003;2040;2100;x 
Duane. D. Thiessen;60698;USA;2004;2010;2100;2100;2;6;16384;1;0;5;2;L60698;2004;2040;2100;x
John. A. Toran;60699;USA;2006;2012;2100;2100;2;6;272;1;0;5;0;L60699;2006;2040;2100;x
Bernard. E. Trainer;60700;USA;1976;1983;2100;2100;2;6;258;2;0;5;0;L60700;1976;2040;2100;x 
George. J. Trautmann III;60701;USA;2000;2007;2100;2100;2;6;16384;2;0;5;2;L60701;2000;2040;2100;x 
James. R. van den Eruzen;60702;USA;1981;2100;2100;2100;3;5;256;1;0;5;0;L60702;1981;2040;2100;x 
Paul. K. Van Ripper;60703;USA;1990;1995;2100;2100;3;6;256;2;0;5;0;L60703;1990;2040;2100;x 
Guy Vander Linden;60704;USA;2000;2100;2100;2100;3;5;256;0;0;5;0;L60704;2000;2040;2100;x 
Joseph. J. Wendt;60705;USA;1978;1985;1988;2100;1;7;16384;2;0;5;2;L60705;1978;2040;2100;x 
Michael. C. Hawley;60706;USA;1993;2100;2100;2100;3;4;0;0;0;5;2;L60706;1993;2040;2100;x 
Charles. E. Wilhelm;60707;USA;1988;1994;1997;2100;1;7;256;2;0;5;0;L60707;1988;2040;2100;x 
James. L. Williams;60708;USA;2003;2100;2100;2100;3;5;256;2;0;5;0;L60708;2003;2040;2100;x 
Michael. J. Williams;60709;USA;1992;1998;2000;2100;1;7;16384;2;0;5;2;L60709;1992;2040;2100;x 
Peter. D. Williams;60710;USA;1988;2100;2100;2100;3;5;16384;1;0;5;2;L60710;1988;2040;2100;x 
Cornell. A. Wilson Jr.;60711;USA;1999;2100;2100;2100;3;5;257;1;0;5;0;L60711;1999;2040;2100;x
Francis. C. Wilson;60712;USA;2000;2006;2100;2100;2;6;265;1;0;5;0;L60712;2000;2040;2100;x 
Lewis. H. Wilson Jr.;60713;USA;1966;1972;1975;2100;1;7;256;3;0;5;0;M6178;1966;2040;2100;x 
Anthony. C. Gini;60714;USA;1989;1994;1997;2100;1;7;256;2;0;5;0;L60714;1989;2040;2100;x 
Richard. F. Abel;60715;USA;1978;2100;2100;2100;3;5;0;1;0;5;2;L60715;1978;2040;2100;x 
James Alan Abraham;60716;USA;1976;1982;2100;2100;2;7;4096;2;0;5;2;L60716;1976;2040;2100;x 
William. P. Acker;60717;USA;1973;2100;2100;2100;3;5;16384;2;0;5;2;L60717;1973;2040;2100;x 
Christopher. S. Adams Jr.;60718;USA;1980;2100;2100;2100;3;5;32768;1;0;5;2;L60718;1980;2040;2100;x 
Jimmy. V. Adams;60719;USA;1979;1985;1991;2100;1;7;16384;3;0;5;2;L60719;1979;2040;2100;x 
Harry. C. Adahoruto;60720;USA;1973;2100;2100;2100;3;5;0;1;0;5;2;L60720;1973;2040;2100;x 
Joseph. A. Ahern;60721;USA;1983;2100;2100;2100;3;5;0;0;0;5;2;L60721;1983;2040;2100;x 
Timothy. I. Ahern;60722;USA;1968;2100;2100;2100;3;5;8192;1;0;5;2;L60722;1968;2040;2100;x 
Donald. O. Aldridge;60723;USA;1981;1989;2100;2100;2;6;32768;2;0;5;2;L60723;1981;2040;2100;x 
George. C. Allen II;60724;USA;1996;2100;2100;2100;3;4;0;0;0;5;2;L60724;1996;2040;2100;x 
John. L. Allen Jr.;60725;USA;1984;2100;2100;2100;3;5;32768;1;0;5;2;L60725;1984;2040;2100;x 
Lou Allen Jr.;60726;USA;1969;1973;1978;2100;2;7;32768;3;0;5;2;M6163;1969;2040;2100;x 
Theodore. C. Arumukuisuto;60727;USA;1988;2100;2100;2100;3;3;0;0;0;5;2;L60727;1988;2040;2100;x 
Dwayne. A. Aronzu;60728;USA;1990;2100;2100;2100;3;5;0;1;0;5;2;L60728;1990;2040;2100;x 
C. Donald Alston;60729;USA;2001;2100;2100;2100;3;5;32768;1;0;5;2;L60729;2001;2040;2100;x 
Russell. J. Anado;60730;USA;1993;2100;2100;2100;3;5;32768;1;0;5;2;L60730;1993;2040;2100;x 
Edgar. R. Anderson Jr.;60731;USA;1986;1994;2100;2100;2;3;0;0;0;5;2;L60731;1986;2040;2100;x 
George. K. Anderson;60732;USA;1987;2100;2100;2100;3;3;0;0;0;5;2;L60732;1987;2040;2100;x 
Ricardo Aponte;60733;USA;2001;2100;2100;2100;3;5;16384;1;0;5;2;L60733;2001;2040;2100;x 
Rita. A. Aragon;60734;USA;2003;2100;2100;2100;3;5;0;0;0;5;2;L60734;2003;2040;2100;x 
Nina. M. Arumaguno;60735;USA;2013;2100;2100;2100;3;5;0;0;0;5;2;L60735;2013;2040;2100;x
Brian. A. Arnold;60736;USA;1995;1999;2100;2100;2;6;0;1;0;5;2;L60736;1995;2040;2100;x 
Joseph. W. Ash;60737;USA;1984;1989;1994;2100;1;7;16384;3;0;5;2;L60737;1984;2040;2100;x 
Anderson. W. Atkinson;60738;USA;1973;2100;2100;2100;3;5;8192;1;0;5;2;L60738;1973;2040;2100;x 
Clarence. R. Outari;60739;USA;1977;2100;2100;2100;3;5;8192;1;0;5;2;L60739;1977;2040;2100;x 
Paul. L. Ayers;60740;USA;2008;2100;2100;2100;3;5;0;0;0;5;2;L60740;2008;2040;2100;x
George. T. Babbitt Jr.;60741;USA;1990;1995;1997;2100;1;7;0;2;0;5;2;L60741;1990;2040;2100;x 
Robert. E. Bailey;60742;USA;1999;2100;2100;2100;3;5;0;1;0;5;2;L60742;1999;2040;2100;x
Margaret. H. Bear;60743;USA;2009;2100;2100;2100;3;4;0;0;0;5;2;L60743;2009;2040;2100;x 
Merton. W. Baker;60744;USA;1970;2100;2100;2100;3;5;0;1;0;5;2;L60744;1970;2040;2100;x 
Donald. H. Balch;60745;USA;1976;2100;2100;2100;3;5;0;0;0;5;2;L60745;1976;2040;2100;x 
Charles. C. Baldwin;60746;USA;1998;2100;2100;2100;3;3;0;0;0;5;2;L60746;1998;2040;2100;x 
Stuart. E. bar stud;60747;USA;1982;2100;2100;2100;3;3;0;0;0;5;2;L60747;1982;2040;2100;x 
Ronald. J. bus;60748;USA;1999;2100;2100;2100;3;5;8192;1;0;5;2;L60748;1999;2040;2100;x 
Robert. W. Bazure;60749;USA;1976;1979;1984;2100;1;7;16384;3;0;5;2;L60749;1976;2040;2100;x 
William. J. Begato;60750;USA;1991;1997;2001;2100;1;6;65536;2;0;5;2;L60750;1991;2040;2100;x 
Gregory. A. Bisukon;60751;USA;2006;2010;2100;2100;2;6;32768;1;0;5;2;L60751;2006;2040;2100;x
Franklin. J. Blaisdell;60752;USA;1993;2100;2100;2100;3;5;0;1;0;5;2;L60752;1993;2040;2100;x 
William. J. Bordelais;60753;USA;1995;2100;2100;2100;3;4;0;0;0;5;2;L60753;1995;2040;2100;x 
Billy. J. Balls;60754;USA;1983;1988;1995;2100;1;7;0;2;0;5;2;L60754;1983;2040;2100;x 
Dana. H. Born;60755;USA;2004;2100;2100;2100;3;4;0;0;0;5;2;L60755;2004;2040;2100;x 
Ted. F. Bowles;60756;USA;2002;2007;2100;2100;2;6;0;1;0;5;2;L60756;2002;2040;2100;x 
Charles. G. void;60757;USA;1985;1990;1992;2100;1;8;4096;3;0;5;2;L60757;1985;2040;2100;x 
Roger. A. Brady;60758;USA;1995;2004;2008;2100;1;7;4096;2;0;5;2;L60758;1995;2040;2100;x 
Joseph. J. brand Mur;60759;USA;2009;2100;2100;2100;3;4;0;0;0;5;2;L60759;2009;2040;2100;x 
Michael. G. Brandt;60760;USA;2005;2100;2100;2100;3;5;0;1;0;5;2;L60760;2005;2040;2100;x 
Arnold. W. Brass well;60761;USA;1973;1978;2100;2100;2;6;8192;2;0;5;2;L60761;1973;2040;2100;x 
James. M. bleed Love;60762;USA;1970;2100;2100;2100;3;5;0;1;0;5;2;L60762;1970;2040;2100;x 
Philip. M. bleed Love;60763;USA;2003;2008;2011;2100;1;7;8192;2;0;5;2;L60763;2003;2040;2100;x
Devoru Brett;60764;USA;1970;1973;2100;2100;2;6;0;2;0;5;2;L60764;1970;2040;2100;x 
Roy. D. Bridges Jr.;60765;USA;1990;2100;2100;2100;3;4;0;0;0;5;2;L60765;1990;2040;2100;x 
Hugh. T. Blue Mall;60766;USA;2004;2100;2100;2100;3;5;65536;1;0;5;2;L60766;2004;2040;2100;x 
Charles. Q. Brown Jr.;60767;USA;2010;2100;2100;2100;3;5;0;0;0;5;2;L60767;2010;2040;2100;x 
Norma Elaine Brown;60768;USA;1974;2100;2100;2100;3;4;0;0;0;5;2;L60768;1974;2040;2100;x 
Jean Budiggu;60769;USA;1982;2100;2100;2100;3;4;0;0;0;5;2;L60769;1982;2040;2100;x 
Robert. A. Buthe;60770;USA;1984;2100;2100;2100;3;3;0;0;0;5;2;L60770;1984;2040;2100;x 
Todd. M. Banting;60771;USA;2004;2100;2100;2100;3;5;0;1;0;5;2;L60771;2004;2040;2100;x
Christopher. F. burn;60772;USA;2008;2014;2100;2100;2;6;0;1;0;5;2;L60772;2008;2040;2100;x
Donald. J. Butts;60773;USA;1982;2100;2100;2100;3;3;0;0;0;5;2;L60773;1982;2040;2100;x 
George Lee Butler;60774;USA;1984;1989;1991;2100;1;7;32768;2;0;5;2;L60774;1984;2040;2100;x 
Michael. J. Carry;60775;USA;2008;2100;2100;2100;3;5;0;1;0;5;2;L60775;2008;2040;2100;x 
Herbert. J. Carlisle;60776;USA;2005;2009;2012;2100;1;7;8192;3;0;5;2;L60776;2005;2040;2100;x
Bruce. A. Carlson;60777;USA;1996;2000;2005;2100;1;7;8192;2;0;5;2;L60777;1996;2040;2100;x 
Paul. K. Carlton;60778;USA;1970;1970;1972;2100;1;7;32768;3;0;5;2;L60778;1970;2040;2100;x 
Paul. K. Carlton Jr.;60779;USA;1991;1999;2100;2100;2;4;0;0;0;5;2;L60779;1991;2040;2100;x 
Michael. P. C. Kearns;60780;USA;1982;1989;1991;2100;1;7;8192;2;0;5;2;L60780;1982;2040;2100;x 
Patrick. P. Caruana;60781;USA;1991;2100;2100;2100;3;5;0;0;0;5;2;L60781;1991;2040;2100;x 
Fred. F. Castle Jr.;60782;USA;1994;2100;2100;2100;3;5;0;1;0;5;2;L60782;1994;2040;2100;x 
Jack. J. Katton;60783;USA;1964;1968;1972;2100;1;7;0;3;0;5;2;L60783;1964;2040;2100;x 
John. T. chain Jr.;60784;USA;1975;1981;1985;2100;1;7;0;2;0;5;2;L60784;1975;2040;2100;x 
Carol. H. Chandler;60785;USA;1997;2002;2007;2100;1;7;8192;2;0;5;2;L60785;1997;2040;2100;x 
Kevin. P. Chilton;60786;USA;1999;2005;2006;2100;1;7;8192;2;0;5;2;L60786;1999;2040;2100;x 
Melvin. F. Chubb Jr.;60787;USA;1977;1984;2100;2100;2;6;0;2;0;5;2;L60787;1977;2040;2100;x 
Cary. C. Chun;60788;USA;2009;2100;2100;2100;3;5;0;0;0;5;2;L60788;2009;2040;2100;x
James. R. Clapper;60789;USA;1985;1991;2100;2100;2;6;0;1;0;5;2;L60789;1985;2040;2100;x 
Albert. P. Clark;60790;USA;1965;1970;2100;2100;2;6;0;2;0;5;2;L60790;1965;2040;2100;x 
Lynnwood. E. Clark;60791;USA;1973;1981;2100;2100;3;6;16384;2;0;5;2;L60791;1973;2040;2100;x 
Trudy. H. Clark;60792;USA;1999;2100;2100;2100;3;4;0;0;0;5;2;L60792;1999;2040;2100;x 
Stanley. E. Clark III;60793;USA;2005;2011;2100;2100;2;6;16384;2;0;5;2;L60793;2005;2040;2100;x 
Lucius. D. Clay Jr.;60794;USA;1964;1968;1971;2100;1;7;32768;3;0;5;2;L60794;1964;2040;2100;x 
Charles. G. Cleveland;60795;USA;1975;1981;2100;2100;2;6;16384;2;0;5;2;L60795;1975;2040;2100;x 
John. A. Collins;60796;USA;1980;2100;2100;2100;3;3;0;0;0;5;2;L60796;1980;2040;2100;x 
Roger. E. Combs;60797;USA;1999;2100;2100;2100;3;5;0;1;0;5;2;L60797;1999;2040;2100;x 
John. B. Conaway;60798;USA;1981;1988;2100;2100;2;6;0;1;0;5;2;L60798;1981;2040;2100;x 
Donald. G. Cook;60799;USA;1993;1999;2001;2100;1;7;32768;2;0;5;2;L60799;1993;2040;2100;x 
John. D. W. Corey;60800;USA;1999;2003;2005;2100;1;7;0;2;0;5;2;L60800;1999;2040;2100;x 
Stephen. P. Court Light;60801;USA;1989;2100;2100;2100;3;5;0;1;0;5;2;L60801;1989;2040;2100;x 
Ernest. T. Cragg;60802;USA;1984;2100;2100;2100;3;5;16384;1;0;5;2;L60802;1970;2040;2100;x 
Reginald. M. clam;60803;USA;1966;2100;2100;2100;3;4;0;0;0;5;2;L60803;1966;2040;2100;x 
Stephen. A. Clay;60804;USA;2007;2100;2100;2100;3;5;0;1;0;5;2;L60804;2007;2040;2100;x
Wilbur. L. kulich;60805;USA;1971;1974;1978;2100;1;7;0;2;0;5;2;L60805;1971;2040;2100;x 
John. R. Croft;60806;USA;2002;2100;2100;2100;3;4;0;0;0;5;2;L60806;2002;2040;2100;x 
Quadword. L. Crow;60807;USA;1964;1973;2100;2100;2;5;0;1;0;5;2;L60807;1964;2040;2100;x 
Ruben. A. Kubero;60808;USA;1991;2100;2100;2100;3;5;8192;1;0;5;2;L60808;1991;2040;2100;x 
James. B. Curry;60809;USA;1974;2100;2100;2100;3;5;32768;1;0;5;2;L60809;1974;2040;2100;x 
William. D. Curry Jr.;60810;USA;1975;2100;2100;2100;3;5;16384;1;0;5;2;L60810;1975;2040;2100;x 
David. H. missiles;60811;USA;2008;2100;2100;2100;3;3;0;0;0;5;2;L60811;2008;2040;2100;x 
John. R. Daraga;60812;USA;1995;2000;2100;2100;2;6;0;1;0;5;2;L60812;1995;2040;2100;x 
James. E. Dalton;60813;USA;1975;1980;1983;2100;1;6;0;2;0;5;2;L60813;1975;2040;2100;x 
Harry. M. Derm stand error;60814;USA;1970;2100;2100;2100;3;5;32768;1;0;5;2;L60814;1970;2040;2100;x 
Benny. L. Davis;60815;USA;1968;1975;1981;2100;1;7;32768;2;0;5;2;L60815;1968;2040;2100;x 
James. B. Davis;60816;USA;1979;1986;1991;2100;1;7;16384;2;0;5;2;L60816;1979;2040;2100;x 
Russell. C. Davis;60817;USA;1982;1998;2100;2100;2;6;65536;2;0;5;2;L60817;1982;2040;2100;x 
Roger. G. Dekokku;60818;USA;1992;1996;2100;2100;2;6;0;1;0;5;2;L60818;1992;2040;2100;x 
Donald. R. Derusa;60819;USA;1983;2100;2100;2100;3;5;0;1;0;5;2;L60819;1983;2040;2100;x 
William Joseph Dendinga;60820;USA;1991;2100;2100;2100;3;3;0;0;0;5;2;L60820;1991;2040;2100;x 
Susan. Y. Desjardins;60821;USA;2006;2100;2100;2100;3;5;0;0;0;5;2;L60821;2006;2040;2100;x
Robert. J. Dixon;60822;USA;1965;1970;1973;2100;1;7;8192;2;0;5;2;L60822;1965;2040;2100;x 
Teresa. A. H. Jurikku;60823;USA;2008;2100;2100;2100;3;5;0;0;0;5;2;L60823;2008;2040;2100;x
Myron. N. Dobashi;60824;USA;1996;2100;2100;2100;3;5;0;1;0;5;2;L60824;1996;2040;2100;x 
William. J. Donahue;60825;USA;1992;1997;2100;2100;2;6;0;1;0;5;2;L60825;1992;2040;2100;x 
Charles. L. Donnelly Jr.;60826;USA;1975;1980;1984;2100;1;7;0;2;0;5;2;L60826;1975;2040;2100;x 
John. W Set;60827;USA;2010;2100;2100;2100;3;5;0;1;0;5;2;L60827;2010;2040;2100;x
Russell. E. Doherty;60828;USA;1965;1969;1972;2100;1;7;0;2;0;5;2;L60828;1965;2040;2100;x 
Frank. M. Drew;60829;USA;1974;2100;2100;2100;3;5;16384;1;0;5;2;L60829;1974;2040;2100;x 
Hans. H. Dorizunakku;60830;USA;1972;1978;2100;2100;2;6;16384;2;0;5;2;L60830;1972;2040;2100;x 
Michael. D. Dubie;60831;USA;2006;2012;2100;2100;2;6;0;1;0;5;2;L60831;2006;2040;2100;x
Charles. M. Duke Jr.;60832;USA;1970;2100;2100;2100;3;5;32768;0;0;5;2;L60832;1970;2040;2100;x 
Donald. P. Dunbar;60833;USA;2007;2100;2100;2100;3;5;0;1;0;5;2;L60833;2007;2040;2100;x
Sharon. K. G. Dunbar;60834;USA;2008;2100;2100;2100;3;5;0;1;0;5;2;L60834;2008;2040;2100;x
Charles. J. Dunlap Jr.;60835;USA;2000;2100;2100;2100;3;3;0;0;0;5;2;L60835;2000;2040;2100;x 
