# 0 - AA Escort 0
model = {
	cost 				= 0.5
	buildtime			= 90
	manpower 			= 0.1
	surfacedetectioncapability	= 0
	airdetectioncapability		= 0
	subdetectioncapability		= 0
	airdefence			= 1
	seaattack			= 0
	convoyattack			= 0
	subattack			= 0
	airattack			= 2
	shorebombardment		= 0
	distance			= 0
	supplyconsumption 		= 0.05
	fuelconsumption			= 0
	upgrade_time_factor 		= 0.5
	upgrade_cost_factor 		= 1.0
}

# 1 - AA Escort 1
model = {
	cost 				= 0.8
	buildtime			= 95
	manpower 			= 0.1
	surfacedetectioncapability	= 0
	airdetectioncapability		= 1
	subdetectioncapability		= 0
	airdefence			= 1
	seaattack			= 0
	convoyattack			= 0
	subattack			= 0
	airattack			= 3
	shorebombardment		= 0
	distance			= 0
	supplyconsumption 		= 0.1
	fuelconsumption			= 0
	upgrade_time_factor 		= 0.5
	upgrade_cost_factor 		= 1.0
}

# 2 - AA Escort 2
model = {
	cost 				= 1.3
	buildtime			= 100
	manpower 			= 0.1
	surfacedetectioncapability	= 1
	airdetectioncapability		= 3
	subdetectioncapability		= 0
	airdefence			= 1
	seaattack			= 0
	convoyattack			= 0
	subattack			= 0
	airattack			= 4
	shorebombardment		= 0
	distance			= 0
	supplyconsumption 		= 0.1
	fuelconsumption			= 0
	upgrade_time_factor 		= 0.5
	upgrade_cost_factor 		= 1.0
}

#3 - AA Escort 3
model = {
	cost 				= 1.5
	buildtime			= 100
	manpower 			= 0.1
	surfacedetectioncapability	= 1
	airdetectioncapability		= 3
	subdetectioncapability		= 0
	airdefence			= 2
	seaattack			= 0
	convoyattack			= 0
	subattack			= 0
	airattack			= 5
	shorebombardment		= 0
	distance			= 0
	supplyconsumption 		= 0.15
	fuelconsumption			= 0
	upgrade_time_factor 		= 0.5
	upgrade_cost_factor 		= 1.0
}

#4 - AA Escort 4
model = {
	cost 				= 1.7
	buildtime			= 110
	manpower 			= 0.1
	surfacedetectioncapability	= 1
	airdetectioncapability		= 4
	subdetectioncapability		= 0
	airdefence			= 2
	seaattack			= 1
	convoyattack			= 1
	subattack			= 0
	airattack			= 6
	shorebombardment		= 0
	distance			= 0
	supplyconsumption 		= 0.15
	fuelconsumption			= 0
	upgrade_time_factor 		= 0.5
	upgrade_cost_factor 		= 1.0
}

#5 - AA Escort 5
model = {
	cost 				= 1.7
	buildtime			= 105
	manpower 			= 0.1
	surfacedetectioncapability	= 2
	airdetectioncapability		= 4
	subdetectioncapability		= 0
	airdefence			= 2
	seaattack			= 2
	convoyattack			= 2
	subattack			= 0
	airattack			= 7
	shorebombardment		= 0
	distance			= 0
	supplyconsumption 		= 0.2
	fuelconsumption			= 0
	upgrade_time_factor 		= 0.5
	upgrade_cost_factor 		= 1.0
}

#6 - AA Escort 6
model = {
	cost 				= 2
	buildtime			= 120
	manpower 			= 0.1
	surfacedetectioncapability	= 2
	airdetectioncapability		= 5
	subdetectioncapability		= 0
	airdefence			= 3
	seaattack			= 2
	convoyattack			= 2
	subattack			= 0
	airattack			= 8
	shorebombardment		= 0
	distance			= 0
	supplyconsumption 		= 0.2
	fuelconsumption			= 0
	upgrade_time_factor 		= 0.5
	upgrade_cost_factor 		= 1.0
}
#7 - AA Escort 7
model = {
	cost 				= 3.0
	buildtime			= 120
	manpower 			= 0.1
	surfacedetectioncapability	= 2
	airdetectioncapability		= 5
	subdetectioncapability		= 0
	airdefence			= 6
	seaattack			= 0
	convoyattack			= 0
	subattack			= 0
	airattack			= 10
	shorebombardment		= 0
	distance			= 0
	supplyconsumption 		= 0.4
	fuelconsumption			= 0
	upgrade_time_factor 		= 0.5
	upgrade_cost_factor 		= 1.0
}
#8 - AA Escort 8
model = {
	cost 				= 3.0
	buildtime			= 120
	manpower 			= 0.1
	surfacedetectioncapability	= 2
	airdetectioncapability		= 6
	subdetectioncapability		= 0
	airdefence			= 7
	seaattack			= 0
	convoyattack			= 0
	subattack			= 0
	airattack			= 11
	shorebombardment		= 0
	distance			= 0
	supplyconsumption 		= 0.4
	fuelconsumption			= 0
	upgrade_time_factor 		= 0.5
	upgrade_cost_factor 		= 1.0
}
#9 - AA Escort 9
model = {
	cost 				= 3.0
	buildtime			= 120
	manpower 			= 0.1
	surfacedetectioncapability	= 2
	airdetectioncapability		= 7
	subdetectioncapability		= 0
	airdefence			= 8
	seaattack			= 0
	convoyattack			= 0
	subattack			= 0
	airattack			= 12
	shorebombardment		= 0
	distance			= 0
	supplyconsumption 		= 0.4
	fuelconsumption			= 0
	upgrade_time_factor 		= 0.5
	upgrade_cost_factor 		= 1.0
}

########################################

