# 0 - Basic
model          = { cost = 4 buildtime = 60 manpower = 2 defensiveness = 2 maxspeed = 0 softattack = 5 hardattack = 1 supplyconsumption = 0.65 upgrade_time_factor = 0.5 upgrade_cost_factor = 1.0 equipment = { manpower = 100 TRUCKS = 20 HEAVY_ARMOR = 20 } }
# 1 - Improved
model          = { cost = 4 buildtime = 60 manpower = 2 defensiveness = 3 maxspeed = 0 softattack = 5 hardattack = 3 supplyconsumption = 0.67 upgrade_time_factor = 0.5 upgrade_cost_factor = 1.0 equipment = { manpower = 100 TRUCKS = 20 HEAVY_ARMOR = 20 } }
# 2 - Advanced
model          = { cost = 4 buildtime = 60 manpower = 2 defensiveness = 4 maxspeed = 0 softattack = 6 hardattack = 3 supplyconsumption = 0.69 upgrade_time_factor = 0.5 upgrade_cost_factor = 1.0 equipment = { manpower = 100 TRUCKS = 20 HEAVY_ARMOR = 20 } }
# 0 - Basic
model          = { cost = 4 buildtime = 60 manpower = 2 defensiveness = 2 maxspeed = 0 softattack = 6 hardattack = 4 supplyconsumption = 0.65 upgrade_time_factor = 0.5 upgrade_cost_factor = 1.0 equipment = { manpower = 100 TRUCKS = 20 HEAVY_ARMOR = 20 } }
# 1 - Improved
model          = { cost = 4 buildtime = 60 manpower = 2 defensiveness = 3 maxspeed = 0 softattack = 7 hardattack = 4 supplyconsumption = 0.67 upgrade_time_factor = 0.5 upgrade_cost_factor = 1.0 equipment = { manpower = 100 TRUCKS = 20 HEAVY_ARMOR = 20 } }
# 2 - Advanced
model          = { cost = 4 buildtime = 60 manpower = 2 defensiveness = 4 maxspeed = 0 softattack = 7 hardattack = 5 supplyconsumption = 0.69 upgrade_time_factor = 0.5 upgrade_cost_factor = 1.0 equipment = { manpower = 100 TRUCKS = 20 HEAVY_ARMOR = 20 } }
# 0 - Basic
model          = { cost = 4 buildtime = 60 manpower = 2 defensiveness = 2 maxspeed = 0 softattack = 8 hardattack = 5 supplyconsumption = 0.65 upgrade_time_factor = 0.5 upgrade_cost_factor = 1.0 equipment = { manpower = 100 TRUCKS = 20 HEAVY_ARMOR = 20 } }
# 1 - Improved
model          = { cost = 4 buildtime = 60 manpower = 2 defensiveness = 3 maxspeed = 0 softattack = 9 hardattack = 6 supplyconsumption = 0.67 upgrade_time_factor = 0.5 upgrade_cost_factor = 1.0 equipment = { manpower = 100 TRUCKS = 20 HEAVY_ARMOR = 20 } }
# 2 - Advanced
model          = { cost = 4 buildtime = 60 manpower = 2 defensiveness = 4 maxspeed = 0 softattack = 9 hardattack = 7 supplyconsumption = 0.69 upgrade_time_factor = 0.5 upgrade_cost_factor = 1.0 equipment = { manpower = 100 TRUCKS = 20 HEAVY_ARMOR = 20 } }
# 0 - Basic
model          = { cost = 4 buildtime = 60 manpower = 2 defensiveness = 2 maxspeed = 0 softattack = 10 hardattack = 7 supplyconsumption = 0.65 upgrade_time_factor = 0.5 upgrade_cost_factor = 1.0 equipment = { manpower = 100 TRUCKS = 20 HEAVY_ARMOR = 20 } }
# 1 - Improved
model          = { cost = 4.5 buildtime = 45 manpower = 2 defensiveness = 3 maxspeed = -1 softattack = 6 hardattack = 1 supplyconsumption = 0.67 upgrade_time_factor = 0.5 upgrade_cost_factor = 1.0 }
# 2 - Advanced
model          = { cost = 5 buildtime = 45 manpower = 2 defensiveness = 4 maxspeed = -1 softattack = 7 hardattack = 3 supplyconsumption = 0.69 upgrade_time_factor = 0.5 upgrade_cost_factor = 1.0 }
# 0 - Basic
model          = { cost = 4 buildtime = 45 manpower = 2 defensiveness = 2 maxspeed = -1 softattack = 5 hardattack = 1 supplyconsumption = 0.65 upgrade_time_factor = 0.5 upgrade_cost_factor = 1.0 }
# 1 - Improved
model          = { cost = 4.5 buildtime = 45 manpower = 2 defensiveness = 3 maxspeed = -1 softattack = 6 hardattack = 1 supplyconsumption = 0.67 upgrade_time_factor = 0.5 upgrade_cost_factor = 1.0 }
# 2 - Advanced
model          = { cost = 5 buildtime = 45 manpower = 2 defensiveness = 4 maxspeed = -1 softattack = 7 hardattack = 3 supplyconsumption = 0.69 upgrade_time_factor = 0.5 upgrade_cost_factor = 1.0 }
# 0 - Basic
model          = { cost = 4 buildtime = 45 manpower = 2 defensiveness = 2 maxspeed = -1 softattack = 5 hardattack = 1 supplyconsumption = 0.65 upgrade_time_factor = 0.5 upgrade_cost_factor = 1.0 }
# 1 - Improved
model          = { cost = 4.5 buildtime = 45 manpower = 2 defensiveness = 3 maxspeed = -1 softattack = 6 hardattack = 1  supplyconsumption = 0.67 upgrade_time_factor = 0.5 upgrade_cost_factor = 1.0 }
# 2 - Advanced
model          = { cost = 5 buildtime = 45 manpower = 2 defensiveness = 4 maxspeed = -1 softattack = 7 hardattack = 3 supplyconsumption = 0.69 upgrade_time_factor = 0.5 upgrade_cost_factor = 1.0 }
# 0 - Basic
model          = { cost = 4 buildtime = 45 manpower = 2 defensiveness = 2 maxspeed = -1 softattack = 5 hardattack = 1 supplyconsumption = 0.65 upgrade_time_factor = 0.5 upgrade_cost_factor = 1.0 }
# 1 - Improved
model          = { cost = 4.5 buildtime = 45 manpower = 2 defensiveness = 3 maxspeed = -1 softattack = 6 hardattack = 1 supplyconsumption = 0.67 upgrade_time_factor = 0.5 upgrade_cost_factor = 1.0 }
# 2 - Advanced
model          = { cost = 5 buildtime = 45 manpower = 2 defensiveness = 4 maxspeed = -1 softattack = 7 hardattack = 3 supplyconsumption = 0.69 upgrade_time_factor = 0.5 upgrade_cost_factor = 1.0 }
# 0 - Basic
model          = { cost = 4 buildtime = 45 manpower = 2 defensiveness = 2 maxspeed = -1 softattack = 5 hardattack = 1 supplyconsumption = 0.65 upgrade_time_factor = 0.5 upgrade_cost_factor = 1.0 }
# 1 - Improved
model          = { cost = 4.5 buildtime = 45 manpower = 2 defensiveness = 3 maxspeed = -1 softattack = 6 hardattack = 1 supplyconsumption = 0.67 upgrade_time_factor = 0.5 upgrade_cost_factor = 1.0 }
# 2 - Advanced
model          = { cost = 5 buildtime = 45 manpower = 2 defensiveness = 4 maxspeed = -1 softattack = 7 hardattack = 3 supplyconsumption = 0.69 upgrade_time_factor = 0.5 upgrade_cost_factor = 1.0 }
# 0 - Basic
model          = { cost = 4 buildtime = 45 manpower = 2 defensiveness = 2 maxspeed = -1 softattack = 5 hardattack = 1 supplyconsumption = 0.65 upgrade_time_factor = 0.5 upgrade_cost_factor = 1.0 }
# 1 - Improved
model          = { cost = 4.5 buildtime = 45 manpower = 2 defensiveness = 3 maxspeed = -1 softattack = 6 hardattack = 1 supplyconsumption = 0.67 upgrade_time_factor = 0.5 upgrade_cost_factor = 1.0 }
# 2 - Advanced
model          = { cost = 5 buildtime = 45 manpower = 2 defensiveness = 4 maxspeed = -1 softattack = 7 hardattack = 3 supplyconsumption = 0.69 upgrade_time_factor = 0.5 upgrade_cost_factor = 1.0 }
