AFG;Ruling Cabinet - Start;Name;Start Year;End Year;Retirement Year;Ideology;Personality;Loyalty;Picturename;X
;Replacements;;;;;;;;;x
54001;Head of State;Muhammad Zahir Shah;1970;2100;2100;FA;Pig-headed Isolationist;Very High;M54001;x
54002;Head of Government;Mohammad Musa Shafiq;1970;2100;2100;FA;Silent Workhorse;High;M54002;x
54003;Foreign Minister;Mohammed Daoud Khan Khan;1970;2100;2100;FA;Ideological Crusader;High;M54003;x
54004;Minister of Armament;Fazuru Hak-Harikuyaru;1970;2100;2100;FA;Resource Industrialist;High;M54004;x
54005;Minister of Security;Abdul Kadeer, Nurisutani;1970;2100;2100;FA;Prince of Terror;Medium;M54005;x
54006;Head of Military Intelligence;Abdul Hadi Dawai;1970;2100;2100;FA;Political Specialist;Medium;M54006;x
54007;Chief of Staff;Wali Khan;1970;2100;2100;FA;School of Psychology;High;M54007;x
54008;Chief of Army;Muhammad Asif Safi;1970;2100;2100;FA;Elastic Defence Doctrine;Medium;M54008;x
54009;Chief of Navy;Mohammed Daoud Khan Khan;1970;2100;2100;FA;Indirect Approach Doctrine;Medium;M54003;x
54010;Chief of Air Force;Mohammed Daudo;1970;2100;2100;FA;Army Aviation Doctrine;Medium;M54007;x
54011;Head of State;Mohammed Daoud Khan Khan;1970;2100;2100;ML;Die-hard Reformer;Very High;M54003;x
54012;Head of Government;Mohammed Daoud Khan Khan;1970;2100;2100;ML;Naive Optimist;Very High;M54003;x
54013;Foreign Minister;Mohammed Daoud Khan Khan;1970;2100;2100;ML;Ideological Crusader;High;M54003;x
54014;Minister of Armament;Fazuru Hak-Harikuyaru;1970;2100;2100;ML;Resource Industrialist;High;M54004;x
54015;Minister of Security;Mohammad Faiz;1970;2100;2100;ML;Crime Fighter;Medium;M54015;x
54016;Head of Military Intelligence;Fazuru Hak-Harikuyaru;1970;2100;2100;ML;Industrial Specialist;Medium;M54004;x
54017;Chief of Staff;Gram-Hyder-Rasuri;1970;2100;2100;ML;School of Psychology;High;M54017;x
54018;Chief of Army;Muhammad Asif Safi;1970;2100;2100;ML;Elastic Defence Doctrine;Medium;M54008;x
54019;Chief of Navy;Mohammed Daoud Khan Khan;1970;2100;2100;ML;Indirect Approach Doctrine;Medium;M54003;x
54020;Chief of Air Force;Asa Durrani - Saruwari;1970;2100;2100;ML;Carpet Bombing Doctrine;Medium;M54020;x
54021;Head of State;Nur Muhammad Taraki;1970;2100;2100;LE;Benevolent Gentleman;Very High;M54021;x
54022;Head of Government;Nur Muhammad Taraki;1970;2100;2100;LE;Naive Optimist;Very High;M54021;x
54023;Foreign Minister;Hafizullah Amin;1970;2100;2100;LE;Iron Fisted Brute;High;M54023;x
54024;Minister of Armament;Fazuru Hak-Harikuyaru;1970;2100;2100;LE;Laissez-faire Capitalist;High;M54004;x
54025;Minister of Security;Sayyid Muhammad Gurabuzui;1970;2100;2100;LE;Crime Fighter;Medium;M54025;x
54026;Head of Military Intelligence;Fazuru Hak-Harikuyaru;1970;2100;2100;LE;Industrial Specialist;Medium;M54004;x
54027;Chief of Staff;Vesutari Gram Nabi;1970;2100;2100;LE;School of Mass Combat;High;M54027;x
54028;Chief of Army;Mohammad Aslam, Watanjaru;1970;2100;2100;LE;Guns and Butter Doctrine;Medium;M54028;x
54029;Chief of Navy;Mohammad Aslam, Watanjaru;1970;2100;2100;LE;Power Projection Doctrine;Medium;M54028;x
54030;Chief of Air Force;Abdul Kadir;1970;2100;2100;LE;Army Aviation Doctrine;Medium;M54030;x
54082;Head of State;Muhanmedo-Zahir;1939;2100;2100;SC;Benevolent Gentleman;High;M54001;x
54083;Head of State;Muhanmedo-Zahir;1946;2100;2100;PA;Autocratic Charmer;Very High;M54001;x
54031;Foreign Minister;Asadura Serai Khan;1945;2100;2100;PA;Iron Fisted Brute;High;M54031;x
54032;Minister of Armament;Mohammed Daoud Khan;1937;2100;2100;FA;Air to Ground Proponent;Medium;M54007;x
54033;Minister of Armament;Italo Serujente;1938;2100;2100;FA;Tank Proponent;Low;M54033;x
54034;Minister of Armament;Borutoro Bell Lotti;1939;2100;2100;FA;Administrative Genius;Low;M54034;x
54035;Minister of Armament;Asadura Serai Khan;1939;2100;2100;SC;Infantry Proponent;Medium;M54031;x
54036;Minister of Armament;Haji Faiz Muhanmedo-Jikeria;1940;2100;2100;SC;Laissez-faire Capitalist;High;M54003;x
54037;Minister of Armament;Nashirura Hussain;1940;2100;2100;SC;Battle Fleet Proponent;Medium;M54037;x
54039;Minister of Armament;Amanura;1946;2100;2100;SC;Corrupt Kleptocrat;Low;M54011;x
54040;Minister of Armament;Massimo Pilotti;1941;2100;2100;SC;Theoretical Scientist;Medium;M54040;x
54041;Minister of Armament;Pompeo Aloisi;1943;2100;2100;SC;Military Entrepreneur;Medium;M54041;x
54042;Minister of Armament;Shah Wali Khan;1944;2100;2100;SC;Strategic Air Proponent;Medium;M54042;x
54043;Minister of Armament;Mohanmedo-Etemadi Khan;1945;2100;2100;PA;Submarine Proponent;Medium;M54030;x
54044;Minister of Armament;Muhanmedo-Nourozu;1946;2100;2100;PA;Resource Industrialist;High;M54044;x
54045;Minister of Armament;Arihan-Bukeihanofu;1947;2100;2100;PA;Air to Sea Proponent;Medium;M54029;x
54046;Minister of Security;Carlo Garubasso;1938;2100;2100;FA;Prince of Terror;High;M54046;x
54047;Minister of Security;Gram Abbas;1939;2100;2100;FA;Crime Fighter;High;M54047;x
54048;Minister of Security;Arihan-Bukeihanofu;1939;2100;2100;SC;Efficient Sociopath;Medium;M54029;x
54049;Minister of Security;Muhanmedo-Zahir;1941;2100;2100;SC;Man of the People;Medium;M54001;x
54050;Minister of Security;Rich. A. Busatti;1943;2100;2100;SC;Silent Lawyer;High;M54050;x
54051;Minister of Security;Abdul Majid Zaburi;1945;2100;2100;PA;Crooked Kleptocrat;High;M54004;x
54052;Minister of Security;Muhanmedo-Gobaru;1946;2100;2100;PA;Back Stabber;Medium;M54012;x
54053;Minister of Security;Asadura Serai Khan;1947;2100;2100;PA;Compassionate Gentleman;High;M54031;x
54054;Head of Military Intelligence;Pietro Sutoppani;1937;2100;2100;FA;Industrial Specialist;Medium;M54054;x
54055;Head of Military Intelligence;Carlo Shan Saar;1938;2100;2100;FA;Technical Specialist;Medium;M54055;x
54056;Head of Military Intelligence;Carlo Enrico Barudujji;1939;2100;2100;SC;Political Specialist;Medium;M54056;x
54057;Head of Military Intelligence;Arihan-Bukeihanofu;1940;2100;2100;SC;Naval Intelligence Specialist;Medium;M54029;x
54058;Head of Military Intelligence;Abdul Majid Zaburi;1943;2100;2100;SC;Dismal Enigma;High;M54004;x
54059;Head of Military Intelligence;Mohanmedo-Etemadi Khan;1945;2100;2100;PA;Logistics Specialist;Medium;M54030;x
54060;Chief of Staff;Shah Mahmoud Khan;1936;2100;2100;FA;School of Psychology;Medium;M54006;x
54062;Chief of Staff;Nashirura Hussain;1943;2100;2100;SC;School of Fire Support;Medium;M54037;x
54063;Chief of Staff;Gollum Wali;1944;2100;2100;SC;School of Manoeuvre;Medium;M54063;x
54065;Chief of Army;Renato Barudoruchi;1937;2100;2100;FA;Armoured Spearhead Doctrine;Medium;M54065;x
54066;Chief of Army;Asadura Serai Khan;1939;2100;2100;SC;Elastic Defence Doctrine;Medium;M54031;x
54068;Chief of Army;Gollum Wali;1943;2100;2100;SC;Guns and Butter Doctrine;Medium;M54063;x
54069;Chief of Army;Nashirura Hussain;1945;2100;2100;PA;Decisive Battle Doctrine;Medium;M54037;x
54070;Chief of Navy;Mohammad Hashem;1939;2100;2100;SC;Base Control Doctrine;Medium;M54002;x
54071;Chief of Navy;Mohanmedo-Etemadi Khan;1943;2100;2100;SC;Indirect Approach Doctrine;Medium;M54030;x
54072;Chief of Navy;Arihan-Bukeihanofu;1944;2100;2100;SC;Power Projection Doctrine;Medium;M54029;x
54073;Chief of Navy;Nashirura Hussain;1945;2100;2100;PA;Decisive Naval Battle Doctrine;Medium;M54037;x
54074;Chief of Navy;Shah Wali Khan;1946;2100;2100;PA;Open Seas Doctrine;Medium;M54042;x
54075;Chief of Air Force;Gollum Wali;1937;2100;2100;FA;Vertical Envelopment Doctrine;Medium;M54063;x
54076;Chief of Air Force;Shah Wali Khan;1938;2100;2100;FA;Carpet Bombing Doctrine;Medium;M54042;x
54078;Chief of Air Force;Muhanmedo-Zahir;1939;2100;2100;SC;Army Aviation Doctrine;Medium;M54001;x
54079;Chief of Air Force;Arihan-Bukeihanofu;1945;2100;2100;PA;Naval Aviation Doctrine;Medium;M54029;x
54080;Foreign Minister;Mohamed Maiwandwal;1951;2100;2100;PA;Ideological Crusader;Medium;M54080;x
