JAP;Ruling Cabinet - Start;Name;Pool;;;Ideology;Personality;Loyalty;Picturename;x
;Replacements;;;;;;;;;x
5000;Head of State;Hirohito;1970;2110;2110;SC;Not rule without the reigning;Very High;M5001;x
5002;Head of Government;Kakuei Tanaka;1972;2110;2110;SC;Flamboyant Tough Guy;High;M5002;x
5003;Foreign Minister;Masayoshi Ohira;1972;2110;2110;SC;The Cloak N Dagger Schemer;High;M5003;x
5004;Minister of Armament;Kiichi Aichi;1972;2110;2110;SC;Administrative Genius;High;M5004;x
5005;Minister of Security;Isatsugi Tanaka;1972;2110;2110;SC;Efficient Sociopath;High;M5005;x
5006;Head of Military Intelligence;Masumi Ezaki;1972;2110;2110;SC;Political Specialist;High;M5006;x
5007;Chief of Staff;Hayao Kinusaga;1972;2110;2110;SC;School of Psychology;High;M5007;x
5008;Chief of Army;Ryuhei Nakamura;1972;2110;2110;SC;Armoured Spearhead Doctrine;High;M5008;x
5009;Chief of Navy;Suteo Ishida;1972;2110;2110;SC;Open Seas Doctrine;High;M5009;x
5010;Chief of Air Force;Tsurayuki Ishikawa;1972;2110;2110;SC;Air Superiority Doctrine;High;M5010;x
5011;Head of State;Hirohito;1970;2110;2110;SD;Not rule without the reigning;Very High;M5001;x
5012;Head of State;Akihito;1970;2110;2110;SC;Not rule without the reigning;Very High;M5012;x
5013;Head of State;Akihito;1970;2110;2110;SD;Not rule without the reigning;Very High;M5012;x
5014;Head of State;Kuroda Kanichi;1970;2110;2110;LWR;Ruthless Powermonger;High;M5014;x
5015;Head of State;Sanzo Nosaka;1970;2110;2110;ST;Barking Buffoon;High;M5015;x
5016;Head of Government;Takeo Miki;1974;2110;2110;SC;Ambitious Union Boss;High;M5016;x
5017;Head of Government;Takeo Fukuda;1976;2110;2110;SC;Silent Workhorse;High;M5017;x
5018;Head of Government;Masayoshi Ohira;1978;2110;2110;SC;Industrial Prime;High;M5003;x
5019;Head of Government;Masayoshi Ito;1980;2110;2110;SC;Silent Workhorse;High;M5019;x
5020;Head of Government;Zenko Suzuki;1980;2110;2110;SC;Naive Optimist;High;M5020;x
5021;Head of Government;Yasuhiro Nakasone;1982;2110;2110;SC;Party Coordinating;High;M5021;x
5022;Head of Government;Noboru Takeshita;1987;2110;2110;SC;Naive Optimist;High;M5022;x
5023;Head of Government;Sosuke Uno;1989;2110;2110;SC;Excellent Leader;High;M5023;x
5024;Head of Government;Toshiki Kaifu;1989;2110;2110;SC;Happy Amateur;High;M5024;x
5025;Head of Government;Kiichi Miyazawa;1991;2110;2110;SC;Naive Optimist;High;M5025;x
5026;Head of Government;Morihiro Hosokawa;1993;2110;2110;ML;Happy Amateur;High;M5026;x
5027;Head of Government;Tsutomu Hata;1994;2110;2110;SC;Ambitious Union Boss;High;M5027;x
5028;Head of Government;Tomiichi Murayama;1994;2110;2110;SD;Flamboyant Tough Guy;High;M5028;x
5029;Head of Government;Ryutaro Hashimoto;1996;2110;2110;SC;Flamboyant Tough Guy;High;M5029;x
5030;Head of Government;Obuchi Keizo;1998;2110;2110;SC;Silent Workhorse;High;M5030;x
5031;Head of Government;Yoshiro Mori;2000;2110;2110;SC;Naive Optimist;High;M5031;x
5032;Head of Government;Junichiro Koizumi;2006;2110;2110;ML;Flamboyant Tough Guy;High;M5032;x
5033;Head of Government;Abe Shinzo;2007;2110;2110;SC;Silent Workhorse;High;M5033;x
5034;Head of Government;Yasuo Fukuda;2007;2110;2110;ML;Silent Workhorse;High;M5034;x
5035;Head of Government;Taro Aso;2008;2110;2110;SC;Flamboyant Tough Guy;High;M5035;x
5036;Head of Government;Sadakazu Tanigaki;2009;2110;2110;ML;Ambitious Union Boss;High;M5036;x
5037;Head of Government;Yukio Hatoyama;2009;2110;2110;SL;Corporate Suit;High;M5037;x
5038;Head of Government;Naoto Kan;2010;2110;2110;SL;Ambitious Union Boss;High;M5038;x
5039;Head of Government;Yoshihiko Noda;2011;2110;2110;SL;Ambitious Union Boss;High;M5039;x
5040;Head of Government;Ichiro Ozawa;1993;2110;2110;SL;Backroom Backstabber;High;M5038;x
5041;Head of Government;Kazuo Shii;2000;2110;2110;SD;Naive Optimist;High;M5041;x
5042;Head of Government;Shintaro Ishihara;1990;2110;2110;PA;Party Coordinating;High;M5042;x
5043;Head of Government;Ushijima IsaoTaro;1970;2110;2110;FA;Flamboyant Tough Guy;High;M5043;x
5044;Head of Government;Hidenori Hasegawa;1970;2110;2110;LWR;Ambitious Union Boss;High;M5044;x
5045;Foreign Minister;Toshio Kimura;1974;2110;2110;SC;Ideological Crusader;High;M5045;x
5046;Foreign Minister;Kiichi Miyazawa;1974;2110;2110;SC;Apologetic Clerk;High;M5025;x
5047;Foreign Minister;Zentaro Kosaka;1976;2110;2110;SC;Great Compromiser;High;M5047;x
5048;Foreign Minister;Iichir Hatoyama;1976;2110;2110;SC;General Staffer;High;M5048;x
5049;Foreign Minister;Sunao Sonoda;1977;2110;2110;SC;Biased Intellectual;Medium;M5049;x
5050;Foreign Minister;Saburo Okita;1979;2110;2110;SC;Great Compromiser;Medium;M5050;x
5051;Foreign Minister;Masayoshi Ito;1980;2110;2110;SC;Ideological Crusader;Medium;M5019;x
5052;Foreign Minister;Yoshio Sakurauchi;1981;2110;2110;SC;Biased Intellectual;Medium;M5052;x
5053;Foreign Minister;Shintaro Abe;1982;2110;2110;SC;The Cloak N Dagger Schemer;Medium;M5053;x
5054;Foreign Minister;Tadashi Kuranari;1986;2110;2110;SC;Apologetic Clerk;Medium;M5054;x
5055;Foreign Minister;Ssuke Uno;1987;2110;2110;SC;Great Compromiser;Medium;M5023;x
5056;Foreign Minister;Hiroshi Mitsuzuka;1989;2110;2110;SC;Biased Intellectual;Medium;M5056;x
5057;Foreign Minister;Taro Nakayama;1989;2110;2110;SC;Great Compromiser;Medium;M5057;x
5058;Foreign Minister;Michio Watanabe;1991;2110;2110;SC;Biased Intellectual;Medium;M5058;x
5059;Foreign Minister;Kabun mut;1993;2110;2110;SC;Ideological Crusader;Medium;M5059;x
5060;Foreign Minister;Tsutomu Hata;1993;2110;2110;SC;Ideological Crusader;Medium;M5027;x
5061;Foreign Minister;Koji kakizawa;1994;2110;2110;SC;The Cloak N Dagger Schemer;Medium;M5061;x
5062;Foreign Minister;Yohei Kono;1994;2110;2110;SC;Apologetic Clerk;Medium;M5062;x
5063;Foreign Minister;Yukihiko Ikeda;1996;2110;2110;SC;Ideological Crusader;Medium;M5063;x
5065;Foreign Minister;Obuchi Keizo;1997;2110;2110;SC;Great Compromiser;Medium;M5030;x
5066;Foreign Minister;Masahiko Komura;1998;2110;2110;SC;Biased Intellectual;Medium;M5066;x
5067;Foreign Minister;Makiko Tanaka;2001;2110;2110;ML;The Cloak N Dagger Schemer;Low;M5067;x
5068;Foreign Minister;Junichiro Koizumi;2002;2110;2110;ML;Ideological Crusader;High;M5032;x
5069;Foreign Minister;Yoriko Kawaguchi;2002;2110;2110;ML;Apologetic Clerk;High;M5069;x
5070;Foreign Minister;Nobutaka Machimura;2004;2110;2110;ML;Apologetic Clerk;High;M5070;x
5071;Foreign Minister;Taro Aso;2005;2110;2110;SC;Ideological Crusader;High;M5035;x
5072;Foreign Minister;Hirofumi Nakasone;2008;2110;2110;SC;Great Compromiser;High;M5072;x
5073;Foreign Minister;Katsuya Okada;2009;2110;2110;SL;The Cloak N Dagger Schemer;High;M5073;x
5074;Foreign Minister;Seiji Maehara;2010;2110;2110;SL;Biased Intellectual;High;M5074;x
5075;Foreign Minister;Yukio Edano;2011;2110;2110;SL;Ideological Crusader;High;M5075;x
5076;Foreign Minister;Takeaki Matsumoto;2011;2110;2110;SL;Great Compromiser;High;M5076;x
5077;Foreign Minister;Kichir Genba;2011;2110;2110;SL;Iron Fisted Brute;High;M5077;x
5078;Foreign Minister;Fumio Kishida;2012;2110;2110;SC;Biased Intellectual;High;M5078;x
5079;Foreign Minister;Sadako Ogata;1970;2110;2110;SD;Great Compromiser;High;M5079;x
5080;Foreign Minister;Ikuko Ishii;1970;2110;2110;LWR;Biased Intellectual;High;M5080;x
5081;Foreign Minister;Keiichiro Asao;1998;2110;2110;SL;Apologetic Clerk;Medium;M5081;x
5082;Foreign Minister;Teruya HiroshiIsao;1998;2110;2110;SD;Apologetic Clerk;Medium;M5082;x
5083;Foreign Minister;Takeo Hiranuma;1980;2110;2110;SC;Iron Fisted Brute;Medium;M5083;x
5084;Foreign Minister;Yasuhisa Shiozaki;2006;2110;2110;SC;Biased Intellectual;Medium;M5084;x
5085;Foreign Minister;Shintaro Ito;2008;2110;2110;SL;Great Compromiser;Medium;M5085;x
5086;Foreign Minister;Nosaka San;1970;2110;2110;ST;The Cloak N Dagger Schemer;High;M5015;x
5087;Minister of Armament;Kakuei Tanaka;1973;2110;2110;SC;corrupt patriotism;High;M5002;x
5088;Minister of Armament;Takeo Fukuda;1973;2110;2110;SC;laissez-faire capitalist;High;M5017;x
5089;Minister of Armament;Masayoshi Ohira;1974;2110;2110;SC;Resource Industrialist;High;M5003;x
5090;Minister of Armament;BoHideo;1976;2110;2110;SC;Business Person;High;M5090;x
5091;Minister of Armament;Tatsuo Murayama;1977;2110;2110;SC;Administrative Genius;High;M5091;x
5092;Minister of Armament;Ippei Kaneko;1978;2110;2110;SC;Resource Industrialist;High;M5092;x
5093;Minister of Armament;Noboru Takeshita;1979;2110;2110;SC;laissez-faire capitalist;High;M5022;x
5094;Minister of Armament;Michio Watanabe;1980;2110;2110;SC;Corrupt Kleptocrat;High;M5058;x
5095;Minister of Armament;Kiichi Miyazawa;1986;2110;2110;SC;Resource Industrialist;High;M5025;x
5096;Minister of Armament;Ryutaro Hashimoto;1989;2110;2110;SC;Administrative Genius;High;M5029;x
5097;Minister of Armament;Toshiki Kaifu;1991;2110;2110;SC;laissez-faire capitalist;High;M5024;x
5098;Minister of Armament;Tsutomu Hata;1991;2110;2110;SC;laissez-faire capitalist;High;M5027;x
5099;Minister of Armament;Yoshiro Hayashi;1992;2110;2110;SC;Administrative Genius;High;M5099;x
5100;Minister of Armament;Hirohisa Fujii;1993;2110;2110;SL;laissez-faire capitalist;High;M5100;x
5101;Minister of Armament;Masayoshi Takemura;1994;2110;2110;SL;laissez-faire capitalist;High;M5101;x
5102;Minister of Armament;Wataru Kubo;1996;2110;2110;SD;Infantry Proponent;High;M5102;x
5103;Minister of Armament;Hiroshi Mitsuzuka;1996;2110;2110;SC;Resource Industrialist;High;M5103;x
5104;Minister of Armament;Hikaru Matsunaga;1998;2110;2110;SC;laissez-faire capitalist;High;M5104;x
5105;Minister of Armament;Masajuro Shiokawa;2001;2110;2110;SC;Administrative Genius;High;M5105;x
5106;Minister of Armament;Sadakazu Tanigaki;2003;2110;2110;ML;Theoretical Scientist;High;M5036;x
5107;Minister of Armament;Koji Omi;2006;2110;2110;SC;Economic Bureaucracy;High;M5107;x
5108;Minister of Armament;Fukushiro Nukaga;2007;2110;2110;SC;Military Entrepreneur;High;M5108;x
5109;Minister of Armament;Fumiaki Ibuki;2008;2110;2110;ML;Economic Bureaucracy;High;M5109;x
5110;Minister of Armament;Shoichi Nakagawa;2008;2110;2110;SC;Administrative Genius;High;M5110;x
5111;Minister of Armament;Kaoru Yosano;2009;2110;2110;ML;Administrative Genius;Medium;M5111;x
5112;Minister of Armament;Naoto Kan;2010;2110;2110;SL;laissez-faire capitalist;Medium;M5038;x
5113;Minister of Armament;Yoshihiko Noda;2010;2110;2110;SL;laissez-faire capitalist;Medium;M5039;x
5114;Minister of Armament;Jun Azumi;2011;2110;2110;SL;Military Entrepreneur;Medium;M5114;x
5115;Minister of Armament;Koriki jojima;2012;2110;2110;SL;laissez-faire capitalist;Medium;M5115;x
5116;Minister of Armament;Taro Aso;2012;2110;2110;SC;Resource Industrialist;Medium;M5035;x
5117;Minister of Armament;Amane Watanabe;1996;2110;2110;SL;laissez-faire capitalist;High;M5117;x
5118;Minister of Armament;Hideki Wakabayashi;2001;2110;2110;SD;Administrative Genius;High;M5118;x
5119;Minister of Armament;Koichi Kato;1970;2110;2110;SD;Theoretical Scientist;Medium;M5119;x
5120;Minister of Armament;Chikage Ogi;1977;2110;2110;ML;Resource Industrialist;Medium;M5120;x
5121;Minister of Armament;Takeo Hiranuma;1980;2110;2110;SC;Resource Industrialist;Medium;M5083;x
5122;Minister of Armament;Sadao Fuchigami;1989;2110;2110;SD;Resource Industrialist;High;M5122;x
5123;Minister of Armament;Tadayoshi Ichida;1970;2110;2110;SD;Administrative Genius;High;M5123;x
5124;Minister of Armament;Yoshitaka Yamamoto;1970;2110;2110;LWR;Theoretical Scientist;Medium;M5124;x
5125;Minister of Armament;Tamisuke Watanuki;1986;2110;2110;SC;Business Person;Medium;M5125;x
5126;Minister of Armament;Koichi Tanaka;1985;2110;2110;SL;Theoretical Scientist;Medium;M5126;x
5127;Minister of Armament;Heizo Takenaka;2001;2110;2110;ML;Economist Minister;High;M5127;x
5128;Minister of Security;Umekichi Nakamura;1956;2110;2110;SC;Silent Lawyer;High;M5128;x
5129;Minister of Security;Seigo Hamano;1974;2110;2110;SC;Crime Fighter;High;M5129;x
5130;Minister of Security;Osamu Inaba;1974;2110;2110;SC;Prince of Terror;High;M5130;x
5131;Minister of Security;Hajime Fukuda;1976;2110;2110;SC;Crime Fighter;High;M5131;x
5132;Minister of Security;Setoyama third son;1977;2110;2110;SC;Man of the People;High;M5132;x
5133;Minister of Security;Sieve Kimi;1978;2110;2110;SC;Compassionate Gentleman;High;M5133;x
5134;Minister of Security;Tadao Kuraishi;1979;2110;2110;SC;Back Stabber;High;M5134;x
5135;Minister of Security;Okuno MakotoAkira;1980;2110;2110;SC;Former Agent;High;M5135;x
5136;Minister of Security;Sakata MichiFutoshi;1981;2110;2110;SC;Compassionate Gentleman;High;M5136;x
5137;Minister of Security;Akira Hatano;1982;2110;2110;SC;Former Agent;High;M5137;x
5138;Minister of Security;JuEisaku;1983;2110;2110;SC;Crime Fighter;High;M5138;x
5139;Minister of Security;Hitoshi Shimazaki;1984;2110;2110;SC;Prince of Terror;High;M5139;x
5140;Minister of Security;Shogo Suzuki;1985;2110;2110;SC;Silent Lawyer;High;M5140;x
5141;Minister of Security;Kaname Endo;1986;2110;2110;SC;Silent Lawyer;High;M5141;x
5142;Minister of Security;Yukio Hayashida;1987;2110;2110;SC;Man of the People;High;M5142;x
5143;Minister of Security;Shun Hasegawa;1988;2110;2110;SC;Man of the People;High;M5143;x
5144;Minister of Security;Takatsuji Masami;1988;2110;2110;SC;Silent Lawyer;High;M5144;x
5145;Minister of Security;Tanigawa KazuMinoru;1989;2110;2110;SC;Crime Fighter;High;M5145;x
5146;Minister of Security;Masao Goto;1990;2110;2110;SC;Silent Lawyer;High;M5146;x
5147;Minister of Security;Shin Hasegawa;1990;2110;2110;SC;Compassionate Gentleman;High;M5147;x
5148;Minister of Security;Seiroku Kajiyama;1990;2110;2110;SC;Back Stabber;High;M5148;x
5149;Minister of Security;HidariFujiMegumi;1991;2110;2110;SC;Crime Fighter;High;M5149;x
5150;Minister of Security;Takashi Tahara;1992;2110;2110;SC;Silent Lawyer;High;M5150;x
5151;Minister of Security;Masaharu Gotoda;1992;2110;2110;SC;Former Agent;High;M5151;x
5152;Minister of Security;Three months chapter;1993;2110;2110;ML;Silent Lawyer;High;M5152;x
5153;Minister of Security;Shigeto Nagano;1994;2110;2110;SC;Crime Fighter;High;M5153;x
5154;Minister of Security;Hiroshi Nakai;1994;2110;2110;SL;Crooked Kleptocrat;High;M5154;x
5155;Minister of Security;Isao Maeda;1994;2110;2110;SC;Crime Fighter;High;M5155;x
5156;Minister of Security;Tomoharu Tazawa;1995;2110;2110;SC;Crooked Kleptocrat;High;M5156;x
5157;Minister of Security;Hiroshi Miyazawa;1995;2110;2110;SC;Silent Lawyer;High;M5157;x
5158;Minister of Security;Ritsuko Nagao;1996;2110;2110;SC;Compassionate Gentleman;High;M5158;x
5159;Minister of Security;Isao Matsuura;1996;2110;2110;SC;Crime Fighter;High;M5159;x
5160;Minister of Security;Shimoinaba Kokichi;1997;2110;2110;SC;Former Agent;High;M5160;x
5161;Minister of Security;Shozaburo Nakamura;1998;2110;2110;SC;Efficient Sociopath;High;M5161;x
5162;Minister of Security;Takao Jinnai;199;2110;2110;SC;Man of the People;High;M5162;x
5163;Minister of Security;Hideo Usui;199;2110;2110;SC;Silent Lawyer;High;M5163;x
5164;Minister of Security;Okiharu yasuoka;2000;2110;2110;SC;Crooked Kleptocrat;High;M5164;x
5165;Minister of Security;Masahiko Komura;2000;2110;2110;SC;Crime Fighter;High;M5066;x
5166;Minister of Security;Mayumi Moriyama;2001;2110;2110;ML;Man of the People;High;M5166;x
5167;Minister of Security;Daiz Nozawa;2003;2110;2110;ML;Crime Fighter;High;M5167;x
5168;Minister of Security;Chieko Nohno;2004;2110;2110;ML;Man of the People;High;M5168;x
5169;Minister of Security;Seiken Sugiura;2005;2110;2110;ML;Compassionate Gentleman;High;M5169;x
5170;Minister of Security;Jinen Nagase;2006;2110;2110;SC;Efficient Sociopath;High;M5170;x
5171;Minister of Security;Kunio Hatoyama;2007;2110;2110;ML;Efficient Sociopath;High;M5171;x
5172;Minister of Security;Eisuke Mori;2008;2110;2110;SC;Crime Fighter;High;M5172;x
5173;Minister of Security;Keiko Chiba;2009;2110;2110;SD;Man of the People;High;M5173;x
5174;Minister of Security;Minoru Yanagida;2010;2110;2110;SL;Silent Lawyer;High;M5174;x
5175;Minister of Security;Yoshito Sengoku;2010;2110;2110;SL;Efficient Sociopath;High;M5175;x
5176;Minister of Security;Satsuki Eda;2010;2110;2110;SD;Prince of Terror;High;M5176;x
5177;Minister of Security;Hideo Hiraoka;2011;2110;2110;SL;Efficient Sociopath;High;M5177;x
5178;Minister of Security;Toshio Ogawa;2011;2110;2110;SL;Back Stabber;High;M5178;x
5179;Minister of Security;Makoto Taki;2012;2110;2110;SL;Crime Fighter;High;M5179;x
5180;Minister of Security;Keishu Tanaka;2012;2110;2110;SL;Crooked Kleptocrat;High;M5180;x
5181;Minister of Security;Tadamasa Kodaira;2012;2110;2110;SL;Silent Lawyer;High;M5181;x
5182;Minister of Security;Sadakazu Tanigaki;2012;2110;2110;ML;Crime Fighter;High;M5036;x
5183;Minister of Security;Tomoko Abe;2003;2110;2110;SL;Compassionate Gentleman;High;M5183;x
5184;Minister of Security;Okamoto Kozo;1985;2110;2110;LWR;Prince of Terror;Medium;M5184;x
5185;Minister of Security;Itaru Miyoshi;1990;2110;2110;SC;Silent Lawyer;Medium;M5185;x
5186;Minister of Security;Nosaka San;1970;2110;2110;ST;Efficient Sociopath;Very High;M5015;x
5187;Head of Military Intelligence;Towns and villages gold five;1973;2110;2110;SC;Dismal Enigma;High;M5187;x
5188;Head of Military Intelligence;Hajime Fukuda;1974;2110;2110;SC;Political Specialist;High;M5131;x
5189;Head of Military Intelligence;Kimiyoshi Amano;1976;2110;2110;SC;Political Specialist;High;M5189;x
5190;Head of Military Intelligence;Heiji Ogawa;1976;2110;2110;SC;Industrial Specialist;High;M5190;x
