FIN;Ruling Cabinet - Start;Name;Start Year;End Year;Retirement Year;Ideology;Personality;Loyalty;Picturename;X
;Replacements;;;;;;;;;x
29001;Head of State;Urho Kekkonen;1970;2110;2110;ML;Stern Imperialist;High;M29001;x
29002;Head of Government;Karevi-Sorsa;1970;2110;2110;SL;Industrial Prime;High;M29002;x
29003;Foreign Minister;Ahati-Karuyarainen;1970;2110;2110;ML;Ideological Crusader;Medium;M29003;x
29004;Minister of Armament;Johannes Virorainen;1970;2110;2110;ML;laissez-faire capitalist;Medium;M29004;x
29005;Minister of Security;Heikki Tuominen;1970;2110;2110;SL;Compassionate Gentleman;Medium;M29005;x
29006;Head of Military Intelligence;Arvo Pentti;1970;2110;2110;ML;Logistics Specialist;High;M29006;x
29007;Chief of Staff;Karuro-Reinonen;1970;2110;2110;ML;School of Fire Support;High;M29007;x
29008;Chief of Army;Lauri Stella;1970;2110;2110;ML;Elastic Defence Doctrine;Medium;M29008;x
29009;Chief of Navy;Yoko Piruhonen;1970;2110;2110;ML;Open Seas Doctrine;High;M29009;x
29010;Chief of Air Force;Eero Sarumera;1970;2110;2110;ML;Air Superiority Doctrine;Very High;M29010;x
