CHI;Ruling Cabinet - Start;Name;Start Year;End Year;Retirement Year;Ideology;Personality;Loyalty;Picturename;X
;Replacements;;;;;;;;;x
52001;Head of State;Chiang Kai-shek (Chang Kaisheku);1970;2110;2110;PA;Resigned Generalissimo;High;M52001;x
52002;Head of Government;Chiang Ching-kuo (Chang Chinguo);1970;2110;2110;PA;Silent Workhorse;High;M52002;x
52003;Foreign Minister;hwan (Shen Zhang Fan);1970;2110;2110;PA;Great Compromiser;High;M52003;x
52004;Minister of Armament;Rikunikanae (Re-Kuotin);1970;2110;2110;PA;Resource Industrialist;High;M52004;x
52005;Minister of Security;Hayashikinsei (Lynn Jinshen);1970;2110;2110;PA;Compassionate Gentleman;High;M52005;x
52006;Head of Military Intelligence;OHisashiTatsuki (Wang Yonshu);1970;2110;2110;PA;Logistics Specialist;High;M52006;x
52007;Chief of Staff;Yoriyukimeiyu (Lai Mingshan);1970;2110;2110;PA;School of Fire Support;High;M52007;x
52008;Chief of Army;chapter (Yoo Haozan);1970;2110;2110;PA;Guns and Butter Doctrine;High;M52008;x
52009;Chief of Navy;It poured Song (Song Chanji);1970;2110;2110;PA;Open Seas Doctrine;High;M52009;x
52010;Chief of Air Force;Chinkoromo (Chen Ifan);1970;2110;2110;PA;Air Superiority Doctrine;High;M52010;x
