ETH;Ruling Cabinet - Start;Name;Start Year;End Year;Retirement Year;Ideology;Personality;Loyalty;Picturename;X
;Replacements;;;;;;;;;x
65001;Head of State;Haile Selassie I;1970;2110;2110;PA;Stern Imperialist;High;M65001;x
65002;Head of Government;Acrylic Habute Waldo;1970;2110;2110;PA;Naive Optimist;High;M65002;x
65003;Foreign Minister;Mina Haile;1970;2110;2110;PA;Ideological Crusader;High;M65003;x
65004;Minister of Armament;Tefera-Wold Semaito;1970;2110;2110;PA;Former Banker;High;M65004;x
65005;Minister of Security;Irma Deresa;1970;2110;2110;PA;Man of the People;High;M65005;x
65006;Head of Military Intelligence;Ketema Ihuru;1970;2110;2110;PA;Political Specialist;High;M65006;x
65007;Chief of Staff;Abiie-Abebe;1970;2110;2110;PA;School of Defence;High;M65007;x
65008;Chief of Army;Abiie-Abebe;1970;2110;2110;PA;Guns and Butter Doctrine;High;M65007;x
65009;Chief of Navy;Haile Selassie I;1970;2110;2110;PA;Open Seas Doctrine;High;M65001;x
65010;Chief of Air Force;Haile Selassie I;1970;2110;2110;PA;Army Aviation Doctrine;High;M65001;x
