U10;Ruling Cabinet - Start;Name;Pool;;;Ideology;Personality;Loyalty;Picturename;x
;Replacements;;;;;;;;;x
9009001;Head of State;Imperial Headquarters;1936;2110;2110;PA;Stern Imperialist;High;M5001;x
9009002;Head of Government;Keisuke Okada;1936;2110;2110;PA;Happy Amateur;High;M5002;x
9009003;Foreign Minister;Koki Hirota;1936;2110;2110;PA;Great Compromiser;High;M5003;x
9009004;Minister of Armament;Chuji Machida;1936;2110;2110;SC;laissez-faire capitalist;High;M5004;x
9009005;Minister of Security;Fumio Goto;1936;2110;2110;SC;Silent Lawyer;High;M5005;x
9009006;Head of Military Intelligence;Yasuji Okamura;1936;2110;2110;PA;Political Specialist;Very Low;M5006;x
9009007;Chief of Staff;Kanin-no-miya NoHitoshi;1936;2110;2110;PA;School of Defence;Very Low;M5007;x
9009008;Chief of Army;Kanin-no-miya NoHitoshi;1936;2110;2110;PA;Static Defence Doctrine;Very Low;M5007;x
9009009;Chief of Navy;Mineo sumi;1936;2110;2110;FA;Power Projection Doctrine;Very High;M5009;x
9009010;Chief of Air Force;Yamamoto Isoroku;1936;2110;2110;FA;Naval Aviation Doctrine;Very High;M5010;x
9009011;Head of State;Prince Chichibu Memorial;1936;2110;2110;PA;Ruthless Powermonger;Very High;M5207;x
9009025;Head of State;Sanzo Nosaka;1936;2110;2110;SD;Barking Buffoon;High;M5011;x
9009033;Head of Government;Senjr Hayashi;1936;2110;2110;PA;Smiling Oilman;High;M5033;x
9009040;Head of Government;Koki Hirota;1936;2110;2110;FA;Happy Amateur;High;M5003;x
9009028;Head of Government;Kazushige ugaki;1936;2110;2110;SC;Silent Workhorse;High;M5028;x
9009044;Head of Government;Kenji Miyamoto;1936;2110;2110;LE;Smiling Oilman;High;M5012;x
9009047;Foreign Minister;Yoshizawa Kenkichi;1936;2110;2110;SC;Ideological Crusader;High;M5047;x
9009048;Foreign Minister;Keisuke Okada;1936;2110;2110;SC;Iron Fisted Brute;High;M5002;x
9009057;Foreign Minister;Hachiro Arita;1936;2110;2110;FA;Ideological Crusader;Medium;M5057;x
9009068;Foreign Minister;Yoshio Shiga;1936;2110;2110;LE;Biased Intellectual;Very Low;M5013;x
9009072;Minister of Armament;Gtar Ogawa;1936;2110;2110;SC;Resource Industrialist;Medium;M5072;x
9009080;Minister of Armament;Kawasaki Takukichi;1936;2110;2110;PA;Air Superiority Proponent;Medium;M5080;x
9009090;Minister of Armament;Kazue Shda;1936;2110;2110;FA;Military Entrepreneur;High;M5090;x
9009095;Minister of Armament;Kyuichi Tokuda;1936;2110;2110;LWR;Resource Industrialist;Low;M5014;x
9009096;Minister of Security;Tatsuo Yamamoto;1936;2110;2110;SD;Compassionate Gentleman;High;M5096;x
9009099;Minister of Security;Kakichi kawarada;1936;2110;2110;SC;Man of the People;High;M5099;x
9009105;Minister of Security;Shigenosuke Ushio;1936;2110;2110;PA;Crime Fighter;Very High;M5105;x
9009115;Minister of Security;Fujie Keisuke;1936;2110;2110;FA;Prince of Terror;Medium;M5115;x
9009127;Minister of Security;Sanzo Nosaka;1936;2110;2110;LE;Man of the People;Very High;M5015;x
9009130;Head of Military Intelligence;Kazushige ugaki;1936;2110;2110;SC;Political Specialist;Medium;M5028;x
9009131;Head of Military Intelligence;Chuji Machida;1936;2110;2110;SC;Technical Specialist;High;M5004;x
9009132;Head of Military Intelligence;Gtar Ogawa;1936;2110;2110;SC;Dismal Enigma;Medium;M5072;x
9009134;Head of Military Intelligence;Shiro Takasu;1936;2110;2110;PA;Industrial Specialist;Medium;M5134;x
9009146;Head of Military Intelligence;Kenji Miyamoto;1936;2110;2110;LE;Industrial Specialist;Medium;M5012;x
9009149;Chief of Staff;Hiroshi Hayashida;1936;2110;2110;SC;School of Fire Support;Very Low;M5149;x
9009150;Chief of Staff;Kanichiro tashiro;1936;2110;2110;SC;School of Psychology;Very Low;M5150;x
9009155;Chief of Staff;Hajime Sugiyama;1936;2110;2110;FA;School of Defence;Medium;M5155;x
9009158;Chief of Staff;Rynosuke Kusaka;1936;2110;2110;LWR;School of Defence;Medium;M5017;x
9009160;Chief of Army;Shiro Inaba;1936;2110;2110;SC;Guns and Butter Doctrine;Medium;M5160;x
9009165;Chief of Army;Hajime Sugiyama;1936;2110;2110;FA;Decisive Battle Doctrine;Medium;M5155;x
9009172;Chief of Navy;Hisanori Fujita;1936;2110;2110;PA;Decisive Naval Battle Doctrine;Medium;M5172;x
9009179;Chief of Air Force;Yoshio Fukui;1936;2110;2110;SD;Air Superiority Doctrine;Medium;M5020;x
9009180;Chief of Air Force;Shigeyoshi Inoue;1936;2110;2110;SC;Naval Aviation Doctrine;Medium;M5180;x
9009183;Chief of Air Force;Koshir Oikawa;1936;2110;2110;PA;Naval Aviation Doctrine;Medium;M5175;x
9009189;Chief of Air Force;Shunroku hata;1936;2110;2110;FA;Army Aviation Doctrine;Medium;M5189;x
9009207;Head of State;Imperial Headquarters;1936;2110;2110;SD;Benevolent Gentleman;High;M5001;x
9009208;Head of State;Imperial Headquarters;1936;2110;2110;ML;Benevolent Gentleman;High;M5001;x
9009034;Head of Government;Fumimaro Konoe;1937;2110;2110;PA;Flamboyant Tough Guy;High;M5034;x
9009026;Head of Government;Fumio Goto;1937;2110;2110;SD;Naive Optimist;High;M5005;x
9009045;Foreign Minister;Sanzo Nosaka;1937;2110;2110;SD;The Cloak N Dagger Schemer;Low;M5011;x
9009053;Foreign Minister;Naotake Sato;1937;2110;2110;PA;The Cloak N Dagger Schemer;Medium;M5053;x
9009063;Foreign Minister;Senjr Hayashi;1937;2110;2110;PA;General Staffer;Medium;M5033;x
9009069;Minister of Armament;Shinji Yoshino;1937;2110;2110;SD;laissez-faire capitalist;Very High;M5069;x
9009073;Minister of Armament;Takuo God;1937;2110;2110;SC;Battle Fleet Proponent;Medium;M5073;x
9009106;Minister of Security;Nobumasa Suetsugu;1937;2110;2110;PA;Silent Lawyer;Medium;M5106;x
9009107;Minister of Security;Eiichi Baba;1937;2110;2110;PA;Prince of Terror;Medium;M5107;x
9009116;Minister of Security;Kesago Nakajima;1937;2110;2110;FA;Man of the People;Medium;M5116;x
9009128;Head of Military Intelligence;Sanzo Nosaka;1937;2110;2110;SD;Industrial Specialist;Low;M5011;x
9009141;Head of Military Intelligence;Masaharu Homma;1937;2110;2110;FA;Dismal Enigma;Medium;M5141;x
9009147;Chief of Staff;Yu Nakazawa;1937;2110;2110;SD;School of Psychology;Very Low;M5147;x
9009159;Chief of Army;Takeo Imai;1937;2110;2110;SD;Elastic Defence Doctrine;Medium;M5018;x
9009169;Chief of Navy;Akira Kawai;1937;2110;2110;SD;Open Seas Doctrine;Medium;M5019;x
9009184;Chief of Air Force;Eastern Toshihiko Kuni;1937;2110;2110;PA;Carpet Bombing Doctrine;Medium;M5038;x
9009202;Chief of Navy;Jisabur Ozawa;1937;2110;2110;PA;Open Seas Doctrine;High;L101273;x
9009035;Head of Government;Nobuyuki Abe;1938;2110;2110;PA;Political Protege;High;M5035;x
9009055;Foreign Minister;Kazushige ugaki;1938;2110;2110;PA;Biased Intellectual;Medium;M5028;x
9009056;Foreign Minister;Fumimaro Konoe;1938;2110;2110;PA;Apologetic Clerk;Medium;M5034;x
9009081;Minister of Armament;Ikeda Shigeaki;1938;2110;2110;PA;Resource Industrialist;High;M5081;x
9009082;Minister of Armament;Yoshiaki Hatta;1938;2110;2110;PA;Military Entrepreneur;Medium;M5082;x
9009108;Minister of Security;Kouichi Kido;1938;2110;2110;PA;Crime Fighter;Medium;M5108;x
9009117;Minister of Security;Shizuichi Tanaka;1938;2110;2110;FA;Back Stabber;Medium;M5117;x
9009136;Head of Military Intelligence;Kano Kano;1938;2110;2110;PA;Dismal Enigma;Medium;M5136;x
9009137;Head of Military Intelligence;Takazumi Oka;1938;2110;2110;PA;Logistics Specialist;Medium;M5137;x
9009142;Head of Military Intelligence;Kiichiro Higuchi;1938;2110;2110;FA;Logistics Specialist;Medium;M5142;x
9009185;Chief of Air Force;Teijir Toyoda;1938;2110;2110;PA;Vertical Envelopment Doctrine;Medium;M5061;x
9009191;Chief of Air Force;Hideki Tojo;1938;2110;2110;FA;Army Aviation Doctrine;Medium;M5042;x
9009200;Chief of Navy;Yamamoto Isoroku;1938;2110;2110;FA;Power Projection Doctrine;Very High;M5010;x
9009041;Head of Government;Kiichiro Hiranuma;1939;2110;2110;FA;Old Admiral;High;M5041;x
9009049;Foreign Minister;Kisaburo Suzuki;1939;2110;2110;SC;The Cloak N Dagger Schemer;Medium;M5029;x
9009058;Foreign Minister;Nobuyuki Abe;1939;2110;2110;FA;Iron Fisted Brute;Medium;M5035;x
9009059;Foreign Minister;Kichisaburo Nomura;1939;2110;2110;PA;General Staffer;Medium;M5059;x
9009100;Minister of Security;Tadashi Ohara;1939;2110;2110;SC;Back Stabber;Medium;M5100;x
9009118;Minister of Security;Hirabayashi Morito;1939;2110;2110;FA;Silent Lawyer;Medium;M5118;x
9009143;Head of Military Intelligence;Sadao Araki;1939;2110;2110;FA;Naval Intelligence Specialist;Medium;M5143;x
9009036;Head of Government;Mitsumasa yonai;1940;2110;2110;PA;Ambitious Union Boss;High;M5036;x
9009060;Foreign Minister;Yosuke Matsuoka;1940;2110;2110;PA;Ideological Crusader;Medium;M5060;x
9009083;Minister of Armament;Seiichi Kobayashi;1940;2110;2110;PA;laissez-faire capitalist;Medium;M5083;x
9009119;Minister of Security;Kiichiro Hiranuma;1940;2110;2110;FA;Prince of Terror;Medium;M5041;x
9009120;Minister of Security;Fusataro Toshima;1940;2110;2110;FA;Crime Fighter;Medium;M5120;x
9009138;Head of Military Intelligence;Minoru Maeda;1940;2110;2110;PA;Technical Specialist;Medium;M5138;x
9009144;Head of Military Intelligence;Dobashi IsamuItsu;1940;2110;2110;FA;Technical Specialist;Medium;M5144;x
9009192;Chief of Air Force;Tomoyuki Yamashita;1940;2110;2110;FA;Carpet Bombing Doctrine;Medium;M5192;x
9009203;Head of Government;Fumimaro Konoe;1940;2110;2110;PA;Flamboyant Tough Guy;High;M5034;x
9009042;Head of Government;Hideki Tojo;1941;2110;2110;FA;Old General;High;M5042;x
9009029;Head of Government;Kisaburo Suzuki;1941;2110;2110;SC;Happy Amateur;High;M5029;x
9009050;Foreign Minister;Aoi Shigemitsu;1941;2110;2110;SC;Great Compromiser;Medium;M5050;x
9009065;Foreign Minister;Shigenori Togo;1941;2110;2110;FA;Biased Intellectual;Medium;M5065;x
9009075;Minister of Armament;Shigeru Yoshida;1941;2110;2110;SC;Strategic Air Proponent;Medium;M5031;x
9009084;Minister of Armament;Ginjir Fujiwara;1941;2110;2110;PA;Administrative Genius;Medium;M5084;x
9009091;Minister of Armament;Kazumi Kobayashi;1941;2110;2110;FA;Resource Industrialist;High;M5083;x
9009097;Minister of Security;Fumio Goto;1941;2110;2110;SD;Silent Lawyer;High;M5005;x
9009110;Minister of Security;Eiji Yasui;1941;2110;2110;PA;Crooked Kleptocrat;High;M5110;x
9009121;Minister of Security;Hideo Kodama;1941;2110;2110;FA;Silent Lawyer;Low;M5109;x
9009122;Minister of Security;Nakamura, Akito;1941;2110;2110;FA;Crime Fighter;Medium;M5122;x
9009153;Chief of Staff;Nobuyuki Abe;1941;2110;2110;PA;School of Fire Support;Medium;M5035;x
9009156;Chief of Staff;Hideki Tojo;1941;2110;2110;FA;School of Psychology;Medium;M5042;x
9009163;Chief of Army;Takeo Fujioka;1941;2110;2110;PA;Elastic Defence Doctrine;Very Low;M5163;x
9009166;Chief of Army;Hideki Tojo;1941;2110;2110;FA;Elastic Defence Doctrine;Medium;M5042;x
9009173;Chief of Navy;Osami Nagano;1941;2110;2110;PA;Power Projection Doctrine;Medium;M5173;x
9009181;Chief of Air Force;Nishiz Tsukahara;1941;2110;2110;SC;Air Superiority Doctrine;Medium;M5181;x
9009193;Chief of Air Force;Kenji Doihara;1941;2110;2110;FA;Naval Aviation Doctrine;Medium;M5193;x
9009066;Foreign Minister;Masayuki Tani;1942;2110;2110;FA;Apologetic Clerk;Medium;M5066;x
9009085;Minister of Armament;Nobusuke Kishi;1942;2110;2110;PA;Theoretical Scientist;Medium;M5085;x
9009092;Minister of Armament;Hideki Tojo;1942;2110;2110;FA;Infantry Proponent;Medium;M5042;x
9009111;Minister of Security;Kobayashi;1942;2110;2110;PA;Man of the People;High;M5111;x
9009123;Minister of Security;Hideki Tojo;1942;2110;2110;FA;Prince of Terror;Medium;M5042;x
9009133;Head of Military Intelligence;Zenjir horikiri;1942;2110;2110;SC;Logistics Specialist;Medium;M5102;x
9009194;Chief of Air Force;Korechika anami;1942;2110;2110;FA;Vertical Envelopment Doctrine;Medium;M5194;x
9009199;Foreign Minister;Hideki Tojo;1942;2110;2110;FA;General Staffer;Medium;M5042;x
9009067;Foreign Minister;Aoi Shigemitsu;1943;2110;2110;FA;Great Compromiser;Medium;M5050;x
9009076;Minister of Armament;Kijr Shidehara;1943;2110;2110;SC;Tank Proponent;High;M5030;x
9009086;Minister of Armament;Teijir Toyoda;1943;2110;2110;PA;Air to Ground Proponent;Medium;M5061;x
9009094;Minister of Armament;Tomatsu Kato;1943;2110;2110;FA;Tank Proponent;Medium;M5094;x
9009112;Minister of Security;Tanabe Chidori;1943;2110;2110;PA;Man of the People;Medium;M5112;x
9009124;Minister of Security;Kato TomariJiro;1943;2110;2110;FA;Man of the People;Medium;M5124;x
9009145;Head of Military Intelligence;Kuniaki Koiso;1943;2110;2110;FA;Industrial Specialist;Medium;M5043;x
9009195;Chief of Air Force;Jun Ushiroku;1943;2110;2110;FA;Army Aviation Doctrine;Medium;M5195;x
9009201;Chief of Navy;Mineichi Koga;1943;2110;2110;FA;Decisive Naval Battle Doctrine;Very High;L101243;x
9009043;Head of Government;Kuniaki Koiso;1944;2110;2110;FA;Corporate Suit;High;M5043;x
9009077;Minister of Armament;Ichiro Hatoyama;1944;2110;2110;SC;Administrative Genius;High;M5032;x
9009087;Minister of Armament;Sakonji Seiz;1944;2110;2110;PA;Submarine Proponent;Medium;M5087;x
9009113;Minister of Security;Michio Yuzawa;1944;2110;2110;PA;Silent Lawyer;Medium;M5113;x
9009125;Minister of Security;Shigeo dachi;1944;2110;2110;FA;Man of the People;Medium;M5125;x
9009157;Chief of Staff;Umezu YoshiJiro;1944;2110;2110;FA;School of Fire Support;Medium;M5157;x
9009167;Chief of Army;Umezu YoshiJiro;1944;2110;2110;FA;Guns and Butter Doctrine;Medium;M5157;x
9009175;Chief of Navy;Koshir Oikawa;1944;2110;2110;PA;Base Control Doctrine;Medium;M5175;x
9009196;Chief of Air Force;Sugawara Michihiro;1944;2110;2110;FA;Air Superiority Doctrine;Medium;M5196;x
9009037;Head of Government;Kantaro Suzuki;1945;2110;2110;PA;Corporate Suit;High;M5037;x
9009038;Head of Government;Eastern Toshihiko Kuni;1945;2110;2110;PA;Silent Workhorse;High;M5038;x
9009027;Head of Government;Tetsu Katayama;1945;2110;2110;SD;Political Protege;High;M5027;x
9009030;Head of Government;Kijr Shidehara;1945;2110;2110;SC;Naive Optimist;High;M5030;x
9009046;Foreign Minister;Hitoshi Ashida;1945;2110;2110;SL;Apologetic Clerk;High;M5046;x
9009052;Foreign Minister;Shigeru Yoshida;1945;2110;2110;SC;Apologetic Clerk;Medium;M5031;x
9009070;Minister of Armament;Chozaburo Mizutani;1945;2110;2110;SD;Resource Industrialist;High;M5070;x
9009078;Minister of Armament;Hoshishima Jiro;1945;2110;2110;SC;Military Entrepreneur;Very High;M5071;x
9009093;Minister of Armament;Chikuhei Nakajima;1945;2110;2110;FA;Air to Sea Proponent;Medium;M5093;x
9009098;Minister of Security;Kozaemon Kimura;1945;2110;2110;SD;Man of the People;High;M5098;x
9009101;Minister of Security;Seiichi Omura;1945;2110;2110;SC;Silent Lawyer;Very High;M5101;x
9009102;Minister of Security;Zenjir horikiri;1945;2110;2110;SC;Crime Fighter;Medium;M5102;x
9009103;Minister of Security;Iwao Yamazaki;1945;2110;2110;SC;Man of the People;Medium;M5103;x
9009126;Minister of Security;Jo Iimura;1945;2110;2110;FA;Crime Fighter;Medium;M5126;x
9009129;Head of Military Intelligence;Tetsu Katayama;1945;2110;2110;SD;Naval Intelligence Specialist;Medium;M5027;x
9009139;Head of Military Intelligence;Kantaro Suzuki;1945;2110;2110;PA;Political Specialist;Medium;M5037;x
9009151;Chief of Staff;Kazuo Tanigawa;1945;2110;2110;SC;School of Mass Combat;Very Low;M5151;x
9009154;Chief of Staff;Gunichi Mikawa;1945;2110;2110;PA;School of Psychology;Medium;M5154;x
9009161;Chief of Army;Dobashi IsamuItsu;1945;2110;2110;SC;Decisive Battle Doctrine;Medium;M5144;x
9009164;Chief of Army;Yoshihisa Aotsu Taro;1945;2110;2110;PA;Guns and Butter Doctrine;Very Low;M5164;x
9009188;Chief of Air Force;Misao Wada;1945;2110;2110;PA;Vertical Envelopment Doctrine;Medium;M5182;x
9009197;Chief of Air Force;Masakazu Kawabe;1945;2110;2110;PA;Army Aviation Doctrine;Medium;M5197;x
9009206;Foreign Minister;Kantaro Suzuki;1945;2110;2110;PA;Biased Intellectual;High;M5037;x
9009039;Head of Government;Juichi Terauchi;1946;2110;2110;PA;Naive Optimist;High;M5039;x
9009031;Head of Government;Shigeru Yoshida;1946;2110;2110;SC;Backroom Backstabber;High;M5031;x
9009079;Minister of Armament;Ogasawara SanKuro;1946;2110;2110;SC;laissez-faire capitalist;Medium;M5079;x
9009088;Minister of Armament;Juichi Terauchi;1946;2110;2110;PA;Tank Proponent;High;M5039;x
9009114;Minister of Security;Abe MinamotoHajime;1946;2110;2110;PA;Silent Lawyer;Medium;M5114;x
9009071;Minister of Armament;Hoshishima Jiro;1947;2110;2110;SD;Administrative Genius;Medium;M5071;x
9009148;Chief of Staff;Osamura singing frog;1947;2110;2110;SD;School of Fire Support;Very Low;M5148;x
9009209;Head of Government;Hitoshi Ashida;1948;2110;2110;SL;Smiling Oilman;High;M5046;x
9009210;Minister of Security;Tanzan Ishibashi;1948;2110;2110;SC;Silent Lawyer;Medium;M5210;x
9009220;Minister of Armament;Hayato Ikeda;1950;2110;2110;SC;Infantry Proponent;High;M5213;x
9009228;Minister of Security;Takeo Ohashi;1950;2110;2110;SC;Crooked Kleptocrat;Medium;M5228;x
9009229;Minister of Security;Tokutaro Kimura;1951;2110;2110;SC;Efficient Sociopath;Medium;M5229;x
9009221;Minister of Armament;Tadaharu Mukai;1952;2110;2110;SC;Strategic Air Proponent;High;M5221;x
9009230;Minister of Security;Takeru Inukai;1952;2110;2110;SC;Back Stabber;Medium;M5230;x
9009032;Head of Government;Ichiro Hatoyama;1954;2110;2110;SC;Political Protege;High;M5032;x
9009215;Foreign Minister;Kubota NukiIchiro;1954;2110;2110;SD;Iron Fisted Brute;Medium;M5215;x
9009222;Minister of Armament;Hisato ichimada;1954;2110;2110;SC;Submarine Proponent;High;M5222;x
9009231;Minister of Security;Umekichi Nakamura;1954;2110;2110;SC;Compassionate Gentleman;Medium;M5231;x
9009235;Head of Military Intelligence;Kato Goro;1954;2110;2110;SC;Political Specialist;Medium;M5235;x
9009211;Head of Government;Tanzan Ishibashi;1956;2110;2110;SC;Silent Workhorse;High;M5210;x
9009216;Foreign Minister;Nobusuke Kishi;1956;2110;2110;SC;Ideological Crusader;Medium;M5085;x
9009212;Head of Government;Nobusuke Kishi;1957;2110;2110;SC;Backroom Backstabber;High;M5085;x
9009217;Foreign Minister;Aiichiro Fujiyama;1957;2110;2110;SC;Apologetic Clerk;Medium;M5217;x
9009226;Minister of Armament;Nishio Suehiro;1957;2110;2110;SD;Military Entrepreneur;Medium;M5214;x
9009232;Minister of Security;Koshiro Ueki;1957;2110;2110;SC;Silent Lawyer;Medium;M5232;x
9009233;Minister of Security;Shiro Hanamura;1957;2110;2110;SD;Prince of Terror;Medium;M5233;x
9009236;Head of Military Intelligence;Tadashi Ohara;1957;2110;2110;SC;Technical Specialist;Medium;M5236;x
9009237;Head of Military Intelligence;Shiro Hanamura;1957;2110;2110;SD;Dismal Enigma;Medium;M5233;x
9009223;Minister of Armament;Eisaku Sato;1958;2110;2110;SC;Administrative Genius;High;M5223;x
9009213;Head of Government;Hayato Ikeda;1960;2110;2110;SC;Corporate Suit;High;M5213;x
9009214;Head of Government;Nishio Suehiro;1960;2110;2110;SD;Flamboyant Tough Guy;High;M5214;x
9009218;Foreign Minister;Zentaro Kosaka;1960;2110;2110;SC;Biased Intellectual;Medium;M5218;x
9009224;Minister of Armament;Mikio Mizuta;1960;2110;2110;SC;Resource Industrialist;High;M5224;x
9009227;Minister of Armament;Makoto Usami;1960;2110;2110;SD;Theoretical Scientist;Medium;M5227;x
9009234;Minister of Security;Teiichiro Morinaga;1960;2110;2110;SD;Crime Fighter;Medium;M5234;x
9009219;Foreign Minister;Masayoshi Ohira;1962;2110;2110;SC;The Cloak N Dagger Schemer;Medium;M5219;x
9009225;Minister of Armament;Kakuei Tanaka;1962;2110;2110;SC;Corrupt Kleptocrat;High;M5225;x
