U91;Name;Pic Name;Skill;Start Year;End Year;Speciality1;Speciality2;Speciality3;Speciality4;Speciality5;Speciality6;Speciality7;Speciality8;Speciality9;Speciality10;Speciality11;Speciality12;Speciality13;Speciality14;Speciality15;Speciality16;Speciality17;Speciality18;Speciality19;Speciality20;Speciality21;Speciality22;Speciality23;Speciality24;Speciality25;Speciality26;Speciality27;Speciality28;Speciality29;Speciality30;Speciality31;Speciality32;x
1000500;Army invention Council;T500;5;1930;2100;general_equipment;mechanics;technical_efficiency;training;;;;;;;;;;;;;;;;;;;;;;;;;;;;;x
1000501;Australian Atomic Energy Commission;T_AST_AustralianAtomicEnergyCommission;5;1952;2100;nuclear_engineering;nuclear_physics;;;;;;;;;;;;;;;;;;;;;;;;;;;;;;;x
1000502;Churona tank manufacturing plant;T501;4;1930;2100;artillery;chemistry;electronics;mechanics;technical_efficiency;;;;;;;;;;;;;;;;;;;;;;;;;;;;x
1000503;Kakatu Island shipyard;T513;4;1930;2100;electronics;naval_artillery;naval_engineering;technical_efficiency;;;;;;;;;;;;;;;;;;;;;;;;;;;;;x
1000504;Commonwealth Scientific and Industrial Research Organization;T514;5;1930;2100;chemistry;electronics;mathematics;mechanics;;;;;;;;;;;;;;;;;;;;;;;;;;;;;x
1000505;De Havilland, Inc.;T502;5;1930;2100;aeronautics;chemistry;electronics;technical_efficiency;;;;;;;;;;;;;;;;;;;;;;;;;;;;;x
1000506;Dudley Lava rack;T_AST_Dudley_Lavarack;6;1930;2100;combined_arms_focus;decentralized_execution;individual_courage;small_unit_tactics;training;;;;;;;;;;;;;;;;;;;;;;;;;;;;x
1000507;Ford Motors, Inc.;T503;5;1930;2100;industrial_engineering;management;mechanics;technical_efficiency;;;;;;;;;;;;;;;;;;;;;;;;;;;;;x
1000508;Guy Royle;T_AST_Guy_Royle;5;1930;2100;centralized_execution;naval_training;seamanship;submarine_tactics;;;;;;;;;;;;;;;;;;;;;;;;;;;;;x
1000509;Horace. R. Campbell;T13607;4;1945;2100;combined_arms_focus;individual_courage;management;training;;;;;;;;;;;;;;;;;;;;;;;;;;;;;x
1000510;John Collins;T508;6;1930;2100;carrier_tactics;centralized_execution;large_taskforce_tactics;naval_training;seamanship;;;;;;;;;;;;;;;;;;;;;;;;;;;;x
1000511;Maribianongu munitions factory;T_AST_MaribyrnongMunitionFactories;5;1930;2100;artillery;chemistry;general_equipment;;;;;;;;;;;;;;;;;;;;;;;;;;;;;;x
1000512;New South Wales railway;T504;6;1930;2100;general_equipment;industrial_engineering;management;mechanics;;;;;;;;;;;;;;;;;;;;;;;;;;;;;x
1000513;Ragnar Colvin;T_AST_Ragnar_Colvin;4;1930;2100;centralized_execution;naval_training;small_taskforce_tactics;;;;;;;;;;;;;;;;;;;;;;;;;;;;;;x
1000514;Richard Williams;T510;6;1930;2100;aircraft_testing;decentralized_execution;fighter_tactics;piloting;;;;;;;;;;;;;;;;;;;;;;;;;;;;;x
1000515;Sir Colin Thomas Hana;T517;4;1959;2100;aircraft_testing;centralized_execution;combined_arms_focus;fighter_tactics;piloting;;;;;;;;;;;;;;;;;;;;;;;;;;;;x
1000516;Sir Sydney Fair Vane Rouweru;T516;6;1950;2100;combined_arms_focus;decentralized_execution;individual_courage;small_unit_tactics;training;;;;;;;;;;;;;;;;;;;;;;;;;;;;x
1000517;Thomas Buremi;T_AST_Thomas_Blamey;4;1938;2100;centralized_execution;combined_arms_focus;individual_courage;large_unit_tactics;;;;;;;;;;;;;;;;;;;;;;;;;;;;;x
1000518;University of Melbourne;T_AST_UnivMelburne;5;1930;2100;chemistry;electronics;mathematics;mechanics;nuclear_physics;;;;;;;;;;;;;;;;;;;;;;;;;;;;x
1000519;Vickers-Armstrongs, Inc.;T505;5;1930;2100;aeronautics;artillery;mechanics;naval_engineering;technical_efficiency;;;;;;;;;;;;;;;;;;;;;;;;;;;;x
1000520;Will Fred Harrington;T_AST_Wilfred_Harrington;4;1954;2100;centralized_execution;naval_training;small_taskforce_tactics;;;;;;;;;;;;;;;;;;;;;;;;;;;;;;x
1000521;William Bostock;T_AST_William_Bostock;5;1930;2100;aircraft_testing;bomber_tactics;centralized_execution;combined_arms_focus;piloting;;;;;;;;;;;;;;;;;;;;;;;;;;;;x
1000522;Woomera test facility;T_AST_WoomeraTestRange;5;1947;2100;aeronautics;electronics;management;nuclear_engineering;rocketry;;;;;;;;;;;;;;;;;;;;;;;;;;;;x
1000901;Andrew McNaughton;T908;5;1939;2100;infantry_focus;large_unit_tactics;centralized_execution;training;;;;;;;;;;;;;;;;;;;;;;;;;;;;;x
1000902;Avro Canada;T302;5;1945;2100;aeronautics;electronics;technical_efficiency;chemistry;rocketry;;;;;;;;;;;;;;;;;;;;;;;;;;;;x
1000903;A. A. L. cuff;T_CAN_AA_Cuffe;5;1930;2100;fighter_tactics;aircraft_testing;decentralized_execution;piloting;;;;;;;;;;;;;;;;;;;;;;;;;;;;;x
1000904;Ballard dry dock;T_CAN_BurrardDryDock;4;1930;2100;naval_artillery;naval_engineering;technical_efficiency;mechanics;;;;;;;;;;;;;;;;;;;;;;;;;;;;;x
1000905;Canadair Inc.;T_CAN_Canadair;6;1944;2100;aeronautics;artillery;electronics;technical_efficiency;;;;;;;;;;;;;;;;;;;;;;;;;;;;;x
1000906;Canadian Car & Foundry Company;T_CAN_CanadianCarFoundrt;5;1930;2100;aeronautics;technical_efficiency;electronics;;;;;;;;;;;;;;;;;;;;;;;;;;;;;;x
1000907;Canadian Locomotive Company;T_CAN_CanadianLocomotiveCompany;5;1930;2100;mechanics;general_equipment;industrial_engineering;management;;;;;;;;;;;;;;;;;;;;;;;;;;;;;x
1000908;Canada Pacific Ocean Railway;T_CAN_CPR;5;1930;2100;mechanics;technical_efficiency;artillery;;;;;;;;;;;;;;;;;;;;;;;;;;;;;;x
1000909;Canadian Vickers, Inc.;T_CAN_CanadianVickers;6;1930;2100;naval_engineering;aeronautics;technical_efficiency;naval_artillery;;;;;;;;;;;;;;;;;;;;;;;;;;;;;x
1000910;Chalk River Laboratories;T917;4;1943;2100;mathematics;nuclear_physics;nuclear_engineering;chemistry;;;;;;;;;;;;;;;;;;;;;;;;;;;;;x
1000911;Canada Pacific Ocean railway Angus factory;T_CAN_AngusShops;5;1930;2100;mechanics;technical_efficiency;electronics;;;;;;;;;;;;;;;;;;;;;;;;;;;;;;x
1000912;De Havilland Canada;T_CAN_deHavilland;5;1930;2100;aeronautics;chemistry;electronics;technical_efficiency;;;;;;;;;;;;;;;;;;;;;;;;;;;;;x
1000913;Frank  Robert Miller;T_CAN_Frank-Robert_Miller;5;1942;2100;bomber_tactics;fighter_tactics;aircraft_testing;piloting;;;;;;;;;;;;;;;;;;;;;;;;;;;;;x
1000914;George Kuroiru;T911;4;1930;2100;bomber_tactics;aircraft_testing;centralized_execution;;;;;;;;;;;;;;;;;;;;;;;;;;;;;;x
1000915;Gerhard Herutsuberugu;T_CAN_Gerhard_Herzberg;6;1935;2100;chemistry;nuclear_physics;;;;;;;;;;;;;;;;;;;;;;;;;;;;;;;x
1000916;Harold Bailey  Grohmann;T912;4;1938;2100;naval_training;small_taskforce_tactics;centralized_execution;seamanship;;;;;;;;;;;;;;;;;;;;;;;;;;;;;x
1000917;Harold Kokuseta;T_CAN_Harold_Coxeter;5;1930;2100;mathematics;management;;;;;;;;;;;;;;;;;;;;;;;;;;;;;;;x
1000918;Harry DeWolfe;T918;4;1947;2100;naval_training;small_taskforce_tactics;carrier_tactics;seamanship;;;;;;;;;;;;;;;;;;;;;;;;;;;;;x
1000919;Henry Crerar;T913;4;1940;2100;infantry_focus;large_unit_tactics;centralized_execution;;;;;;;;;;;;;;;;;;;;;;;;;;;;;;x
1000920;John Inglis, Inc.;T_CAN_JohnInglisCompany;4;1930;2100;artillery;general_equipment;mechanics;;;;;;;;;;;;;;;;;;;;;;;;;;;;;;x
1000921;Long Beach Naval Shipyard;T_CAN_LongBranchArsenal;5;1930;2100;artillery;general_equipment;training;;;;;;;;;;;;;;;;;;;;;;;;;;;;;;x
1000922;Montreal locomotive manufacturing plant;T_CAN_MontrealLocomotiveWorks;5;1930;2100;mechanics;technical_efficiency;artillery;chemistry;;;;;;;;;;;;;;;;;;;;;;;;;;;;;x
1000923;Percy Nells;T_CAN_Percy_Nelles;5;1930;2100;naval_training;large_taskforce_tactics;seamanship;;;;;;;;;;;;;;;;;;;;;;;;;;;;;;x
1000924;Polymer Co., Ltd.;T_CAN_Polycorp;5;1930;2100;chemistry;management;industrial_engineering;;;;;;;;;;;;;;;;;;;;;;;;;;;;;;x
1000925;Royal Canadian Military University;T_CAN_RoyalMilitaryCollege;4;1930;2100;infantry_focus;large_unit_tactics;centralized_execution;training;;;;;;;;;;;;;;;;;;;;;;;;;;;;;x
1000926;Shawinigan desalination power plant;T_CAN_ShawiniganWater;5;1930;2100;electronics;management;industrial_engineering;;;;;;;;;;;;;;;;;;;;;;;;;;;;;;x
1000927;Saint John shipyard;T_CAN_StJohnShipbuilding;5;1930;2100;naval_artillery;naval_engineering;technical_efficiency;;;;;;;;;;;;;;;;;;;;;;;;;;;;;;x
1000928;Victoria MACHINERY WORKS;T_CAN_VictoriaMachineryDepot;5;1930;2100;naval_engineering;technical_efficiency;electronics;general_equipment;;;;;;;;;;;;;;;;;;;;;;;;;;;;;x
1000929;Victory Aircraft Company;T_CAN_VictoryAircraft;5;1930;2100;aeronautics;chemistry;electronics;technical_efficiency;;;;;;;;;;;;;;;;;;;;;;;;;;;;;x
1000926;Waterloo Industries, Ltd.;T_CAN_WaterlooManufacturing;4;1930;2100;mechanics;artillery;electronics;chemistry;;;;;;;;;;;;;;;;;;;;;;;;;;;;;x
1000930;William T. tutte;T_CAN_William_Tutte;5;1930;2100;mathematics;electronics;;;;;;;;;;;;;;;;;;;;;;;;;;;;;;;x
1000931;University of Toronto;T916;5;1930;2100;mathematics;mechanics;management;chemistry;;;;;;;;;;;;;;;;;;;;;;;;;;;;;x
10009001;Addington factory;T_NZL_AddingtonWorkshops;4;1930;2100;artillery;mechanics;industrial_engineering;technical_efficiency;;;;;;;;;;;;;;;;;;;;;;;;;;;;;x
10009002;Arthur Neville;T_NZL_Arthur_Nevill;5;1930;2100;fighter_tactics;centralized_execution;management;aircraft_testing;;;;;;;;;;;;;;;;;;;;;;;;;;;;;x
10009003;Bernard Fryeburg;T9000;6;1930;2100;centralized_execution;small_unit_tactics;combined_arms_focus;individual_courage;training;;;;;;;;;;;;;;;;;;;;;;;;;;;;x
10009004;Karaiapi Dock;T_NZL_CalliopeDock;4;1930;2100;naval_engineering;technical_efficiency;mechanics;;;;;;;;;;;;;;;;;;;;;;;;;;;;;;x
10009005;Colonial ammunition manufacturer;T_NZL_ColonialAmmunitionCo;4;1930;2100;artillery;mechanics;general_equipment;;;;;;;;;;;;;;;;;;;;;;;;;;;;;;x
10009006;Devonport naval base;T_NZL_DevonportNavalBase;4;1930;2100;naval_engineering;naval_artillery;electronics;technical_efficiency;general_equipment;;;;;;;;;;;;;;;;;;;;;;;;;;;;x
10009008;Edward Parry;T_NZL_Edward_Parry;5;1930;2100;small_taskforce_tactics;centralized_execution;naval_training;seamanship;large_taskforce_tactics;;;;;;;;;;;;;;;;;;;;;;;;;;;;x
10009009;Ernest Marsden;T_NZL_Ernest_Marsden;4;1930;2100;mathematics;electronics;nuclear_physics;;;;;;;;;;;;;;;;;;;;;;;;;;;;;;x
10009010;Ford New Zealand, Inc.;T_NZL_FordNZL;4;1930;2100;technical_efficiency;artillery;electronics;;;;;;;;;;;;;;;;;;;;;;;;;;;;;;x
10009011;Frank Rennie;T_NZL_Frank_Rennie;5;1946;2100;decentralized_execution;small_unit_tactics;training;;;;;;;;;;;;;;;;;;;;;;;;;;;;;;x
10009012;General Motors New Zealand factory;T_NZL_GeneralMotors;4;1930;2100;artillery;technical_efficiency;mechanics;electronics;;;;;;;;;;;;;;;;;;;;;;;;;;;;;x
10009013;Graham Parkinson;T_NZL_Graham_Parkinson;5;1930;2100;combined_arms_focus;small_unit_tactics;;;;;;;;;;;;;;;;;;;;;;;;;;;;;;;x
10009014;John praying by proxy;T_NZL_John_Duigan;5;1930;2100;centralized_execution;large_unit_tactics;infantry_focus;training;;;;;;;;;;;;;;;;;;;;;;;;;;;;;x
10009015;Kenpuson Prosser, Inc.;T_NZL_KempthorneProsserCo;5;1930;2100;industrial_engineering;chemistry;;;;;;;;;;;;;;;;;;;;;;;;;;;;;;;x
10009016;Leonard M. Ishito;T_NZL_Leonard_Isitt;5;1930;2100;bomber_tactics;centralized_execution;piloting;aircraft_testing;;;;;;;;;;;;;;;;;;;;;;;;;;;;;x
10009017;Otafufu factory;T_NZL_OtahuhuWorkshops;4;1930;2100;mechanics;general_equipment;industrial_engineering;chemistry;;;;;;;;;;;;;;;;;;;;;;;;;;;;;x
10009018;Port Chalmers;T_NZL_PortChalmers;4;1930;2100;naval_engineering;technical_efficiency;management;;;;;;;;;;;;;;;;;;;;;;;;;;;;;;x
10009019;Roderick Car;T9004;6;1938;2100;combined_arms_focus;piloting;aircraft_testing;bomber_tactics;centralized_execution;;;;;;;;;;;;;;;;;;;;;;;;;;;;x
10009020;University of Otago;T_NZL_OtagoUniversity;3;1930;2100;mathematics;chemistry;mechanics;management;;;;;;;;;;;;;;;;;;;;;;;;;;;;;x
