ECU;Name;Pic Name;Skill;Start Year;End Year;Speciality1;Speciality2;Speciality3;Speciality4;Speciality5;Speciality6;Speciality7;Speciality8;Speciality9;Speciality10;Speciality11;Speciality12;Speciality13;Speciality14;Speciality15;Speciality16;Speciality17;Speciality18;Speciality19;Speciality20;Speciality21;Speciality22;Speciality23;Speciality24;Speciality25;Speciality26;Speciality27;Speciality28;Speciality29;Speciality30;Speciality31;Speciality32;x
5300;Alberto Enrique moth Yo;T5303;2;1930;2100;decentralized_execution;individual_courage;infantry_focus;large_unit_tactics;;;;;;;;;;;;;;;;;;;;;;;;;;;;;x
5301;Anglo-Ecuadorian oil field;T5302;3;1930;2100;chemistry;industrial_engineering;management;;;;;;;;;;;;;;;;;;;;;;;;;;;;;;x
5302;Cosme Reneya-Barbato;T5304;2;1940;2100;combined_arms_focus;decentralized_execution;small_unit_tactics;;;;;;;;;;;;;;;;;;;;;;;;;;;;;;x
5303;Navy School;T5306;2;1930;2100;large_taskforce_tactics;naval_training;seamanship;;;;;;;;;;;;;;;;;;;;;;;;;;;;;;x
5304;Air Force School;T5305;2;1930;2100;aircraft_testing;bomber_tactics;fighter_tactics;piloting;;;;;;;;;;;;;;;;;;;;;;;;;;;;;x
5305;Guayaquil seaport;T5301;3;1930;2100;naval_artillery;naval_engineering;technical_efficiency;;;;;;;;;;;;;;;;;;;;;;;;;;;;;;x
5306;IDEAL;T5300;3;1930;2100;general_equipment;industrial_engineering;management;mechanics;;;;;;;;;;;;;;;;;;;;;;;;;;;;;x
5307;Ecuador Central University;T_ECU_UniversidadCentraldelEcuador;2;1930;2100;chemistry;electronics;mathematics;;;;;;;;;;;;;;;;;;;;;;;;;;;;;;x
