U07;Name;Pic Name;Skill;Start Year;End Year;Speciality1;Speciality2;Speciality3;Speciality4;Speciality5;Speciality6;Speciality7;Speciality8;Speciality9;Speciality10;Speciality11;Speciality12;Speciality13;Speciality14;Speciality15;Speciality16;Speciality17;Speciality18;Speciality19;Speciality20;Speciality21;Speciality22;Speciality23;Speciality24;Speciality25;Speciality26;Speciality27;Speciality28;Speciality29;Speciality30;Speciality31;Speciality32;x
99300;Chernomorsky Shipyard;T_UKR_Chernomorsky_Shipyard;6;1930;2110;naval_artillery;naval_engineering;technical_efficiency;;;;;;;;;;;;;;;;;;;;;;;;;;;;;;x
99301;Kharkov Aviation Institute;T_UKR_Kharkov_Aviation_Institute;4;1930;2110;aircraft_testing;bomber_tactics;fighter_tactics;piloting;;;;;;;;;;;;;;;;;;;;;;;;;;;;;x
99302;Kharkov Locomotive Factory;T_UKR_Kharkov_Locomotive_Factory;8;1930;2110;artillery;chemistry;mechanics;technical_efficiency;;;;;;;;;;;;;;;;;;;;;;;;;;;;;x
99303;Kiev Arsenal;T_UKR_Kiev_Arsenal;5;1930;2110;artillery;general_equipment;training;;;;;;;;;;;;;;;;;;;;;;;;;;;;;;x
99304;Kiev University;T_UKR_Kiev_University;6;1930;2110;chemistry;management;mathematics;mechanics;;;;;;;;;;;;;;;;;;;;;;;;;;;;;x
99305;Motoru-Shichisha;T_UKR_Motor_Sich;6;1930;2110;electronics;general_equipment;mechanics;technical_efficiency;;;;;;;;;;;;;;;;;;;;;;;;;;;;;x
99306;Nikolaev shipyard;T_UKR_Nikolaev_Admiralty_Shipyard;4;1930;2110;electronics;naval_artillery;naval_engineering;technical_efficiency;;;;;;;;;;;;;;;;;;;;;;;;;;;;;x
99307;Navapolatsk Industrial Company;T_BLR_NavapolatskIndustry;5;1930;2110;mechanics;industrial_engineering;management;;;;;;;;;;;;;;;;;;;;;;;;;;;;;;x
99308;MOLAJ Inc.;T1606;6;1930;2110;chemistry;industrial_engineering;management;;;;;;;;;;;;;;;;;;;;;;;;;;;;;;x
99309;Manfred Weiss, Inc.;T1604;5;1930;2110;aeronautics;electronics;industrial_engineering;management;technical_efficiency;;;;;;;;;;;;;;;;;;;;;;;;;;;;x
99310;MAVAG Inc.;T1602;6;1930;2110;aeronautics;artillery;electronics;technical_efficiency;;;;;;;;;;;;;;;;;;;;;;;;;;;;;x
99311;Sevastopol Naval Research Laboratory;T_UKR_Sevastopol_Naval_Institute;5;1930;2110;decentralized_execution;naval_training;seamanship;submarine_tactics;;;;;;;;;;;;;;;;;;;;;;;;;;;;;x
99312;Tupolev, Inc.;T_UKR_Tupolev;6;1930;2110;aeronautics;chemistry;electronics;rocketry;technical_efficiency;;;;;;;;;;;;;;;;;;;;;;;;;;;;x
99313;Eastern Europe aerospace military;T_UKR_Ukrainian_Air_Force;6;1930;2110;centralized_execution;combined_arms_focus;decentralized_execution;fighter_tactics;piloting;;;;;;;;;;;;;;;;;;;;;;;;;;;;x
99314;Eastern Europe Navy;T_UKR_Ukrainian_Naval_Force;6;1930;2110;centralized_execution;naval_training;seamanship;small_taskforce_tactics;;;;;;;;;;;;;;;;;;;;;;;;;;;;;x
99315;Eastern Army;T2915;7;1930;2110;centralized_execution;combined_arms_focus;individual_courage;infantry_focus;large_unit_tactics;;;;;;;;;;;;;;;;;;;;;;;;;;;;x
99316;Karuboshin Inc.;T2901;5;1930;2110;chemistry;industrial_engineering;management;;;;;;;;;;;;;;;;;;;;;;;;;;;;;;x
99317;IAR, Inc.;T2903;7;1930;2110;aeronautics;electronics;technical_efficiency;;;;;;;;;;;;;;;;;;;;;;;;;;;;;;x
99318;Mansha;T2907;7;1930;2110;electronics;industrial_engineering;management;mechanics;;;;;;;;;;;;;;;;;;;;;;;;;;;;;x
99319;Marakusa manufacturing company;T2904;6;1930;2110;artillery;mechanics;technical_efficiency;;;;;;;;;;;;;;;;;;;;;;;;;;;;;;x
99320;Belarusian State University;T9700;6;1930;2110;chemistry;management;mathematics;mechanics;;;;;;;;;;;;;;;;;;;;;;;;;;;;;x
99321;Skoda, Inc.;T1105;8;1970;1970;mechanics;industrial_engineering;management;technical_efficiency;artillery;;;;;;;;;;;;;;;;;;;;;;;;;;;;x
