JAP;Name;Pic Name;Skill;Start Year;End Year;Speciality1;Speciality2;Speciality3;Speciality4;Speciality5;Speciality6;Speciality7;Speciality8;Speciality9;Speciality10;Speciality11;Speciality12;Speciality13;Speciality14;Speciality15;Speciality16;Speciality17;Speciality18;Speciality19;Speciality20;Speciality21;Speciality22;Speciality23;Speciality24;Speciality25;Speciality26;Speciality27;Speciality28;Speciality29;Speciality30;Speciality31;Speciality32;x
1901;Light Mitsubishi Heavy Industries;JAP02;8;1930;2110;chemistry;artillery;mechanics;training;technical_efficiency;;;;;;;;;;;;;;;;;;;;;;;;;;;;x
1902;Fugaku Heavy Industries;JAP01;9;1930;2110;chemistry;artillery;mechanics;rocketry;electronics;;;;;;;;;;;;;;;;;;;;;;;;;;;;x
1903;Kawasaki Heavy Industries;JAP03;6;1930;2110;chemistry;artillery;mechanics;naval_engineering;technical_efficiency;;;;;;;;;;;;;;;;;;;;;;;;;;;;x
1904;Firmament temple Heavy Industries;JAP39;8;1930;2110;chemistry;artillery;mechanics;electronics;;;;;;;;;;;;;;;;;;;;;;;;;;;;;x
1905;Onda Giken;JAP04;7;1930;2110;chemistry;technical_efficiency;mechanics;electronics;management;;;;;;;;;;;;;;;;;;;;;;;;;;;;x
1906;Howa Machinery Co., Ltd.;JAP17;8;1930;2110;artillery;general_equipment;electronics;training;mechanics;;;;;;;;;;;;;;;;;;;;;;;;;;;;x
1907;Empire Communications, Inc.;JAP21;6;1930;2110;mathematics;electronics;mechanics;;;;;;;;;;;;;;;;;;;;;;;;;;;;;;x
1908;Tokyo Imperial University;JAP07;8;1930;2110;chemistry;mathematics;electronics;industrial_engineering;mechanics;;;;;;;;;;;;;;;;;;;;;;;;;;;;x
1909;Firmament temple aircraft;JAP20;7;1930;2110;aeronautics;chemistry;technical_efficiency;;;;;;;;;;;;;;;;;;;;;;;;;;;;;;x
1910;Light diamond airplane;JAP19;8;1930;2110;aeronautics;chemistry;technical_efficiency;;;;;;;;;;;;;;;;;;;;;;;;;;;;;;x
1911;Fugaku airplane;JAP18;7;1930;2110;aeronautics;technical_efficiency;artillery;rocketry;;;;;;;;;;;;;;;;;;;;;;;;;;;;;x
1912;Kawasaki aircraft;JAP10;7;1930;2110;aeronautics;technical_efficiency;mechanics;;;;;;;;;;;;;;;;;;;;;;;;;;;;;;x
1913;IHI Corporation;JAP21;7;1930;2110;rocketry;naval_artillery;technical_efficiency;naval_engineering;electronics;;;;;;;;;;;;;;;;;;;;;;;;;;;;x
1914;Imperial Army General Staff section;JAP12;7;1930;2110;large_unit_tactics;combined_arms_focus;individual_courage;centralized_execution;maneuver_tactics;;;;;;;;;;;;;;;;;;;;;;;;;;;;x
1915;Imperial homeland defense forces;JAP11;6;1930;2110;decentralized_execution;individual_courage;combined_arms_focus;training;large_unit_focus;;;;;;;;;;;;;;;;;;;;;;;;;;;;x
1916;Imperial Navy Naval General Staff;JAP12;9;1930;2110;centralized_execution;large_taskforce_tactics;naval_training;seamanship;;;;;;;;;;;;;;;;;;;;;;;;;;;;;x
1917;Aerospace Forces General Staff section;JAP13;7;1930;2110;aircraft_testing;centralized_execution;fighter_tactics;piloting;;;;;;;;;;;;;;;;;;;;;;;;;;;;;x
1918;RIKEN;JAP16;6;1930;2110;nuclear_physics;nuclear_engineering;chemistry;electronics;mathematics;;;;;;;;;;;;;;;;;;;;;;;;;;;;x
1919;National Institute of Advanced Industrial Science and Technology;JAP22;7;1930;2110;mechanics;electronics;chemistry;industrial_engineering;management;;;;;;;;;;;;;;;;;;;;;;;;;;;;x
1920;Atomic Energy Agency;JAP15;7;1930;2110;nuclear_physics;nuclear_engineering;mathematics;;;;;;;;;;;;;;;;;;;;;;;;;;;;;;x
1921;Information-Technology Promotion Agency;JAP23;6;1930;2110;mathematics;electronics;chemistry;;;;;;;;;;;;;;;;;;;;;;;;;;;;;;x
1922;Japan Aerospace Exploration Agency;JAP05;7;1930;2110;rocketry;aeronautics;mechanics;technical_efficiency;electronics;;;;;;;;;;;;;;;;;;;;;;;;;;;;x
1923;Ministry of Defence Technology Research Division;JAP06;9;1930;2110;technical_efficiency;mechanics;electronics;rocketry;aeronautics;;;;;;;;;;;;;;;;;;;;;;;;;;;;x
1924;Kansei Headquarters Institute of Technology;JAP14;9;1930;2110;naval_artillery;electronics;naval_engineering;mechanics;technical_efficiency;;;;;;;;;;;;;;;;;;;;;;;;;;;;x
1925;Imperial technology Factory first Ichi Development Authority;JAP31;7;1930;2110;chemistry;electronics;general_equipment;industrial_engineering;;;;;;;;;;;;;;;;;;;;;;;;;;;;;x
1926;Imperial technology Factory first Vol.2 Development Authority;JAP32;6;1930;2110;electronics;industrial_engineering;mechanics;;;;;;;;;;;;;;;;;;;;;;;;;;;;;;x
1927;Imperial Army weapons arsenal;JAP33;7;1930;2110;artillery;training;mechanics;general_equipment;;;;;;;;;;;;;;;;;;;;;;;;;;;;;x
1928;Imperial Navy weapons arsenal;JAP34;7;1930;2110;naval_engineering;electronics;naval_artillery;technical_efficiency;;;;;;;;;;;;;;;;;;;;;;;;;;;;;x
1929;Imperial aerospace army weapons arsenal;JAP35;6;1930;2110;aeronautics;rocketry;artillery;mechanics;;;;;;;;;;;;;;;;;;;;;;;;;;;;;x
1930;Imperial Army technology Factory;JAP36;6;1930;2110;artillery;electronics;mechanics;chemistry;;;;;;;;;;;;;;;;;;;;;;;;;;;;;x
1931;Imperial Navy technology Factory;JAP37;7;1930;2110;aeronautics;electronics;naval_artillery;naval_engineering;technical_efficiency;;;;;;;;;;;;;;;;;;;;;;;;;;;;x
1932;Imperial aerospace military technology Factory;JAP38;6;1930;2110;aeronautics;chemistry;rocketry;technical_efficiency;;;;;;;;;;;;;;;;;;;;;;;;;;;;;x
1933;Katsuki Yuko;JAP25;9;1930;2110;mathematics;technical_efficiency;electronics;mechanics;nuclear_physics;;;;;;;;;;;;;;;;;;;;;;;;;;;;x
1934;Age Iwaya;JAP24;7;1930;2110;centralized_execution;combined_arms_focus;small_unit_tactics;training;management;;;;;;;;;;;;;;;;;;;;;;;;;;;;x
1936;Ozawa;JAP27;8;1930;2110;centralized_execution;large_taskforce_tactics;naval_training;seamanship;;;;;;;;;;;;;;;;;;;;;;;;;;;;;x
1937;Abe;JAP28;7;1930;2110;decentralized_execution;small_taskforce_tactics;naval_training;seamanship;;;;;;;;;;;;;;;;;;;;;;;;;;;;;x
1938;Tadokoro;JAP29;7;1930;2110;centralized_execution;large_taskforce_tactics;naval_training;naval_artillery;;;;;;;;;;;;;;;;;;;;;;;;;;;;;x
1939;Iguchi;JAP30;7;1930;2110;decentralized_execution;large_taskforce_tactics;naval_training;seamanship;naval_engineering;;;;;;;;;;;;;;;;;;;;;;;;;;;;x
