MEX;Name;Pic Name;Skill;Start Year;End Year;Speciality1;Speciality2;Speciality3;Speciality4;Speciality5;Speciality6;Speciality7;Speciality8;Speciality9;Speciality10;Speciality11;Speciality12;Speciality13;Speciality14;Speciality15;Speciality16;Speciality17;Speciality18;Speciality19;Speciality20;Speciality21;Speciality22;Speciality23;Speciality24;Speciality25;Speciality26;Speciality27;Speciality28;Speciality29;Speciality30;Speciality31;Speciality32;x
2200;Alberto Salinas, Karratha;T2205;4;1940;2100;aircraft_testing;bomber_tactics;centralized_execution;;;;;;;;;;;;;;;;;;;;;;;;;;;;;;x
2201;COMESA, Inc.;T2201;3;1930;2100;artillery;general_equipment;mechanics;;;;;;;;;;;;;;;;;;;;;;;;;;;;;;x
2202;CEMEX, Inc.;T_MEX_Cemex;4;1930;2100;chemistry;industrial_engineering;management;;;;;;;;;;;;;;;;;;;;;;;;;;;;;;x
2203;Mexico metal company;T2204;5;1930;2100;industrial_engineering;mechanics;technical_efficiency;;;;;;;;;;;;;;;;;;;;;;;;;;;;;;x
2204;Department of the Navy;T_MEX_Navy;4;1930;2100;naval_artillery;naval_engineering;technical_efficiency;;;;;;;;;;;;;;;;;;;;;;;;;;;;;;x
2205;Enrique Estrada, Reinoso;T2206;3;1930;2100;decentralized_execution;small_unit_tactics;training;;;;;;;;;;;;;;;;;;;;;;;;;;;;;;x
2206;Mexico Air Force;T_MEX_FuerzaAereaMexicana;3;1930;2100;aircraft_testing;centralized_execution;fighter_tactics;;;;;;;;;;;;;;;;;;;;;;;;;;;;;;x
2207;Gustavo Salinas Kamina;T2207;4;1930;2100;aircraft_testing;fighter_tactics;piloting;;;;;;;;;;;;;;;;;;;;;;;;;;;;;;x
2208;Luis Ilam TOLEDO;T2209;2;1930;1943;large_taskforce_tactics;naval_training;seamanship;;;;;;;;;;;;;;;;;;;;;;;;;;;;;;x
2209;Mabesha;T_MEX_Mabe;2;1946;2100;electronics;;;;;;;;;;;;;;;;;;;;;;;;;;;;;;;;x
2210;Manuel Avila Camacho;T2203;5;1930;2100;individual_courage;large_unit_tactics;management;;;;;;;;;;;;;;;;;;;;;;;;;;;;;;x
2211;Manuel Sandoval, Vajaruta;T_MEX_ManuelSandovalVallarta;4;1930;2100;electronics;mathematics;nuclear_physics;;;;;;;;;;;;;;;;;;;;;;;;;;;;;;x
2212;Mendoza, Inc.;T_MEX_Mendoza;3;1930;2100;artillery;general_equipment;;;;;;;;;;;;;;;;;;;;;;;;;;;;;;;x
2213;National Autonomous University of Mexico;T2211;3;1930;2100;chemistry;management;mechanics;;;;;;;;;;;;;;;;;;;;;;;;;;;;;;x
2214;PEMEX, Inc.;T2202;4;1938;2100;chemistry;industrial_engineering;management;;;;;;;;;;;;;;;;;;;;;;;;;;;;;;x
2215;PYOSA Inc.;T_MEX_PYOSA;4;1938;2100;chemistry;industrial_engineering;;;;;;;;;;;;;;;;;;;;;;;;;;;;;;;x
2216;Rasshini Inc.;T_MEX_Rassini;2;1930;2100;technical_efficiency;;;;;;;;;;;;;;;;;;;;;;;;;;;;;;;;x
2217;Mexico Navy;T2208;4;1930;2100;centralized_execution;large_taskforce_tactics;naval_training;;;;;;;;;;;;;;;;;;;;;;;;;;;;;;x
2218;Ministry of Defence;T2210;3;1930;2100;centralized_execution;infantry_focus;large_unit_tactics;training;;;;;;;;;;;;;;;;;;;;;;;;;;;;;x
2219;TNCA Inc.;T2200;4;1930;2100;aeronautics;electronics;technical_efficiency;;;;;;;;;;;;;;;;;;;;;;;;;;;;;;x
