SIA;Name;Pic Name;Skill;Start Year;End Year;Speciality1;Speciality2;Speciality3;Speciality4;Speciality5;Speciality6;Speciality7;Speciality8;Speciality9;Speciality10;Speciality11;Speciality12;Speciality13;Speciality14;Speciality15;Speciality16;Speciality17;Speciality18;Speciality19;Speciality20;Speciality21;Speciality22;Speciality23;Speciality24;Speciality25;Speciality26;Speciality27;Speciality28;Speciality29;Speciality30;Speciality31;Speciality32;x
9100;Bangkok Arsenal;T13;4;1930;2100;mechanics;artillery;training;general_equipment;electronics;;;;;;;;;;;;;;;;;;;;;;;;;;;;x
9101;Bangkok shipyard;T6;3;1930;2100;naval_engineering;technical_efficiency;naval_artillery;electronics;;;;;;;;;;;;;;;;;;;;;;;;;;;;;x
9102;Bank of Thailand;T9111;2;1943;2100;industrial_engineering;management;;;;;;;;;;;;;;;;;;;;;;;;;;;;;;;x
9103;Luang Kayusonkuramu;T9102;4;1942;2100;bomber_tactics;piloting;aircraft_testing;centralized_execution;;;;;;;;;;;;;;;;;;;;;;;;;;;;;x
9104;Luang-pin Boone Sonck alarm;T9100;3;1930;2100;individual_courage;infantry_focus;centralized_execution;small_unit_tactics;;;;;;;;;;;;;;;;;;;;;;;;;;;;;x
9105;Luang Singh TO Songkhram Chai;T9103;2;1930;2100;fighter_tactics;piloting;aircraft_testing;centralized_execution;;;;;;;;;;;;;;;;;;;;;;;;;;;;;x
9106;Navy Marshal;T9101;3;1930;2100;small_taskforce_tactics;naval_training;centralized_execution;;;;;;;;;;;;;;;;;;;;;;;;;;;;;;x
9107;Pin Chunhawan;T_SIA_Phin_Choonhavan;3;1933;2100;infantry_focus;training;individual_courage;large_unit_tactics;;;;;;;;;;;;;;;;;;;;;;;;;;;;;x
9108;Phraya Wie Chang Wo La jacuzzi;T_SIA_Phraya_Wichanworajak;3;1934;2100;small_taskforce_tactics;seamanship;decentralized_execution;;;;;;;;;;;;;;;;;;;;;;;;;;;;;;x
9109;Royal Aviation Administration;T6401;4;1930;2100;aeronautics;artillery;mechanics;electronics;training;;;;;;;;;;;;;;;;;;;;;;;;;;;;x
9110;Sarit Thanarat;T9110;4;1957;2100;individual_courage;infantry_focus;centralized_execution;small_unit_tactics;piloting;;;;;;;;;;;;;;;;;;;;;;;;;;;;x
9111;Siam Cement;T10504;5;1930;2100;industrial_engineering;chemistry;mechanics;;;;;;;;;;;;;;;;;;;;;;;;;;;;;;x
9112;Siam Electricity Co., Ltd.;T2704;5;1930;2100;industrial_engineering;electronics;technical_efficiency;;;;;;;;;;;;;;;;;;;;;;;;;;;;;;x
9113;Thammasat University;T9109;3;1930;2100;mechanics;chemistry;management;;;;;;;;;;;;;;;;;;;;;;;;;;;;;;
