model = { # Basic Escort Fighter - 0
	cost 						= 15
	buildtime	 				= 150
	defaultorganisation 		= 30
	morale						= 30
	manpower					= 1
	maxspeed					= 500
	surfacedetectioncapability	= 3
	airdetectioncapability		= 2
	surfacedefence				= 9
	airdefence					= 8
	airattack					= 5
	strategicattack				= 0
	softattack					= 0
	hardattack					= 0
	navalattack					= 0
	range						= 800
	supplyconsumption 			= 1
	fuelconsumption				= 2
	upgrade_time_factor = 0.5
	upgrade_cost_factor = 1.0
}
model = { # Improved Escort Fighter - 1
	cost 						= 18
	buildtime	 				= 150
	defaultorganisation 		= 30
	morale						= 30
	manpower					= 1
	maxspeed					= 600
	surfacedetectioncapability	= 3
	airdetectioncapability		= 3
	surfacedefence				= 12
	airdefence					= 12
	airattack					= 6
	strategicattack				= 0
	softattack					= 0
	hardattack					= 0
	navalattack					= 0
	range						= 1000
	supplyconsumption 			= 1.2
	fuelconsumption				= 2
	upgrade_time_factor = 0.5
	upgrade_cost_factor = 1.0
}
model = { # Advanced Escort Fighter - 2
	cost 						= 21
	buildtime	 				= 150
	defaultorganisation 		= 30
	morale						= 30
	manpower					= 1
	maxspeed					= 650
	surfacedetectioncapability	= 5
	airdetectioncapability		= 5
	surfacedefence				= 18
	airdefence					= 16
	airattack					= 8
	strategicattack				= 0
	softattack					= 0
	hardattack					= 0
	navalattack					= 0
	range						= 1300
	supplyconsumption 			= 1.4
	fuelconsumption				= 2
	upgrade_time_factor = 0.5
	upgrade_cost_factor = 1.0
}
model = { # Basic Escort Fighter - 0
	cost 						= 15
	buildtime	 				= 150
	defaultorganisation 		= 30
	morale						= 30
	manpower					= 1
	maxspeed					= 500
	surfacedetectioncapability	= 3
	airdetectioncapability		= 2
	surfacedefence				= 9
	airdefence					= 8
	airattack					= 5
	strategicattack				= 0
	softattack					= 0
	hardattack					= 0
	navalattack					= 0
	range						= 800
	supplyconsumption 			= 1
	fuelconsumption				= 2
	upgrade_time_factor = 0.5
	upgrade_cost_factor = 1.0
}
model = { # Improved Escort Fighter - 1
	cost 						= 18
	buildtime	 				= 150
	defaultorganisation 		= 30
	morale						= 30
	manpower					= 1
	maxspeed					= 600
	surfacedetectioncapability	= 3
	airdetectioncapability		= 3
	surfacedefence				= 12
	airdefence					= 12
	airattack					= 6
	strategicattack				= 0
	softattack					= 0
	hardattack					= 0
	navalattack					= 0
	range						= 1000
	supplyconsumption 			= 1.2
	fuelconsumption				= 2
	upgrade_time_factor = 0.5
	upgrade_cost_factor = 1.0
}
model = { # Advanced Escort Fighter - 2
	cost 						= 21
	buildtime	 				= 150
	defaultorganisation 		= 30
	morale						= 30
	manpower					= 1
	maxspeed					= 650
	surfacedetectioncapability	= 5
	airdetectioncapability		= 5
	surfacedefence				= 18
	airdefence					= 16
	airattack					= 8
	strategicattack				= 0
	softattack					= 0
	hardattack					= 0
	navalattack					= 0
	range						= 1300
	supplyconsumption 			= 1.4
	fuelconsumption				= 2
	upgrade_time_factor = 0.5
	upgrade_cost_factor = 1.0
}
model = { # Basic Escort Fighter - 0
	cost 						= 15
	buildtime	 				= 150
	defaultorganisation 		= 30
	morale						= 30
	manpower					= 1
	maxspeed					= 500
	surfacedetectioncapability	= 3
	airdetectioncapability		= 2
	surfacedefence				= 9
	airdefence					= 8
	airattack					= 5
	strategicattack				= 0
	softattack					= 0
	hardattack					= 0
	navalattack					= 0
	range						= 800
	supplyconsumption 			= 1
	fuelconsumption				= 2
	upgrade_time_factor = 0.5
	upgrade_cost_factor = 1.0
}
model = { # Improved Escort Fighter - 1
	cost 						= 18
	buildtime	 				= 150
	defaultorganisation 		= 30
	morale						= 30
	manpower					= 1
	maxspeed					= 600
	surfacedetectioncapability	= 3
	airdetectioncapability		= 3
	surfacedefence				= 12
	airdefence					= 12
	airattack					= 6
	strategicattack				= 0
	softattack					= 0
	hardattack					= 0
	navalattack					= 0
	range						= 1000
	supplyconsumption 			= 1.2
	fuelconsumption				= 2
	upgrade_time_factor = 0.5
	upgrade_cost_factor = 1.0
}
model = { # Advanced Escort Fighter - 2
	cost 						= 21
	buildtime	 				= 150
	defaultorganisation 		= 30
	morale						= 30
	manpower					= 1
	maxspeed					= 650
	surfacedetectioncapability	= 5
	airdetectioncapability		= 5
	surfacedefence				= 18
	airdefence					= 16
	airattack					= 8
	strategicattack				= 0
	softattack					= 0
	hardattack					= 0
	navalattack					= 0
	range						= 1300
	supplyconsumption 			= 1.4
	fuelconsumption				= 2
	upgrade_time_factor = 0.5
	upgrade_cost_factor = 1.0
}
model = { # Advanced Escort Fighter - 2
	cost 						= 21
	buildtime	 				= 150
	defaultorganisation 		= 30
	morale						= 30
	manpower					= 1
	maxspeed					= 650
	surfacedetectioncapability	= 5
	airdetectioncapability		= 5
	surfacedefence				= 18
	airdefence					= 16
	airattack					= 8
	strategicattack				= 0
	softattack					= 0
	hardattack					= 0
	navalattack					= 0
	range						= 1300
	supplyconsumption 			= 1.4
	fuelconsumption				= 2
	upgrade_time_factor = 0.5
	upgrade_cost_factor = 1.0
}
model = { # Basic Escort Fighter - 0
	cost 						= 15
	buildtime	 				= 150
	defaultorganisation 		= 30
	morale						= 30
	manpower					= 1
	maxspeed					= 500
	surfacedetectioncapability	= 3
	airdetectioncapability		= 2
	surfacedefence				= 9
	airdefence					= 8
	airattack					= 5
	strategicattack				= 0
	softattack					= 0
	hardattack					= 0
	navalattack					= 0
	range						= 800
	supplyconsumption 			= 1
	fuelconsumption				= 2
	upgrade_time_factor = 0.5
	upgrade_cost_factor = 1.0
}
model = { # Improved Escort Fighter - 1
	cost 						= 18
	buildtime	 				= 150
	defaultorganisation 		= 30
	morale						= 30
	manpower					= 1
	maxspeed					= 600
	surfacedetectioncapability	= 3
	airdetectioncapability		= 3
	surfacedefence				= 12
	airdefence					= 12
	airattack					= 6
	strategicattack				= 0
	softattack					= 0
	hardattack					= 0
	navalattack					= 0
	range						= 1000
	supplyconsumption 			= 1.2
	fuelconsumption				= 2
	upgrade_time_factor = 0.5
	upgrade_cost_factor = 1.0
}
model = { # Advanced Escort Fighter - 2
	cost 						= 21
	buildtime	 				= 150
	defaultorganisation 		= 30
	morale						= 30
	manpower					= 1
	maxspeed					= 650
	surfacedetectioncapability	= 5
	airdetectioncapability		= 5
	surfacedefence				= 18
	airdefence					= 16
	airattack					= 8
	strategicattack				= 0
	softattack					= 0
	hardattack					= 0
	navalattack					= 0
	range						= 1300
	supplyconsumption 			= 1.4
	fuelconsumption				= 2
	upgrade_time_factor = 0.5
	upgrade_cost_factor = 1.0
}
model = { # Basic Escort Fighter - 0
	cost 						= 15
	buildtime	 				= 150
	defaultorganisation 		= 30
	morale						= 30
	manpower					= 1
	maxspeed					= 500
	surfacedetectioncapability	= 3
	airdetectioncapability		= 2
	surfacedefence				= 9
	airdefence					= 8
	airattack					= 5
	strategicattack				= 0
	softattack					= 0
	hardattack					= 0
	navalattack					= 0
	range						= 800
	supplyconsumption 			= 1
	fuelconsumption				= 2
	upgrade_time_factor = 0.5
	upgrade_cost_factor = 1.0
}
model = { # Improved Escort Fighter - 1
	cost 						= 18
	buildtime	 				= 150
	defaultorganisation 		= 30
	morale						= 30
	manpower					= 1
	maxspeed					= 600
	surfacedetectioncapability	= 3
	airdetectioncapability		= 3
	surfacedefence				= 12
	airdefence					= 12
	airattack					= 6
	strategicattack				= 0
	softattack					= 0
	hardattack					= 0
	navalattack					= 0
	range						= 1000
	supplyconsumption 			= 1.2
	fuelconsumption				= 2
	upgrade_time_factor = 0.5
	upgrade_cost_factor = 1.0
}
model = { # Basic Escort Fighter - 0
	cost 						= 15
	buildtime	 				= 150
	defaultorganisation 		= 30
	morale						= 30
	manpower					= 1
	maxspeed					= 500
	surfacedetectioncapability	= 3
	airdetectioncapability		= 2
	surfacedefence				= 9
	airdefence					= 8
	airattack					= 5
	strategicattack				= 0
	softattack					= 0
	hardattack					= 0
	navalattack					= 0
	range						= 800
	supplyconsumption 			= 1
	fuelconsumption				= 2
	upgrade_time_factor = 0.5
	upgrade_cost_factor = 1.0
}
model = { # Improved Escort Fighter - 1
	cost 						= 18
	buildtime	 				= 150
	defaultorganisation 		= 30
	morale						= 30
	manpower					= 1
	maxspeed					= 600
	surfacedetectioncapability	= 3
	airdetectioncapability		= 3
	surfacedefence				= 12
	airdefence					= 12
	airattack					= 6
	strategicattack				= 0
	softattack					= 0
	hardattack					= 0
	navalattack					= 0
	range						= 1000
	supplyconsumption 			= 1.2
	fuelconsumption				= 2
	upgrade_time_factor = 0.5
	upgrade_cost_factor = 1.0
}
model = { # Advanced Escort Fighter - 2
	cost 						= 21
	buildtime	 				= 150
	defaultorganisation 		= 30
	morale						= 30
	manpower					= 1
	maxspeed					= 650
	surfacedetectioncapability	= 5
	airdetectioncapability		= 5
	surfacedefence				= 18
	airdefence					= 16
	airattack					= 8
	strategicattack				= 0
	softattack					= 0
	hardattack					= 0
	navalattack					= 0
	range						= 1300
	supplyconsumption 			= 1.4
	fuelconsumption				= 2
	upgrade_time_factor = 0.5
	upgrade_cost_factor = 1.0
}
model = { # Basic Escort Fighter - 0
	cost 						= 15
	buildtime	 				= 150
	defaultorganisation 		= 30
	morale						= 30
	manpower					= 1
	maxspeed					= 500
	surfacedetectioncapability	= 3
	airdetectioncapability		= 2
	surfacedefence				= 9
	airdefence					= 8
	airattack					= 5
	strategicattack				= 0
	softattack					= 0
	hardattack					= 0
	navalattack					= 0
	range						= 800
	supplyconsumption 			= 1
	fuelconsumption				= 2
	upgrade_time_factor = 0.5
	upgrade_cost_factor = 1.0
}
model = { # Improved Escort Fighter - 1
	cost 						= 18
	buildtime	 				= 150
	defaultorganisation 		= 30
	morale						= 30
	manpower					= 1
	maxspeed					= 600
	surfacedetectioncapability	= 3
	airdetectioncapability		= 3
	surfacedefence				= 12
	airdefence					= 12
	airattack					= 6
	strategicattack				= 0
	softattack					= 0
	hardattack					= 0
	navalattack					= 0
	range						= 1000
	supplyconsumption 			= 1.2
	fuelconsumption				= 2
	upgrade_time_factor = 0.5
	upgrade_cost_factor = 1.0
}
model = { # Basic Escort Fighter - 0
	cost 						= 15
	buildtime	 				= 150
	defaultorganisation 		= 30
	morale						= 30
	manpower					= 1
	maxspeed					= 500
	surfacedetectioncapability	= 3
	airdetectioncapability		= 2
	surfacedefence				= 9
	airdefence					= 8
	airattack					= 5
	strategicattack				= 0
	softattack					= 0
	hardattack					= 0
	navalattack					= 0
	range						= 800
	supplyconsumption 			= 1
	fuelconsumption				= 2
	upgrade_time_factor = 0.5
	upgrade_cost_factor = 1.0
}
model = { # Improved Escort Fighter - 1
	cost 						= 18
	buildtime	 				= 150
	defaultorganisation 		= 30
	morale						= 30
	manpower					= 1
	maxspeed					= 600
	surfacedetectioncapability	= 3
	airdetectioncapability		= 3
	surfacedefence				= 12
	airdefence					= 12
	airattack					= 6
	strategicattack				= 0
	softattack					= 0
	hardattack					= 0
	navalattack					= 0
	range						= 1000
	supplyconsumption 			= 1.2
	fuelconsumption				= 2
	upgrade_time_factor = 0.5
	upgrade_cost_factor = 1.0
}
model = { # Advanced Escort Fighter - 2
	cost 						= 21
	buildtime	 				= 150
	defaultorganisation 		= 30
	morale						= 30
	manpower					= 1
	maxspeed					= 650
	surfacedetectioncapability	= 5
	airdetectioncapability		= 5
	surfacedefence				= 18
	airdefence					= 16
	airattack					= 8
	strategicattack				= 0
	softattack					= 0
	hardattack					= 0
	navalattack					= 0
	range						= 1300
	supplyconsumption 			= 1.4
	fuelconsumption				= 2
	upgrade_time_factor = 0.5
	upgrade_cost_factor = 1.0
}
model = { # Basic Escort Fighter - 0
	cost 						= 15
	buildtime	 				= 150
	defaultorganisation 		= 30
	morale						= 30
	manpower					= 1
	maxspeed					= 500
	surfacedetectioncapability	= 3
	airdetectioncapability		= 2
	surfacedefence				= 9
	airdefence					= 8
	airattack					= 5
	strategicattack				= 0
	softattack					= 0
	hardattack					= 0
	navalattack					= 0
	range						= 800
	supplyconsumption 			= 1
	fuelconsumption				= 2
	upgrade_time_factor = 0.5
	upgrade_cost_factor = 1.0
}
model = { # Improved Escort Fighter - 1
	cost 						= 18
	buildtime	 				= 150
	defaultorganisation 		= 30
	morale						= 30
	manpower					= 1
	maxspeed					= 600
	surfacedetectioncapability	= 3
	airdetectioncapability		= 3
	surfacedefence				= 12
	airdefence					= 12
	airattack					= 6
	strategicattack				= 0
	softattack					= 0
	hardattack					= 0
	navalattack					= 0
	range						= 1000
	supplyconsumption 			= 1.2
	fuelconsumption				= 2
	upgrade_time_factor = 0.5
	upgrade_cost_factor = 1.0
}
model = { # Basic Escort Fighter - 0
	cost 						= 15
	buildtime	 				= 150
	defaultorganisation 		= 30
	morale						= 30
	manpower					= 1
	maxspeed					= 500
	surfacedetectioncapability	= 3
	airdetectioncapability		= 2
	surfacedefence				= 9
	airdefence					= 8
	airattack					= 5
	strategicattack				= 0
	softattack					= 0
	hardattack					= 0
	navalattack					= 0
	range						= 800
	supplyconsumption 			= 1
	fuelconsumption				= 2
	upgrade_time_factor = 0.5
	upgrade_cost_factor = 1.0
}
model = { # Improved Escort Fighter - 1
	cost 						= 18
	buildtime	 				= 150
	defaultorganisation 		= 30
	morale						= 30
	manpower					= 1
	maxspeed					= 600
	surfacedetectioncapability	= 3
	airdetectioncapability		= 3
	surfacedefence				= 12
	airdefence					= 12
	airattack					= 6
	strategicattack				= 0
	softattack					= 0
	hardattack					= 0
	navalattack					= 0
	range						= 1000
	supplyconsumption 			= 1.2
	fuelconsumption				= 2
	upgrade_time_factor = 0.5
	upgrade_cost_factor = 1.0
}
model = { # Advanced Escort Fighter - 2
	cost 						= 21
	buildtime	 				= 150
	defaultorganisation 		= 30
	morale						= 30
	manpower					= 1
	maxspeed					= 650
	surfacedetectioncapability	= 5
	airdetectioncapability		= 5
	surfacedefence				= 18
	airdefence					= 16
	airattack					= 8
	strategicattack				= 0
	softattack					= 0
	hardattack					= 0
	navalattack					= 0
	range						= 1300
	supplyconsumption 			= 1.4
	fuelconsumption				= 2
	upgrade_time_factor = 0.5
	upgrade_cost_factor = 1.0
}
model = { # Basic Escort Fighter - 0
	cost 						= 15
	buildtime	 				= 150
	defaultorganisation 		= 30
	morale						= 30
	manpower					= 1
	maxspeed					= 500
	surfacedetectioncapability	= 3
	airdetectioncapability		= 2
	surfacedefence				= 9
	airdefence					= 8
	airattack					= 5
	strategicattack				= 0
	softattack					= 0
	hardattack					= 0
	navalattack					= 0
	range						= 800
	supplyconsumption 			= 1
	fuelconsumption				= 2
	upgrade_time_factor = 0.5
	upgrade_cost_factor = 1.0
}
model = { # Improved Escort Fighter - 1
	cost 						= 18
	buildtime	 				= 150
	defaultorganisation 		= 30
	morale						= 30
	manpower					= 1
	maxspeed					= 600
	surfacedetectioncapability	= 3
	airdetectioncapability		= 3
	surfacedefence				= 12
	airdefence					= 12
	airattack					= 6
	strategicattack				= 0
	softattack					= 0
	hardattack					= 0
	navalattack					= 0
	range						= 1000
	supplyconsumption 			= 1.2
	fuelconsumption				= 2
	upgrade_time_factor = 0.5
	upgrade_cost_factor = 1.0
}
model = { # Basic Escort Fighter - 0
	cost 						= 15
	buildtime	 				= 150
	defaultorganisation 		= 30
	morale						= 30
	manpower					= 1
	maxspeed					= 500
	surfacedetectioncapability	= 3
	airdetectioncapability		= 2
	surfacedefence				= 9
	airdefence					= 8
	airattack					= 5
	strategicattack				= 0
	softattack					= 0
	hardattack					= 0
	navalattack					= 0
	range						= 800
	supplyconsumption 			= 1
	fuelconsumption				= 2
	upgrade_time_factor = 0.5
	upgrade_cost_factor = 1.0
}
model = { # Improved Escort Fighter - 1
	cost 						= 18
	buildtime	 				= 150
	defaultorganisation 		= 30
	morale						= 30
	manpower					= 1
	maxspeed					= 600
	surfacedetectioncapability	= 3
	airdetectioncapability		= 3
	surfacedefence				= 12
	airdefence					= 12
	airattack					= 6
	strategicattack				= 0
	softattack					= 0
	hardattack					= 0
	navalattack					= 0
	range						= 1000
	supplyconsumption 			= 1.2
	fuelconsumption				= 2
	upgrade_time_factor = 0.5
	upgrade_cost_factor = 1.0
}
model = { # Advanced Escort Fighter - 2
	cost 						= 21
	buildtime	 				= 150
	defaultorganisation 		= 30
	morale						= 30
	manpower					= 1
	maxspeed					= 650
	surfacedetectioncapability	= 5
	airdetectioncapability		= 5
	surfacedefence				= 18
	airdefence					= 16
	airattack					= 8
	strategicattack				= 0
	softattack					= 0
	hardattack					= 0
	navalattack					= 0
	range						= 1300
	supplyconsumption 			= 1.4
	fuelconsumption				= 2
	upgrade_time_factor = 0.5
	upgrade_cost_factor = 1.0
}
model = { # Basic Escort Fighter - 0
	cost 						= 15
	buildtime	 				= 150
	defaultorganisation 		= 30
	morale						= 30
	manpower					= 1
	maxspeed					= 500
	surfacedetectioncapability	= 3
	airdetectioncapability		= 2
	surfacedefence				= 9
	airdefence					= 8
	airattack					= 5
	strategicattack				= 0
	softattack					= 0
	hardattack					= 0
	navalattack					= 0
	range						= 800
	supplyconsumption 			= 1
	fuelconsumption				= 2
	upgrade_time_factor = 0.5
	upgrade_cost_factor = 1.0
}
model = { # Improved Escort Fighter - 1
	cost 						= 18
	buildtime	 				= 150
	defaultorganisation 		= 30
	morale						= 30
	manpower					= 1
	maxspeed					= 600
	surfacedetectioncapability	= 3
	airdetectioncapability		= 3
	surfacedefence				= 12
	airdefence					= 12
	airattack					= 6
	strategicattack				= 0
	softattack					= 0
	hardattack					= 0
	navalattack					= 0
	range						= 1000
	supplyconsumption 			= 1.2
	fuelconsumption				= 2
	upgrade_time_factor = 0.5
	upgrade_cost_factor = 1.0
}