##############################################################
##
## 欧州大戦イベント_欧州租借地委員会/欧州連合(23801~23900)
##
##############################################################
##
## id = 23801   欧州租借地委員会
## id = 23802   欧州統合条約(U02)
## id = 23803   欧州統合条約(ALB)
## id = 23804   欧州統合条約(AUS)
## id = 23805   欧州統合条約(BEL)
## id = 23806   欧州統合条約(BUL)
## id = 23807   欧州統合条約(CZE)
## id = 23808   欧州統合条約(DDR)
## id = 23809   欧州統合条約(DFR)
## id = 23810   欧州統合条約(DEN)
## id = 23811   欧州統合条約(ENG)
## id = 23812   欧州統合条約(FRA)
## id = 23813   欧州統合条約(GRE)
## id = 23814   欧州統合条約(HOL)
## id = 23815   欧州統合条約(HUN)
## id = 23816   欧州統合条約(IRE)
## id = 23817   欧州統合条約(ITA)
## id = 23818   欧州統合条約(LUX)
## id = 23819   欧州統合条約(NOR)
## id = 23820   欧州統合条約(POR)
## id = 23821   欧州統合条約(ROM)
## id = 23822   欧州統合条約(SCH)
## id = 23823   欧州統合条約(SPA)
## id = 23824   欧州統合条約(SWE)
## id = 23825   欧州統合条約(YUG)
## id = 23826   欧州統合条約批准(ALB)
## id = 23827   欧州統合条約批准(AUS)
## id = 23828   欧州統合条約批准(BEL)
## id = 23829   欧州統合条約批准(BUL)
## id = 23830   欧州統合条約批准(CZE)
## id = 23831   欧州統合条約批准(DDR)
## id = 23832   欧州統合条約批准(DFR)
## id = 23833   欧州統合条約批准(DEN)
## id = 23834   欧州統合条約批准(ENG)
## id = 23835   欧州統合条約批准(FRA)
## id = 23836   欧州統合条約批准(GRE)
## id = 23837   欧州統合条約批准(HOL)
## id = 23838   欧州統合条約批准(HUN)
## id = 23839   欧州統合条約批准(IRE)
## id = 23840   欧州統合条約批准(ITA)
## id = 23841   欧州統合条約批准(LUX)
## id = 23842   欧州統合条約批准(NOR)
## id = 23843   欧州統合条約批准(POR)
## id = 23844   欧州統合条約批准(ROM)
## id = 23845   欧州統合条約批准(SCH)
## id = 23846   欧州統合条約批准(SPA)
## id = 23847   欧州統合条約批准(SWE)
## id = 23848   欧州統合条約批准(YUG)
## id = 23849   欧州連合本部移転
##
##############################################################
event = {
	id = 23801
	random = no
	country = U02
	trigger = { exists = U12 }

	name = "欧州租借地委員会"
	desc = "EVT_23801_DESC"
	style = 0
	date = { day = 29 month = 11 year = 1901 }
	offset = 1
	deathdate = { day = 29 month = 11 year = 3000 }

	action_a = {
		name = "ok"
                command = { type = name where = U02 which = "欧州租借地委員会" }
    }
}

event = {
	id = 23802
	random = no
	country = U02
	trigger = {
                 control = { province = 300 data = -2 }
                 control = { province = 75 data = -2 }
                 control = { province = 56 data = -2 }
                 control = { province = 469 data = -2 }
                 control = { province = 463 data = -2 }
                 control = { province = 417 data = -2 }
                 control = { province = 424 data = -2 }
	            }

	name = "欧州統合条約"
	desc = "EVT_23802_DESC"
	style = 0
	date = { day = 29 month = 11 year = 1901 }
	offset = 1
	deathdate = { day = 29 month = 11 year = 3000 }

	action_a = {
		name = "欧州のより一層の統合を！"
                ai_chance = 100
		command = { type = setflag which = European_Integration_Treaty }
                command = { type = name where = U02 which = "欧州連合" }
		#command = { type = event which = 23849 where = U02 when = 10 }
    }
	action_b = {
		name = "加盟国の主権は維持されなければならない"
                ai_chance = 0
		command = { }
    }
}

event = {
	id = 23803
	random = no
	country = ALB
	trigger = {
                 flag = European_Integration_Treaty
	            }

	name = "欧州統合条約"
	desc = "EVT_23803_DESC"
	style = 0
	date = { day = 29 month = 11 year = 1901 }
	offset = 1
	deathdate = { day = 29 month = 11 year = 3000 }

	action_a = {
		name = "欧州のより一層の統合を！"
                ai_chance = 100
		command = { type = setflag which = European_Integration_TreatyALB }
    }
	action_b = {
		name = "我が国の主権は犯させない！"
                ai_chance = 0
		command = { }
    }
}

event = {
	id = 23804
	random = no
	country = AUS
	trigger = {
                 flag = European_Integration_Treaty
	            }

	name = "欧州統合条約"
	desc = "EVT_23803_DESC"
	style = 0
	date = { day = 29 month = 11 year = 1901 }
	offset = 1
	deathdate = { day = 29 month = 11 year = 3000 }

	action_a = {
		name = "欧州のより一層の統合を！"
                ai_chance = 100
		command = { type = setflag which = European_Integration_TreatyAUS }
    }
	action_b = {
		name = "我が国の主権は犯させない！"
                ai_chance = 0
		command = { }
    }
}

event = {
	id = 23805
	random = no
	country = BEL
	trigger = {
                 flag = European_Integration_Treaty
	            }

	name = "欧州統合条約"
	desc = "EVT_23803_DESC"
	style = 0
	date = { day = 29 month = 11 year = 1901 }
	offset = 1
	deathdate = { day = 29 month = 11 year = 3000 }

	action_a = {
		name = "欧州のより一層の統合を！"
                ai_chance = 100
		command = { type = setflag which = European_Integration_TreatyBEL }
    }
	action_b = {
		name = "我が国の主権は犯させない！"
                ai_chance = 0
		command = { }
    }
}

event = {
	id = 23806
	random = no
	country = BUL
	trigger = {
                 flag = European_Integration_Treaty
	            }

	name = "欧州統合条約"
	desc = "EVT_23803_DESC"
	style = 0
	date = { day = 29 month = 11 year = 1901 }
	offset = 1
	deathdate = { day = 29 month = 11 year = 3000 }

	action_a = {
		name = "欧州のより一層の統合を！"
                ai_chance = 100
		command = { type = setflag which = European_Integration_TreatyBUL }
    }
	action_b = {
		name = "我が国の主権は犯させない！"
                ai_chance = 0
		command = { }
    }
}

event = {
	id = 23807
	random = no
	country = CZE
	trigger = {
                 flag = European_Integration_Treaty
	            }

	name = "欧州統合条約"
	desc = "EVT_23803_DESC"
	style = 0
	date = { day = 29 month = 11 year = 1901 }
	offset = 1
	deathdate = { day = 29 month = 11 year = 3000 }

	action_a = {
		name = "欧州のより一層の統合を！"
                ai_chance = 100
		command = { type = setflag which = European_Integration_TreatyCZE }
    }
	action_b = {
		name = "我が国の主権は犯させない！"
                ai_chance = 0
		command = { }
    }
}

event = {
	id = 23808
	random = no
	country = DDR
	trigger = {
                 flag = European_Integration_Treaty
	            }

	name = "欧州統合条約"
	desc = "EVT_23803_DESC"
	style = 0
	date = { day = 29 month = 11 year = 1901 }
	offset = 1
	deathdate = { day = 29 month = 11 year = 3000 }

	action_a = {
		name = "欧州のより一層の統合を！"
                ai_chance = 100
		command = { type = setflag which = European_Integration_TreatyDDR }
    }
	action_b = {
		name = "我が国の主権は犯させない！"
                ai_chance = 0
		command = { }
    }
}

event = {
	id = 23809
	random = no
	country = DFR
	trigger = {
                 flag = European_Integration_Treaty
	            }

	name = "欧州統合条約"
	desc = "EVT_23803_DESC"
	style = 0
	date = { day = 29 month = 11 year = 1901 }
	offset = 1
	deathdate = { day = 29 month = 11 year = 3000 }

	action_a = {
		name = "欧州のより一層の統合を！"
                ai_chance = 100
		command = { type = setflag which = European_Integration_TreatyDFR }
    }
	action_b = {
		name = "我が国の主権は犯させない！"
                ai_chance = 0
		command = { }
    }
}

event = {
	id = 23810
	random = no
	country = DEN
	trigger = {
                 flag = European_Integration_Treaty
	            }

	name = "欧州統合条約"
	desc = "EVT_23803_DESC"
	style = 0
	date = { day = 29 month = 11 year = 1901 }
	offset = 1
	deathdate = { day = 29 month = 11 year = 3000 }

	action_a = {
		name = "欧州のより一層の統合を！"
                ai_chance = 100
		command = { type = setflag which = European_Integration_TreatyDEN }
    }
	action_b = {
		name = "我が国の主権は犯させない！"
                ai_chance = 0
		command = { }
    }
}

event = {
	id = 23811
	random = no
	country = ENG
	trigger = {
                 flag = European_Integration_Treaty
	            }

	name = "欧州統合条約"
	desc = "EVT_23803_DESC"
	style = 0
	date = { day = 29 month = 11 year = 1901 }
	offset = 1
	deathdate = { day = 29 month = 11 year = 3000 }

	action_a = {
		name = "欧州のより一層の統合を！"
                ai_chance = 100
		command = { type = setflag which = European_Integration_TreatyENG }
    }
	action_b = {
		name = "我が国の主権は犯させない！"
                ai_chance = 0
		command = { }
    }
}

event = {
	id = 23812
	random = no
	country = FRA
	trigger = {
                 flag = European_Integration_Treaty
	            }

	name = "欧州統合条約"
	desc = "EVT_23803_DESC"
	style = 0
	date = { day = 29 month = 11 year = 1901 }
	offset = 1
	deathdate = { day = 29 month = 11 year = 3000 }

	action_a = {
		name = "欧州のより一層の統合を！"
                ai_chance = 100
		command = { type = setflag which = European_Integration_TreatyFRA }
    }
	action_b = {
		name = "我が国の主権は犯させない！"
                ai_chance = 0
		command = { }
    }
}

event = {
	id = 23813
	random = no
	country = GRE
	trigger = {
                 flag = European_Integration_Treaty
	            }

	name = "欧州統合条約"
	desc = "EVT_23803_DESC"
	style = 0
	date = { day = 29 month = 11 year = 1901 }
	offset = 1
	deathdate = { day = 29 month = 11 year = 3000 }

	action_a = {
		name = "欧州のより一層の統合を！"
                ai_chance = 100
		command = { type = setflag which = European_Integration_TreatyGRE }
    }
	action_b = {
		name = "我が国の主権は犯させない！"
                ai_chance = 0
		command = { }
    }
}

event = {
	id = 23814
	random = no
	country = HOL
	trigger = {
                 flag = European_Integration_Treaty
	            }

	name = "欧州統合条約"
	desc = "EVT_23803_DESC"
	style = 0
	date = { day = 29 month = 11 year = 1901 }
	offset = 1
	deathdate = { day = 29 month = 11 year = 3000 }

	action_a = {
		name = "欧州のより一層の統合を！"
                ai_chance = 100
		command = { type = setflag which = European_Integration_TreatyHOL }
    }
	action_b = {
		name = "我が国の主権は犯させない！"
                ai_chance = 0
		command = { }
    }
}

event = {
	id = 23815
	random = no
	country = HUN
	trigger = {
                 flag = European_Integration_Treaty
	            }

	name = "欧州統合条約"
	desc = "EVT_23803_DESC"
	style = 0
	date = { day = 29 month = 11 year = 1901 }
	offset = 1
	deathdate = { day = 29 month = 11 year = 3000 }

	action_a = {
		name = "欧州のより一層の統合を！"
                ai_chance = 100
		command = { type = setflag which = European_Integration_TreatyHUN }
    }
	action_b = {
		name = "我が国の主権は犯させない！"
                ai_chance = 0
		command = { }
    }
}

event = {
	id = 23816
	random = no
	country = IRE
	trigger = {
                 flag = European_Integration_Treaty
	            }

	name = "欧州統合条約"
	desc = "EVT_23803_DESC"
	style = 0
	date = { day = 29 month = 11 year = 1901 }
	offset = 1
	deathdate = { day = 29 month = 11 year = 3000 }

	action_a = {
		name = "欧州のより一層の統合を！"
                ai_chance = 100
		command = { type = setflag which = European_Integration_TreatyIRE }
    }
	action_b = {
		name = "我が国の主権は犯させない！"
                ai_chance = 0
		command = { }
    }
}

event = {
	id = 23817
	random = no
	country = ITA
	trigger = {
                 flag = European_Integration_Treaty
	            }

	name = "欧州統合条約"
	desc = "EVT_23803_DESC"
	style = 0
	date = { day = 29 month = 11 year = 1901 }
	offset = 1
	deathdate = { day = 29 month = 11 year = 3000 }

	action_a = {
		name = "欧州のより一層の統合を！"
                ai_chance = 100
		command = { type = setflag which = European_Integration_TreatyITA }
    }
	action_b = {
		name = "我が国の主権は犯させない！"
                ai_chance = 0
		command = { }
    }
}

event = {
	id = 23818
	random = no
	country = LUX
	trigger = {
                 flag = European_Integration_Treaty
	            }

	name = "欧州統合条約"
	desc = "EVT_23803_DESC"
	style = 0
	date = { day = 29 month = 11 year = 1901 }
	offset = 1
	deathdate = { day = 29 month = 11 year = 3000 }

	action_a = {
		name = "欧州のより一層の統合を！"
                ai_chance = 100
		command = { type = setflag which = European_Integration_TreatyLUX }
    }
	action_b = {
		name = "我が国の主権は犯させない！"
                ai_chance = 0
		command = { }
    }
}

event = {
	id = 23819
	random = no
	country = NOR
	trigger = {
                 flag = European_Integration_Treaty
	            }

	name = "欧州統合条約"
	desc = "EVT_23803_DESC"
	style = 0
	date = { day = 29 month = 11 year = 1901 }
	offset = 1
	deathdate = { day = 29 month = 11 year = 3000 }

	action_a = {
		name = "欧州のより一層の統合を！"
                ai_chance = 100
		command = { type = setflag which = European_Integration_TreatyNOR }
    }
	action_b = {
		name = "我が国の主権は犯させない！"
                ai_chance = 0
		command = { }
    }
}

event = {
	id = 23820
	random = no
	country = POR
	trigger = {
                 flag = European_Integration_Treaty
	            }

	name = "欧州統合条約"
	desc = "EVT_23803_DESC"
	style = 0
	date = { day = 29 month = 11 year = 1901 }
	offset = 1
	deathdate = { day = 29 month = 11 year = 3000 }

	action_a = {
		name = "欧州のより一層の統合を！"
                ai_chance = 100
		command = { type = setflag which = European_Integration_TreatyPOR }
    }
	action_b = {
		name = "我が国の主権は犯させない！"
                ai_chance = 0
		command = { }
    }
}

event = {
	id = 23821
	random = no
	country = ROM
	trigger = {
                 flag = European_Integration_Treaty
	            }

	name = "欧州統合条約"
	desc = "EVT_23803_DESC"
	style = 0
	date = { day = 29 month = 11 year = 1901 }
	offset = 1
	deathdate = { day = 29 month = 11 year = 3000 }

	action_a = {
		name = "欧州のより一層の統合を！"
                ai_chance = 100
		command = { type = setflag which = European_Integration_TreatyROM }
    }
	action_b = {
		name = "我が国の主権は犯させない！"
                ai_chance = 0
		command = { }
    }
}

event = {
	id = 23822
	random = no
	country = SCH
	trigger = {
                 flag = European_Integration_Treaty
	            }

	name = "欧州統合条約"
	desc = "EVT_23803_DESC"
	style = 0
	date = { day = 29 month = 11 year = 1901 }
	offset = 1
	deathdate = { day = 29 month = 11 year = 3000 }

	action_a = {
		name = "欧州のより一層の統合を！"
                ai_chance = 100
		command = { type = setflag which = European_Integration_TreatySCH }
    }
	action_b = {
		name = "我が国の主権は犯させない！"
                ai_chance = 0
		command = { }
    }
}

event = {
	id = 23823
	random = no
	country = SPA
	trigger = {
                 flag = European_Integration_Treaty
	            }

	name = "欧州統合条約"
	desc = "EVT_23803_DESC"
	style = 0
	date = { day = 29 month = 11 year = 1901 }
	offset = 1
	deathdate = { day = 29 month = 11 year = 3000 }

	action_a = {
		name = "欧州のより一層の統合を！"
                ai_chance = 100
		command = { type = setflag which = European_Integration_TreatySPA }
    }
	action_b = {
		name = "我が国の主権は犯させない！"
                ai_chance = 0
		command = { }
    }
}

event = {
	id = 23824
	random = no
	country = SWE
	trigger = {
                 flag = European_Integration_Treaty
	            }

	name = "欧州統合条約"
	desc = "EVT_23803_DESC"
	style = 0
	date = { day = 29 month = 11 year = 1901 }
	offset = 1
	deathdate = { day = 29 month = 11 year = 3000 }

	action_a = {
		name = "欧州のより一層の統合を！"
                ai_chance = 100
		command = { type = setflag which = European_Integration_TreatySWE }
    }
	action_b = {
		name = "我が国の主権は犯させない！"
                ai_chance = 0
		command = { }
    }
}

event = {
	id = 23825
	random = no
	country = YUG
	trigger = {
                 flag = European_Integration_Treaty
	            }

	name = "欧州統合条約"
	desc = "EVT_23803_DESC"
	style = 0
	date = { day = 29 month = 11 year = 1901 }
	offset = 1
	deathdate = { day = 29 month = 11 year = 3000 }

	action_a = {
		name = "欧州のより一層の統合を！"
                ai_chance = 100
		command = { type = setflag which = European_Integration_TreatyYUG }
    }
	action_b = {
		name = "我が国の主権は犯させない！"
                ai_chance = 0
		command = { }
    }
}

event = {
	id = 23826
	random = no
	country = U02
	trigger = {
                 flag = European_Integration_TreatyALB
	            }

	name = "欧州統合条約"
	desc = "EVT_23826_DESC"
	style = 0
	date = { day = 29 month = 11 year = 1901 }
	offset = 1
	deathdate = { day = 29 month = 11 year = 3000 }

	action_a = {
		name = "欧州のより一層の統合を！"
		command = { type = inherit which = ALB }
    }
}

event = {
	id = 23827
	random = no
	country = U02
	trigger = {
                 flag = European_Integration_TreatyAUS
	            }

	name = "欧州統合条約"
	desc = "EVT_23826_DESC"
	style = 0
	date = { day = 29 month = 11 year = 1901 }
	offset = 1
	deathdate = { day = 29 month = 11 year = 3000 }

	action_a = {
		name = "欧州のより一層の統合を！"
		command = { type = inherit which = AUS }
    }
}

event = {
	id = 23828
	random = no
	country = U02
	trigger = {
                 flag = European_Integration_TreatyBEL
	            }

	name = "欧州統合条約"
	desc = "EVT_23826_DESC"
	style = 0
	date = { day = 29 month = 11 year = 1901 }
	offset = 1
	deathdate = { day = 29 month = 11 year = 3000 }

	action_a = {
		name = "欧州のより一層の統合を！"
		command = { type = inherit which = BEL }
    }
}

event = {
	id = 23829
	random = no
	country = U02
	trigger = {
                 flag = European_Integration_TreatyBUL
	            }

	name = "欧州統合条約"
	desc = "EVT_23826_DESC"
	style = 0
	date = { day = 29 month = 11 year = 1901 }
	offset = 1
	deathdate = { day = 29 month = 11 year = 3000 }

	action_a = {
		name = "欧州のより一層の統合を！"
		command = { type = inherit which = BUL }
    }
}

event = {
	id = 23830
	random = no
	country = U02
	trigger = {
                 flag = European_Integration_TreatyCZE
	            }

	name = "欧州統合条約"
	desc = "EVT_23826_DESC"
	style = 0
	date = { day = 29 month = 11 year = 1901 }
	offset = 1
	deathdate = { day = 29 month = 11 year = 3000 }

	action_a = {
		name = "欧州のより一層の統合を！"
		command = { type = inherit which = CZE }
    }
}

event = {
	id = 23831
	random = no
	country = U02
	trigger = {
                 flag = European_Integration_TreatyDDR
	            }

	name = "欧州統合条約"
	desc = "EVT_23826_DESC"
	style = 0
	date = { day = 29 month = 11 year = 1901 }
	offset = 1
	deathdate = { day = 29 month = 11 year = 3000 }

	action_a = {
		name = "欧州のより一層の統合を！"
		command = { type = inherit which = DDR }
    }
}

event = {
	id = 23832
	random = no
	country = U02
	trigger = {
                 flag = European_Integration_TreatyDFR
	            }

	name = "欧州統合条約"
	desc = "EVT_23826_DESC"
	style = 0
	date = { day = 29 month = 11 year = 1901 }
	offset = 1
	deathdate = { day = 29 month = 11 year = 3000 }

	action_a = {
		name = "欧州のより一層の統合を！"
		command = { type = inherit which = DFR }
    }
}

event = {
	id = 23833
	random = no
	country = U02
	trigger = {
                 flag = European_Integration_TreatyDEN
	            }

	name = "欧州統合条約"
	desc = "EVT_23826_DESC"
	style = 0
	date = { day = 29 month = 11 year = 1901 }
	offset = 1
	deathdate = { day = 29 month = 11 year = 3000 }

	action_a = {
		name = "欧州のより一層の統合を！"
		command = { type = inherit which = DEN }
    }
}

event = {
	id = 23834
	random = no
	country = U02
	trigger = {
                 flag = European_Integration_TreatyENG
	            }

	name = "欧州統合条約"
	desc = "EVT_23826_DESC"
	style = 0
	date = { day = 29 month = 11 year = 1901 }
	offset = 1
	deathdate = { day = 29 month = 11 year = 3000 }

	action_a = {
		name = "欧州のより一層の統合を！"
		command = { type = inherit which = ENG }
    }
}

event = {
	id = 23835
	random = no
	country = U02
	trigger = {
                 flag = European_Integration_TreatyFRA
	            }

	name = "欧州統合条約"
	desc = "EVT_23826_DESC"
	style = 0
	date = { day = 29 month = 11 year = 1901 }
	offset = 1
	deathdate = { day = 29 month = 11 year = 3000 }

	action_a = {
		name = "欧州のより一層の統合を！"
		command = { type = inherit which = FRA }
    }
}

event = {
	id = 23836
	random = no
	country = U02
	trigger = {
                 flag = European_Integration_TreatyGRE
	            }

	name = "欧州統合条約"
	desc = "EVT_23826_DESC"
	style = 0
	date = { day = 29 month = 11 year = 1901 }
	offset = 1
	deathdate = { day = 29 month = 11 year = 3000 }

	action_a = {
		name = "欧州のより一層の統合を！"
		command = { type = inherit which = GRE }
    }
}

event = {
	id = 23837
	random = no
	country = U02
	trigger = {
                 flag = European_Integration_TreatyHOL
	            }

	name = "欧州統合条約"
	desc = "EVT_23826_DESC"
	style = 0
	date = { day = 29 month = 11 year = 1901 }
	offset = 1
	deathdate = { day = 29 month = 11 year = 3000 }

	action_a = {
		name = "欧州のより一層の統合を！"
		command = { type = inherit which = HOL }
    }
}

event = {
	id = 23838
	random = no
	country = U02
	trigger = {
                 flag = European_Integration_TreatyHUN
	            }

	name = "欧州統合条約"
	desc = "EVT_23826_DESC"
	style = 0
	date = { day = 29 month = 11 year = 1901 }
	offset = 1
	deathdate = { day = 29 month = 11 year = 3000 }

	action_a = {
		name = "欧州のより一層の統合を！"
		command = { type = inherit which = HUN }
    }
}

event = {
	id = 23839
	random = no
	country = U02
	trigger = {
                 flag = European_Integration_TreatyIRE
	            }

	name = "欧州統合条約"
	desc = "EVT_23826_DESC"
	style = 0
	date = { day = 29 month = 11 year = 1901 }
	offset = 1
	deathdate = { day = 29 month = 11 year = 3000 }

	action_a = {
		name = "欧州のより一層の統合を！"
		command = { type = inherit which = IRE }
    }
}

event = {
	id = 23840
	random = no
	country = U02
	trigger = {
                 flag = European_Integration_TreatyITA
	            }

	name = "欧州統合条約"
	desc = "EVT_23826_DESC"
	style = 0
	date = { day = 29 month = 11 year = 1901 }
	offset = 1
	deathdate = { day = 29 month = 11 year = 3000 }

	action_a = {
		name = "欧州のより一層の統合を！"
		command = { type = inherit which = ITA }
    }
}

event = {
	id = 23841
	random = no
	country = U02
	trigger = {
                 flag = European_Integration_TreatyLUX
	            }

	name = "欧州統合条約"
	desc = "EVT_23826_DESC"
	style = 0
	date = { day = 29 month = 11 year = 1901 }
	offset = 1
	deathdate = { day = 29 month = 11 year = 3000 }

	action_a = {
		name = "欧州のより一層の統合を！"
		command = { type = inherit which = LUX }
    }
}

event = {
	id = 23842
	random = no
	country = U02
	trigger = {
                 flag = European_Integration_TreatyNOR
	            }

	name = "欧州統合条約"
	desc = "EVT_23826_DESC"
	style = 0
	date = { day = 29 month = 11 year = 1901 }
	offset = 1
	deathdate = { day = 29 month = 11 year = 3000 }

	action_a = {
		name = "欧州のより一層の統合を！"
		command = { type = inherit which = NOR }
    }
}

event = {
	id = 23843
	random = no
	country = U02
	trigger = {
                 flag = European_Integration_TreatyPOR
	            }

	name = "欧州統合条約"
	desc = "EVT_23826_DESC"
	style = 0
	date = { day = 29 month = 11 year = 1901 }
	offset = 1
	deathdate = { day = 29 month = 11 year = 3000 }

	action_a = {
		name = "欧州のより一層の統合を！"
		command = { type = inherit which = POR }
    }
}

event = {
	id = 23844
	random = no
	country = U02
	trigger = {
                 flag = European_Integration_TreatyROM
	            }

	name = "欧州統合条約"
	desc = "EVT_23826_DESC"
	style = 0
	date = { day = 29 month = 11 year = 1901 }
	offset = 1
	deathdate = { day = 29 month = 11 year = 3000 }

	action_a = {
		name = "欧州のより一層の統合を！"
		command = { type = inherit which = ROM }
    }
}

event = {
	id = 23845
	random = no
	country = U02
	trigger = {
                 flag = European_Integration_TreatySCH
	            }

	name = "欧州統合条約"
	desc = "EVT_23826_DESC"
	style = 0
	date = { day = 29 month = 11 year = 1901 }
	offset = 1
	deathdate = { day = 29 month = 11 year = 3000 }

	action_a = {
		name = "欧州のより一層の統合を！"
		command = { type = inherit which = SCH }
    }
}

event = {
	id = 23846
	random = no
	country = U02
	trigger = {
                 flag = European_Integration_TreatySPA
	            }

	name = "欧州統合条約"
	desc = "EVT_23826_DESC"
	style = 0
	date = { day = 29 month = 11 year = 1901 }
	offset = 1
	deathdate = { day = 29 month = 11 year = 3000 }

	action_a = {
		name = "欧州のより一層の統合を！"
		command = { type = inherit which = SPA }
    }
}

event = {
	id = 23847
	random = no
	country = U02
	trigger = {
                 flag = European_Integration_TreatySWE
	            }

	name = "欧州統合条約"
	desc = "EVT_23826_DESC"
	style = 0
	date = { day = 29 month = 11 year = 1901 }
	offset = 1
	deathdate = { day = 29 month = 11 year = 3000 }

	action_a = {
		name = "欧州のより一層の統合を！"
		command = { type = inherit which = SWE }
    }
}

event = {
	id = 23848
	random = no
	country = U02
	trigger = {
                 flag = European_Integration_TreatyYUG
	            }

	name = "欧州統合条約"
	desc = "EVT_23826_DESC"
	style = 0
	date = { day = 29 month = 11 year = 1901 }
	offset = 1
	deathdate = { day = 29 month = 11 year = 3000 }

	action_a = {
		name = "欧州のより一層の統合を！"
		command = { type = inherit which = YUG }
    }
}

event = {
	id = 23849
	random = no
	country = U02
	trigger = {
                  event = 23802
                  event = 23834
                  control = { province = 28 data = U02 }
	            }

	name = "欧州連合本部移転"
	desc = "EVT_23849_DESC"
	style = 0
	date = { day = 29 month = 11 year = 1901 }
	offset = 1
	deathdate = { day = 29 month = 11 year = 3000 }

	action_a = {
		name = "ロンドン"
                ai_chance = 0
		command = { type = capital which = 19 trigger = { control = { province = 19 data = U02 } } }
    }
	action_b = {
		name = "ベルファスト"
                ai_chance = 100
		command = { type = capital which = 28 trigger = { control = { province = 28 data = U02 } } }
    }
	action_c = {
		name = "チュニス"
                ai_chance = 0
		command = { type = capital which = 939 trigger = { control = { province = 939 data = U02 } } }
    }
	action_d = {
		name = "タンジェ"
                ai_chance = 0
		command = { type = capital which = 2331 trigger = { control = { province = 2331 data = U02 } } }
    }
}